Creature,VEHICLE,,,,,,,,,,,,,
Index,200,,,,,,,,,,,,,
Skeleton,vehicle\Bellum.skel,,,,,,,,,,,,,
,,,,,,,,,,,,,,
Style,Action,Index,Animation,Start_Inter,End_Inter,TimeLength,Swing,Strike,Timing,Split,Timing2,Freeze,Effect,CancelTime
0,STAND,0,vehicle\Bellum\Bellum_stand.anim,5,1,3,0,0,0,0,0,0,0,0
0,STAND,1,vehicle\Bellum\Bellum_stand.anim,5,1,3,0,0,0,0,0,0,0,0
0,STAND,2,vehicle\Bellum\Bellum_stand.anim,5,1,3,0,0,0,0,0,0,0,0
0,STAND,3,vehicle\Bellum\Bellum_stand.anim,5,1,3,0,0,0,0,0,0,0,0
0,MOVE,0,vehicle\Bellum\Bellum_walk.anim,5,1,1.3,0,0,0,0,0,0,0,0
0,MOVE,1,vehicle\Bellum\Bellum_crun.anim,5,1,1,0,0,0,0,0,0,0,0
0,DEFEAT,0,vehicle\Bellum\Bellum_p3.anim,4,1,0.5,0,0,0,0,0,0,0,0
1,STAND,0,vehicle\Bellum\Bellum_stand.anim,5,1,3,0,0,0,0,0,0,0,0
1,STAND,1,vehicle\Bellum\Bellum_stand.anim,5,1,3,0,0,0,0,0,0,0,0
1,MOVE,0,vehicle\Bellum\Bellum_walk.anim,5,1,1.3,0,0,0,0,0,0,0,0
1,MOVE,1,vehicle\Bellum\Bellum_crun.anim,5,1,1,0,0,0,0,0,0,0,0
1,BLOCKING,0,vehicle\Bellum\Bellum_p3.anim,4,1,0.5,0,0,0,0,0,0,0,0
1,BLOCKED,0,vehicle\Bellum\Bellum_p3.anim,4,1,0.5,0,0,0,0,0,0,0,0
1,BLOCKED,1,vehicle\Bellum\Bellum_p3.anim,4,1,0.5,0,0,0,0,0,0,0,0
1,DEFEAT,0,vehicle\Bellum\Bellum_p3.anim,4,1,0.5,0,0,0,0,0,0,0,0
1,DEFEAT,1,vehicle\Bellum\Bellum_p3.anim,4,1,0.5,0,0,0,0,0,0,0,0
1,DEFEAT,2,vehicle\Bellum\Bellum_p3.anim,4,1,0.5,0,0,0,0,0,0,0,0
1,DEFEAT,3,vehicle\Bellum\Bellum_p3.anim,4,1,0.5,0,0,0,0,0,0,0,0
1,GUARDING,0,vehicle\Bellum\Bellum_p3.anim,4,1,0.5,0,0,0,0,0,0,0,0
1,GUARDING,1,vehicle\Bellum\Bellum_p3.anim,4,1,0.5,0,0,0,0,0,0,0,0
1,GUARDING,2,vehicle\Bellum\Bellum_p3.anim,4,1,0.5,0,0,0,0,0,0,0,0
2,STAND,0,vehicle\Bellum\Bellum_stand.anim,5,1,3,0,0,0,0,0,0,0,0
2,STAND,1,vehicle\Bellum\Bellum_stand.anim,5,1,3,0,0,0,0,0,0,0,0
2,MOVE,0,vehicle\Bellum\Bellum_walk.anim,5,1,1.3,0,0,0,0,0,0,0,0
2,MOVE,1,vehicle\Bellum\Bellum_crun.anim,5,1,1,0,0,0,0,0,0,0,0
2,BLOCKING,0,vehicle\Bellum\Bellum_p3.anim,4,1,0.5,0,0,0,0,0,0,0,0
2,BLOCKED,0,vehicle\Bellum\Bellum_p3.anim,4,1,0.5,0,0,0,0,0,0,0,0
2,BLOCKED,1,vehicle\Bellum\Bellum_p3.anim,4,1,0.5,0,0,0,0,0,0,0,0
2,BLOCKED,2,vehicle\Bellum\Bellum_p3.anim,4,1,0.5,0,0,0,0,0,0,0,0
2,BLOCKED,3,vehicle\Bellum\Bellum_p3.anim,4,1,0.5,0,0,0,0,0,0,0,0
2,BLOCKED,4,vehicle\Bellum\Bellum_p3.anim,4,1,0.5,0,0,0,0,0,0,0,0
2,BLOCKED,5,vehicle\Bellum\Bellum_p3.anim,4,1,0.5,0,0,0,0,0,0,0,0
2,BLOCKED,6,vehicle\Bellum\Bellum_p3.anim,4,1,0.5,0,0,0,0,0,0,0,0
2,BLOCKED,7,vehicle\Bellum\Bellum_p3.anim,4,1,0.5,0,0,0,0,0,0,0,0
2,DEFEAT,0,vehicle\Bellum\Bellum_p3.anim,4,1,0.5,0,0,0,0,0,0,0,0
2,DEFEAT,1,vehicle\Bellum\Bellum_p3.anim,4,1,0.5,0,0,0,0,0,0,0,0
2,DEFEAT,2,vehicle\Bellum\Bellum_p3.anim,4,1,0.5,0,0,0,0,0,0,0,0
2,DEFEAT,3,vehicle\Bellum\Bellum_p3.anim,4,1,0.5,0,0,0,0,0,0,0,0
2,GUARDING,0,vehicle\Bellum\Bellum_p3.anim,4,1,0.5,0,0,0,0,0,0,0,0
2,GUARDING,1,vehicle\Bellum\Bellum_p3.anim,4,1,0.5,0,0,0,0,0,0,0,0
2,GUARDING,2,vehicle\Bellum\Bellum_p3.anim,4,1,0.5,0,0,0,0,0,0,0,0
3,STAND,0,vehicle\Bellum\Bellum_stand.anim,5,1,3,0,0,0,0,0,0,0,0
3,STAND,1,vehicle\Bellum\Bellum_stand.anim,5,1,3,0,0,0,0,0,0,0,0
3,MOVE,0,vehicle\Bellum\Bellum_walk.anim,5,1,1.3,0,0,0,0,0,0,0,0
3,MOVE,1,vehicle\Bellum\Bellum_crun.anim,5,1,1,0,0,0,0,0,0,0,0
3,BLOCKING,0,vehicle\Bellum\Bellum_p3.anim,4,1,0.5,0,0,0,0,0,0,0,0
3,BLOCKED,0,vehicle\Bellum\Bellum_p3.anim,4,1,0.5,0,0,0,0,0,0,0,0
3,BLOCKED,1,vehicle\Bellum\Bellum_p3.anim,4,1,0.5,0,0,0,0,0,0,0,0
3,BLOCKED,2,vehicle\Bellum\Bellum_p3.anim,4,1,0.5,0,0,0,0,0,0,0,0
3,BLOCKED,3,vehicle\Bellum\Bellum_p3.anim,4,1,0.5,0,0,0,0,0,0,0,0
3,BLOCKED,4,vehicle\Bellum\Bellum_p3.anim,4,1,0.5,0,0,0,0,0,0,0,0
3,BLOCKED,5,vehicle\Bellum\Bellum_p3.anim,4,1,0.5,0,0,0,0,0,0,0,0
3,BLOCKED,6,vehicle\Bellum\Bellum_p3.anim,4,1,0.5,0,0,0,0,0,0,0,0
3,BLOCKED,7,vehicle\Bellum\Bellum_p3.anim,4,1,0.5,0,0,0,0,0,0,0,0
3,DEFEAT,0,vehicle\Bellum\Bellum_p3.anim,4,1,0.5,0,0,0,0,0,0,0,0
3,DEFEAT,1,vehicle\Bellum\Bellum_p3.anim,4,1,0.5,0,0,0,0,0,0,0,0
3,DEFEAT,2,vehicle\Bellum\Bellum_p3.anim,4,1,0.5,0,0,0,0,0,0,0,0
3,DEFEAT,3,vehicle\Bellum\Bellum_p3.anim,4,1,0.5,0,0,0,0,0,0,0,0
3,GUARDING,0,vehicle\Bellum\Bellum_p3.anim,4,1,0.5,0,0,0,0,0,0,0,0
3,GUARDING,1,vehicle\Bellum\Bellum_p3.anim,4,1,0.5,0,0,0,0,0,0,0,0
3,GUARDING,2,vehicle\Bellum\Bellum_p3.anim,4,1,0.5,0,0,0,0,0,0,0,0
4,STAND,0,vehicle\Bellum\Bellum_stand.anim,5,1,3,0,0,0,0,0,0,0,0
4,STAND,1,vehicle\Bellum\Bellum_stand.anim,5,1,3,0,0,0,0,0,0,0,0
4,MOVE,0,vehicle\Bellum\Bellum_walk.anim,5,1,1.3,0,0,0,0,0,0,0,0
4,MOVE,1,vehicle\Bellum\Bellum_crun.anim,5,1,1,0,0,0,0,0,0,0,0
4,BLOCKING,0,vehicle\Bellum\Bellum_p3.anim,4,1,0.5,0,0,0,0,0,0,0,0
4,BLOCKED,0,vehicle\Bellum\Bellum_p3.anim,4,1,0.5,0,0,0,0,0,0,0,0
4,BLOCKED,1,vehicle\Bellum\Bellum_p3.anim,4,1,0.5,0,0,0,0,0,0,0,0
4,BLOCKED,2,vehicle\Bellum\Bellum_p3.anim,4,1,0.5,0,0,0,0,0,0,0,0
4,BLOCKED,3,vehicle\Bellum\Bellum_p3.anim,4,1,0.5,0,0,0,0,0,0,0,0
4,BLOCKED,4,vehicle\Bellum\Bellum_p3.anim,4,1,0.5,0,0,0,0,0,0,0,0
4,BLOCKED,5,vehicle\Bellum\Bellum_p3.anim,4,1,0.5,0,0,0,0,0,0,0,0
4,BLOCKED,6,vehicle\Bellum\Bellum_p3.anim,4,1,0.5,0,0,0,0,0,0,0,0
4,BLOCKED,7,vehicle\Bellum\Bellum_p3.anim,4,1,0.5,0,0,0,0,0,0,0,0
4,DEFEAT,0,vehicle\Bellum\Bellum_p3.anim,4,1,0.5,0,0,0,0,0,0,0,0
4,DEFEAT,1,vehicle\Bellum\Bellum_p3.anim,4,1,0.5,0,0,0,0,0,0,0,0
4,DEFEAT,2,vehicle\Bellum\Bellum_p3.anim,4,1,0.5,0,0,0,0,0,0,0,0
4,DEFEAT,3,vehicle\Bellum\Bellum_p3.anim,4,1,0.5,0,0,0,0,0,0,0,0
4,GUARDING,0,vehicle\Bellum\Bellum_p3.anim,4,1,0.5,0,0,0,0,0,0,0,0
4,GUARDING,1,vehicle\Bellum\Bellum_p3.anim,4,1,0.5,0,0,0,0,0,0,0,0
4,GUARDING,2,vehicle\Bellum\Bellum_p3.anim,4,1,0.5,0,0,0,0,0,0,0,0
5,STAND,0,vehicle\Bellum\Bellum_stand.anim,5,1,3,0,0,0,0,0,0,0,0
5,STAND,1,vehicle\Bellum\Bellum_stand.anim,5,1,3,0,0,0,0,0,0,0,0
5,MOVE,0,vehicle\Bellum\Bellum_walk.anim,5,1,1.3,0,0,0,0,0,0,0,0
5,MOVE,1,vehicle\Bellum\Bellum_crun.anim,5,1,1,0,0,0,0,0,0,0,0
5,BLOCKING,0,vehicle\Bellum\Bellum_p3.anim,4,1,0.5,0,0,0,0,0,0,0,0
5,BLOCKED,0,vehicle\Bellum\Bellum_p3.anim,4,1,0.5,0,0,0,0,0,0,0,0
5,BLOCKED,1,vehicle\Bellum\Bellum_p3.anim,4,1,0.5,0,0,0,0,0,0,0,0
5,BLOCKED,2,vehicle\Bellum\Bellum_p3.anim,4,1,0.5,0,0,0,0,0,0,0,0
5,BLOCKED,3,vehicle\Bellum\Bellum_p3.anim,4,1,0.5,0,0,0,0,0,0,0,0
5,BLOCKED,4,vehicle\Bellum\Bellum_p3.anim,4,1,0.5,0,0,0,0,0,0,0,0
5,BLOCKED,5,vehicle\Bellum\Bellum_p3.anim,4,1,0.5,0,0,0,0,0,0,0,0
5,BLOCKED,6,vehicle\Bellum\Bellum_p3.anim,4,1,0.5,0,0,0,0,0,0,0,0
5,BLOCKED,7,vehicle\Bellum\Bellum_p3.anim,4,1,0.5,0,0,0,0,0,0,0,0
5,DEFEAT,0,vehicle\Bellum\Bellum_p3.anim,4,1,0.5,0,0,0,0,0,0,0,0
5,DEFEAT,1,vehicle\Bellum\Bellum_p3.anim,4,1,0.5,0,0,0,0,0,0,0,0
5,DEFEAT,2,vehicle\Bellum\Bellum_p3.anim,4,1,0.5,0,0,0,0,0,0,0,0
5,DEFEAT,3,vehicle\Bellum\Bellum_p3.anim,4,1,0.5,0,0,0,0,0,0,0,0
5,GUARDING,0,vehicle\Bellum\Bellum_p3.anim,4,1,0.5,0,0,0,0,0,0,0,0
5,GUARDING,1,vehicle\Bellum\Bellum_p3.anim,4,1,0.5,0,0,0,0,0,0,0,0
5,GUARDING,2,vehicle\Bellum\Bellum_p3.anim,4,1,0.5,0,0,0,0,0,0,0,0
6,STAND,0,vehicle\Bellum\Bellum_stand.anim,5,1,3,0,0,0,0,0,0,0,0
6,STAND,1,vehicle\Bellum\Bellum_stand.anim,5,1,3,0,0,0,0,0,0,0,0
6,MOVE,0,vehicle\Bellum\Bellum_walk.anim,5,1,1.3,0,0,0,0,0,0,0,0
6,MOVE,1,vehicle\Bellum\Bellum_crun.anim,5,1,1,0,0,0,0,0,0,0,0
6,BLOCKING,0,vehicle\Bellum\Bellum_p3.anim,4,1,0.5,0,0,0,0,0,0,0,0
6,BLOCKED,0,vehicle\Bellum\Bellum_p3.anim,4,1,0.5,0,0,0,0,0,0,0,0
6,BLOCKED,1,vehicle\Bellum\Bellum_p3.anim,4,1,0.5,0,0,0,0,0,0,0,0
6,BLOCKED,2,vehicle\Bellum\Bellum_p3.anim,4,1,0.5,0,0,0,0,0,0,0,0
6,BLOCKED,3,vehicle\Bellum\Bellum_p3.anim,4,1,0.5,0,0,0,0,0,0,0,0
6,BLOCKED,4,vehicle\Bellum\Bellum_p3.anim,4,1,0.5,0,0,0,0,0,0,0,0
6,BLOCKED,5,vehicle\Bellum\Bellum_p3.anim,4,1,0.5,0,0,0,0,0,0,0,0
6,BLOCKED,6,vehicle\Bellum\Bellum_p3.anim,4,1,0.5,0,0,0,0,0,0,0,0
6,BLOCKED,7,vehicle\Bellum\Bellum_p3.anim,4,1,0.5,0,0,0,0,0,0,0,0
6,DEFEAT,0,vehicle\Bellum\Bellum_p3.anim,4,1,0.5,0,0,0,0,0,0,0,0
6,DEFEAT,1,vehicle\Bellum\Bellum_p3.anim,4,1,0.5,0,0,0,0,0,0,0,0
6,DEFEAT,2,vehicle\Bellum\Bellum_p3.anim,4,1,0.5,0,0,0,0,0,0,0,0
6,DEFEAT,3,vehicle\Bellum\Bellum_p3.anim,4,1,0.5,0,0,0,0,0,0,0,0
6,GUARDING,0,vehicle\Bellum\Bellum_p3.anim,4,1,0.5,0,0,0,0,0,0,0,0
6,GUARDING,1,vehicle\Bellum\Bellum_p3.anim,4,1,0.5,0,0,0,0,0,0,0,0
6,GUARDING,2,vehicle\Bellum\Bellum_p3.anim,4,1,0.5,0,0,0,0,0,0,0,0
7,STAND,0,vehicle\Bellum\Bellum_stand.anim,5,1,3,0,0,0,0,0,0,0,0
7,STAND,1,vehicle\Bellum\Bellum_stand.anim,5,1,3,0,0,0,0,0,0,0,0
7,MOVE,0,vehicle\Bellum\Bellum_walk.anim,5,1,1.3,0,0,0,0,0,0,0,0
7,MOVE,1,vehicle\Bellum\Bellum_crun.anim,5,1,1,0,0,0,0,0,0,0,0
7,BLOCKING,0,vehicle\Bellum\Bellum_p3.anim,4,1,0.5,0,0,0,0,0,0,0,0
7,DEFEAT,0,vehicle\Bellum\Bellum_p3.anim,4,1,0.5,0,0,0,0,0,0,0,0
7,DEFEAT,1,vehicle\Bellum\Bellum_p3.anim,4,1,0.5,0,0,0,0,0,0,0,0
7,DEFEAT,2,vehicle\Bellum\Bellum_p3.anim,4,1,0.5,0,0,0,0,0,0,0,0
7,DEFEAT,3,vehicle\Bellum\Bellum_p3.anim,4,1,0.5,0,0,0,0,0,0,0,0
7,GUARDING,0,vehicle\Bellum\Bellum_p3.anim,4,1,0.5,0,0,0,0,0,0,0,0
7,GUARDING,1,vehicle\Bellum\Bellum_p3.anim,4,1,0.5,0,0,0,0,0,0,0,0
7,GUARDING,2,vehicle\Bellum\Bellum_p3.anim,4,1,0.5,0,0,0,0,0,0,0,0
8,STAND,0,vehicle\Bellum\Bellum_stand.anim,5,1,3,0,0,0,0,0,0,0,0
8,STAND,1,vehicle\Bellum\Bellum_stand.anim,5,1,3,0,0,0,0,0,0,0,0
8,MOVE,0,vehicle\Bellum\Bellum_walk.anim,5,1,1.3,0,0,0,0,0,0,0,0
8,MOVE,1,vehicle\Bellum\Bellum_crun.anim,5,1,1,0,0,0,0,0,0,0,0
8,BLOCKING,0,vehicle\Bellum\Bellum_p3.anim,4,1,0.5,0,0,0,0,0,0,0,0
8,DEFEAT,0,vehicle\Bellum\Bellum_p3.anim,4,1,0.5,0,0,0,0,0,0,0,0
8,DEFEAT,1,vehicle\Bellum\Bellum_p3.anim,4,1,0.5,0,0,0,0,0,0,0,0
8,DEFEAT,2,vehicle\Bellum\Bellum_p3.anim,4,1,0.5,0,0,0,0,0,0,0,0
8,DEFEAT,3,vehicle\Bellum\Bellum_p3.anim,4,1,0.5,0,0,0,0,0,0,0,0
8,GUARDING,0,vehicle\Bellum\Bellum_p3.anim,4,1,0.5,0,0,0,0,0,0,0,0
8,GUARDING,1,vehicle\Bellum\Bellum_p3.anim,4,1,0.5,0,0,0,0,0,0,0,0
8,GUARDING,2,vehicle\Bellum\Bellum_p3.anim,4,1,0.5,0,0,0,0,0,0,0,0
9,STAND,0,vehicle\Bellum\Bellum_stand.anim,5,1,3,0,0,0,0,0,0,0,0
9,STAND,1,vehicle\Bellum\Bellum_stand.anim,5,1,3,0,0,0,0,0,0,0,0
9,MOVE,0,vehicle\Bellum\Bellum_walk.anim,5,1,1.3,0,0,0,0,0,0,0,0
9,MOVE,1,vehicle\Bellum\Bellum_crun.anim,5,1,1,0,0,0,0,0,0,0,0
9,BLOCKING,0,vehicle\Bellum\Bellum_p3.anim,4,1,0.5,0,0,0,0,0,0,0,0
9,BLOCKED,0,vehicle\Bellum\Bellum_p3.anim,4,1,0.5,0,0,0,0,0,0,0,0
9,BLOCKED,1,vehicle\Bellum\Bellum_p3.anim,4,1,0.5,0,0,0,0,0,0,0,0
9,BLOCKED,2,vehicle\Bellum\Bellum_p3.anim,4,1,0.5,0,0,0,0,0,0,0,0
9,BLOCKED,3,vehicle\Bellum\Bellum_p3.anim,4,1,0.5,0,0,0,0,0,0,0,0
9,BLOCKED,4,vehicle\Bellum\Bellum_p3.anim,4,1,0.5,0,0,0,0,0,0,0,0
9,BLOCKED,5,vehicle\Bellum\Bellum_p3.anim,4,1,0.5,0,0,0,0,0,0,0,0
9,BLOCKED,6,vehicle\Bellum\Bellum_p3.anim,4,1,0.5,0,0,0,0,0,0,0,0
9,BLOCKED,7,vehicle\Bellum\Bellum_p3.anim,4,1,0.5,0,0,0,0,0,0,0,0
9,DEFEAT,0,vehicle\Bellum\Bellum_p3.anim,4,1,0.5,0,0,0,0,0,0,0,0
9,DEFEAT,1,vehicle\Bellum\Bellum_p3.anim,4,1,0.5,0,0,0,0,0,0,0,0
9,DEFEAT,2,vehicle\Bellum\Bellum_p3.anim,4,1,0.5,0,0,0,0,0,0,0,0
9,DEFEAT,3,vehicle\Bellum\Bellum_p3.anim,4,1,0.5,0,0,0,0,0,0,0,0
9,GUARDING,0,vehicle\Bellum\Bellum_p3.anim,4,1,0.5,0,0,0,0,0,0,0,0
9,GUARDING,1,vehicle\Bellum\Bellum_p3.anim,4,1,0.5,0,0,0,0,0,0,0,0
9,GUARDING,2,vehicle\Bellum\Bellum_p3.anim,4,1,0.5,0,0,0,0,0,0,0,0
10,STAND,0,vehicle\Bellum\Bellum_stand.anim,5,1,3,0,0,0,0,0,0,0,0
10,STAND,1,vehicle\Bellum\Bellum_stand.anim,5,1,3,0,0,0,0,0,0,0,0
10,MOVE,0,vehicle\Bellum\Bellum_walk.anim,5,1,1.3,0,0,0,0,0,0,0,0
10,MOVE,1,vehicle\Bellum\Bellum_crun.anim,5,1,1,0,0,0,0,0,0,0,0
10,BLOCKING,0,vehicle\Bellum\Bellum_p3.anim,4,1,0.5,0,0,0,0,0,0,0,0
10,BLOCKED,0,vehicle\Bellum\Bellum_p3.anim,4,1,0.5,0,0,0,0,0,0,0,0
10,BLOCKED,1,vehicle\Bellum\Bellum_p3.anim,4,1,0.5,0,0,0,0,0,0,0,0
10,BLOCKED,2,vehicle\Bellum\Bellum_p3.anim,4,1,0.5,0,0,0,0,0,0,0,0
10,BLOCKED,3,vehicle\Bellum\Bellum_p3.anim,4,1,0.5,0,0,0,0,0,0,0,0
10,BLOCKED,4,vehicle\Bellum\Bellum_p3.anim,4,1,0.5,0,0,0,0,0,0,0,0
10,BLOCKED,5,vehicle\Bellum\Bellum_p3.anim,4,1,0.5,0,0,0,0,0,0,0,0
10,BLOCKED,6,vehicle\Bellum\Bellum_p3.anim,4,1,0.5,0,0,0,0,0,0,0,0
10,BLOCKED,7,vehicle\Bellum\Bellum_p3.anim,4,1,0.5,0,0,0,0,0,0,0,0
10,DEFEAT,0,vehicle\Bellum\Bellum_p3.anim,4,1,0.5,0,0,0,0,0,0,0,0
10,DEFEAT,1,vehicle\Bellum\Bellum_p3.anim,4,1,0.5,0,0,0,0,0,0,0,0
10,DEFEAT,2,vehicle\Bellum\Bellum_p3.anim,4,1,0.5,0,0,0,0,0,0,0,0
10,DEFEAT,3,vehicle\Bellum\Bellum_p3.anim,4,1,0.5,0,0,0,0,0,0,0,0
10,GUARDING,0,vehicle\Bellum\Bellum_p3.anim,4,1,0.5,0,0,0,0,0,0,0,0
10,GUARDING,1,vehicle\Bellum\Bellum_p3.anim,4,1,0.5,0,0,0,0,0,0,0,0
10,GUARDING,2,vehicle\Bellum\Bellum_p3.anim,4,1,0.5,0,0,0,0,0,0,0,0
11,STAND,0,vehicle\Bellum\Bellum_stand.anim,5,1,3,0,0,0,0,0,0,0,0
11,STAND,1,vehicle\Bellum\Bellum_stand.anim,5,1,3,0,0,0,0,0,0,0,0
11,MOVE,0,vehicle\Bellum\Bellum_walk.anim,5,1,1.3,0,0,0,0,0,0,0,0
11,MOVE,1,vehicle\Bellum\Bellum_crun.anim,5,1,1,0,0,0,0,0,0,0,0
11,BLOCKING,0,vehicle\Bellum\Bellum_p3.anim,4,1,0.5,0,0,0,0,0,0,0,0
11,BLOCKED,0,vehicle\Bellum\Bellum_p3.anim,4,1,0.5,0,0,0,0,0,0,0,0
11,BLOCKED,1,vehicle\Bellum\Bellum_p3.anim,4,1,0.5,0,0,0,0,0,0,0,0
11,BLOCKED,2,vehicle\Bellum\Bellum_p3.anim,4,1,0.5,0,0,0,0,0,0,0,0
11,BLOCKED,3,vehicle\Bellum\Bellum_p3.anim,4,1,0.5,0,0,0,0,0,0,0,0
11,BLOCKED,4,vehicle\Bellum\Bellum_p3.anim,4,1,0.5,0,0,0,0,0,0,0,0
11,BLOCKED,5,vehicle\Bellum\Bellum_p3.anim,4,1,0.5,0,0,0,0,0,0,0,0
11,BLOCKED,6,vehicle\Bellum\Bellum_p3.anim,4,1,0.5,0,0,0,0,0,0,0,0
11,BLOCKED,7,vehicle\Bellum\Bellum_p3.anim,4,1,0.5,0,0,0,0,0,0,0,0
11,DEFEAT,0,vehicle\Bellum\Bellum_p3.anim,4,1,0.5,0,0,0,0,0,0,0,0
11,DEFEAT,1,vehicle\Bellum\Bellum_p3.anim,4,1,0.5,0,0,0,0,0,0,0,0
11,DEFEAT,2,vehicle\Bellum\Bellum_p3.anim,4,1,0.5,0,0,0,0,0,0,0,0
11,DEFEAT,3,vehicle\Bellum\Bellum_p3.anim,4,1,0.5,0,0,0,0,0,0,0,0
11,GUARDING,0,vehicle\Bellum\Bellum_p3.anim,4,1,0.5,0,0,0,0,0,0,0,0
11,GUARDING,1,vehicle\Bellum\Bellum_p3.anim,4,1,0.5,0,0,0,0,0,0,0,0
11,GUARDING,2,vehicle\Bellum\Bellum_p3.anim,4,1,0.5,0,0,0,0,0,0,0,0
12,STAND,0,vehicle\Bellum\Bellum_stand.anim,5,1,3,0,0,0,0,0,0,0,0
12,STAND,1,vehicle\Bellum\Bellum_stand.anim,5,1,3,0,0,0,0,0,0,0,0
12,MOVE,0,vehicle\Bellum\Bellum_walk.anim,5,1,1.3,0,0,0,0,0,0,0,0
12,MOVE,1,vehicle\Bellum\Bellum_crun.anim,5,1,1,0,0,0,0,0,0,0,0
12,BLOCKING,0,vehicle\Bellum\Bellum_p3.anim,4,1,0.5,0,0,0,0,0,0,0,0
12,BLOCKED,0,vehicle\Bellum\Bellum_p3.anim,4,1,0.5,0,0,0,0,0,0,0,0
12,BLOCKED,1,vehicle\Bellum\Bellum_p3.anim,4,1,0.5,0,0,0,0,0,0,0,0
12,BLOCKED,2,vehicle\Bellum\Bellum_p3.anim,4,1,0.5,0,0,0,0,0,0,0,0
12,BLOCKED,3,vehicle\Bellum\Bellum_p3.anim,4,1,0.5,0,0,0,0,0,0,0,0
12,BLOCKED,4,vehicle\Bellum\Bellum_p3.anim,4,1,0.5,0,0,0,0,0,0,0,0
12,BLOCKED,5,vehicle\Bellum\Bellum_p3.anim,4,1,0.5,0,0,0,0,0,0,0,0
12,BLOCKED,6,vehicle\Bellum\Bellum_p3.anim,4,1,0.5,0,0,0,0,0,0,0,0
12,BLOCKED,7,vehicle\Bellum\Bellum_p3.anim,4,1,0.5,0,0,0,0,0,0,0,0
12,DEFEAT,0,vehicle\Bellum\Bellum_p3.anim,4,1,0.5,0,0,0,0,0,0,0,0
12,DEFEAT,1,vehicle\Bellum\Bellum_p3.anim,4,1,0.5,0,0,0,0,0,0,0,0
12,DEFEAT,2,vehicle\Bellum\Bellum_p3.anim,4,1,0.5,0,0,0,0,0,0,0,0
12,DEFEAT,3,vehicle\Bellum\Bellum_p3.anim,4,1,0.5,0,0,0,0,0,0,0,0
12,GUARDING,0,vehicle\Bellum\Bellum_p3.anim,4,1,0.5,0,0,0,0,0,0,0,0
12,GUARDING,1,vehicle\Bellum\Bellum_p3.anim,4,1,0.5,0,0,0,0,0,0,0,0
12,GUARDING,2,vehicle\Bellum\Bellum_p3.anim,4,1,0.5,0,0,0,0,0,0,0,0
13,STAND,0,vehicle\Bellum\Bellum_stand.anim,5,1,3,0,0,0,0,0,0,0,0
13,STAND,1,vehicle\Bellum\Bellum_stand.anim,5,1,3,0,0,0,0,0,0,0,0
13,MOVE,0,vehicle\Bellum\Bellum_walk.anim,5,1,1.3,0,0,0,0,0,0,0,0
13,MOVE,1,vehicle\Bellum\Bellum_crun.anim,5,1,1,0,0,0,0,0,0,0,0
13,BLOCKING,0,vehicle\Bellum\Bellum_p3.anim,4,1,0.5,0,0,0,0,0,0,0,0
13,BLOCKED,0,vehicle\Bellum\Bellum_p3.anim,4,1,0.5,0,0,0,0,0,0,0,0
13,BLOCKED,1,vehicle\Bellum\Bellum_p3.anim,4,1,0.5,0,0,0,0,0,0,0,0
13,BLOCKED,2,vehicle\Bellum\Bellum_p3.anim,4,1,0.5,0,0,0,0,0,0,0,0
13,BLOCKED,3,vehicle\Bellum\Bellum_p3.anim,4,1,0.5,0,0,0,0,0,0,0,0
13,BLOCKED,4,vehicle\Bellum\Bellum_p3.anim,4,1,0.5,0,0,0,0,0,0,0,0
13,BLOCKED,5,vehicle\Bellum\Bellum_p3.anim,4,1,0.5,0,0,0,0,0,0,0,0
13,BLOCKED,6,vehicle\Bellum\Bellum_p3.anim,4,1,0.5,0,0,0,0,0,0,0,0
13,BLOCKED,7,vehicle\Bellum\Bellum_p3.anim,4,1,0.5,0,0,0,0,0,0,0,0
13,DEFEAT,0,vehicle\Bellum\Bellum_p3.anim,4,1,0.5,0,0,0,0,0,0,0,0
13,DEFEAT,1,vehicle\Bellum\Bellum_p3.anim,4,1,0.5,0,0,0,0,0,0,0,0
13,DEFEAT,2,vehicle\Bellum\Bellum_p3.anim,4,1,0.5,0,0,0,0,0,0,0,0
13,DEFEAT,3,vehicle\Bellum\Bellum_p3.anim,4,1,0.5,0,0,0,0,0,0,0,0
13,GUARDING,0,vehicle\Bellum\Bellum_p3.anim,4,1,0.5,0,0,0,0,0,0,0,0
13,GUARDING,1,vehicle\Bellum\Bellum_p3.anim,4,1,0.5,0,0,0,0,0,0,0,0
13,GUARDING,2,vehicle\Bellum\Bellum_p3.anim,4,1,0.5,0,0,0,0,0,0,0,0
14,STAND,0,vehicle\Bellum\Bellum_stand.anim,5,1,3,0,0,0,0,0,0,0,0
14,STAND,1,vehicle\Bellum\Bellum_stand.anim,5,1,3,0,0,0,0,0,0,0,0
14,MOVE,0,vehicle\Bellum\Bellum_walk.anim,5,1,1.3,0,0,0,0,0,0,0,0
14,MOVE,1,vehicle\Bellum\Bellum_crun.anim,5,1,1,0,0,0,0,0,0,0,0
14,BLOCKING,0,vehicle\Bellum\Bellum_p3.anim,4,1,0.5,0,0,0,0,0,0,0,0
14,BLOCKED,0,vehicle\Bellum\Bellum_p3.anim,4,1,0.5,0,0,0,0,0,0,0,0
14,DEFEAT,0,vehicle\Bellum\Bellum_p3.anim,4,1,0.5,0,0,0,0,0,0,0,0
14,DEFEAT,1,vehicle\Bellum\Bellum_p3.anim,4,1,0.5,0,0,0,0,0,0,0,0
14,DEFEAT,2,vehicle\Bellum\Bellum_p3.anim,4,1,0.5,0,0,0,0,0,0,0,0
14,DEFEAT,3,vehicle\Bellum\Bellum_p3.anim,4,1,0.5,0,0,0,0,0,0,0,0
14,GUARDING,0,vehicle\Bellum\Bellum_p3.anim,4,1,0.5,0,0,0,0,0,0,0,0
14,GUARDING,1,vehicle\Bellum\Bellum_p3.anim,4,1,0.5,0,0,0,0,0,0,0,0
14,GUARDING,2,vehicle\Bellum\Bellum_p3.anim,4,1,0.5,0,0,0,0,0,0,0,0
15,STAND,0,vehicle\Bellum\Bellum_stand.anim,5,1,3,0,0,0,0,0,0,0,0
15,STAND,1,vehicle\Bellum\Bellum_stand.anim,5,1,3,0,0,0,0,0,0,0,0
15,MOVE,0,vehicle\Bellum\Bellum_walk.anim,5,1,1.3,0,0,0,0,0,0,0,0
15,MOVE,1,vehicle\Bellum\Bellum_crun.anim,5,1,1,0,0,0,0,0,0,0,0
15,BLOCKING,0,vehicle\Bellum\Bellum_p3.anim,4,1,0.5,0,0,0,0,0,0,0,0
15,BLOCKED,0,vehicle\Bellum\Bellum_p3.anim,4,1,0.5,0,0,0,0,0,0,0,0
15,BLOCKED,1,vehicle\Bellum\Bellum_p3.anim,4,1,0.5,0,0,0,0,0,0,0,0
15,BLOCKED,2,vehicle\Bellum\Bellum_p3.anim,4,1,0.5,0,0,0,0,0,0,0,0
15,BLOCKED,3,vehicle\Bellum\Bellum_p3.anim,4,1,0.5,0,0,0,0,0,0,0,0
15,BLOCKED,4,vehicle\Bellum\Bellum_p3.anim,4,1,0.5,0,0,0,0,0,0,0,0
15,BLOCKED,5,vehicle\Bellum\Bellum_p3.anim,4,1,0.5,0,0,0,0,0,0,0,0
15,BLOCKED,6,vehicle\Bellum\Bellum_p3.anim,4,1,0.5,0,0,0,0,0,0,0,0
15,BLOCKED,7,vehicle\Bellum\Bellum_p3.anim,4,1,0.5,0,0,0,0,0,0,0,0
15,DEFEAT,0,vehicle\Bellum\Bellum_p3.anim,4,1,0.5,0,0,0,0,0,0,0,0
15,DEFEAT,1,vehicle\Bellum\Bellum_p3.anim,4,1,0.5,0,0,0,0,0,0,0,0
15,DEFEAT,2,vehicle\Bellum\Bellum_p3.anim,4,1,0.5,0,0,0,0,0,0,0,0
15,DEFEAT,3,vehicle\Bellum\Bellum_p3.anim,4,1,0.5,0,0,0,0,0,0,0,0
15,GUARDING,0,vehicle\Bellum\Bellum_p3.anim,4,1,0.5,0,0,0,0,0,0,0,0
15,GUARDING,1,vehicle\Bellum\Bellum_p3.anim,4,1,0.5,0,0,0,0,0,0,0,0
15,GUARDING,2,vehicle\Bellum\Bellum_p3.anim,4,1,0.5,0,0,0,0,0,0,0,0
16,STAND,0,vehicle\Bellum\Bellum_stand.anim,5,1,3,0,0,0,0,0,0,0,0
16,STAND,1,vehicle\Bellum\Bellum_stand.anim,5,1,3,0,0,0,0,0,0,0,0
16,MOVE,0,vehicle\Bellum\Bellum_walk.anim,5,1,1.3,0,0,0,0,0,0,0,0
16,MOVE,1,vehicle\Bellum\Bellum_crun.anim,5,1,1,0,0,0,0,0,0,0,0
16,BLOCKING,0,vehicle\Bellum\Bellum_p3.anim,4,1,0.5,0,0,0,0,0,0,0,0
16,BLOCKED,0,vehicle\Bellum\Bellum_p3.anim,4,1,0.5,0,0,0,0,0,0,0,0
16,BLOCKED,1,vehicle\Bellum\Bellum_p3.anim,4,1,0.5,0,0,0,0,0,0,0,0
16,BLOCKED,2,vehicle\Bellum\Bellum_p3.anim,4,1,0.5,0,0,0,0,0,0,0,0
16,BLOCKED,3,vehicle\Bellum\Bellum_p3.anim,4,1,0.5,0,0,0,0,0,0,0,0
16,BLOCKED,4,vehicle\Bellum\Bellum_p3.anim,4,1,0.5,0,0,0,0,0,0,0,0
16,BLOCKED,5,vehicle\Bellum\Bellum_p3.anim,4,1,0.5,0,0,0,0,0,0,0,0
16,BLOCKED,6,vehicle\Bellum\Bellum_p3.anim,4,1,0.5,0,0,0,0,0,0,0,0
16,BLOCKED,7,vehicle\Bellum\Bellum_p3.anim,4,1,0.5,0,0,0,0,0,0,0,0
16,DEFEAT,0,vehicle\Bellum\Bellum_p3.anim,4,1,0.5,0,0,0,0,0,0,0,0
16,DEFEAT,1,vehicle\Bellum\Bellum_p3.anim,4,1,0.5,0,0,0,0,0,0,0,0
16,DEFEAT,2,vehicle\Bellum\Bellum_p3.anim,4,1,0.5,0,0,0,0,0,0,0,0
16,DEFEAT,3,vehicle\Bellum\Bellum_p3.anim,4,1,0.5,0,0,0,0,0,0,0,0
16,GUARDING,0,vehicle\Bellum\Bellum_p3.anim,4,1,0.5,0,0,0,0,0,0,0,0
16,GUARDING,1,vehicle\Bellum\Bellum_p3.anim,4,1,0.5,0,0,0,0,0,0,0,0
16,GUARDING,2,vehicle\Bellum\Bellum_p3.anim,4,1,0.5,0,0,0,0,0,0,0,0
17,STAND,0,vehicle\Bellum\Bellum_stand.anim,5,1,3,0,0,0,0,0,0,0,0
17,STAND,1,vehicle\Bellum\Bellum_stand.anim,5,1,3,0,0,0,0,0,0,0,0
17,MOVE,0,vehicle\Bellum\Bellum_walk.anim,5,1,1.3,0,0,0,0,0,0,0,0
17,MOVE,1,vehicle\Bellum\Bellum_crun.anim,5,1,1,0,0,0,0,0,0,0,0
17,BLOCKING,0,vehicle\Bellum\Bellum_p3.anim,4,1,0.5,0,0,0,0,0,0,0,0
17,BLOCKED,0,vehicle\Bellum\Bellum_p3.anim,4,1,0.5,0,0,0,0,0,0,0,0
17,BLOCKED,1,vehicle\Bellum\Bellum_p3.anim,4,1,0.5,0,0,0,0,0,0,0,0
17,BLOCKED,2,vehicle\Bellum\Bellum_p3.anim,4,1,0.5,0,0,0,0,0,0,0,0
17,BLOCKED,3,vehicle\Bellum\Bellum_p3.anim,4,1,0.5,0,0,0,0,0,0,0,0
17,BLOCKED,4,vehicle\Bellum\Bellum_p3.anim,4,1,0.5,0,0,0,0,0,0,0,0
17,BLOCKED,5,vehicle\Bellum\Bellum_p3.anim,4,1,0.5,0,0,0,0,0,0,0,0
17,BLOCKED,6,vehicle\Bellum\Bellum_p3.anim,4,1,0.5,0,0,0,0,0,0,0,0
17,BLOCKED,7,vehicle\Bellum\Bellum_p3.anim,4,1,0.5,0,0,0,0,0,0,0,0
17,DEFEAT,0,vehicle\Bellum\Bellum_p3.anim,4,1,0.5,0,0,0,0,0,0,0,0
17,DEFEAT,1,vehicle\Bellum\Bellum_p3.anim,4,1,0.5,0,0,0,0,0,0,0,0
17,DEFEAT,2,vehicle\Bellum\Bellum_p3.anim,4,1,0.5,0,0,0,0,0,0,0,0
17,DEFEAT,3,vehicle\Bellum\Bellum_p3.anim,4,1,0.5,0,0,0,0,0,0,0,0
17,GUARDING,0,vehicle\Bellum\Bellum_p3.anim,4,1,0.5,0,0,0,0,0,0,0,0
17,GUARDING,1,vehicle\Bellum\Bellum_p3.anim,4,1,0.5,0,0,0,0,0,0,0,0
17,GUARDING,2,vehicle\Bellum\Bellum_p3.anim,4,1,0.5,0,0,0,0,0,0,0,0
18,STAND,0,vehicle\Bellum\Bellum_stand.anim,5,1,3,0,0,0,0,0,0,0,0
18,STAND,1,vehicle\Bellum\Bellum_stand.anim,5,1,3,0,0,0,0,0,0,0,0
18,MOVE,0,vehicle\Bellum\Bellum_walk.anim,5,1,1.3,0,0,0,0,0,0,0,0
18,MOVE,1,vehicle\Bellum\Bellum_crun.anim,5,1,1,0,0,0,0,0,0,0,0
18,BLOCKING,0,vehicle\Bellum\Bellum_p3.anim,4,1,0.5,0,0,0,0,0,0,0,0
18,BLOCKED,0,vehicle\Bellum\Bellum_p3.anim,4,1,0.5,0,0,0,0,0,0,0,0
18,BLOCKED,1,vehicle\Bellum\Bellum_p3.anim,4,1,0.5,0,0,0,0,0,0,0,0
18,BLOCKED,2,vehicle\Bellum\Bellum_p3.anim,4,1,0.5,0,0,0,0,0,0,0,0
18,BLOCKED,3,vehicle\Bellum\Bellum_p3.anim,4,1,0.5,0,0,0,0,0,0,0,0
18,BLOCKED,4,vehicle\Bellum\Bellum_p3.anim,4,1,0.5,0,0,0,0,0,0,0,0
18,BLOCKED,5,vehicle\Bellum\Bellum_p3.anim,4,1,0.5,0,0,0,0,0,0,0,0
18,BLOCKED,6,vehicle\Bellum\Bellum_p3.anim,4,1,0.5,0,0,0,0,0,0,0,0
18,BLOCKED,7,vehicle\Bellum\Bellum_p3.anim,4,1,0.5,0,0,0,0,0,0,0,0
18,DEFEAT,0,vehicle\Bellum\Bellum_p3.anim,4,1,0.5,0,0,0,0,0,0,0,0
18,DEFEAT,1,vehicle\Bellum\Bellum_p3.anim,4,1,0.5,0,0,0,0,0,0,0,0
18,DEFEAT,2,vehicle\Bellum\Bellum_p3.anim,4,1,0.5,0,0,0,0,0,0,0,0
18,DEFEAT,3,vehicle\Bellum\Bellum_p3.anim,4,1,0.5,0,0,0,0,0,0,0,0
18,GUARDING,0,vehicle\Bellum\Bellum_p3.anim,4,1,0.5,0,0,0,0,0,0,0,0
18,GUARDING,1,vehicle\Bellum\Bellum_p3.anim,4,1,0.5,0,0,0,0,0,0,0,0
18,GUARDING,2,vehicle\Bellum\Bellum_p3.anim,4,1,0.5,0,0,0,0,0,0,0,0
19,STAND,0,vehicle\Bellum\Bellum_stand.anim,5,1,3,0,0,0,0,0,0,0,0
19,STAND,1,vehicle\Bellum\Bellum_stand.anim,5,1,3,0,0,0,0,0,0,0,0
19,MOVE,0,vehicle\Bellum\Bellum_walk.anim,5,1,1.3,0,0,0,0,0,0,0,0
19,MOVE,1,vehicle\Bellum\Bellum_crun.anim,5,1,1,0,0,0,0,0,0,0,0
19,BLOCKING,0,vehicle\Bellum\Bellum_p3.anim,4,1,0.5,0,0,0,0,0,0,0,0
19,BLOCKED,0,vehicle\Bellum\Bellum_p3.anim,4,1,0.5,0,0,0,0,0,0,0,0
19,BLOCKED,1,vehicle\Bellum\Bellum_p3.anim,4,1,0.5,0,0,0,0,0,0,0,0
19,BLOCKED,2,vehicle\Bellum\Bellum_p3.anim,4,1,0.5,0,0,0,0,0,0,0,0
19,BLOCKED,3,vehicle\Bellum\Bellum_p3.anim,4,1,0.5,0,0,0,0,0,0,0,0
19,BLOCKED,4,vehicle\Bellum\Bellum_p3.anim,4,1,0.5,0,0,0,0,0,0,0,0
19,BLOCKED,5,vehicle\Bellum\Bellum_p3.anim,4,1,0.5,0,0,0,0,0,0,0,0
19,BLOCKED,6,vehicle\Bellum\Bellum_p3.anim,4,1,0.5,0,0,0,0,0,0,0,0
19,BLOCKED,7,vehicle\Bellum\Bellum_p3.anim,4,1,0.5,0,0,0,0,0,0,0,0
19,DEFEAT,0,vehicle\Bellum\Bellum_p3.anim,4,1,0.5,0,0,0,0,0,0,0,0
19,DEFEAT,1,vehicle\Bellum\Bellum_p3.anim,4,1,0.5,0,0,0,0,0,0,0,0
19,DEFEAT,2,vehicle\Bellum\Bellum_p3.anim,4,1,0.5,0,0,0,0,0,0,0,0
19,DEFEAT,3,vehicle\Bellum\Bellum_p3.anim,4,1,0.5,0,0,0,0,0,0,0,0
19,GUARDING,0,vehicle\Bellum\Bellum_p3.anim,4,1,0.5,0,0,0,0,0,0,0,0
19,GUARDING,1,vehicle\Bellum\Bellum_p3.anim,4,1,0.5,0,0,0,0,0,0,0,0
19,GUARDING,2,vehicle\Bellum\Bellum_p3.anim,4,1,0.5,0,0,0,0,0,0,0,0
20,STAND,0,vehicle\Bellum\Bellum_stand.anim,5,1,3,0,0,0,0,0,0,0,0
20,STAND,1,vehicle\Bellum\Bellum_stand.anim,5,1,3,0,0,0,0,0,0,0,0
20,MOVE,0,vehicle\Bellum\Bellum_walk.anim,5,1,1.3,0,0,0,0,0,0,0,0
20,MOVE,1,vehicle\Bellum\Bellum_crun.anim,5,1,1,0,0,0,0,0,0,0,0
20,BLOCKING,0,vehicle\Bellum\Bellum_p3.anim,4,1,0.5,0,0,0,0,0,0,0,0
20,BLOCKED,0,vehicle\Bellum\Bellum_p3.anim,4,1,0.5,0,0,0,0,0,0,0,0
20,BLOCKED,1,vehicle\Bellum\Bellum_p3.anim,4,1,0.5,0,0,0,0,0,0,0,0
20,BLOCKED,2,vehicle\Bellum\Bellum_p3.anim,4,1,0.5,0,0,0,0,0,0,0,0
20,BLOCKED,3,vehicle\Bellum\Bellum_p3.anim,4,1,0.5,0,0,0,0,0,0,0,0
20,BLOCKED,4,vehicle\Bellum\Bellum_p3.anim,4,1,0.5,0,0,0,0,0,0,0,0
20,BLOCKED,5,vehicle\Bellum\Bellum_p3.anim,4,1,0.5,0,0,0,0,0,0,0,0
20,BLOCKED,6,vehicle\Bellum\Bellum_p3.anim,4,1,0.5,0,0,0,0,0,0,0,0
20,BLOCKED,7,vehicle\Bellum\Bellum_p3.anim,4,1,0.5,0,0,0,0,0,0,0,0
20,DEFEAT,0,vehicle\Bellum\Bellum_p3.anim,4,1,0.5,0,0,0,0,0,0,0,0
20,DEFEAT,1,vehicle\Bellum\Bellum_p3.anim,4,1,0.5,0,0,0,0,0,0,0,0
20,DEFEAT,2,vehicle\Bellum\Bellum_p3.anim,4,1,0.5,0,0,0,0,0,0,0,0
20,DEFEAT,3,vehicle\Bellum\Bellum_p3.anim,4,1,0.5,0,0,0,0,0,0,0,0
20,GUARDING,0,vehicle\Bellum\Bellum_p3.anim,4,1,0.5,0,0,0,0,0,0,0,0
20,GUARDING,1,vehicle\Bellum\Bellum_p3.anim,4,1,0.5,0,0,0,0,0,0,0,0
20,GUARDING,2,vehicle\Bellum\Bellum_p3.anim,4,1,0.5,0,0,0,0,0,0,0,0
21,STAND,0,vehicle\Bellum\Bellum_stand.anim,5,1,3,0,0,0,0,0,0,0,0
21,STAND,0,vehicle\Bellum\Bellum_stand.anim,5,1,3,0,0,0,0,0,0,0,0
21,MOVE,0,vehicle\Bellum\Bellum_walk.anim,5,1,1.3,0,0,0,0,0,0,0,0
21,MOVE,1,vehicle\Bellum\Bellum_crun.anim,5,1,1,0,0,0,0,0,0,0,0
21,BLOCKING,0,vehicle\Bellum\Bellum_p3.anim,4,1,0.5,0,0,0,0,0,0,0,0
21,BLOCKED,0,vehicle\Bellum\Bellum_p3.anim,4,1,0.5,0,0,0,0,0,0,0,0
21,BLOCKED,1,vehicle\Bellum\Bellum_p3.anim,4,1,0.5,0,0,0,0,0,0,0,0
21,BLOCKED,2,vehicle\Bellum\Bellum_p3.anim,4,1,0.5,0,0,0,0,0,0,0,0
21,BLOCKED,3,vehicle\Bellum\Bellum_p3.anim,4,1,0.5,0,0,0,0,0,0,0,0
21,BLOCKED,4,vehicle\Bellum\Bellum_p3.anim,4,1,0.5,0,0,0,0,0,0,0,0
21,BLOCKED,5,vehicle\Bellum\Bellum_p3.anim,4,1,0.5,0,0,0,0,0,0,0,0
21,BLOCKED,6,vehicle\Bellum\Bellum_p3.anim,4,1,0.5,0,0,0,0,0,0,0,0
21,BLOCKED,7,vehicle\Bellum\Bellum_p3.anim,4,1,0.5,0,0,0,0,0,0,0,0
21,DEFEAT,0,vehicle\Bellum\Bellum_p3.anim,4,1,0.5,0,0,0,0,0,0,0,0
21,DEFEAT,1,vehicle\Bellum\Bellum_p3.anim,4,1,0.5,0,0,0,0,0,0,0,0
21,DEFEAT,2,vehicle\Bellum\Bellum_p3.anim,4,1,0.5,0,0,0,0,0,0,0,0
21,DEFEAT,3,vehicle\Bellum\Bellum_p3.anim,4,1,0.5,0,0,0,0,0,0,0,0
21,GUARDING,0,vehicle\Bellum\Bellum_p3.anim,4,1,0.5,0,0,0,0,0,0,0,0
21,GUARDING,1,vehicle\Bellum\Bellum_p3.anim,4,1,0.5,0,0,0,0,0,0,0,0
21,GUARDING,2,vehicle\Bellum\Bellum_p3.anim,4,1,0.5,0,0,0,0,0,0,0,0
22,STAND,0,vehicle\Bellum\Bellum_stand.anim,5,1,3,0,0,0,0,0,0,0,0
22,STAND,1,vehicle\Bellum\Bellum_stand.anim,5,1,3,0,0,0,0,0,0,0,0
22,MOVE,0,vehicle\Bellum\Bellum_walk.anim,5,1,1.3,0,0,0,0,0,0,0,0
22,MOVE,1,vehicle\Bellum\Bellum_crun.anim,5,1,1,0,0,0,0,0,0,0,0
22,BLOCKING,0,vehicle\Bellum\Bellum_p3.anim,4,1,0.5,0,0,0,0,0,0,0,0
22,BLOCKED,0,vehicle\Bellum\Bellum_p3.anim,4,1,0.5,0,0,0,0,0,0,0,0
22,BLOCKED,1,vehicle\Bellum\Bellum_p3.anim,4,1,0.5,0,0,0,0,0,0,0,0
22,BLOCKED,2,vehicle\Bellum\Bellum_p3.anim,4,1,0.5,0,0,0,0,0,0,0,0
22,BLOCKED,3,vehicle\Bellum\Bellum_p3.anim,4,1,0.5,0,0,0,0,0,0,0,0
22,BLOCKED,4,vehicle\Bellum\Bellum_p3.anim,4,1,0.5,0,0,0,0,0,0,0,0
22,BLOCKED,5,vehicle\Bellum\Bellum_p3.anim,4,1,0.5,0,0,0,0,0,0,0,0
22,BLOCKED,6,vehicle\Bellum\Bellum_p3.anim,4,1,0.5,0,0,0,0,0,0,0,0
22,BLOCKED,7,vehicle\Bellum\Bellum_p3.anim,4,1,0.5,0,0,0,0,0,0,0,0
22,DEFEAT,0,vehicle\Bellum\Bellum_p3.anim,4,1,0.5,0,0,0,0,0,0,0,0
22,DEFEAT,1,vehicle\Bellum\Bellum_p3.anim,4,1,0.5,0,0,0,0,0,0,0,0
22,DEFEAT,2,vehicle\Bellum\Bellum_p3.anim,4,1,0.5,0,0,0,0,0,0,0,0
22,DEFEAT,3,vehicle\Bellum\Bellum_p3.anim,4,1,0.5,0,0,0,0,0,0,0,0
22,GUARDING,0,vehicle\Bellum\Bellum_p3.anim,4,1,0.5,0,0,0,0,0,0,0,0
22,GUARDING,1,vehicle\Bellum\Bellum_p3.anim,4,1,0.5,0,0,0,0,0,0,0,0
22,GUARDING,2,vehicle\Bellum\Bellum_p3.anim,4,1,0.5,0,0,0,0,0,0,0,0
23,STAND,0,vehicle\Bellum\Bellum_stand.anim,5,1,3,0,0,0,0,0,0,0,0
23,STAND,1,vehicle\Bellum\Bellum_stand.anim,5,1,3,0,0,0,0,0,0,0,0
23,MOVE,0,vehicle\Bellum\Bellum_walk.anim,5,1,1.3,0,0,0,0,0,0,0,0
23,MOVE,1,vehicle\Bellum\Bellum_crun.anim,5,1,1,0,0,0,0,0,0,0,0
23,BLOCKING,0,vehicle\Bellum\Bellum_p3.anim,4,1,0.5,0,0,0,0,0,0,0,0
23,BLOCKED,0,vehicle\Bellum\Bellum_p3.anim,4,1,0.5,0,0,0,0,0,0,0,0
23,BLOCKED,1,vehicle\Bellum\Bellum_p3.anim,4,1,0.5,0,0,0,0,0,0,0,0
23,BLOCKED,2,vehicle\Bellum\Bellum_p3.anim,4,1,0.5,0,0,0,0,0,0,0,0
23,BLOCKED,3,vehicle\Bellum\Bellum_p3.anim,4,1,0.5,0,0,0,0,0,0,0,0
23,BLOCKED,4,vehicle\Bellum\Bellum_p3.anim,4,1,0.5,0,0,0,0,0,0,0,0
23,BLOCKED,5,vehicle\Bellum\Bellum_p3.anim,4,1,0.5,0,0,0,0,0,0,0,0
23,BLOCKED,6,vehicle\Bellum\Bellum_p3.anim,4,1,0.5,0,0,0,0,0,0,0,0
23,BLOCKED,7,vehicle\Bellum\Bellum_p3.anim,4,1,0.5,0,0,0,0,0,0,0,0
23,DEFEAT,0,vehicle\Bellum\Bellum_p3.anim,4,1,0.5,0,0,0,0,0,0,0,0
23,DEFEAT,1,vehicle\Bellum\Bellum_p3.anim,4,1,0.5,0,0,0,0,0,0,0,0
23,DEFEAT,2,vehicle\Bellum\Bellum_p3.anim,4,1,0.5,0,0,0,0,0,0,0,0
23,DEFEAT,3,vehicle\Bellum\Bellum_p3.anim,4,1,0.5,0,0,0,0,0,0,0,0
23,GUARDING,0,vehicle\Bellum\Bellum_p3.anim,4,1,0.5,0,0,0,0,0,0,0,0
23,GUARDING,1,vehicle\Bellum\Bellum_p3.anim,4,1,0.5,0,0,0,0,0,0,0,0
23,GUARDING,2,vehicle\Bellum\Bellum_p3.anim,4,1,0.5,0,0,0,0,0,0,0,0
24,STAND,0,vehicle\Bellum\Bellum_stand.anim,5,1,3,0,0,0,0,0,0,0,0
24,STAND,1,vehicle\Bellum\Bellum_stand.anim,5,1,3,0,0,0,0,0,0,0,0
24,MOVE,0,vehicle\Bellum\Bellum_walk.anim,5,1,1.3,0,0,0,0,0,0,0,0
24,MOVE,1,vehicle\Bellum\Bellum_crun.anim,5,1,1,0,0,0,0,0,0,0,0
24,BLOCKING,0,vehicle\Bellum\Bellum_p3.anim,4,1,0.5,0,0,0,0,0,0,0,0
24,BLOCKED,0,vehicle\Bellum\Bellum_p3.anim,4,1,0.5,0,0,0,0,0,0,0,0
24,BLOCKED,1,vehicle\Bellum\Bellum_p3.anim,4,1,0.5,0,0,0,0,0,0,0,0
24,BLOCKED,2,vehicle\Bellum\Bellum_p3.anim,4,1,0.5,0,0,0,0,0,0,0,0
24,BLOCKED,3,vehicle\Bellum\Bellum_p3.anim,4,1,0.5,0,0,0,0,0,0,0,0
24,BLOCKED,4,vehicle\Bellum\Bellum_p3.anim,4,1,0.5,0,0,0,0,0,0,0,0
24,BLOCKED,5,vehicle\Bellum\Bellum_p3.anim,4,1,0.5,0,0,0,0,0,0,0,0
24,BLOCKED,6,vehicle\Bellum\Bellum_p3.anim,4,1,0.5,0,0,0,0,0,0,0,0
24,BLOCKED,7,vehicle\Bellum\Bellum_p3.anim,4,1,0.5,0,0,0,0,0,0,0,0
24,DEFEAT,0,vehicle\Bellum\Bellum_p3.anim,4,1,0.5,0,0,0,0,0,0,0,0
24,DEFEAT,1,vehicle\Bellum\Bellum_p3.anim,4,1,0.5,0,0,0,0,0,0,0,0
24,DEFEAT,2,vehicle\Bellum\Bellum_p3.anim,4,1,0.5,0,0,0,0,0,0,0,0
24,DEFEAT,3,vehicle\Bellum\Bellum_p3.anim,4,1,0.5,0,0,0,0,0,0,0,0
24,GUARDING,0,vehicle\Bellum\Bellum_p3.anim,4,1,0.5,0,0,0,0,0,0,0,0
24,GUARDING,1,vehicle\Bellum\Bellum_p3.anim,4,1,0.5,0,0,0,0,0,0,0,0
24,GUARDING,2,vehicle\Bellum\Bellum_p3.anim,4,1,0.5,0,0,0,0,0,0,0,0
25,STAND,0,vehicle\Bellum\Bellum_stand.anim,5,1,3,0,0,0,0,0,0,0,0
25,STAND,1,vehicle\Bellum\Bellum_stand.anim,5,1,3,0,0,0,0,0,0,0,0
25,MOVE,0,vehicle\Bellum\Bellum_walk.anim,5,1,1.3,0,0,0,0,0,0,0,0
25,MOVE,1,vehicle\Bellum\Bellum_crun.anim,5,1,1,0,0,0,0,0,0,0,0
25,BLOCKING,0,vehicle\Bellum\Bellum_p3.anim,4,1,0.5,0,0,0,0,0,0,0,0
25,BLOCKED,0,vehicle\Bellum\Bellum_p3.anim,4,1,0.5,0,0,0,0,0,0,0,0
25,BLOCKED,1,vehicle\Bellum\Bellum_p3.anim,4,1,0.5,0,0,0,0,0,0,0,0
25,BLOCKED,2,vehicle\Bellum\Bellum_p3.anim,4,1,0.5,0,0,0,0,0,0,0,0
25,BLOCKED,3,vehicle\Bellum\Bellum_p3.anim,4,1,0.5,0,0,0,0,0,0,0,0
25,BLOCKED,4,vehicle\Bellum\Bellum_p3.anim,4,1,0.5,0,0,0,0,0,0,0,0
25,BLOCKED,5,vehicle\Bellum\Bellum_p3.anim,4,1,0.5,0,0,0,0,0,0,0,0
25,BLOCKED,6,vehicle\Bellum\Bellum_p3.anim,4,1,0.5,0,0,0,0,0,0,0,0
25,BLOCKED,7,vehicle\Bellum\Bellum_p3.anim,4,1,0.5,0,0,0,0,0,0,0,0
25,DEFEAT,0,vehicle\Bellum\Bellum_p3.anim,4,1,0.5,0,0,0,0,0,0,0,0
25,DEFEAT,1,vehicle\Bellum\Bellum_p3.anim,4,1,0.5,0,0,0,0,0,0,0,0
25,DEFEAT,2,vehicle\Bellum\Bellum_p3.anim,4,1,0.5,0,0,0,0,0,0,0,0
25,DEFEAT,3,vehicle\Bellum\Bellum_p3.anim,4,1,0.5,0,0,0,0,0,0,0,0
25,GUARDING,0,vehicle\Bellum\Bellum_p3.anim,4,1,0.5,0,0,0,0,0,0,0,0
25,GUARDING,1,vehicle\Bellum\Bellum_p3.anim,4,1,0.5,0,0,0,0,0,0,0,0
25,GUARDING,2,vehicle\Bellum\Bellum_p3.anim,4,1,0.5,0,0,0,0,0,0,0,0
26,STAND,0,vehicle\Bellum\Bellum_stand.anim,5,1,3,0,0,0,0,0,0,0,0
26,STAND,1,vehicle\Bellum\Bellum_stand.anim,5,1,3,0,0,0,0,0,0,0,0
26,MOVE,0,vehicle\Bellum\Bellum_walk.anim,5,1,1.3,0,0,0,0,0,0,0,0
26,MOVE,1,vehicle\Bellum\Bellum_crun.anim,5,1,1,0,0,0,0,0,0,0,0
26,BLOCKING,0,vehicle\Bellum\Bellum_p3.anim,4,1,0.5,0,0,0,0,0,0,0,0
26,BLOCKED,0,vehicle\Bellum\Bellum_p3.anim,4,1,0.5,0,0,0,0,0,0,0,0
26,BLOCKED,1,vehicle\Bellum\Bellum_p3.anim,4,1,0.5,0,0,0,0,0,0,0,0
26,BLOCKED,2,vehicle\Bellum\Bellum_p3.anim,4,1,0.5,0,0,0,0,0,0,0,0
26,BLOCKED,3,vehicle\Bellum\Bellum_p3.anim,4,1,0.5,0,0,0,0,0,0,0,0
26,BLOCKED,4,vehicle\Bellum\Bellum_p3.anim,4,1,0.5,0,0,0,0,0,0,0,0
26,BLOCKED,5,vehicle\Bellum\Bellum_p3.anim,4,1,0.5,0,0,0,0,0,0,0,0
26,BLOCKED,6,vehicle\Bellum\Bellum_p3.anim,4,1,0.5,0,0,0,0,0,0,0,0
26,BLOCKED,7,vehicle\Bellum\Bellum_p3.anim,4,1,0.5,0,0,0,0,0,0,0,0
26,DEFEAT,0,vehicle\Bellum\Bellum_p3.anim,4,1,0.5,0,0,0,0,0,0,0,0
26,DEFEAT,1,vehicle\Bellum\Bellum_p3.anim,4,1,0.5,0,0,0,0,0,0,0,0
26,DEFEAT,2,vehicle\Bellum\Bellum_p3.anim,4,1,0.5,0,0,0,0,0,0,0,0
26,DEFEAT,3,vehicle\Bellum\Bellum_p3.anim,4,1,0.5,0,0,0,0,0,0,0,0
26,GUARDING,0,vehicle\Bellum\Bellum_p3.anim,4,1,0.5,0,0,0,0,0,0,0,0
26,GUARDING,1,vehicle\Bellum\Bellum_p3.anim,4,1,0.5,0,0,0,0,0,0,0,0
26,GUARDING,2,vehicle\Bellum\Bellum_p3.anim,4,1,0.5,0,0,0,0,0,0,0,0
27,STAND,0,vehicle\Bellum\Bellum_stand.anim,5,1,3,0,0,0,0,0,0,0,0
27,STAND,1,vehicle\Bellum\Bellum_stand.anim,5,1,3,0,0,0,0,0,0,0,0
27,MOVE,0,vehicle\Bellum\Bellum_walk.anim,5,1,1.3,0,0,0,0,0,0,0,0
27,MOVE,1,vehicle\Bellum\Bellum_crun.anim,5,1,1,0,0,0,0,0,0,0,0
27,BLOCKING,0,vehicle\Bellum\Bellum_p3.anim,4,1,0.5,0,0,0,0,0,0,0,0
27,BLOCKED,0,vehicle\Bellum\Bellum_p3.anim,4,1,0.5,0,0,0,0,0,0,0,0
27,BLOCKED,1,vehicle\Bellum\Bellum_p3.anim,4,1,0.5,0,0,0,0,0,0,0,0
27,BLOCKED,2,vehicle\Bellum\Bellum_p3.anim,4,1,0.5,0,0,0,0,0,0,0,0
27,BLOCKED,3,vehicle\Bellum\Bellum_p3.anim,4,1,0.5,0,0,0,0,0,0,0,0
27,BLOCKED,4,vehicle\Bellum\Bellum_p3.anim,4,1,0.5,0,0,0,0,0,0,0,0
27,BLOCKED,5,vehicle\Bellum\Bellum_p3.anim,4,1,0.5,0,0,0,0,0,0,0,0
27,BLOCKED,6,vehicle\Bellum\Bellum_p3.anim,4,1,0.5,0,0,0,0,0,0,0,0
27,BLOCKED,7,vehicle\Bellum\Bellum_p3.anim,4,1,0.5,0,0,0,0,0,0,0,0
27,DEFEAT,0,vehicle\Bellum\Bellum_p3.anim,4,1,0.5,0,0,0,0,0,0,0,0
27,DEFEAT,1,vehicle\Bellum\Bellum_p3.anim,4,1,0.5,0,0,0,0,0,0,0,0
27,DEFEAT,2,vehicle\Bellum\Bellum_p3.anim,4,1,0.5,0,0,0,0,0,0,0,0
27,DEFEAT,3,vehicle\Bellum\Bellum_p3.anim,4,1,0.5,0,0,0,0,0,0,0,0
27,GUARDING,0,vehicle\Bellum\Bellum_p3.anim,4,1,0.5,0,0,0,0,0,0,0,0
27,GUARDING,1,vehicle\Bellum\Bellum_p3.anim,4,1,0.5,0,0,0,0,0,0,0,0
27,GUARDING,2,vehicle\Bellum\Bellum_p3.anim,4,1,0.5,0,0,0,0,0,0,0,0
28,STAND,0,vehicle\Bellum\Bellum_stand.anim,5,1,3,0,0,0,0,0,0,0,0
28,STAND,1,vehicle\Bellum\Bellum_stand.anim,5,1,3,0,0,0,0,0,0,0,0
28,MOVE,0,vehicle\Bellum\Bellum_walk.anim,5,1,1.3,0,0,0,0,0,0,0,0
28,MOVE,1,vehicle\Bellum\Bellum_crun.anim,5,1,1,0,0,0,0,0,0,0,0
28,BLOCKING,0,vehicle\Bellum\Bellum_p3.anim,4,1,0.5,0,0,0,0,0,0,0,0
28,BLOCKED,0,vehicle\Bellum\Bellum_p3.anim,4,1,0.5,0,0,0,0,0,0,0,0
28,BLOCKED,1,vehicle\Bellum\Bellum_p3.anim,4,1,0.5,0,0,0,0,0,0,0,0
28,BLOCKED,2,vehicle\Bellum\Bellum_p3.anim,4,1,0.5,0,0,0,0,0,0,0,0
28,BLOCKED,3,vehicle\Bellum\Bellum_p3.anim,4,1,0.5,0,0,0,0,0,0,0,0
28,BLOCKED,4,vehicle\Bellum\Bellum_p3.anim,4,1,0.5,0,0,0,0,0,0,0,0
28,BLOCKED,5,vehicle\Bellum\Bellum_p3.anim,4,1,0.5,0,0,0,0,0,0,0,0
28,BLOCKED,6,vehicle\Bellum\Bellum_p3.anim,4,1,0.5,0,0,0,0,0,0,0,0
28,BLOCKED,7,vehicle\Bellum\Bellum_p3.anim,4,1,0.5,0,0,0,0,0,0,0,0
28,DEFEAT,0,vehicle\Bellum\Bellum_p3.anim,4,1,0.5,0,0,0,0,0,0,0,0
28,DEFEAT,1,vehicle\Bellum\Bellum_p3.anim,4,1,0.5,0,0,0,0,0,0,0,0
28,DEFEAT,2,vehicle\Bellum\Bellum_p3.anim,4,1,0.5,0,0,0,0,0,0,0,0
28,DEFEAT,3,vehicle\Bellum\Bellum_p3.anim,4,1,0.5,0,0,0,0,0,0,0,0
28,GUARDING,0,vehicle\Bellum\Bellum_p3.anim,4,1,0.5,0,0,0,0,0,0,0,0
28,GUARDING,1,vehicle\Bellum\Bellum_p3.anim,4,1,0.5,0,0,0,0,0,0,0,0
28,GUARDING,2,vehicle\Bellum\Bellum_p3.anim,4,1,0.5,0,0,0,0,0,0,0,0
29,STAND,0,vehicle\Bellum\Bellum_stand.anim,5,1,3,0,0,0,0,0,0,0,0
29,STAND,0,vehicle\Bellum\Bellum_stand.anim,5,1,3,0,0,0,0,0,0,0,0
29,MOVE,0,vehicle\Bellum\Bellum_walk.anim,5,1,1.3,0,0,0,0,0,0,0,0
29,MOVE,1,vehicle\Bellum\Bellum_crun.anim,5,1,1,0,0,0,0,0,0,0,0
29,BLOCKING,0,vehicle\Bellum\Bellum_p3.anim,4,1,0.5,0,0,0,0,0,0,0,0
29,BLOCKED,0,vehicle\Bellum\Bellum_p3.anim,4,1,0.5,0,0,0,0,0,0,0,0
29,BLOCKED,1,vehicle\Bellum\Bellum_p3.anim,4,1,0.5,0,0,0,0,0,0,0,0
29,BLOCKED,2,vehicle\Bellum\Bellum_p3.anim,4,1,0.5,0,0,0,0,0,0,0,0
29,BLOCKED,3,vehicle\Bellum\Bellum_p3.anim,4,1,0.5,0,0,0,0,0,0,0,0
29,BLOCKED,4,vehicle\Bellum\Bellum_p3.anim,4,1,0.5,0,0,0,0,0,0,0,0
29,BLOCKED,5,vehicle\Bellum\Bellum_p3.anim,4,1,0.5,0,0,0,0,0,0,0,0
29,BLOCKED,6,vehicle\Bellum\Bellum_p3.anim,4,1,0.5,0,0,0,0,0,0,0,0
29,BLOCKED,7,vehicle\Bellum\Bellum_p3.anim,4,1,0.5,0,0,0,0,0,0,0,0
29,DEFEAT,0,vehicle\Bellum\Bellum_p3.anim,4,1,0.5,0,0,0,0,0,0,0,0
29,DEFEAT,1,vehicle\Bellum\Bellum_p3.anim,4,1,0.5,0,0,0,0,0,0,0,0
29,DEFEAT,2,vehicle\Bellum\Bellum_p3.anim,4,1,0.5,0,0,0,0,0,0,0,0
29,DEFEAT,3,vehicle\Bellum\Bellum_p3.anim,4,1,0.5,0,0,0,0,0,0,0,0
29,GUARDING,0,vehicle\Bellum\Bellum_p3.anim,4,1,0.5,0,0,0,0,0,0,0,0
29,GUARDING,1,vehicle\Bellum\Bellum_p3.anim,4,1,0.5,0,0,0,0,0,0,0,0
29,GUARDING,2,vehicle\Bellum\Bellum_p3.anim,4,1,0.5,0,0,0,0,0,0,0,0
30,STAND,0,vehicle\Bellum\Bellum_stand.anim,5,1,3,0,0,0,0,0,0,0,0
30,STAND,1,vehicle\Bellum\Bellum_stand.anim,5,1,3,0,0,0,0,0,0,0,0
30,MOVE,0,vehicle\Bellum\Bellum_walk.anim,5,1,1.3,0,0,0,0,0,0,0,0
30,MOVE,1,vehicle\Bellum\Bellum_crun.anim,5,1,1,0,0,0,0,0,0,0,0
30,BLOCKING,0,vehicle\Bellum\Bellum_p3.anim,4,1,0.5,0,0,0,0,0,0,0,0
30,BLOCKED,0,vehicle\Bellum\Bellum_p3.anim,4,1,0.5,0,0,0,0,0,0,0,0
30,BLOCKED,1,vehicle\Bellum\Bellum_p3.anim,4,1,0.5,0,0,0,0,0,0,0,0
30,BLOCKED,2,vehicle\Bellum\Bellum_p3.anim,4,1,0.5,0,0,0,0,0,0,0,0
30,BLOCKED,3,vehicle\Bellum\Bellum_p3.anim,4,1,0.5,0,0,0,0,0,0,0,0
30,BLOCKED,4,vehicle\Bellum\Bellum_p3.anim,4,1,0.5,0,0,0,0,0,0,0,0
30,BLOCKED,5,vehicle\Bellum\Bellum_p3.anim,4,1,0.5,0,0,0,0,0,0,0,0
30,BLOCKED,6,vehicle\Bellum\Bellum_p3.anim,4,1,0.5,0,0,0,0,0,0,0,0
30,BLOCKED,7,vehicle\Bellum\Bellum_p3.anim,4,1,0.5,0,0,0,0,0,0,0,0
30,DEFEAT,0,vehicle\Bellum\Bellum_p3.anim,4,1,0.5,0,0,0,0,0,0,0,0
30,DEFEAT,1,vehicle\Bellum\Bellum_p3.anim,4,1,0.5,0,0,0,0,0,0,0,0
30,DEFEAT,2,vehicle\Bellum\Bellum_p3.anim,4,1,0.5,0,0,0,0,0,0,0,0
30,DEFEAT,3,vehicle\Bellum\Bellum_p3.anim,4,1,0.5,0,0,0,0,0,0,0,0
30,GUARDING,0,vehicle\Bellum\Bellum_p3.anim,4,1,0.5,0,0,0,0,0,0,0,0
30,GUARDING,1,vehicle\Bellum\Bellum_p3.anim,4,1,0.5,0,0,0,0,0,0,0,0
30,GUARDING,2,vehicle\Bellum\Bellum_p3.anim,4,1,0.5,0,0,0,0,0,0,0,0
31,STAND,0,vehicle\Bellum\Bellum_stand.anim,5,1,3,0,0,0,0,0,0,0,0
31,STAND,1,vehicle\Bellum\Bellum_stand.anim,5,1,3,0,0,0,0,0,0,0,0
31,MOVE,0,vehicle\Bellum\Bellum_walk.anim,5,1,1.3,0,0,0,0,0,0,0,0
31,MOVE,1,vehicle\Bellum\Bellum_crun.anim,5,1,1,0,0,0,0,0,0,0,0
31,BLOCKING,0,vehicle\Bellum\Bellum_p3.anim,4,1,0.5,0,0,0,0,0,0,0,0
31,BLOCKED,0,vehicle\Bellum\Bellum_p3.anim,4,1,0.5,0,0,0,0,0,0,0,0
31,BLOCKED,1,vehicle\Bellum\Bellum_p3.anim,4,1,0.5,0,0,0,0,0,0,0,0
31,BLOCKED,2,vehicle\Bellum\Bellum_p3.anim,4,1,0.5,0,0,0,0,0,0,0,0
31,BLOCKED,3,vehicle\Bellum\Bellum_p3.anim,4,1,0.5,0,0,0,0,0,0,0,0
31,BLOCKED,4,vehicle\Bellum\Bellum_p3.anim,4,1,0.5,0,0,0,0,0,0,0,0
31,BLOCKED,5,vehicle\Bellum\Bellum_p3.anim,4,1,0.5,0,0,0,0,0,0,0,0
31,BLOCKED,6,vehicle\Bellum\Bellum_p3.anim,4,1,0.5,0,0,0,0,0,0,0,0
31,BLOCKED,7,vehicle\Bellum\Bellum_p3.anim,4,1,0.5,0,0,0,0,0,0,0,0
31,DEFEAT,0,vehicle\Bellum\Bellum_p3.anim,4,1,0.5,0,0,0,0,0,0,0,0
31,DEFEAT,1,vehicle\Bellum\Bellum_p3.anim,4,1,0.5,0,0,0,0,0,0,0,0
31,DEFEAT,2,vehicle\Bellum\Bellum_p3.anim,4,1,0.5,0,0,0,0,0,0,0,0
31,DEFEAT,3,vehicle\Bellum\Bellum_p3.anim,4,1,0.5,0,0,0,0,0,0,0,0
31,GUARDING,0,vehicle\Bellum\Bellum_p3.anim,4,1,0.5,0,0,0,0,0,0,0,0
31,GUARDING,1,vehicle\Bellum\Bellum_p3.anim,4,1,0.5,0,0,0,0,0,0,0,0
31,GUARDING,2,vehicle\Bellum\Bellum_p3.anim,4,1,0.5,0,0,0,0,0,0,0,0
32,STAND,0,vehicle\Bellum\Bellum_stand.anim,5,1,3,0,0,0,0,0,0,0,0
32,STAND,1,vehicle\Bellum\Bellum_stand.anim,5,1,3,0,0,0,0,0,0,0,0
32,MOVE,0,vehicle\Bellum\Bellum_walk.anim,5,1,1.3,0,0,0,0,0,0,0,0
32,MOVE,1,vehicle\Bellum\Bellum_crun.anim,5,1,1,0,0,0,0,0,0,0,0
32,BLOCKING,0,vehicle\Bellum\Bellum_p3.anim,4,1,0.5,0,0,0,0,0,0,0,0
32,BLOCKED,0,vehicle\Bellum\Bellum_p3.anim,4,1,0.5,0,0,0,0,0,0,0,0
32,BLOCKED,1,vehicle\Bellum\Bellum_p3.anim,4,1,0.5,0,0,0,0,0,0,0,0
32,BLOCKED,2,vehicle\Bellum\Bellum_p3.anim,4,1,0.5,0,0,0,0,0,0,0,0
32,BLOCKED,3,vehicle\Bellum\Bellum_p3.anim,4,1,0.5,0,0,0,0,0,0,0,0
32,BLOCKED,4,vehicle\Bellum\Bellum_p3.anim,4,1,0.5,0,0,0,0,0,0,0,0
32,BLOCKED,5,vehicle\Bellum\Bellum_p3.anim,4,1,0.5,0,0,0,0,0,0,0,0
32,BLOCKED,6,vehicle\Bellum\Bellum_p3.anim,4,1,0.5,0,0,0,0,0,0,0,0
32,BLOCKED,7,vehicle\Bellum\Bellum_p3.anim,4,1,0.5,0,0,0,0,0,0,0,0
32,DEFEAT,0,vehicle\Bellum\Bellum_p3.anim,4,1,0.5,0,0,0,0,0,0,0,0
32,DEFEAT,1,vehicle\Bellum\Bellum_p3.anim,4,1,0.5,0,0,0,0,0,0,0,0
32,DEFEAT,2,vehicle\Bellum\Bellum_p3.anim,4,1,0.5,0,0,0,0,0,0,0,0
32,DEFEAT,3,vehicle\Bellum\Bellum_p3.anim,4,1,0.5,0,0,0,0,0,0,0,0
32,GUARDING,0,vehicle\Bellum\Bellum_p3.anim,4,1,0.5,0,0,0,0,0,0,0,0
32,GUARDING,1,vehicle\Bellum\Bellum_p3.anim,4,1,0.5,0,0,0,0,0,0,0,0
32,GUARDING,2,vehicle\Bellum\Bellum_p3.anim,4,1,0.5,0,0,0,0,0,0,0,0
33,STAND,0,vehicle\Bellum\Bellum_stand.anim,5,1,3,0,0,0,0,0,0,0,0
33,STAND,1,vehicle\Bellum\Bellum_stand.anim,5,1,3,0,0,0,0,0,0,0,0
33,MOVE,0,vehicle\Bellum\Bellum_walk.anim,5,1,1.3,0,0,0,0,0,0,0,0
33,MOVE,1,vehicle\Bellum\Bellum_crun.anim,5,1,1,0,0,0,0,0,0,0,0
33,BLOCKING,0,vehicle\Bellum\Bellum_p3.anim,4,1,0.5,0,0,0,0,0,0,0,0
33,BLOCKED,0,vehicle\Bellum\Bellum_p3.anim,4,1,0.5,0,0,0,0,0,0,0,0
33,BLOCKED,1,vehicle\Bellum\Bellum_p3.anim,4,1,0.5,0,0,0,0,0,0,0,0
33,BLOCKED,2,vehicle\Bellum\Bellum_p3.anim,4,1,0.5,0,0,0,0,0,0,0,0
33,BLOCKED,3,vehicle\Bellum\Bellum_p3.anim,4,1,0.5,0,0,0,0,0,0,0,0
33,BLOCKED,4,vehicle\Bellum\Bellum_p3.anim,4,1,0.5,0,0,0,0,0,0,0,0
33,BLOCKED,5,vehicle\Bellum\Bellum_p3.anim,4,1,0.5,0,0,0,0,0,0,0,0
33,BLOCKED,6,vehicle\Bellum\Bellum_p3.anim,4,1,0.5,0,0,0,0,0,0,0,0
33,BLOCKED,7,vehicle\Bellum\Bellum_p3.anim,4,1,0.5,0,0,0,0,0,0,0,0
33,DEFEAT,0,vehicle\Bellum\Bellum_p3.anim,4,1,0.5,0,0,0,0,0,0,0,0
33,DEFEAT,1,vehicle\Bellum\Bellum_p3.anim,4,1,0.5,0,0,0,0,0,0,0,0
33,DEFEAT,2,vehicle\Bellum\Bellum_p3.anim,4,1,0.5,0,0,0,0,0,0,0,0
33,DEFEAT,3,vehicle\Bellum\Bellum_p3.anim,4,1,0.5,0,0,0,0,0,0,0,0
33,GUARDING,0,vehicle\Bellum\Bellum_p3.anim,4,1,0.5,0,0,0,0,0,0,0,0
33,GUARDING,1,vehicle\Bellum\Bellum_p3.anim,4,1,0.5,0,0,0,0,0,0,0,0
33,GUARDING,2,vehicle\Bellum\Bellum_p3.anim,4,1,0.5,0,0,0,0,0,0,0,0
34,STAND,0,vehicle\Bellum\Bellum_stand.anim,5,1,3,0,0,0,0,0,0,0,0
34,STAND,1,vehicle\Bellum\Bellum_stand.anim,5,1,3,0,0,0,0,0,0,0,0
34,MOVE,0,vehicle\Bellum\Bellum_walk.anim,5,1,1.3,0,0,0,0,0,0,0,0
34,MOVE,1,vehicle\Bellum\Bellum_crun.anim,5,1,1,0,0,0,0,0,0,0,0
34,BLOCKING,0,vehicle\Bellum\Bellum_p3.anim,4,1,0.5,0,0,0,0,0,0,0,0
34,BLOCKED,0,vehicle\Bellum\Bellum_p3.anim,4,1,0.5,0,0,0,0,0,0,0,0
34,BLOCKED,1,vehicle\Bellum\Bellum_p3.anim,4,1,0.5,0,0,0,0,0,0,0,0
34,BLOCKED,2,vehicle\Bellum\Bellum_p3.anim,4,1,0.5,0,0,0,0,0,0,0,0
34,BLOCKED,3,vehicle\Bellum\Bellum_p3.anim,4,1,0.5,0,0,0,0,0,0,0,0
34,BLOCKED,4,vehicle\Bellum\Bellum_p3.anim,4,1,0.5,0,0,0,0,0,0,0,0
34,BLOCKED,5,vehicle\Bellum\Bellum_p3.anim,4,1,0.5,0,0,0,0,0,0,0,0
34,BLOCKED,6,vehicle\Bellum\Bellum_p3.anim,4,1,0.5,0,0,0,0,0,0,0,0
34,BLOCKED,7,vehicle\Bellum\Bellum_p3.anim,4,1,0.5,0,0,0,0,0,0,0,0
34,DEFEAT,0,vehicle\Bellum\Bellum_p3.anim,4,1,0.5,0,0,0,0,0,0,0,0
34,DEFEAT,1,vehicle\Bellum\Bellum_p3.anim,4,1,0.5,0,0,0,0,0,0,0,0
34,DEFEAT,2,vehicle\Bellum\Bellum_p3.anim,4,1,0.5,0,0,0,0,0,0,0,0
34,DEFEAT,3,vehicle\Bellum\Bellum_p3.anim,4,1,0.5,0,0,0,0,0,0,0,0
34,GUARDING,0,vehicle\Bellum\Bellum_p3.anim,4,1,0.5,0,0,0,0,0,0,0,0
34,GUARDING,1,vehicle\Bellum\Bellum_p3.anim,4,1,0.5,0,0,0,0,0,0,0,0
34,GUARDING,2,vehicle\Bellum\Bellum_p3.anim,4,1,0.5,0,0,0,0,0,0,0,0
