BrickUID,BrickIndex,Revival,RegenCycle,Direction,Location_X,Location_Y,IsCreate
101,36814,0,0,180,40.434,176.778,0
105,36814,0,0,180,55.918,95.244,0
109,36814,0,0,180,120.584,50.837,0
113,36823,0,0,270,195.123,41.142,0
102,36814,0,0,0,472.074,176.263,0
106,36814,0,0,180,453.821,94.412,0
110,36814,0,0,180,392.195,49.377,0
114,36823,0,0,270,316.885,41.017,0
104,36814,0,0,180,470.928,322.567,0
107,36814,0,0,180,54.865,400.447,0
111,36814,0,0,180,120.392,447.034,0
115,36823,0,0,270,193.645,471.923,0
103,36814,0,0,0,40.116,317.203,0
108,36814,0,0,180,455.01,400.875,0
112,36814,0,0,180,393.756,448.131,0
116,36823,0,0,270,317.37,471.353,0
117,36823,0,0,270,221.309,127.595,0
121,36814,0,0,180,148.494,179.177,0
118,36823,0,0,270,289.896,127.754,0
122,36814,0,0,180,363.753,180.358,0
129,36815,0,0,0,255.939,123.211,0
125,36816,0,0,180,256.259,137.459,0
127,36817,0,0,180,255.737,181.594,0
120,36823,0,0,270,288.055,392.3,0
124,36814,0,0,180,367.086,329.922,0
119,36823,0,0,270,223.052,394.134,0
123,36814,0,0,180,144.743,331.704,0
130,36815,0,0,180,256.115,397.362,0
126,36816,0,0,180,256.074,384.466,0
128,36817,0,0,180,254.515,341.88,0
131,36818,0,0,0,45.52,113.613,0
132,36818,0,0,0,460.342,114.582,0
133,36818,0,0,180,58.15,377.251,0
134,36818,0,0,180,458.965,380.148,0
135,36819,0,0,180,253.589,21.946,0
136,36819,0,0,180,256.009,493.765,0
138,36821,0,0,180,136.62,221.94,0
139,36821,0,0,180,380.06,222.98,0
140,36821,0,0,180,134.72,286.92,0
141,36821,0,0,180,382.97,286.3,0
142,36822,0,0,229,212.136,246.976,0
143,36822,0,0,127,212.522,285.78,0
144,36822,0,0,180,247.236,300.363,0
145,36822,0,0,236,282.922,284.559,0
146,36822,0,0,124,283.96,247.857,0
147,36822,0,0,180,247.815,231.237,0
