NpcIndex,201,204,207,203,202,209,208,210,206,205,1106,211,4155,5134,5135,5136,5137,5138
Direction,265,270,270,334,179,227,345,101,93,159,125,357,270,300,90,180,45,90
Location_X,441.481,441.804,440.979,80.762,72.004,49.604,461.412,475.378,474.753,464.160,480.468,73.891,464.978,192.217,162.363,449.978,338.978,97.465
Location_Y,434.144,421.151,427.959,331.596,361.987,94.834,105.816,113.919,96.814,44.798,24.607,331.702,426.964,474.720,286.974,188.964,173.964,203.474
Description,,,,,,,,,,,,,,,,,,
