BrickUID,BrickIndex,Revival,RegenCycle,Direction,Location_X,Location_Y,IsCreate
101,36910,0,0,180,239.95,193.1,1
102,36910,0,0,180,239.95,249,1
103,36910,0,0,180,239.95,311.2,1
104,36910,0,0,180,239.95,366,1
