Creature,PET,,,,,,,,,,,
Index,60522,,,,,,,,,,,
Skeleton,Monster\pet_horse_colosseum.skel,,,,,,,,,,,
,,,,,,,,,,,,
Style,Action,Index,Animation,Start_Inter,End_Inter,TimeLength,Swing,Strike,Timing,Split,Timing2,Freeze
0,STAND,0,Monster\pet_horse_colosseum\pet_horse_colosseum_stand_lv3.anim,4,1,6.667,0,0,0,0,0,0
0,STAND,1,Monster\pet_horse_colosseum\pet_horse_colosseum_stand_lv3.anim,4,1,6.667,0,0,0,0,0,0
0,SM_STAND,0,Monster\pet_horse_colosseum\pet_horse_colosseum_swim_stand_lv3.anim,4,1,10,0,0,0,0,0,0
0,SM_STAND,1,Monster\pet_horse_colosseum\pet_horse_colosseum_swim_stand_lv3.anim,4,1,10,0,0,0,0,0,0
0,REVIVE,0,,0,1,0,0,0,0,0,0,0
0,MOVE,0,Monster\pet_horse_colosseum\pet_horse_colosseum_crun.anim,4,1,0.3,0,0,0,0,0,0
0,MOVE,1,Monster\pet_horse_colosseum\pet_horse_colosseum_crun.anim,4,1,0.3,0,0,0,0,0,0
0,SM_MOVE,0,Monster\pet_horse_colosseum\pet_horse_colosseum_swim_crun.anim,4,1,1,0,0,0,0,0,0
0,SM_MOVE,1,Monster\pet_horse_colosseum\pet_horse_colosseum_swim_crun.anim,4,1,1,0,0,0,0,0,0
