Creature,PET,,,,,,,,,,,
Index,60528,,,,,,,,,,,
Skeleton,Monster\pet_drako.skel,,,,,,,,,,,
,,,,,,,,,,,,
Style,Action,Index,Animation,Start_Inter,End_Inter,TimeLength,Swing,Strike,Timing,Split,Timing2,Freeze
0,STAND,0,monster\pet_drako\pet_drako_stand_lv3.anim,4,1,11,0,0,0,0,0,0
0,STAND,1,monster\pet_drako\pet_drako_stand_lv3.anim,4,1,11,0,0,0,0,0,0
0,SM_STAND,0,monster\pet_drako\pet_drako_swim_stand_lv3.anim,4,1,15,0,0,0,0,0,0
0,SM_STAND,1,monster\pet_drako\pet_drako_swim_stand_lv3.anim,4,1,15,0,0,0,0,0,0
0,REVIVE,0,,0,1,0,0,0,0,0,0,0
0,MOVE,0,monster\pet_drako\pet_drako_run.anim,4,1,0.5,0,0,0,0,0,0
0,MOVE,1,monster\pet_drako\pet_drako_run.anim,4,1,0.5,0,0,0,0,0,0
0,SM_MOVE,0,monster\pet_drako\pet_drako_run.anim,4,1,0.7,0,0,0,0,0,0
0,SM_MOVE,1,monster\pet_drako\pet_drako_run.anim,4,1,0.7,0,0,0,0,0,0
