Creature,PET,,,,,,,,,,,
Index,60567,,,,,,,,,,,
Skeleton,Monster\pet_dog.skel,,,,,,,,,,,
,,,,,,,,,,,,
Style,Action,Index,Animation,Start_Inter,End_Inter,TimeLength,Swing,Strike,Timing,Split,Timing2,Freeze
0,STAND,0,monster\pet_dog\pet_dog_stand_lv2.anim,4,1,7,0,0,0,0,0,0
0,STAND,1,monster\pet_dog\pet_dog_stand_lv2.anim,4,1,7,0,0,0,0,0,0
0,SM_STAND,0,monster\pet_dog\pet_dog_swim_stand_lv2.anim,4,1,7,0,0,0,0,0,0
0,SM_STAND,1,monster\pet_dog\pet_dog_swim_stand_lv2.anim,4,1,7,0,0,0,0,0,0
0,REVIVE,0,,0,1,0,0,0,0,0,0,0
0,MOVE,0,monster\pet_dog\pet_dog_run.anim,4,1,0.5,0,0,0,0,0,0
0,MOVE,1,monster\pet_dog\pet_dog_run.anim,4,1,0.5,0,0,0,0,0,0
0,SM_MOVE,0,monster\pet_dog\pet_dog_swim_run.anim,4,1,0.5,0,0,0,0,0,0
0,SM_MOVE,1,monster\pet_dog\pet_dog_swim_run.anim,4,1,0.5,0,0,0,0,0,0
