Creature,PET,,,,,,,,,,,
Index,60393,,,,,,,,,,,
Skeleton,Monster\Pet10.skel,,,,,,,,,,,
,,,,,,,,,,,,
Style,Action,Index,Animation,Start_Inter,End_Inter,TimeLength,Swing,Strike,Timing,Split,Timing2,Freeze
0,STAND,0,Monster\Pet10\Pet10_stand.anim,4,1,7.5,0,0,0,0,0,0
0,STAND,1,Monster\Pet10\Pet10_stand.anim,4,1,7.5,0,0,0,0,0,0
0,SM_STAND,0,Monster\Pet10\Pet10_swim_stand.anim,4,1,10,0,0,0,0,0,0
0,SM_STAND,1,Monster\Pet10\Pet10_swim_stand.anim,4,1,10,0,0,0,0,0,0
0,REVIVE,0,,0,1,0,0,0,0,0,0,0
0,MOVE,0,Monster\Pet10\Pet10_walk.anim,4,1,1,0,0,0,0,0,0
0,MOVE,1,Monster\Pet10\Pet10_crun.anim,4,1,1,0,0,0,0,0,0
0,SM_MOVE,0,Monster\Pet10\Pet10_swim_walk.anim,4,1,1,0,0,0,0,0,0
0,SM_MOVE,1,Monster\Pet10\Pet10_swim_crun.anim,4,1,1,0,0,0,0,0,0
