Creature,PET,,,,,,,,,,,
Index,60429,,,,,,,,,,,
Skeleton,Monster\Pet16_frog.skel,,,,,,,,,,,
,,,,,,,,,,,,
Style,Action,Index,Animation,Start_Inter,End_Inter,TimeLength,Swing,Strike,Timing,Split,Timing2,Freeze
0,STAND,0,Monster\Pet16_frog\Pet16_frog_stand.anim,4,1,12,0,0,0,0,0,0
0,STAND,1,Monster\Pet16_frog\Pet16_frog_stand.anim,4,1,12,0,0,0,0,0,0
0,SM_STAND,0,Monster\Pet16_frog\Pet16_frog_swim_stand.anim,4,1,10,0,0,0,0,0,0
0,SM_STAND,1,Monster\Pet16_frog\Pet16_frog_swim_stand.anim,4,1,10,0,0,0,0,0,0
0,REVIVE,0,,0,1,0,0,0,0,0,0,0
0,MOVE,0,Monster\Pet16_frog\Pet16_frog_crun.anim,4,1,0.8,0,0,0,0,0,0
0,MOVE,1,Monster\Pet16_frog\Pet16_frog_crun.anim,4,1,0.8,0,0,0,0,0,0
0,SM_MOVE,0,Monster\Pet16_frog\Pet16_frog_swim_crun.anim,4,1,1,0,0,0,0,0,0
0,SM_MOVE,1,Monster\Pet16_frog\Pet16_frog_swim_crun.anim,4,1,1,0,0,0,0,0,0
