Creature,PET,,,,,,,,,,,
Index,60482,,,,,,,,,,,
Skeleton,Monster\pet_Panda.skel,,,,,,,,,,,
,,,,,,,,,,,,
Style,Action,Index,Animation,Start_Inter,End_Inter,TimeLength,Swing,Strike,Timing,Split,Timing2,Freeze
0,STAND,0,Monster\pet_Panda\pet_Panda_stand.anim,4,1,13,0,0,0,0,0,0
0,STAND,1,Monster\pet_Panda\pet_Panda_stand.anim,4,1,13,0,0,0,0,0,0
0,SM_STAND,0,Monster\pet_Panda\pet_Panda_swim_stand.anim,4,1,12,0,0,0,0,0,0
0,SM_STAND,1,Monster\pet_Panda\pet_Panda_swim_stand.anim,4,1,12,0,0,0,0,0,0
0,REVIVE,0,,0,1,0,0,0,0,0,0,0
0,MOVE,0,Monster\pet_Panda\pet_Panda_crun.anim,4,1,1,0,0,0,0,0,0
0,MOVE,1,Monster\pet_Panda\pet_Panda_crun.anim,4,1,1,0,0,0,0,0,0
0,SM_MOVE,0,Monster\pet_Panda\pet_Panda_swim_crun.anim,4,1,1,0,0,0,0,0,0
0,SM_MOVE,1,Monster\pet_Panda\pet_Panda_swim_crun.anim,4,1,1,0,0,0,0,0,0
