Creature,PET,,,,,,,,,,,
Index,60479,,,,,,,,,,,
Skeleton,Monster\pet_Gummy_worm.skel,,,,,,,,,,,
,,,,,,,,,,,,
Style,Action,Index,Animation,Start_Inter,End_Inter,TimeLength,Swing,Strike,Timing,Split,Timing2,Freeze
0,STAND,0,Monster\pet_Gummy_worm\pet_Gummy_worm_stand.anim,4,1,7,0,0,0,0,0,0
0,STAND,1,Monster\pet_Gummy_worm\pet_Gummy_worm_stand.anim,4,1,7,0,0,0,0,0,0
0,SM_STAND,0,Monster\pet_Gummy_worm\pet_Gummy_worm_stand_swim.anim,4,1,8,0,0,0,0,0,0
0,SM_STAND,1,Monster\pet_Gummy_worm\pet_Gummy_worm_stand_swim.anim,4,1,8,0,0,0,0,0,0
0,REVIVE,0,,0,1,0,0,0,0,0,0,0
0,MOVE,0,Monster\pet_Gummy_worm\pet_Gummy_worm_crun.anim,4,1,0.6,0,0,0,0,0,0
0,MOVE,1,Monster\pet_Gummy_worm\pet_Gummy_worm_crun.anim,4,1,0.6,0,0,0,0,0,0
0,SM_MOVE,0,Monster\pet_Gummy_worm\pet_Gummy_worm_crun_swim.anim,4,1,0.6,0,0,0,0,0,0
0,SM_MOVE,1,Monster\pet_Gummy_worm\pet_Gummy_worm_crun_swim.anim,4,1,0.6,0,0,0,0,0,0
