Creature,PET,,,,,,,,,,,
Index,60223,,,,,,,,,,,
Skeleton,Monster\Pet07.skel,,,,,,,,,,,

Style,Action,Index,Animation,Start_Inter,End_Inter,TimeLength,Swing,Strike,Timing,Split,Timing2,Freeze
0,STAND,0,Monster\Pet07\Pet07_stand.anim,4,1,14,0,0,0,0,0,0
0,STAND,1,Monster\Pet07\Pet07_stand.anim,4,1,14,0,0,0,0,0,0
0,SM_STAND,0,Monster\Pet07\Pet07_swim_stand.anim,4,1,13,0,0,0,0,0,0
0,SM_STAND,1,Monster\Pet07\Pet07_swim_stand.anim,4,1,13,0,0,0,0,0,0
0,REVIVE,0,,0,1,0,0,0,0,0,0,0
0,MOVE,0,Monster\Pet07\Pet07_walk.anim,4,1,1,0,0,0,0,0,0
0,MOVE,1,Monster\Pet07\Pet07_crun.anim,4,1,1,0,0,0,0,0,0
0,SM_MOVE,0,Monster\Pet07\Pet07_swim_walk.anim,4,1,1.5,0,0,0,0,0,0
0,SM_MOVE,1,Monster\Pet07\Pet07_swim_crun.anim,4,1,1,0,0,0,0,0,0
