07? 7? 13? 17? 11?,Name,Rank,Type,Code,Attribute,Description,Quality,Job,Appraisal,Value,Weight,ReqLv,Price,Width,Height,StackNumber,AutoStack,StackDrop_Min,StackDrop_Max,Has_Durability,Can_Repair,Durability_Low,Durability_Normal,Durability_High,DropRate_LowQuality,DropRate_NormalQuality,DropRate_HighQuality,No Data,Wear : Range,Wear : Speed,Wear : CriticalRate,Wear : Drop LV,Wear : Drop Option Number,Wear : Drop Socket 1EA Rate,Wear : Drop Socket 2EA Rate,Wear : Drop Socket 3EA Rate,Wear : Drop Socket 4EA Rate,Wear : Small Monster Attack Addition,Wear : Middle Monster Attack Addition,Wear : Large Monster Attack Addition,Wear : Boss Monster Attack Addition,Wear : Undead Monster Attack Addition,Option Index 1,Option Value 1,Option Index 2,Option Value 2,Option Index 3,Option Value 3,Option Index 4,Option Value 4,Option Index 5,Option Value 5,Option Index 6,Option Value 6,MinOption1,MaxOption1,MinOption2,MaxOption2,MinOption3,MaxOption3,Level 0 Item LV,Level 0 Melee Min Attack,Level 0 Melee Max Attack,Level 0 Magic Min Attack,Level 0 Magic Max Attack,Level 0 Defance Min,Level 0 Defance Max,Level 0 Blocking Rate,Level 0 Critical Bonus,Level 0 Str Request,Level 0 Dex Request,Level 0 Spr Request,Level 0 Appraisal Addition,BeforeLevelIndex,NextLevelIndex,DwCashItemCost,CashItemUsePeriod,CashItemSell,AddExpRate,AddDropItemRate,EventType,PeriodBreak,Belong,NextShape
60001,禁團的分裂,4,0,11,0,11,35,1111-1111-1111-1111-1111-1111-1111-1111,0,0,1,0,0,1,1,0,0,1,1,0,0,0,0,0,0,0,0,5230,0,0,0,0,0,0,0,0,0,0,0,0,0,0,0,0,0,0,0,0,0,0,0,0,0,0,0,0,0,0,0,0,0,0,0,0,0,0,0,0,0,0,0,0,0,0,0,1,0,0,0,0,0,1,0,0
60002,鑄孔師的靈魂,4,1,2,0,258,35,1111-1111-1111-1111-1111-1111-1111-1111,0,0,1,0,0,1,1,0,0,1,1,0,0,0,0,0,0,0,0,5231,0,0,0,0,0,0,0,0,0,0,0,0,0,0,0,0,0,0,0,0,0,0,0,0,0,0,0,0,0,0,0,0,0,0,0,0,0,0,0,0,0,0,0,0,0,0,0,88,0,1,0,0,0,1,0,0
60003,技能導師的守護,4,0,10,0,10,35,1111-1111-1111-1111-1111-1111-1111-1111,0,0,1,0,0,1,1,0,0,1,1,0,0,0,0,0,0,0,0,5232,0,0,0,0,0,0,0,0,0,0,0,0,0,0,0,0,0,0,0,0,0,0,0,0,0,0,0,0,0,0,0,0,0,0,0,0,0,0,0,0,0,0,0,0,0,0,0,300,0,1,0,0,0,1,0,0
60004,力量的再成長,4,0,6,0,6,35,1111-1111-1111-1111-1111-1111-1111-1111,0,0,1,0,0,1,1,0,0,1,1,0,0,0,0,0,0,0,0,5233,0,0,0,0,0,0,0,0,0,0,0,0,0,0,0,0,0,0,0,0,0,0,0,0,0,0,0,0,0,0,0,0,0,0,0,0,0,0,0,0,0,0,0,0,0,0,0,99,0,0,0,0,0,1,0,0
60005,體力的再成長,4,0,7,0,7,35,1111-1111-1111-1111-1111-1111-1111-1111,0,0,1,0,0,1,1,0,0,1,1,0,0,0,0,0,0,0,0,5234,0,0,0,0,0,0,0,0,0,0,0,0,0,0,0,0,0,0,0,0,0,0,0,0,0,0,0,0,0,0,0,0,0,0,0,0,0,0,0,0,0,0,0,0,0,0,0,99,0,0,0,0,0,1,0,0
60006,敏捷的再成長,4,0,8,0,8,35,1111-1111-1111-1111-1111-1111-1111-1111,0,0,1,0,0,1,1,0,0,1,1,0,0,0,0,0,0,0,0,5235,0,0,0,0,0,0,0,0,0,0,0,0,0,0,0,0,0,0,0,0,0,0,0,0,0,0,0,0,0,0,0,0,0,0,0,0,0,0,0,0,0,0,0,0,0,0,0,99,0,0,0,0,0,1,0,0
60007,精神的再成長,4,0,9,0,9,35,1111-1111-1111-1111-1111-1111-1111-1111,0,0,1,0,0,1,1,0,0,1,1,0,0,0,0,0,0,0,0,5236,0,0,0,0,0,0,0,0,0,0,0,0,0,0,0,0,0,0,0,0,0,0,0,0,0,0,0,0,0,0,0,0,0,0,0,0,0,0,0,0,0,0,0,0,0,0,0,99,0,0,0,0,0,1,0,0
60008,暗黑VIP,4,6,0,0,1536,35,1111-1111-1111-1111-1111-1111-1111-1111,0,0,1,0,0,1,1,0,0,1,1,0,0,0,0,0,0,0,0,5237,0,0,0,0,0,0,0,0,0,0,0,0,0,0,0,0,0,0,0,0,0,0,0,0,0,0,0,0,0,0,0,0,0,0,0,0,0,0,0,0,0,0,0,0,0,0,0,100,1296000,1,0.2,0,0,1,0,0
60009,鐵匠的祝福,4,1,1,0,257,35,1111-1111-1111-1111-1111-1111-1111-1111,0,0,1,0,0,1,1,0,0,1,1,0,0,0,0,0,0,0,0,5238,0,0,0,0,0,0,0,0,0,0,0,0,0,0,0,0,0,0,0,0,0,0,0,0,0,0,0,0,0,0,0,0,0,0,0,0,0,0,0,0,0,0,0,0,0,0,0,88,0,1,0,0,0,1,0,0
60010,鑄孔師的靈魂,4,1,2,0,258,35,1111-1111-1111-1111-1111-1111-1111-1111,0,0,1,0,0,1,1,5,0,1,1,0,0,0,0,0,0,0,0,5239,0,0,0,0,0,0,0,0,0,0,0,0,0,0,0,0,0,0,0,0,0,0,0,0,0,0,0,0,0,0,0,0,0,0,0,0,0,0,0,0,0,0,0,0,0,0,0,400,0,1,0,0,0,1,0,0
60011,鑄孔師的靈魂,4,1,2,0,258,35,1111-1111-1111-1111-1111-1111-1111-1111,0,0,1,0,0,1,1,10,0,1,1,0,0,0,0,0,0,0,0,5240,0,0,0,0,0,0,0,0,0,0,0,0,0,0,0,0,0,0,0,0,0,0,0,0,0,0,0,0,0,0,0,0,0,0,0,0,0,0,0,0,0,0,0,0,0,0,0,800,0,1,0,0,0,1,0,0
60012,鐵匠的祝福,4,1,1,0,257,35,1111-1111-1111-1111-1111-1111-1111-1111,0,0,1,0,0,1,1,5,0,1,1,0,0,0,0,0,0,0,0,5241,0,0,0,0,0,0,0,0,0,0,0,0,0,0,0,0,0,0,0,0,0,0,0,0,0,0,0,0,0,0,0,0,0,0,0,0,0,0,0,0,0,0,0,0,0,0,0,400,0,1,0,0,0,1,0,0
60013,鐵匠的祝福,4,1,1,0,257,35,1111-1111-1111-1111-1111-1111-1111-1111,0,0,1,0,0,1,1,10,0,1,1,0,0,0,0,0,0,0,0,5242,0,0,0,0,0,0,0,0,0,0,0,0,0,0,0,0,0,0,0,0,0,0,0,0,0,0,0,0,0,0,0,0,0,0,0,0,0,0,0,0,0,0,0,0,0,0,0,800,0,1,0,0,0,1,0,0
60014,暗黑VIP,4,6,0,0,1536,35,1111-1111-1111-1111-1111-1111-1111-1111,0,0,1,0,0,1,1,0,0,1,1,0,0,0,0,0,0,0,0,5243,0,0,0,0,0,0,0,0,0,0,0,0,0,0,0,0,0,0,0,0,0,0,0,0,0,0,0,0,0,0,0,0,0,0,0,0,0,0,0,0,0,0,0,0,0,0,0,180,2592000,1,0.2,0,0,1,0,0
60015,暗黑VIP,4,6,0,0,1536,35,1111-1111-1111-1111-1111-1111-1111-1111,0,0,1,0,0,1,1,0,0,1,1,0,0,0,0,0,0,0,0,5244,0,0,0,0,0,0,0,0,0,0,0,0,0,0,0,0,0,0,0,0,0,0,0,0,0,0,0,0,0,0,0,0,0,0,0,0,0,0,0,0,0,0,0,0,0,0,0,350,5184000,1,0.2,0,0,1,0,0
60016,暗黑VIP,4,6,0,0,1536,35,1111-1111-1111-1111-1111-1111-1111-1111,0,0,1,0,0,1,1,0,0,1,1,0,0,0,0,0,0,0,0,5245,0,0,0,0,0,0,0,0,0,0,0,0,0,0,0,0,0,0,0,0,0,0,0,0,0,0,0,0,0,0,0,0,0,0,0,0,0,0,0,0,0,0,0,0,0,0,0,500,7776000,1,0.2,0,0,1,0,0
60017,神靈的失誤,4,0,10,0,10,35,1111-1111-1111-1111-1111-1111-1111-1111,0,0,1,0,0,1,1,5,0,1,1,0,0,0,0,0,0,0,0,5246,0,0,0,0,0,0,0,0,0,0,0,0,0,0,0,0,0,0,0,0,0,0,0,0,0,0,0,0,0,0,0,0,0,0,0,0,0,0,0,0,0,0,0,0,0,0,0,99,0,1,0,0,0,1,0,0
60018,神靈的失誤,4,0,10,0,10,35,1111-1111-1111-1111-1111-1111-1111-1111,0,0,1,0,0,1,1,10,0,1,1,0,0,0,0,0,0,0,0,5247,0,0,0,0,0,0,0,0,0,0,0,0,0,0,0,0,0,0,0,0,0,0,0,0,0,0,0,0,0,0,0,0,0,0,0,0,0,0,0,0,0,0,0,0,0,0,0,15800,0,0,0,0,0,1,0,0
60019,神奇生命藥水 A,4,0,1,0,1,37,1111-1111-1111-1111-1111-1111-1111-1111,1800,480,1,0,0,1,1,300,0,1,1,0,0,0,0,0,0,0,0,5248,0,0,0,0,0,0,0,0,0,0,0,0,0,0,0,0,0,0,0,0,0,0,0,0,0,0,0,0,0,0,0,0,0,0,0,0,0,0,0,0,0,0,0,0,0,0,0,2,0,1,0,0,0,1,0,0
60020,神奇生命藥水 B,4,0,1,0,1,37,1111-1111-1111-1111-1111-1111-1111-1111,1800,480,1,0,0,1,1,1000,0,1,1,0,0,0,0,0,0,0,0,5249,0,0,0,0,0,0,0,0,0,0,0,0,0,0,0,0,0,0,0,0,0,0,0,0,0,0,0,0,0,0,0,0,0,0,0,0,0,0,0,0,0,0,0,0,0,0,0,6,0,1,0,0,0,1,0,0
60021,神奇魔法藥水 A,4,0,2,0,2,37,1111-1111-1111-1111-1111-1111-1111-1111,1800,480,1,0,0,1,1,300,0,1,1,0,0,0,0,0,0,0,0,5250,0,0,0,0,0,0,0,0,0,0,0,0,0,0,0,0,0,0,0,0,0,0,0,0,0,0,0,0,0,0,0,0,0,0,0,0,0,0,0,0,0,0,0,0,0,0,0,2,0,1,0,0,0,1,0,0
60022,神奇魔法藥水 B,4,0,2,0,2,37,1111-1111-1111-1111-1111-1111-1111-1111,1800,480,1,0,0,1,1,1000,0,1,1,0,0,0,0,0,0,0,0,5251,0,0,0,0,0,0,0,0,0,0,0,0,0,0,0,0,0,0,0,0,0,0,0,0,0,0,0,0,0,0,0,0,0,0,0,0,0,0,0,0,0,0,0,0,0,0,0,6,0,1,0,0,0,1,0,0
60023,卓越生命藥水 A,4,0,1,0,1,38,1111-1111-1111-1111-1111-1111-1111-1111,2000,820,1,0,0,1,1,300,0,1,1,0,0,0,0,0,0,0,0,5252,0,0,0,0,0,0,0,0,0,0,0,0,0,0,0,0,0,0,0,0,0,0,0,0,0,0,0,0,0,0,0,0,0,0,0,0,0,0,0,0,0,0,0,0,0,0,0,4,0,1,0,0,0,1,0,0
60024,卓越生命藥水 B,4,0,1,0,1,38,1111-1111-1111-1111-1111-1111-1111-1111,2000,820,1,0,0,1,1,1000,0,1,1,0,0,0,0,0,0,0,0,5253,0,0,0,0,0,0,0,0,0,0,0,0,0,0,0,0,0,0,0,0,0,0,0,0,0,0,0,0,0,0,0,0,0,0,0,0,0,0,0,0,0,0,0,0,0,0,0,8,0,1,0,0,0,1,0,0
60025,卓越魔法藥水 A,4,0,2,0,2,38,1111-1111-1111-1111-1111-1111-1111-1111,2000,820,1,0,0,1,1,300,0,1,1,0,0,0,0,0,0,0,0,5254,0,0,0,0,0,0,0,0,0,0,0,0,0,0,0,0,0,0,0,0,0,0,0,0,0,0,0,0,0,0,0,0,0,0,0,0,0,0,0,0,0,0,0,0,0,0,0,4,0,1,0,0,0,1,0,0
60026,卓越魔法藥水 B,4,0,2,0,2,38,1111-1111-1111-1111-1111-1111-1111-1111,2000,820,1,0,0,1,1,1000,0,1,1,0,0,0,0,0,0,0,0,5255,0,0,0,0,0,0,0,0,0,0,0,0,0,0,0,0,0,0,0,0,0,0,0,0,0,0,0,0,0,0,0,0,0,0,0,0,0,0,0,0,0,0,0,0,0,0,0,8,0,1,0,0,0,1,0,0
60027,神蹟生命藥水 B,4,0,1,0,1,38,1111-1111-1111-1111-1111-1111-1111-1111,3200,1600,1,0,0,1,1,1000,0,1,1,0,0,0,0,0,0,0,0,5256,0,0,0,0,0,0,0,0,0,0,0,0,0,0,0,0,0,0,0,0,0,0,0,0,0,0,0,0,0,0,0,0,0,0,0,0,0,0,0,0,0,0,0,0,0,0,0,9,0,1,0,0,0,1,0,0
60028,神蹟生命藥水 C,4,0,1,0,1,38,1111-1111-1111-1111-1111-1111-1111-1111,3200,1600,1,0,0,1,1,5000,0,1,1,0,0,0,0,0,0,0,0,5257,0,0,0,0,0,0,0,0,0,0,0,0,0,0,0,0,0,0,0,0,0,0,0,0,0,0,0,0,0,0,0,0,0,0,0,0,0,0,0,0,0,0,0,0,0,0,0,38,0,1,0,0,0,1,0,0
60029,神蹟魔法藥水 B,4,0,2,0,2,38,1111-1111-1111-1111-1111-1111-1111-1111,3200,1600,1,0,0,1,1,1000,0,1,1,0,0,0,0,0,0,0,0,5258,0,0,0,0,0,0,0,0,0,0,0,0,0,0,0,0,0,0,0,0,0,0,0,0,0,0,0,0,0,0,0,0,0,0,0,0,0,0,0,0,0,0,0,0,0,0,0,9,0,1,0,0,0,1,0,0
60030,神蹟魔法藥水 C,4,0,2,0,2,38,1111-1111-1111-1111-1111-1111-1111-1111,3200,1600,1,0,0,1,1,5000,0,1,1,0,0,0,0,0,0,0,0,5259,0,0,0,0,0,0,0,0,0,0,0,0,0,0,0,0,0,0,0,0,0,0,0,0,0,0,0,0,0,0,0,0,0,0,0,0,0,0,0,0,0,0,0,0,0,0,0,38,0,1,0,0,0,1,0,0
60031,神奇生命藥水 C,4,0,1,0,1,37,1111-1111-1111-1111-1111-1111-1111-1111,1800,480,1,0,0,1,1,5000,0,1,1,0,0,0,0,0,0,0,0,5260,0,0,0,0,0,0,0,0,0,0,0,0,0,0,0,0,0,0,0,0,0,0,0,0,0,0,0,0,0,0,0,0,0,0,0,0,0,0,0,0,0,0,0,0,0,0,0,19,0,1,0,0,0,1,0,0
60032,神奇魔力藥水 C,4,0,2,0,2,37,1111-1111-1111-1111-1111-1111-1111-1111,1800,480,1,0,0,1,1,5000,0,1,1,0,0,0,0,0,0,0,0,5261,0,0,0,0,0,0,0,0,0,0,0,0,0,0,0,0,0,0,0,0,0,0,0,0,0,0,0,0,0,0,0,0,0,0,0,0,0,0,0,0,0,0,0,0,0,0,0,19,0,1,0,0,0,1,0,0
60033,卓越生命藥水 C,4,0,1,0,1,38,1111-1111-1111-1111-1111-1111-1111-1111,2000,820,1,0,0,1,1,5000,0,1,1,0,0,0,0,0,0,0,0,5262,0,0,0,0,0,0,0,0,0,0,0,0,0,0,0,0,0,0,0,0,0,0,0,0,0,0,0,0,0,0,0,0,0,0,0,0,0,0,0,0,0,0,0,0,0,0,0,30,0,1,0,0,0,1,0,0
60034,卓越魔力藥水 C,4,0,2,0,2,38,1111-1111-1111-1111-1111-1111-1111-1111,2000,820,1,0,0,1,1,5000,0,1,1,0,0,0,0,0,0,0,0,5263,0,0,0,0,0,0,0,0,0,0,0,0,0,0,0,0,0,0,0,0,0,0,0,0,0,0,0,0,0,0,0,0,0,0,0,0,0,0,0,0,0,0,0,0,0,0,0,30,0,1,0,0,0,1,0,0
60035,傳送門卷軸,4,3,4,0,772,40,1111-1111-1111-1111-1111-1111-1111-1111,0,0,1,0,0,1,1,10,0,1,1,0,0,0,0,0,0,0,0,5264,0,0,0,0,0,0,0,0,0,0,0,0,0,0,0,0,0,0,0,0,0,0,0,0,0,0,0,0,0,0,0,0,0,0,0,0,0,0,0,0,0,0,0,0,0,0,0,10,0,1,0,0,0,1,0,0
60036,商人的咒術,4,6,2,0,1538,38,1111-1111-1111-1111-1111-1111-1111-1111,0,0,1,0,0,1,1,0,0,1,1,0,0,0,0,0,0,0,0,5265,0,0,0,0,0,0,0,0,0,0,0,0,0,0,0,0,0,0,0,0,0,0,0,0,0,0,0,0,0,0,0,0,0,0,0,0,0,0,0,0,0,0,0,0,0,0,0,3,100000,0,0,0,0,1,0,0
60037,祝賀活動 - 祝福,4,0,13,0,13,29,1111-1111-1111-1111-1111-1111-1111-1111,0,0,1,0,0,1,1,5,0,1,1,0,0,0,0,0,0,0,0,5266,0,0,0,0,0,0,0,0,0,0,0,0,0,0,0,0,0,0,0,0,0,0,0,0,0,0,0,0,0,0,0,0,0,0,0,0,0,0,0,0,0,0,0,0,0,0,0,15,0,0,0,0,2,1,0,0
60038,祝賀活動 - 歡迎,4,0,14,0,14,29,1111-1111-1111-1111-1111-1111-1111-1111,0,0,1,0,0,1,1,5,0,1,1,0,0,0,0,0,0,0,0,5267,0,0,0,0,0,0,0,0,0,0,0,0,0,0,0,0,0,0,0,0,0,0,0,0,0,0,0,0,0,0,0,0,0,0,0,0,0,0,0,0,0,0,0,0,0,0,0,15,0,0,0,0,3,1,0,0
60039,冒險家的背包,4,0,15,0,15,33,1111-1111-1111-1111-1111-1111-1111-1111,0,0,1,0,0,1,1,0,0,1,1,0,0,0,0,0,0,0,0,5268,0,0,0,0,0,0,0,0,0,0,0,0,0,0,0,0,0,0,0,0,0,0,0,0,0,0,0,0,0,0,0,0,0,0,0,0,0,0,0,0,0,0,0,0,0,0,0,198,0,1,0,0,0,1,0,0
60040,榮耀寶石A,4,0,16,0,16,35,1111-1111-1111-1111-1111-1111-1111-1111,0,0,1,0,0,1,1,0,0,1,1,0,0,0,0,0,0,0,0,5269,0,0,0,0,0,0,0,0,0,0,0,0,0,0,0,0,0,0,0,0,0,0,0,0,0,0,0,0,0,0,0,0,0,0,0,0,0,0,0,0,0,0,0,0,0,0,0,50,0,1,0,0,1100,1,0,0
60041,傳送門卷軸,4,3,4,0,772,40,1111-1111-1111-1111-1111-1111-1111-1111,0,0,1,0,0,1,1,50,0,1,1,0,0,0,0,0,0,0,0,5270,0,0,0,0,0,0,0,0,0,0,0,0,0,0,0,0,0,0,0,0,0,0,0,0,0,0,0,0,0,0,0,0,0,0,0,0,0,0,0,0,0,0,0,0,0,0,0,45,0,1,0,0,0,1,0,0
60042,傳送門卷軸,4,3,4,0,772,40,1111-1111-1111-1111-1111-1111-1111-1111,0,0,1,0,0,1,1,100,0,1,1,0,0,0,0,0,0,0,0,5271,0,0,0,0,0,0,0,0,0,0,0,0,0,0,0,0,0,0,0,0,0,0,0,0,0,0,0,0,0,0,0,0,0,0,0,0,0,0,0,0,0,0,0,0,0,0,0,88,0,1,0,0,0,1,0,0
60043,祝賀活動 - 祝福,4,0,13,0,13,29,1111-1111-1111-1111-1111-1111-1111-1111,0,0,1,0,0,1,1,10,0,1,1,0,0,0,0,0,0,0,0,5272,0,0,0,0,0,0,0,0,0,0,0,0,0,0,0,0,0,0,0,0,0,0,0,0,0,0,0,0,0,0,0,0,0,0,0,0,0,0,0,0,0,0,0,0,0,0,0,30,0,0,0,0,2,1,0,0
60044,祝賀活動 - 歡迎,4,0,14,0,14,29,1111-1111-1111-1111-1111-1111-1111-1111,0,0,1,0,0,1,1,10,0,1,1,0,0,0,0,0,0,0,0,5273,0,0,0,0,0,0,0,0,0,0,0,0,0,0,0,0,0,0,0,0,0,0,0,0,0,0,0,0,0,0,0,0,0,0,0,0,0,0,0,0,0,0,0,0,0,0,0,30,0,0,0,0,3,1,0,0
60045,榮耀血盟 - 解散,4,0,16,0,16,35,1111-1111-1111-1111-1111-1111-1111-1111,0,0,1,0,0,1,1,0,0,1,1,0,0,0,0,0,0,0,0,5274,0,0,0,0,0,0,0,0,0,0,0,0,0,0,0,0,0,0,0,0,0,0,0,0,0,0,0,0,0,0,0,0,0,0,0,0,0,0,0,0,0,0,0,0,0,0,0,0,0,0,0,0,0,1,0,0
60047,榮耀寶石B,4,0,16,0,16,35,1111-1111-1111-1111-1111-1111-1111-1111,0,0,1,0,0,1,1,0,0,1,1,0,0,0,0,0,0,0,0,5275,0,0,0,0,0,0,0,0,0,0,0,0,0,0,0,0,0,0,0,0,0,0,0,0,0,0,0,0,0,0,0,0,0,0,0,0,0,0,0,0,0,0,0,0,0,0,0,50,0,1,0,0,1101,1,0,0
60048,榮耀寶石C,4,0,16,0,16,35,1111-1111-1111-1111-1111-1111-1111-1111,0,0,1,0,0,1,1,0,0,1,1,0,0,0,0,0,0,0,0,5276,0,0,0,0,0,0,0,0,0,0,0,0,0,0,0,0,0,0,0,0,0,0,0,0,0,0,0,0,0,0,0,0,0,0,0,0,0,0,0,0,0,0,0,0,0,0,0,50,0,1,0,0,1102,1,0,0
60049,榮耀血盟D,4,0,16,0,16,35,1111-1111-1111-1111-1111-1111-1111-1111,0,0,1,0,0,1,1,0,0,1,1,0,0,0,0,0,0,0,0,5277,0,0,0,0,0,0,0,0,0,0,0,0,0,0,0,0,0,0,0,0,0,0,0,0,0,0,0,0,0,0,0,0,0,0,0,0,0,0,0,0,0,0,0,0,0,0,0,100,0,0,0,0,1103,1,0,0
60050,榮耀寶石D,4,0,16,0,16,35,1111-1111-1111-1111-1111-1111-1111-1111,0,0,1,0,0,1,1,0,0,1,1,0,0,0,0,0,0,0,0,5278,0,0,0,0,0,0,0,0,0,0,0,0,0,0,0,0,0,0,0,0,0,0,0,0,0,0,0,0,0,0,0,0,0,0,0,0,0,0,0,0,0,0,0,0,0,0,0,50,0,1,0,0,1104,1,0,0
60051,榮耀血盟F,4,0,16,0,16,35,1111-1111-1111-1111-1111-1111-1111-1111,0,0,1,0,0,1,1,0,0,1,1,0,0,0,0,0,0,0,0,5279,0,0,0,0,0,0,0,0,0,0,0,0,0,0,0,0,0,0,0,0,0,0,0,0,0,0,0,0,0,0,0,0,0,0,0,0,0,0,0,0,0,0,0,0,0,0,0,100,0,0,0,0,1105,1,0,0
60052,榮耀寶石E,4,0,16,0,16,35,1111-1111-1111-1111-1111-1111-1111-1111,0,0,1,0,0,1,1,0,0,1,1,0,0,0,0,0,0,0,0,5280,0,0,0,0,0,0,0,0,0,0,0,0,0,0,0,0,0,0,0,0,0,0,0,0,0,0,0,0,0,0,0,0,0,0,0,0,0,0,0,0,0,0,0,0,0,0,0,50,0,1,0,0,1106,1,0,0
60053,榮耀血盟H,4,0,16,0,16,35,1111-1111-1111-1111-1111-1111-1111-1111,0,0,1,0,0,1,1,0,0,1,1,0,0,0,0,0,0,0,0,5281,0,0,0,0,0,0,0,0,0,0,0,0,0,0,0,0,0,0,0,0,0,0,0,0,0,0,0,0,0,0,0,0,0,0,0,0,0,0,0,0,0,0,0,0,0,0,0,100,0,0,0,0,1107,1,0,0
60054,榮耀寶石F,4,0,16,0,16,35,1111-1111-1111-1111-1111-1111-1111-1111,0,0,1,0,0,1,1,0,0,1,1,0,0,0,0,0,0,0,0,5282,0,0,0,0,0,0,0,0,0,0,0,0,0,0,0,0,0,0,0,0,0,0,0,0,0,0,0,0,0,0,0,0,0,0,0,0,0,0,0,0,0,0,0,0,0,0,0,50,0,1,0,0,1108,1,0,0
60055,自動魔力生命藥水 A,4,0,17,0,17,37,1111-1111-1111-1111-1111-1111-1111-1111,1800,480,1,0,0,1,1,300,0,1,1,0,0,0,0,0,0,0,0,5283,0,0,0,0,0,0,0,0,0,0,0,0,0,0,0,0,0,0,0,0,0,0,0,0,0,0,0,0,0,0,0,0,0,0,0,0,0,0,0,0,0,0,0,0,0,0,0,3,0,1,0,0,0,1,0,0
60056,自動魔力生命藥水 B,4,0,17,0,17,37,1111-1111-1111-1111-1111-1111-1111-1111,1800,480,1,0,0,1,1,1000,0,1,1,0,0,0,0,0,0,0,0,5284,0,0,0,0,0,0,0,0,0,0,0,0,0,0,0,0,0,0,0,0,0,0,0,0,0,0,0,0,0,0,0,0,0,0,0,0,0,0,0,0,0,0,0,0,0,0,0,7,0,1,0,0,0,1,0,0
60057,自動魔力魔法藥水 A,4,0,18,0,18,37,1111-1111-1111-1111-1111-1111-1111-1111,1800,480,1,0,0,1,1,300,0,1,1,0,0,0,0,0,0,0,0,5285,0,0,0,0,0,0,0,0,0,0,0,0,0,0,0,0,0,0,0,0,0,0,0,0,0,0,0,0,0,0,0,0,0,0,0,0,0,0,0,0,0,0,0,0,0,0,0,3,0,1,0,0,0,1,0,0
60058,自動魔力魔法藥水 B,4,0,18,0,18,37,1111-1111-1111-1111-1111-1111-1111-1111,1800,480,1,0,0,1,1,1000,0,1,1,0,0,0,0,0,0,0,0,5286,0,0,0,0,0,0,0,0,0,0,0,0,0,0,0,0,0,0,0,0,0,0,0,0,0,0,0,0,0,0,0,0,0,0,0,0,0,0,0,0,0,0,0,0,0,0,0,7,0,1,0,0,0,1,0,0
60059,自動卓越生命藥水 A,4,0,17,0,17,38,1111-1111-1111-1111-1111-1111-1111-1111,2000,820,1,0,0,1,1,300,0,1,1,0,0,0,0,0,0,0,0,5287,0,0,0,0,0,0,0,0,0,0,0,0,0,0,0,0,0,0,0,0,0,0,0,0,0,0,0,0,0,0,0,0,0,0,0,0,0,0,0,0,0,0,0,0,0,0,0,5,0,1,0,0,0,1,0,0
60060,自動卓越生命藥水 B,4,0,17,0,17,38,1111-1111-1111-1111-1111-1111-1111-1111,2000,820,1,0,0,1,1,1000,0,1,1,0,0,0,0,0,0,0,0,5288,0,0,0,0,0,0,0,0,0,0,0,0,0,0,0,0,0,0,0,0,0,0,0,0,0,0,0,0,0,0,0,0,0,0,0,0,0,0,0,0,0,0,0,0,0,0,0,9,0,1,0,0,0,1,0,0
60061,自動卓越魔法藥水 A,4,0,18,0,18,38,1111-1111-1111-1111-1111-1111-1111-1111,2000,820,1,0,0,1,1,300,0,1,1,0,0,0,0,0,0,0,0,5289,0,0,0,0,0,0,0,0,0,0,0,0,0,0,0,0,0,0,0,0,0,0,0,0,0,0,0,0,0,0,0,0,0,0,0,0,0,0,0,0,0,0,0,0,0,0,0,5,0,1,0,0,0,1,0,0
60062,自動卓越魔法藥水 B,4,0,18,0,18,38,1111-1111-1111-1111-1111-1111-1111-1111,2000,820,1,0,0,1,1,1000,0,1,1,0,0,0,0,0,0,0,0,5290,0,0,0,0,0,0,0,0,0,0,0,0,0,0,0,0,0,0,0,0,0,0,0,0,0,0,0,0,0,0,0,0,0,0,0,0,0,0,0,0,0,0,0,0,0,0,0,9,0,1,0,0,0,1,0,0
60063,自動神蹟生命藥水 B,4,0,17,0,17,38,1111-1111-1111-1111-1111-1111-1111-1111,3200,1600,1,0,0,1,1,1000,0,1,1,0,0,0,0,0,0,0,0,5291,0,0,0,0,0,0,0,0,0,0,0,0,0,0,0,0,0,0,0,0,0,0,0,0,0,0,0,0,0,0,0,0,0,0,0,0,0,0,0,0,0,0,0,0,0,0,0,13,0,1,0,0,0,1,0,0
60064,自動神蹟生命藥水 C,4,0,17,0,17,38,1111-1111-1111-1111-1111-1111-1111-1111,3200,1600,1,0,0,1,1,5000,0,1,1,0,0,0,0,0,0,0,0,5292,0,0,0,0,0,0,0,0,0,0,0,0,0,0,0,0,0,0,0,0,0,0,0,0,0,0,0,0,0,0,0,0,0,0,0,0,0,0,0,0,0,0,0,0,0,0,0,50,0,1,0,0,0,1,0,0
60065,自動神蹟魔法藥水 B,4,0,18,0,18,38,1111-1111-1111-1111-1111-1111-1111-1111,3200,1600,1,0,0,1,1,1000,0,1,1,0,0,0,0,0,0,0,0,5293,0,0,0,0,0,0,0,0,0,0,0,0,0,0,0,0,0,0,0,0,0,0,0,0,0,0,0,0,0,0,0,0,0,0,0,0,0,0,0,0,0,0,0,0,0,0,0,13,0,1,0,0,0,1,0,0
60066,自動神蹟魔法藥水 C,4,0,18,0,18,38,1111-1111-1111-1111-1111-1111-1111-1111,3200,1600,1,0,0,1,1,5000,0,1,1,0,0,0,0,0,0,0,0,5294,0,0,0,0,0,0,0,0,0,0,0,0,0,0,0,0,0,0,0,0,0,0,0,0,0,0,0,0,0,0,0,0,0,0,0,0,0,0,0,0,0,0,0,0,0,0,0,50,0,1,0,0,0,1,0,0
60067,自動魔力生命藥水 C,4,0,17,0,17,37,1111-1111-1111-1111-1111-1111-1111-1111,1800,480,1,0,0,1,1,5000,0,1,1,0,0,0,0,0,0,0,0,5295,0,0,0,0,0,0,0,0,0,0,0,0,0,0,0,0,0,0,0,0,0,0,0,0,0,0,0,0,0,0,0,0,0,0,0,0,0,0,0,0,0,0,0,0,0,0,0,20,0,1,0,0,0,1,0,0
60068,自動魔力魔法藥水 C,4,0,18,0,18,37,1111-1111-1111-1111-1111-1111-1111-1111,1800,480,1,0,0,1,1,5000,0,1,1,0,0,0,0,0,0,0,0,5296,0,0,0,0,0,0,0,0,0,0,0,0,0,0,0,0,0,0,0,0,0,0,0,0,0,0,0,0,0,0,0,0,0,0,0,0,0,0,0,0,0,0,0,0,0,0,0,20,0,1,0,0,0,1,0,0
60069,自動卓越生命藥水 C,4,0,17,0,17,38,1111-1111-1111-1111-1111-1111-1111-1111,2000,820,1,0,0,1,1,5000,0,1,1,0,0,0,0,0,0,0,0,5297,0,0,0,0,0,0,0,0,0,0,0,0,0,0,0,0,0,0,0,0,0,0,0,0,0,0,0,0,0,0,0,0,0,0,0,0,0,0,0,0,0,0,0,0,0,0,0,30,0,1,0,0,0,1,0,0
60070,自動卓越魔法藥水 C,4,0,18,0,18,38,1111-1111-1111-1111-1111-1111-1111-1111,2000,820,1,0,0,1,1,5000,0,1,1,0,0,0,0,0,0,0,0,5298,0,0,0,0,0,0,0,0,0,0,0,0,0,0,0,0,0,0,0,0,0,0,0,0,0,0,0,0,0,0,0,0,0,0,0,0,0,0,0,0,0,0,0,0,0,0,0,30,0,1,0,0,0,1,0,0
60071,榮耀血盟J,4,0,16,0,16,35,1111-1111-1111-1111-1111-1111-1111-1111,0,0,1,0,0,1,1,0,0,1,1,0,0,0,0,0,0,0,0,5299,0,0,0,0,0,0,0,0,0,0,0,0,0,0,0,0,0,0,0,0,0,0,0,0,0,0,0,0,0,0,0,0,0,0,0,0,0,0,0,0,0,0,0,0,0,0,0,100,0,0,0,0,1109,1,0,0
60072,榮耀血盟K,4,0,16,0,16,35,1111-1111-1111-1111-1111-1111-1111-1111,0,0,1,0,0,1,1,0,0,1,1,0,0,0,0,0,0,0,0,5300,0,0,0,0,0,0,0,0,0,0,0,0,0,0,0,0,0,0,0,0,0,0,0,0,0,0,0,0,0,0,0,0,0,0,0,0,0,0,0,0,0,0,0,0,0,0,0,100,0,0,0,0,1110,1,0,0
60073,榮耀血盟L,4,0,16,0,16,35,1111-1111-1111-1111-1111-1111-1111-1111,0,0,1,0,0,1,1,0,0,1,1,0,0,0,0,0,0,0,0,5301,0,0,0,0,0,0,0,0,0,0,0,0,0,0,0,0,0,0,0,0,0,0,0,0,0,0,0,0,0,0,0,0,0,0,0,0,0,0,0,0,0,0,0,0,0,0,0,100,0,0,0,0,1111,1,0,0
60074,榮耀血盟M,4,0,16,0,16,35,1111-1111-1111-1111-1111-1111-1111-1111,0,0,1,0,0,1,1,0,0,1,1,0,0,0,0,0,0,0,0,5302,0,0,0,0,0,0,0,0,0,0,0,0,0,0,0,0,0,0,0,0,0,0,0,0,0,0,0,0,0,0,0,0,0,0,0,0,0,0,0,0,0,0,0,0,0,0,0,100,0,0,0,0,1112,1,0,0
60075,榮耀血盟N,4,0,16,0,16,35,1111-1111-1111-1111-1111-1111-1111-1111,0,0,1,0,0,1,1,0,0,1,1,0,0,0,0,0,0,0,0,5303,0,0,0,0,0,0,0,0,0,0,0,0,0,0,0,0,0,0,0,0,0,0,0,0,0,0,0,0,0,0,0,0,0,0,0,0,0,0,0,0,0,0,0,0,0,0,0,100,0,0,0,0,1113,1,0,0
60076,榮耀血盟O,4,0,16,0,16,35,1111-1111-1111-1111-1111-1111-1111-1111,0,0,1,0,0,1,1,0,0,1,1,0,0,0,0,0,0,0,0,5304,0,0,0,0,0,0,0,0,0,0,0,0,0,0,0,0,0,0,0,0,0,0,0,0,0,0,0,0,0,0,0,0,0,0,0,0,0,0,0,0,0,0,0,0,0,0,0,100,0,0,0,0,1114,1,0,0
60077,榮耀血盟P,4,0,16,0,16,35,1111-1111-1111-1111-1111-1111-1111-1111,0,0,1,0,0,1,1,0,0,1,1,0,0,0,0,0,0,0,0,5305,0,0,0,0,0,0,0,0,0,0,0,0,0,0,0,0,0,0,0,0,0,0,0,0,0,0,0,0,0,0,0,0,0,0,0,0,0,0,0,0,0,0,0,0,0,0,0,100,0,0,0,0,1115,1,0,0
60078,榮耀血盟Q,4,0,16,0,16,35,1111-1111-1111-1111-1111-1111-1111-1111,0,0,1,0,0,1,1,0,0,1,1,0,0,0,0,0,0,0,0,5306,0,0,0,0,0,0,0,0,0,0,0,0,0,0,0,0,0,0,0,0,0,0,0,0,0,0,0,0,0,0,0,0,0,0,0,0,0,0,0,0,0,0,0,0,0,0,0,100,0,0,0,0,1119,1,0,0
60079,榮耀寶石G,4,0,16,0,16,35,1111-1111-1111-1111-1111-1111-1111-1111,0,0,1,0,0,1,1,0,0,1,1,0,0,0,0,0,0,0,0,5307,0,0,0,0,0,0,0,0,0,0,0,0,0,0,0,0,0,0,0,0,0,0,0,0,0,0,0,0,0,0,0,0,0,0,0,0,0,0,0,0,0,0,0,0,0,0,0,50,0,1,0,0,1117,1,0,0
60080,陛下,4,0,16,0,16,35,1111-1111-1111-1111-1111-1111-1111-1111,0,0,1,0,0,1,1,0,0,1,1,0,0,0,0,0,0,0,0,5308,0,0,0,0,0,0,0,0,0,0,0,0,0,0,0,0,0,0,0,0,0,0,0,0,0,0,0,0,0,0,0,0,0,0,0,0,0,0,0,0,0,0,0,0,0,0,0,200,0,1,0,0,1118,1,0,0
60081,能幹的新戰士,4,6,0,0,1536,35,1111-1111-1111-1111-1111-1111-1111-1111,0,0,0,0,0,1,1,0,0,1,1,0,0,0,0,0,0,0,0,5309,0,0,0,0,0,0,0,0,0,0,0,0,0,0,0,0,0,0,0,0,0,0,0,0,0,0,0,0,0,0,0,0,0,0,0,0,0,0,0,0,0,0,0,0,0,0,0,150,604800,1,0.2,0,0,1,0,0
60082,暗黑VIP,4,6,0,0,1536,35,1111-1111-1111-1111-1111-1111-1111-1111,0,0,1,0,0,1,1,0,0,1,1,0,0,0,0,0,0,0,0,5310,0,0,0,0,0,0,0,0,0,0,0,0,0,0,0,0,0,0,0,0,0,0,0,0,0,0,0,0,0,0,0,0,0,0,0,0,0,0,0,0,0,0,0,0,0,0,0,10,86400,1,0.2,0,0,1,0,0
60083,石匠的呼吸,4,1,11,0,257,35,1111-1111-1111-1111-1111-1111-1111-1111,0,0,1,0,0,1,1,0,0,1,1,0,0,0,0,0,0,0,0,5310,0,0,0,0,0,0,0,0,0,0,0,0,0,0,0,0,0,0,0,0,0,0,0,0,0,0,0,0,0,0,0,0,0,0,0,0,0,0,0,0,0,0,0,0,0,0,0,30,0,1,0,0,0,1,0,0
60084,石匠的呼吸,4,1,11,0,257,35,1111-1111-1111-1111-1111-1111-1111-1111,0,0,1,0,0,1,1,5,0,1,1,0,0,0,0,0,0,0,0,5310,0,0,0,0,0,0,0,0,0,0,0,0,0,0,0,0,0,0,0,0,0,0,0,0,0,0,0,0,0,0,0,0,0,0,0,0,0,0,0,0,0,0,0,0,0,0,0,140,0,1,0,0,0,1,0,0
60085,石匠的呼吸,4,1,11,0,257,35,1111-1111-1111-1111-1111-1111-1111-1111,0,0,1,0,0,1,1,10,0,1,1,0,0,0,0,0,0,0,0,5310,0,0,0,0,0,0,0,0,0,0,0,0,0,0,0,0,0,0,0,0,0,0,0,0,0,0,0,0,0,0,0,0,0,0,0,0,0,0,0,0,0,0,0,0,0,0,0,200,0,0,0,0,0,1,0,0
60086,暗黑VIP（活動）,4,6,0,0,1536,35,1111-1111-1111-1111-1111-1111-1111-1111,0,0,0,0,0,1,1,0,0,1,1,0,0,0,0,0,0,0,0,5310,0,0,0,0,0,0,0,0,0,0,0,0,0,0,0,0,0,0,0,0,0,0,0,0,0,0,0,0,0,0,0,0,0,0,0,0,0,0,0,0,0,0,0,0,0,0,0,5700,1296000,0,0.2,0,0,1,0,0
60087,榮耀血盟-最強血盟,4,0,16,0,16,35,1111-1111-1111-1111-1111-1111-1111-1111,0,0,0,0,0,1,1,0,0,1,1,0,0,0,0,0,0,0,0,5310,0,0,0,0,0,0,0,0,0,0,0,0,0,0,0,0,0,0,0,0,0,0,0,0,0,0,0,0,0,0,0,0,0,0,0,0,0,0,0,0,0,0,0,0,0,0,0,9900,0,0,0,0,1120,1,0,0
60088,倉庫擴充石,4,0,20,0,15,24,1111-1111-1111-1111-1111-1111-1111-1111,0,0,1,0,0,1,1,0,0,1,1,0,0,0,0,0,0,0,0,5310,0,0,0,0,0,0,0,0,0,0,0,0,0,0,0,0,0,0,0,0,0,0,0,0,0,0,0,0,0,0,0,0,0,0,0,0,0,0,0,0,0,0,0,0,0,0,0,198,0,1,0,0,0,1,0,0
60089,魔笛,4,0,21,0,15,24,1111-1111-1111-1111-1111-1111-1111-1111,0,0,1,0,0,1,1,0,0,1,1,0,0,0,0,0,0,0,0,5310,0,0,0,0,0,0,0,0,0,0,0,0,0,0,0,0,0,0,0,0,0,0,0,0,0,0,0,0,0,0,0,0,0,0,0,0,0,0,0,0,0,0,0,0,0,0,0,50,0,1,0,0,0,1,0,0
60090,嘟比,4,6,5,0,53,24,1111-1111-1111-1111-1111-1111-1111-1111,0,0,1,0,0,1,1,0,0,1,1,0,0,0,0,0,0,0,0,5310,0,0,0,0,0,0,0,0,0,0,0,0,0,0,0,0,0,0,0,0,0,0,0,0,0,0,0,0,0,0,0,0,0,0,0,0,0,0,0,0,0,0,0,0,0,0,0,150,2592000,1,0,0,0,0,2,0
60091,嘟比孵化狀態,4,6,5,0,53,24,1111-1111-1111-1111-1111-1111-1111-1111,0,0,0,0,0,1,1,0,0,1,1,0,0,0,0,0,0,0,0,5310,0,0,0,0,0,0,0,0,0,0,0,0,0,0,0,0,0,0,0,0,0,0,0,0,0,0,0,0,0,0,0,0,0,0,0,0,0,0,0,0,0,0,0,0,0,0,0,150,0,0,0,0,0,0,2,0
60092,嘟比睡眠狀態,4,6,5,0,53,24,1111-1111-1111-1111-1111-1111-1111-1111,0,0,0,0,0,1,1,0,0,1,1,0,0,0,0,0,0,0,0,5310,0,0,0,0,0,0,0,0,0,0,0,0,0,0,0,0,0,0,0,0,0,0,0,0,0,0,0,0,0,0,0,0,0,0,0,0,0,0,0,0,0,0,0,0,0,0,0,150,0,0,0,0,0,0,2,0
60093,娃吉,4,6,5,0,53,24,1111-1111-1111-1111-1111-1111-1111-1111,0,0,1,0,0,1,1,0,0,1,1,0,0,0,0,0,0,0,0,5310,0,0,0,0,0,0,0,0,0,0,0,0,0,0,0,0,0,0,0,0,0,0,0,0,0,0,0,0,0,0,0,0,0,0,0,0,0,0,0,0,0,0,0,0,0,0,0,150,2592000,1,0,0,0,0,2,0
60094,娃吉孵化狀態,4,6,5,0,53,24,1111-1111-1111-1111-1111-1111-1111-1111,0,0,0,0,0,1,1,0,0,1,1,0,0,0,0,0,0,0,0,5310,0,0,0,0,0,0,0,0,0,0,0,0,0,0,0,0,0,0,0,0,0,0,0,0,0,0,0,0,0,0,0,0,0,0,0,0,0,0,0,0,0,0,0,0,0,0,0,150,0,0,0,0,0,0,2,0
60095,娃吉睡眠狀態,4,6,5,0,53,24,1111-1111-1111-1111-1111-1111-1111-1111,0,0,0,0,0,1,1,0,0,1,1,0,0,0,0,0,0,0,0,5310,0,0,0,0,0,0,0,0,0,0,0,0,0,0,0,0,0,0,0,0,0,0,0,0,0,0,0,0,0,0,0,0,0,0,0,0,0,0,0,0,0,0,0,0,0,0,0,150,0,0,0,0,0,0,2,0
60096,菲莉,4,6,5,0,53,24,1111-1111-1111-1111-1111-1111-1111-1111,0,0,1,0,0,1,1,0,0,1,1,0,0,0,0,0,0,0,0,5310,0,0,0,0,0,0,0,0,0,0,0,0,0,0,0,0,0,0,0,0,0,0,0,0,0,0,0,0,0,0,0,0,0,0,0,0,0,0,0,0,0,0,0,0,0,0,0,150,2592000,1,0,0,0,0,2,0
60097,菲莉孵化狀態,4,6,5,0,53,24,1111-1111-1111-1111-1111-1111-1111-1111,0,0,0,0,0,1,1,0,0,1,1,0,0,0,0,0,0,0,0,5310,0,0,0,0,0,0,0,0,0,0,0,0,0,0,0,0,0,0,0,0,0,0,0,0,0,0,0,0,0,0,0,0,0,0,0,0,0,0,0,0,0,0,0,0,0,0,0,150,0,0,0,0,0,1,0,0
60098,菲莉睡眠狀態,4,6,5,0,53,24,1111-1111-1111-1111-1111-1111-1111-1111,0,0,0,0,0,1,1,0,0,1,1,0,0,0,0,0,0,0,0,5310,0,0,0,0,0,0,0,0,0,0,0,0,0,0,0,0,0,0,0,0,0,0,0,0,0,0,0,0,0,0,0,0,0,0,0,0,0,0,0,0,0,0,0,0,0,0,0,150,0,0,0,0,0,1,0,0
60099,能幹的新戰士,4,6,0,0,1536,35,1111-1111-1111-1111-1111-1111-1111-1111,0,0,0,0,0,1,1,0,0,1,1,0,0,0,0,0,0,0,0,5310,0,0,0,0,0,0,0,0,0,0,0,0,0,0,0,0,0,0,0,0,0,0,0,0,0,0,0,0,0,0,0,0,0,0,0,0,0,0,0,0,0,0,0,0,0,0,0,5700,864000,1,0.2,0,0,1,0,0
57002,印地安酋長帽子,4,5,10,0,1290,27,1111-1111-1111-1111-1111-1111-1111-1111,0,0,1,0,0,2,2,0,0,1,1,0,0,0,0,0,0,0,0,5311,0,0,0,0,0,0,0,0,0,0,0,0,0,0,0,0,0,0,0,0,0,0,0,0,0,0,0,0,0,0,0,0,0,0,0,0,0,0,0,0,0,0,0,0,0,0,0,25,1296000,1,0,0,0,1,0,0
57003,印地安酋長帽子,4,5,10,0,1290,27,1111-1111-1111-1111-1111-1111-1111-1111,0,0,1,0,0,2,2,0,0,1,1,0,0,0,0,0,0,0,0,5312,0,0,0,0,0,0,0,0,0,0,0,0,0,0,0,0,0,0,0,0,0,0,0,0,0,0,0,0,0,0,0,0,0,0,0,0,0,0,0,0,0,0,0,0,0,0,0,45,2592000,1,0,0,0,1,0,0
57004,印地安酋長帽子,4,5,10,0,1290,27,1111-1111-1111-1111-1111-1111-1111-1111,0,0,1,0,0,2,2,0,0,1,1,0,0,0,0,0,0,0,0,5313,0,0,0,0,0,0,0,0,0,0,0,0,0,0,0,0,0,0,0,0,0,0,0,0,0,0,0,0,0,0,0,0,0,0,0,0,0,0,0,0,0,0,0,0,0,0,0,60,0,1,0,0,0,1,0,0
57005,男用獵人帽,4,5,10,0,1290,27,1001-0100-0000-0000-0000-0000-0000-0000,0,0,1,0,0,2,2,0,0,1,1,0,0,0,0,0,0,0,0,5314,0,0,0,0,0,0,0,0,0,0,0,0,0,0,0,0,0,0,0,0,0,0,0,0,0,0,0,0,0,0,0,0,0,0,0,0,0,0,0,0,0,0,0,0,0,0,0,25,1296000,1,0,0,0,1,0,0
57006,男用獵人帽,4,5,10,0,1290,27,1001-0100-0000-0000-0000-0000-0000-0000,0,0,1,0,0,2,2,0,0,1,1,0,0,0,0,0,0,0,0,5315,0,0,0,0,0,0,0,0,0,0,0,0,0,0,0,0,0,0,0,0,0,0,0,0,0,0,0,0,0,0,0,0,0,0,0,0,0,0,0,0,0,0,0,0,0,0,0,45,2592000,1,0,0,0,1,0,0
57007,男用獵人帽,4,5,10,0,1290,27,1001-0100-0000-0000-0000-0000-0000-0000,0,0,1,0,0,2,2,0,0,1,1,0,0,0,0,0,0,0,0,5316,0,0,0,0,0,0,0,0,0,0,0,0,0,0,0,0,0,0,0,0,0,0,0,0,0,0,0,0,0,0,0,0,0,0,0,0,0,0,0,0,0,0,0,0,0,0,0,60,0,1,0,0,0,1,0,0
57008,男用海盜帽,4,5,10,0,1290,27,1001-0100-0000-0000-0000-0000-0000-0000,0,0,1,0,0,2,2,0,0,1,1,0,0,0,0,0,0,0,0,5317,0,0,0,0,0,0,0,0,0,0,0,0,0,0,0,0,0,0,0,0,0,0,0,0,0,0,0,0,0,0,0,0,0,0,0,0,0,0,0,0,0,0,0,0,0,0,0,25,1296000,1,0,0,0,1,0,0
57009,男用海盜帽,4,5,10,0,1290,27,1001-0100-0000-0000-0000-0000-0000-0000,0,0,1,0,0,2,2,0,0,1,1,0,0,0,0,0,0,0,0,5318,0,0,0,0,0,0,0,0,0,0,0,0,0,0,0,0,0,0,0,0,0,0,0,0,0,0,0,0,0,0,0,0,0,0,0,0,0,0,0,0,0,0,0,0,0,0,0,45,2592000,1,0,0,0,1,0,0
57010,男用海盜帽,4,5,10,0,1290,27,1001-0100-0000-0000-0000-0000-0000-0000,0,0,1,0,0,2,2,0,0,1,1,0,0,0,0,0,0,0,0,5319,0,0,0,0,0,0,0,0,0,0,0,0,0,0,0,0,0,0,0,0,0,0,0,0,0,0,0,0,0,0,0,0,0,0,0,0,0,0,0,0,0,0,0,0,0,0,0,60,0,1,0,0,0,1,0,0
57011,蚩尤天皇面具,4,5,10,0,1290,27,1111-1111-1111-1111-1111-1111-1111-1111,0,0,1,0,0,2,2,0,0,1,1,0,0,0,0,0,0,0,0,5320,0,0,0,0,0,0,0,0,0,0,0,0,0,0,0,0,0,0,0,0,0,0,0,0,0,0,0,0,0,0,0,0,0,0,0,0,0,0,0,0,0,0,0,0,0,0,0,25,1296000,1,0,0,0,1,0,0
57012,蚩尤天皇面具,4,5,10,0,1290,27,1111-1111-1111-1111-1111-1111-1111-1111,0,0,1,0,0,2,2,0,0,1,1,0,0,0,0,0,0,0,0,5321,0,0,0,0,0,0,0,0,0,0,0,0,0,0,0,0,0,0,0,0,0,0,0,0,0,0,0,0,0,0,0,0,0,0,0,0,0,0,0,0,0,0,0,0,0,0,0,45,2592000,1,0,0,0,1,0,0
57013,蚩尤天皇面具,4,5,10,0,1290,27,1111-1111-1111-1111-1111-1111-1111-1111,0,0,1,0,0,2,2,0,0,1,1,0,0,0,0,0,0,0,0,5322,0,0,0,0,0,0,0,0,0,0,0,0,0,0,0,0,0,0,0,0,0,0,0,0,0,0,0,0,0,0,0,0,0,0,0,0,0,0,0,0,0,0,0,0,0,0,0,60,0,1,0,0,0,1,0,0
57014,女用獵人帽,4,5,10,0,1290,27,0110-1000-0000-0000-0000-0000-0000-0000,0,0,1,0,0,2,2,0,0,1,1,0,0,0,0,0,0,0,0,5323,0,0,0,0,0,0,0,0,0,0,0,0,0,0,0,0,0,0,0,0,0,0,0,0,0,0,0,0,0,0,0,0,0,0,0,0,0,0,0,0,0,0,0,0,0,0,0,25,1296000,1,0,0,0,1,0,0
57015,女用獵人帽,4,5,10,0,1290,27,0110-1000-0000-0000-0000-0000-0000-0000,0,0,1,0,0,2,2,0,0,1,1,0,0,0,0,0,0,0,0,5324,0,0,0,0,0,0,0,0,0,0,0,0,0,0,0,0,0,0,0,0,0,0,0,0,0,0,0,0,0,0,0,0,0,0,0,0,0,0,0,0,0,0,0,0,0,0,0,45,2592000,1,0,0,0,1,0,0
57016,女用獵人帽,4,5,10,0,1290,27,0110-1000-0000-0000-0000-0000-0000-0000,0,0,1,0,0,2,2,0,0,1,1,0,0,0,0,0,0,0,0,5325,0,0,0,0,0,0,0,0,0,0,0,0,0,0,0,0,0,0,0,0,0,0,0,0,0,0,0,0,0,0,0,0,0,0,0,0,0,0,0,0,0,0,0,0,0,0,0,60,0,1,0,0,0,1,0,0
57017,女用海盜帽,4,5,10,0,1290,27,0110-1000-0000-0000-0000-0000-0000-0000,0,0,1,0,0,2,2,0,0,1,1,0,0,0,0,0,0,0,0,5326,0,0,0,0,0,0,0,0,0,0,0,0,0,0,0,0,0,0,0,0,0,0,0,0,0,0,0,0,0,0,0,0,0,0,0,0,0,0,0,0,0,0,0,0,0,0,0,25,1296000,1,0,0,0,1,0,0
57018,女用海盜帽,4,5,10,0,1290,27,0110-1000-0000-0000-0000-0000-0000-0000,0,0,1,0,0,2,2,0,0,1,1,0,0,0,0,0,0,0,0,5327,0,0,0,0,0,0,0,0,0,0,0,0,0,0,0,0,0,0,0,0,0,0,0,0,0,0,0,0,0,0,0,0,0,0,0,0,0,0,0,0,0,0,0,0,0,0,0,45,2592000,1,0,0,0,1,0,0
57019,女用海盜帽,4,5,10,0,1290,27,0110-1000-0000-0000-0000-0000-0000-0000,0,0,1,0,0,2,2,0,0,1,1,0,0,0,0,0,0,0,0,5328,0,0,0,0,0,0,0,0,0,0,0,0,0,0,0,0,0,0,0,0,0,0,0,0,0,0,0,0,0,0,0,0,0,0,0,0,0,0,0,0,0,0,0,0,0,0,0,60,0,1,0,0,0,1,0,0
57216,龍劍騎士套裝,4,5,10,0,1290,27,1000-0000-0000-0000-0000-0000-0000-0000,0,0,1,0,0,2,2,0,0,1,1,0,0,0,0,0,0,0,0,5329,0,0,0,0,0,0,0,0,0,0,0,0,0,0,0,0,0,0,0,0,0,0,0,0,0,0,0,0,0,0,0,0,0,0,0,0,0,0,0,0,0,0,0,0,0,0,0,63,1296000,1,0,0,0,1,0,0
57217,龍劍騎士套裝,4,5,10,0,1290,27,1000-0000-0000-0000-0000-0000-0000-0000,0,0,1,0,0,2,2,0,0,1,1,0,0,0,0,0,0,0,0,5330,0,0,0,0,0,0,0,0,0,0,0,0,0,0,0,0,0,0,0,0,0,0,0,0,0,0,0,0,0,0,0,0,0,0,0,0,0,0,0,0,0,0,0,0,0,0,0,113,2592000,1,0,0,0,1,0,0
57218,龍劍騎士套裝,4,5,10,0,1290,27,1000-0000-0000-0000-0000-0000-0000-0000,0,0,1,0,0,2,2,0,0,1,1,0,0,0,0,0,0,0,0,5331,0,0,0,0,0,0,0,0,0,0,0,0,0,0,0,0,0,0,0,0,0,0,0,0,0,0,0,0,0,0,0,0,0,0,0,0,0,0,0,0,0,0,0,0,0,0,0,151,0,1,0,0,0,1,0,0
57219,騎士鱗衣,4,5,10,0,1290,33,1000-0000-0000-0000-0000-0000-0000-0000,0,0,1,0,0,2,2,0,0,1,1,0,0,0,0,0,0,0,0,5332,0,0,0,0,0,0,0,0,0,0,0,0,0,0,0,0,0,0,0,0,0,0,0,0,0,0,0,0,0,0,0,0,0,0,0,0,0,0,0,0,0,0,0,0,0,0,0,50,1296000,1,0,0,0,1,0,0
57220,騎士鱗衣,4,5,10,0,1290,33,1000-0000-0000-0000-0000-0000-0000-0000,0,0,1,0,0,2,2,0,0,1,1,0,0,0,0,0,0,0,0,5333,0,0,0,0,0,0,0,0,0,0,0,0,0,0,0,0,0,0,0,0,0,0,0,0,0,0,0,0,0,0,0,0,0,0,0,0,0,0,0,0,0,0,0,0,0,0,0,90,2592000,1,0,0,0,1,0,0
57221,騎士鱗衣,4,5,10,0,1290,33,1000-0000-0000-0000-0000-0000-0000-0000,0,0,1,0,0,2,2,0,0,1,1,0,0,0,0,0,0,0,0,5334,0,0,0,0,0,0,0,0,0,0,0,0,0,0,0,0,0,0,0,0,0,0,0,0,0,0,0,0,0,0,0,0,0,0,0,0,0,0,0,0,0,0,0,0,0,0,0,120,0,1,0,0,0,1,0,0
57222,白霧冰神騎士套裝,4,5,10,0,1290,27,1000-0000-0000-0000-0000-0000-0000-0000,0,0,1,0,0,2,2,0,0,1,1,0,0,0,0,0,0,0,0,5335,0,0,0,0,0,0,0,0,0,0,0,0,0,0,0,0,0,0,0,0,0,0,0,0,0,0,0,0,0,0,0,0,0,0,0,0,0,0,0,0,0,0,0,0,0,0,0,63,1296000,1,0,0,0,1,0,0
57223,白霧冰神騎士套裝,4,5,10,0,1290,27,1000-0000-0000-0000-0000-0000-0000-0000,0,0,1,0,0,2,2,0,0,1,1,0,0,0,0,0,0,0,0,5336,0,0,0,0,0,0,0,0,0,0,0,0,0,0,0,0,0,0,0,0,0,0,0,0,0,0,0,0,0,0,0,0,0,0,0,0,0,0,0,0,0,0,0,0,0,0,0,110,2592000,1,0,0,0,1,0,0
57224,白霧冰神騎士套裝,4,5,10,0,1290,27,1000-0000-0000-0000-0000-0000-0000-0000,0,0,1,0,0,2,2,0,0,1,1,0,0,0,0,0,0,0,0,5337,0,0,0,0,0,0,0,0,0,0,0,0,0,0,0,0,0,0,0,0,0,0,0,0,0,0,0,0,0,0,0,0,0,0,0,0,0,0,0,0,0,0,0,0,0,0,0,151,0,1,0,0,0,1,0,0
57225,晚宴禮服【騎士】,4,5,10,0,1290,27,1000-0000-0000-0000-0000-0000-0000-0000,0,0,0,0,0,2,2,0,0,1,1,0,0,0,0,0,0,0,0,5338,0,0,0,0,0,0,0,0,0,0,0,0,0,0,0,0,0,0,0,0,0,0,0,0,0,0,0,0,0,0,0,0,0,0,0,0,0,0,0,0,0,0,0,0,0,0,0,63,1296000,1,0,0,0,1,0,0
57226,晚宴禮服【騎士】,4,5,10,0,1290,27,1000-0000-0000-0000-0000-0000-0000-0000,0,0,0,0,0,2,2,0,0,1,1,0,0,0,0,0,0,0,0,5339,0,0,0,0,0,0,0,0,0,0,0,0,0,0,0,0,0,0,0,0,0,0,0,0,0,0,0,0,0,0,0,0,0,0,0,0,0,0,0,0,0,0,0,0,0,0,0,110,2592000,1,0,0,0,1,0,0
57227,晚宴禮服【騎士】,4,5,10,0,1290,27,1000-0000-0000-0000-0000-0000-0000-0000,0,0,0,0,0,2,2,0,0,1,1,0,0,0,0,0,0,0,0,5340,0,0,0,0,0,0,0,0,0,0,0,0,0,0,0,0,0,0,0,0,0,0,0,0,0,0,0,0,0,0,0,0,0,0,0,0,0,0,0,0,0,0,0,0,0,0,0,151,0,1,0,0,0,1,0,0
57431,惡魔獵手套裝,4,5,10,0,1290,27,0100-0000-0000-0000-0000-0000-0000-0000,0,0,1,0,0,2,2,0,0,1,1,0,0,0,0,0,0,0,0,5341,0,0,0,0,0,0,0,0,0,0,0,0,0,0,0,0,0,0,0,0,0,0,0,0,0,0,0,0,0,0,0,0,0,0,0,0,0,0,0,0,0,0,0,0,0,0,0,63,1296000,1,0,0,0,1,0,0
57432,惡魔獵手套裝,4,5,10,0,1290,27,0100-0000-0000-0000-0000-0000-0000-0000,0,0,1,0,0,2,2,0,0,1,1,0,0,0,0,0,0,0,0,5342,0,0,0,0,0,0,0,0,0,0,0,0,0,0,0,0,0,0,0,0,0,0,0,0,0,0,0,0,0,0,0,0,0,0,0,0,0,0,0,0,0,0,0,0,0,0,0,113,2592000,1,0,0,0,1,0,0
57433,惡魔獵手套裝,4,5,10,0,1290,27,0100-0000-0000-0000-0000-0000-0000-0000,0,0,1,0,0,2,2,0,0,1,1,0,0,0,0,0,0,0,0,5343,0,0,0,0,0,0,0,0,0,0,0,0,0,0,0,0,0,0,0,0,0,0,0,0,0,0,0,0,0,0,0,0,0,0,0,0,0,0,0,0,0,0,0,0,0,0,0,151,0,1,0,0,0,1,0,0
57434,弓手鱗衣,4,5,10,0,1290,33,0100-0000-0000-0000-0000-0000-0000-0000,0,0,1,0,0,2,2,0,0,1,1,0,0,0,0,0,0,0,0,5344,0,0,0,0,0,0,0,0,0,0,0,0,0,0,0,0,0,0,0,0,0,0,0,0,0,0,0,0,0,0,0,0,0,0,0,0,0,0,0,0,0,0,0,0,0,0,0,50,1296000,1,0,0,0,1,0,0
57435,弓手鱗衣,4,5,10,0,1290,33,0100-0000-0000-0000-0000-0000-0000-0000,0,0,1,0,0,2,2,0,0,1,1,0,0,0,0,0,0,0,0,5345,0,0,0,0,0,0,0,0,0,0,0,0,0,0,0,0,0,0,0,0,0,0,0,0,0,0,0,0,0,0,0,0,0,0,0,0,0,0,0,0,0,0,0,0,0,0,0,90,2592000,1,0,0,0,1,0,0
57436,弓手鱗衣,4,5,10,0,1290,33,0100-0000-0000-0000-0000-0000-0000-0000,0,0,1,0,0,2,2,0,0,1,1,0,0,0,0,0,0,0,0,5346,0,0,0,0,0,0,0,0,0,0,0,0,0,0,0,0,0,0,0,0,0,0,0,0,0,0,0,0,0,0,0,0,0,0,0,0,0,0,0,0,0,0,0,0,0,0,0,120,0,1,0,0,0,1,0,0
57437,納迦女妖獵手套裝,4,5,10,0,1290,27,0100-0000-0000-0000-0000-0000-0000-0000,0,0,1,0,0,2,2,0,0,1,1,0,0,0,0,0,0,0,0,5347,0,0,0,0,0,0,0,0,0,0,0,0,0,0,0,0,0,0,0,0,0,0,0,0,0,0,0,0,0,0,0,0,0,0,0,0,0,0,0,0,0,0,0,0,0,0,0,63,1296000,1,0,0,0,1,0,0
57438,納迦女妖獵手套裝,4,5,10,0,1290,27,0100-0000-0000-0000-0000-0000-0000-0000,0,0,1,0,0,2,2,0,0,1,1,0,0,0,0,0,0,0,0,5348,0,0,0,0,0,0,0,0,0,0,0,0,0,0,0,0,0,0,0,0,0,0,0,0,0,0,0,0,0,0,0,0,0,0,0,0,0,0,0,0,0,0,0,0,0,0,0,110,2592000,1,0,0,0,1,0,0
57439,納迦女妖獵手套裝,4,5,10,0,1290,27,0100-0000-0000-0000-0000-0000-0000-0000,0,0,1,0,0,2,2,0,0,1,1,0,0,0,0,0,0,0,0,5349,0,0,0,0,0,0,0,0,0,0,0,0,0,0,0,0,0,0,0,0,0,0,0,0,0,0,0,0,0,0,0,0,0,0,0,0,0,0,0,0,0,0,0,0,0,0,0,151,0,1,0,0,0,1,0,0
57440,晚宴禮服【弓箭手】,4,5,10,0,1290,27,0100-0000-0000-0000-0000-0000-0000-0000,0,0,0,0,0,2,2,0,0,1,1,0,0,0,0,0,0,0,0,5350,0,0,0,0,0,0,0,0,0,0,0,0,0,0,0,0,0,0,0,0,0,0,0,0,0,0,0,0,0,0,0,0,0,0,0,0,0,0,0,0,0,0,0,0,0,0,0,63,1296000,1,0,0,0,1,0,0
57441,晚宴禮服【弓箭手】,4,5,10,0,1290,27,0100-0000-0000-0000-0000-0000-0000-0000,0,0,0,0,0,2,2,0,0,1,1,0,0,0,0,0,0,0,0,5351,0,0,0,0,0,0,0,0,0,0,0,0,0,0,0,0,0,0,0,0,0,0,0,0,0,0,0,0,0,0,0,0,0,0,0,0,0,0,0,0,0,0,0,0,0,0,0,110,2592000,1,0,0,0,1,0,0
57442,晚宴禮服【弓箭手】,4,5,10,0,1290,27,0100-0000-0000-0000-0000-0000-0000-0000,0,0,0,0,0,2,2,0,0,1,1,0,0,0,0,0,0,0,0,5352,0,0,0,0,0,0,0,0,0,0,0,0,0,0,0,0,0,0,0,0,0,0,0,0,0,0,0,0,0,0,0,0,0,0,0,0,0,0,0,0,0,0,0,0,0,0,0,151,0,1,0,0,0,1,0,0
57646,瀆神魔法師套裝,4,5,10,0,1290,27,0010-0000-0000-0000-0000-0000-0000-0000,0,0,1,0,0,2,2,0,0,1,1,0,0,0,0,0,0,0,0,5353,0,0,0,0,0,0,0,0,0,0,0,0,0,0,0,0,0,0,0,0,0,0,0,0,0,0,0,0,0,0,0,0,0,0,0,0,0,0,0,0,0,0,0,0,0,0,0,63,1296000,1,0,0,0,1,0,0
57647,瀆神魔法師套裝,4,5,10,0,1290,27,0010-0000-0000-0000-0000-0000-0000-0000,0,0,1,0,0,2,2,0,0,1,1,0,0,0,0,0,0,0,0,5354,0,0,0,0,0,0,0,0,0,0,0,0,0,0,0,0,0,0,0,0,0,0,0,0,0,0,0,0,0,0,0,0,0,0,0,0,0,0,0,0,0,0,0,0,0,0,0,113,2592000,1,0,0,0,1,0,0
57648,瀆神魔法師套裝,4,5,10,0,1290,27,0010-0000-0000-0000-0000-0000-0000-0000,0,0,1,0,0,2,2,0,0,1,1,0,0,0,0,0,0,0,0,5355,0,0,0,0,0,0,0,0,0,0,0,0,0,0,0,0,0,0,0,0,0,0,0,0,0,0,0,0,0,0,0,0,0,0,0,0,0,0,0,0,0,0,0,0,0,0,0,151,0,1,0,0,0,1,0,0
57649,魔法師鱗衣,4,5,10,0,1290,33,0010-0000-0000-0000-0000-0000-0000-0000,0,0,1,0,0,2,2,0,0,1,1,0,0,0,0,0,0,0,0,5356,0,0,0,0,0,0,0,0,0,0,0,0,0,0,0,0,0,0,0,0,0,0,0,0,0,0,0,0,0,0,0,0,0,0,0,0,0,0,0,0,0,0,0,0,0,0,0,50,1296000,1,0,0,0,1,0,0
57650,魔法師鱗衣,4,5,10,0,1290,33,0010-0000-0000-0000-0000-0000-0000-0000,0,0,1,0,0,2,2,0,0,1,1,0,0,0,0,0,0,0,0,5357,0,0,0,0,0,0,0,0,0,0,0,0,0,0,0,0,0,0,0,0,0,0,0,0,0,0,0,0,0,0,0,0,0,0,0,0,0,0,0,0,0,0,0,0,0,0,0,90,2592000,1,0,0,0,1,0,0
57651,魔法師鱗衣,4,5,10,0,1290,33,0010-0000-0000-0000-0000-0000-0000-0000,0,0,1,0,0,2,2,0,0,1,1,0,0,0,0,0,0,0,0,5358,0,0,0,0,0,0,0,0,0,0,0,0,0,0,0,0,0,0,0,0,0,0,0,0,0,0,0,0,0,0,0,0,0,0,0,0,0,0,0,0,0,0,0,0,0,0,0,120,0,1,0,0,0,1,0,0
57652,墮落主教法師套裝,4,5,10,0,1290,27,0010-0000-0000-0000-0000-0000-0000-0000,0,0,1,0,0,2,2,0,0,1,1,0,0,0,0,0,0,0,0,5359,0,0,0,0,0,0,0,0,0,0,0,0,0,0,0,0,0,0,0,0,0,0,0,0,0,0,0,0,0,0,0,0,0,0,0,0,0,0,0,0,0,0,0,0,0,0,0,63,1296000,1,0,0,0,1,0,0
57653,墮落主教法師套裝,4,5,10,0,1290,27,0010-0000-0000-0000-0000-0000-0000-0000,0,0,1,0,0,2,2,0,0,1,1,0,0,0,0,0,0,0,0,5360,0,0,0,0,0,0,0,0,0,0,0,0,0,0,0,0,0,0,0,0,0,0,0,0,0,0,0,0,0,0,0,0,0,0,0,0,0,0,0,0,0,0,0,0,0,0,0,110,2592000,1,0,0,0,1,0,0
57654,墮落主教法師套裝,4,5,10,0,1290,27,0010-0000-0000-0000-0000-0000-0000-0000,0,0,1,0,0,2,2,0,0,1,1,0,0,0,0,0,0,0,0,5361,0,0,0,0,0,0,0,0,0,0,0,0,0,0,0,0,0,0,0,0,0,0,0,0,0,0,0,0,0,0,0,0,0,0,0,0,0,0,0,0,0,0,0,0,0,0,0,151,0,1,0,0,0,1,0,0
57655,晚宴禮服【魔法師】,4,5,10,0,1290,27,0010-0000-0000-0000-0000-0000-0000-0000,0,0,0,0,0,2,2,0,0,1,1,0,0,0,0,0,0,0,0,5362,0,0,0,0,0,0,0,0,0,0,0,0,0,0,0,0,0,0,0,0,0,0,0,0,0,0,0,0,0,0,0,0,0,0,0,0,0,0,0,0,0,0,0,0,0,0,0,63,1296000,1,0,0,0,1,0,0
57656,晚宴禮服【魔法師】,4,5,10,0,1290,27,0010-0000-0000-0000-0000-0000-0000-0000,0,0,0,0,0,2,2,0,0,1,1,0,0,0,0,0,0,0,0,5363,0,0,0,0,0,0,0,0,0,0,0,0,0,0,0,0,0,0,0,0,0,0,0,0,0,0,0,0,0,0,0,0,0,0,0,0,0,0,0,0,0,0,0,0,0,0,0,110,2592000,1,0,0,0,1,0,0
57657,晚宴禮服【魔法師】,4,5,10,0,1290,27,0010-0000-0000-0000-0000-0000-0000-0000,0,0,0,0,0,2,2,0,0,1,1,0,0,0,0,0,0,0,0,5364,0,0,0,0,0,0,0,0,0,0,0,0,0,0,0,0,0,0,0,0,0,0,0,0,0,0,0,0,0,0,0,0,0,0,0,0,0,0,0,0,0,0,0,0,0,0,0,151,0,1,0,0,0,1,0,0
57861,邪眼船長驅魔師套裝,4,5,10,0,1290,27,0001-0000-0000-0000-0000-0000-0000-0000,0,0,1,0,0,2,2,0,0,1,1,0,0,0,0,0,0,0,0,5365,0,0,0,0,0,0,0,0,0,0,0,0,0,0,0,0,0,0,0,0,0,0,0,0,0,0,0,0,0,0,0,0,0,0,0,0,0,0,0,0,0,0,0,0,0,0,0,63,1296000,1,0,0,0,1,0,0
57862,邪眼船長驅魔師套裝,4,5,10,0,1290,27,0001-0000-0000-0000-0000-0000-0000-0000,0,0,1,0,0,2,2,0,0,1,1,0,0,0,0,0,0,0,0,5366,0,0,0,0,0,0,0,0,0,0,0,0,0,0,0,0,0,0,0,0,0,0,0,0,0,0,0,0,0,0,0,0,0,0,0,0,0,0,0,0,0,0,0,0,0,0,0,113,2592000,1,0,0,0,1,0,0
57863,邪眼船長驅魔師套裝,4,5,10,0,1290,27,0001-0000-0000-0000-0000-0000-0000-0000,0,0,1,0,0,2,2,0,0,1,1,0,0,0,0,0,0,0,0,5367,0,0,0,0,0,0,0,0,0,0,0,0,0,0,0,0,0,0,0,0,0,0,0,0,0,0,0,0,0,0,0,0,0,0,0,0,0,0,0,0,0,0,0,0,0,0,0,151,0,1,0,0,0,1,0,0
57864,驅魔師鱗衣,4,5,10,0,1290,33,0001-0000-0000-0000-0000-0000-0000-0000,0,0,1,0,0,2,2,0,0,1,1,0,0,0,0,0,0,0,0,5368,0,0,0,0,0,0,0,0,0,0,0,0,0,0,0,0,0,0,0,0,0,0,0,0,0,0,0,0,0,0,0,0,0,0,0,0,0,0,0,0,0,0,0,0,0,0,0,50,1296000,1,0,0,0,1,0,0
57865,驅魔師鱗衣,4,5,10,0,1290,33,0001-0000-0000-0000-0000-0000-0000-0000,0,0,1,0,0,2,2,0,0,1,1,0,0,0,0,0,0,0,0,5369,0,0,0,0,0,0,0,0,0,0,0,0,0,0,0,0,0,0,0,0,0,0,0,0,0,0,0,0,0,0,0,0,0,0,0,0,0,0,0,0,0,0,0,0,0,0,0,90,2592000,1,0,0,0,1,0,0
57866,驅魔師鱗衣,4,5,10,0,1290,33,0001-0000-0000-0000-0000-0000-0000-0000,0,0,1,0,0,2,2,0,0,1,1,0,0,0,0,0,0,0,0,5370,0,0,0,0,0,0,0,0,0,0,0,0,0,0,0,0,0,0,0,0,0,0,0,0,0,0,0,0,0,0,0,0,0,0,0,0,0,0,0,0,0,0,0,0,0,0,0,120,0,1,0,0,0,1,0,0
57867,守護者驅魔師套裝,4,5,10,0,1290,27,0001-0000-0000-0000-0000-0000-0000-0000,0,0,1,0,0,2,2,0,0,1,1,0,0,0,0,0,0,0,0,5371,0,0,0,0,0,0,0,0,0,0,0,0,0,0,0,0,0,0,0,0,0,0,0,0,0,0,0,0,0,0,0,0,0,0,0,0,0,0,0,0,0,0,0,0,0,0,0,63,1296000,1,0,0,0,1,0,0
57868,守護者驅魔師套裝,4,5,10,0,1290,27,0001-0000-0000-0000-0000-0000-0000-0000,0,0,1,0,0,2,2,0,0,1,1,0,0,0,0,0,0,0,0,5372,0,0,0,0,0,0,0,0,0,0,0,0,0,0,0,0,0,0,0,0,0,0,0,0,0,0,0,0,0,0,0,0,0,0,0,0,0,0,0,0,0,0,0,0,0,0,0,110,2592000,1,0,0,0,1,0,0
57869,守護者驅魔師套裝,4,5,10,0,1290,27,0001-0000-0000-0000-0000-0000-0000-0000,0,0,1,0,0,2,2,0,0,1,1,0,0,0,0,0,0,0,0,5373,0,0,0,0,0,0,0,0,0,0,0,0,0,0,0,0,0,0,0,0,0,0,0,0,0,0,0,0,0,0,0,0,0,0,0,0,0,0,0,0,0,0,0,0,0,0,0,151,0,1,0,0,0,1,0,0
57870,晚宴禮服【驅魔師】,4,5,10,0,1290,27,0001-0000-0000-0000-0000-0000-0000-0000,0,0,0,0,0,2,2,0,0,1,1,0,0,0,0,0,0,0,0,5374,0,0,0,0,0,0,0,0,0,0,0,0,0,0,0,0,0,0,0,0,0,0,0,0,0,0,0,0,0,0,0,0,0,0,0,0,0,0,0,0,0,0,0,0,0,0,0,63,1296000,1,0,0,0,1,0,0
57871,晚宴禮服【驅魔師】,4,5,10,0,1290,27,0001-0000-0000-0000-0000-0000-0000-0000,0,0,0,0,0,2,2,0,0,1,1,0,0,0,0,0,0,0,0,5375,0,0,0,0,0,0,0,0,0,0,0,0,0,0,0,0,0,0,0,0,0,0,0,0,0,0,0,0,0,0,0,0,0,0,0,0,0,0,0,0,0,0,0,0,0,0,0,110,2592000,1,0,0,0,1,0,0
57872,晚宴禮服【驅魔師】,4,5,10,0,1290,27,0001-0000-0000-0000-0000-0000-0000-0000,0,0,0,0,0,2,2,0,0,1,1,0,0,0,0,0,0,0,0,5376,0,0,0,0,0,0,0,0,0,0,0,0,0,0,0,0,0,0,0,0,0,0,0,0,0,0,0,0,0,0,0,0,0,0,0,0,0,0,0,0,0,0,0,0,0,0,0,151,0,1,0,0,0,1,0,0
58076,媚魔巫師套裝,4,5,10,0,1290,27,0000-1000-0000-0000-0000-0000-0000-0000,0,0,1,0,0,2,2,0,0,1,1,0,0,0,0,0,0,0,0,5377,0,0,0,0,0,0,0,0,0,0,0,0,0,0,0,0,0,0,0,0,0,0,0,0,0,0,0,0,0,0,0,0,0,0,0,0,0,0,0,0,0,0,0,0,0,0,0,63,1296000,1,0,0,0,1,0,0
58077,媚魔巫師套裝,4,5,10,0,1290,27,0000-1000-0000-0000-0000-0000-0000-0000,0,0,1,0,0,2,2,0,0,1,1,0,0,0,0,0,0,0,0,5378,0,0,0,0,0,0,0,0,0,0,0,0,0,0,0,0,0,0,0,0,0,0,0,0,0,0,0,0,0,0,0,0,0,0,0,0,0,0,0,0,0,0,0,0,0,0,0,113,2592000,1,0,0,0,1,0,0
58078,媚魔巫師套裝,4,5,10,0,1290,27,0000-1000-0000-0000-0000-0000-0000-0000,0,0,1,0,0,2,2,0,0,1,1,0,0,0,0,0,0,0,0,5379,0,0,0,0,0,0,0,0,0,0,0,0,0,0,0,0,0,0,0,0,0,0,0,0,0,0,0,0,0,0,0,0,0,0,0,0,0,0,0,0,0,0,0,0,0,0,0,151,0,1,0,0,0,1,0,0
58079,巫師鱗衣,4,5,10,0,1290,33,0000-1000-0000-0000-0000-0000-0000-0000,0,0,1,0,0,2,2,0,0,1,1,0,0,0,0,0,0,0,0,5380,0,0,0,0,0,0,0,0,0,0,0,0,0,0,0,0,0,0,0,0,0,0,0,0,0,0,0,0,0,0,0,0,0,0,0,0,0,0,0,0,0,0,0,0,0,0,0,50,1296000,1,0,0,0,1,0,0
58080,巫師鱗衣,4,5,10,0,1290,33,0000-1000-0000-0000-0000-0000-0000-0000,0,0,1,0,0,2,2,0,0,1,1,0,0,0,0,0,0,0,0,5381,0,0,0,0,0,0,0,0,0,0,0,0,0,0,0,0,0,0,0,0,0,0,0,0,0,0,0,0,0,0,0,0,0,0,0,0,0,0,0,0,0,0,0,0,0,0,0,90,2592000,1,0,0,0,1,0,0
58081,巫師鱗衣,4,5,10,0,1290,33,0000-1000-0000-0000-0000-0000-0000-0000,0,0,1,0,0,2,2,0,0,1,1,0,0,0,0,0,0,0,0,5382,0,0,0,0,0,0,0,0,0,0,0,0,0,0,0,0,0,0,0,0,0,0,0,0,0,0,0,0,0,0,0,0,0,0,0,0,0,0,0,0,0,0,0,0,0,0,0,120,0,1,0,0,0,1,0,0
58082,納迦海妖巫師套裝,4,5,10,0,1290,27,0000-1000-0000-0000-0000-0000-0000-0000,0,0,1,0,0,2,2,0,0,1,1,0,0,0,0,0,0,0,0,5383,0,0,0,0,0,0,0,0,0,0,0,0,0,0,0,0,0,0,0,0,0,0,0,0,0,0,0,0,0,0,0,0,0,0,0,0,0,0,0,0,0,0,0,0,0,0,0,63,1296000,1,0,0,0,1,0,0
58083,納迦海妖巫師套裝,4,5,10,0,1290,27,0000-1000-0000-0000-0000-0000-0000-0000,0,0,1,0,0,2,2,0,0,1,1,0,0,0,0,0,0,0,0,5384,0,0,0,0,0,0,0,0,0,0,0,0,0,0,0,0,0,0,0,0,0,0,0,0,0,0,0,0,0,0,0,0,0,0,0,0,0,0,0,0,0,0,0,0,0,0,0,110,2592000,1,0,0,0,1,0,0
58084,納迦海妖巫師套裝,4,5,10,0,1290,27,0000-1000-0000-0000-0000-0000-0000-0000,0,0,1,0,0,2,2,0,0,1,1,0,0,0,0,0,0,0,0,5385,0,0,0,0,0,0,0,0,0,0,0,0,0,0,0,0,0,0,0,0,0,0,0,0,0,0,0,0,0,0,0,0,0,0,0,0,0,0,0,0,0,0,0,0,0,0,0,151,0,1,0,0,0,1,0,0
58085,晚宴禮服【巫師】,4,5,10,0,1290,27,0000-1000-0000-0000-0000-0000-0000-0000,0,0,0,0,0,2,2,0,0,1,1,0,0,0,0,0,0,0,0,5386,0,0,0,0,0,0,0,0,0,0,0,0,0,0,0,0,0,0,0,0,0,0,0,0,0,0,0,0,0,0,0,0,0,0,0,0,0,0,0,0,0,0,0,0,0,0,0,63,1296000,1,0,0,0,1,0,0
58086,晚宴禮服【巫師】,4,5,10,0,1290,27,0000-1000-0000-0000-0000-0000-0000-0000,0,0,0,0,0,2,2,0,0,1,1,0,0,0,0,0,0,0,0,5387,0,0,0,0,0,0,0,0,0,0,0,0,0,0,0,0,0,0,0,0,0,0,0,0,0,0,0,0,0,0,0,0,0,0,0,0,0,0,0,0,0,0,0,0,0,0,0,110,2592000,1,0,0,0,1,0,0
58087,晚宴禮服【巫師】,4,5,10,0,1290,27,0000-1000-0000-0000-0000-0000-0000-0000,0,0,0,0,0,2,2,0,0,1,1,0,0,0,0,0,0,0,0,5388,0,0,0,0,0,0,0,0,0,0,0,0,0,0,0,0,0,0,0,0,0,0,0,0,0,0,0,0,0,0,0,0,0,0,0,0,0,0,0,0,0,0,0,0,0,0,0,151,0,1,0,0,0,1,0,0
58291,地獄守衛狂戰士套裝,4,5,10,0,1290,27,0000-0100-0000-0000-0000-0000-0000-0000,0,0,1,0,0,2,2,0,0,1,1,0,0,0,0,0,0,0,0,5389,0,0,0,0,0,0,0,0,0,0,0,0,0,0,0,0,0,0,0,0,0,0,0,0,0,0,0,0,0,0,0,0,0,0,0,0,0,0,0,0,0,0,0,0,0,0,0,63,1296000,1,0,0,0,1,0,0
58292,地獄守衛狂戰士套裝,4,5,10,0,1290,27,0000-0100-0000-0000-0000-0000-0000-0000,0,0,1,0,0,2,2,0,0,1,1,0,0,0,0,0,0,0,0,5390,0,0,0,0,0,0,0,0,0,0,0,0,0,0,0,0,0,0,0,0,0,0,0,0,0,0,0,0,0,0,0,0,0,0,0,0,0,0,0,0,0,0,0,0,0,0,0,113,2592000,1,0,0,0,1,0,0
58293,地獄守衛狂戰士套裝,4,5,10,0,1290,27,0000-0100-0000-0000-0000-0000-0000-0000,0,0,1,0,0,2,2,0,0,1,1,0,0,0,0,0,0,0,0,5391,0,0,0,0,0,0,0,0,0,0,0,0,0,0,0,0,0,0,0,0,0,0,0,0,0,0,0,0,0,0,0,0,0,0,0,0,0,0,0,0,0,0,0,0,0,0,0,151,0,1,0,0,0,1,0,0
58294,狂戰士鱗衣,4,5,10,0,1290,33,0000-0100-0000-0000-0000-0000-0000-0000,0,0,1,0,0,2,2,0,0,1,1,0,0,0,0,0,0,0,0,5392,0,0,0,0,0,0,0,0,0,0,0,0,0,0,0,0,0,0,0,0,0,0,0,0,0,0,0,0,0,0,0,0,0,0,0,0,0,0,0,0,0,0,0,0,0,0,0,50,1296000,1,0,0,0,1,0,0
58295,狂戰士鱗衣,4,5,10,0,1290,33,0000-0100-0000-0000-0000-0000-0000-0000,0,0,1,0,0,2,2,0,0,1,1,0,0,0,0,0,0,0,0,5393,0,0,0,0,0,0,0,0,0,0,0,0,0,0,0,0,0,0,0,0,0,0,0,0,0,0,0,0,0,0,0,0,0,0,0,0,0,0,0,0,0,0,0,0,0,0,0,90,2592000,1,0,0,0,1,0,0
58296,狂戰士鱗衣,4,5,10,0,1290,33,0000-0100-0000-0000-0000-0000-0000-0000,0,0,1,0,0,2,2,0,0,1,1,0,0,0,0,0,0,0,0,5394,0,0,0,0,0,0,0,0,0,0,0,0,0,0,0,0,0,0,0,0,0,0,0,0,0,0,0,0,0,0,0,0,0,0,0,0,0,0,0,0,0,0,0,0,0,0,0,120,0,1,0,0,0,1,0,0
58297,魔牛狂戰士套裝,4,5,10,0,1290,27,0000-0100-0000-0000-0000-0000-0000-0000,0,0,1,0,0,2,2,0,0,1,1,0,0,0,0,0,0,0,0,5395,0,0,0,0,0,0,0,0,0,0,0,0,0,0,0,0,0,0,0,0,0,0,0,0,0,0,0,0,0,0,0,0,0,0,0,0,0,0,0,0,0,0,0,0,0,0,0,63,1296000,1,0,0,0,1,0,0
58298,魔牛狂戰士套裝,4,5,10,0,1290,27,0000-0100-0000-0000-0000-0000-0000-0000,0,0,1,0,0,2,2,0,0,1,1,0,0,0,0,0,0,0,0,5396,0,0,0,0,0,0,0,0,0,0,0,0,0,0,0,0,0,0,0,0,0,0,0,0,0,0,0,0,0,0,0,0,0,0,0,0,0,0,0,0,0,0,0,0,0,0,0,110,2592000,1,0,0,0,1,0,0
58299,魔牛狂戰士套裝,4,5,10,0,1290,27,0000-0100-0000-0000-0000-0000-0000-0000,0,0,1,0,0,2,2,0,0,1,1,0,0,0,0,0,0,0,0,5397,0,0,0,0,0,0,0,0,0,0,0,0,0,0,0,0,0,0,0,0,0,0,0,0,0,0,0,0,0,0,0,0,0,0,0,0,0,0,0,0,0,0,0,0,0,0,0,151,0,1,0,0,0,1,0,0
58300,晚宴禮服【狂戰士】,4,5,10,0,1290,27,0000-0100-0000-0000-0000-0000-0000-0000,0,0,0,0,0,2,2,0,0,1,1,0,0,0,0,0,0,0,0,5398,0,0,0,0,0,0,0,0,0,0,0,0,0,0,0,0,0,0,0,0,0,0,0,0,0,0,0,0,0,0,0,0,0,0,0,0,0,0,0,0,0,0,0,0,0,0,0,63,1296000,1,0,0,0,1,0,0
58301,晚宴禮服【狂戰士】,4,5,10,0,1290,27,0000-0100-0000-0000-0000-0000-0000-0000,0,0,0,0,0,2,2,0,0,1,1,0,0,0,0,0,0,0,0,5399,0,0,0,0,0,0,0,0,0,0,0,0,0,0,0,0,0,0,0,0,0,0,0,0,0,0,0,0,0,0,0,0,0,0,0,0,0,0,0,0,0,0,0,0,0,0,0,110,2592000,1,0,0,0,1,0,0
58302,晚宴禮服【狂戰士】,4,5,10,0,1290,27,0000-0100-0000-0000-0000-0000-0000-0000,0,0,0,0,0,2,2,0,0,1,1,0,0,0,0,0,0,0,0,5400,0,0,0,0,0,0,0,0,0,0,0,0,0,0,0,0,0,0,0,0,0,0,0,0,0,0,0,0,0,0,0,0,0,0,0,0,0,0,0,0,0,0,0,0,0,0,0,151,0,1,0,0,0,1,0,0
58303,冒險套裝【騎士】,4,5,10,0,1290,27,1000-0000-0000-0000-0000-0000-0000-0000,0,0,0,0,0,2,2,0,0,1,1,0,0,0,0,0,0,0,0,5400,0,0,0,0,0,0,0,0,0,0,0,0,0,0,0,0,0,0,0,0,0,0,0,0,0,0,0,0,0,0,0,0,0,0,0,0,0,0,0,0,0,0,0,0,0,0,0,63,1296000,1,0,0,0,1,0,0
58304,冒險套裝【騎士】,4,5,10,0,1290,27,1000-0000-0000-0000-0000-0000-0000-0000,0,0,0,0,0,2,2,0,0,1,1,0,0,0,0,0,0,0,0,5400,0,0,0,0,0,0,0,0,0,0,0,0,0,0,0,0,0,0,0,0,0,0,0,0,0,0,0,0,0,0,0,0,0,0,0,0,0,0,0,0,0,0,0,0,0,0,0,110,2592000,1,0,0,0,1,0,0
58305,冒險套裝【騎士】,4,5,10,0,1290,27,1000-0000-0000-0000-0000-0000-0000-0000,0,0,0,0,0,2,2,0,0,1,1,0,0,0,0,0,0,0,0,5400,0,0,0,0,0,0,0,0,0,0,0,0,0,0,0,0,0,0,0,0,0,0,0,0,0,0,0,0,0,0,0,0,0,0,0,0,0,0,0,0,0,0,0,0,0,0,0,151,0,1,0,0,0,1,0,0
58306,冒險套裝【弓箭手】,4,5,10,0,1290,27,0100-0000-0000-0000-0000-0000-0000-0000,0,0,0,0,0,2,2,0,0,1,1,0,0,0,0,0,0,0,0,5400,0,0,0,0,0,0,0,0,0,0,0,0,0,0,0,0,0,0,0,0,0,0,0,0,0,0,0,0,0,0,0,0,0,0,0,0,0,0,0,0,0,0,0,0,0,0,0,63,1296000,1,0,0,0,1,0,0
58307,冒險套裝【弓箭手】,4,5,10,0,1290,27,0100-0000-0000-0000-0000-0000-0000-0000,0,0,0,0,0,2,2,0,0,1,1,0,0,0,0,0,0,0,0,5400,0,0,0,0,0,0,0,0,0,0,0,0,0,0,0,0,0,0,0,0,0,0,0,0,0,0,0,0,0,0,0,0,0,0,0,0,0,0,0,0,0,0,0,0,0,0,0,110,2592000,1,0,0,0,1,0,0
58308,冒險套裝【弓箭手】,4,5,10,0,1290,27,0100-0000-0000-0000-0000-0000-0000-0000,0,0,0,0,0,2,2,0,0,1,1,0,0,0,0,0,0,0,0,5400,0,0,0,0,0,0,0,0,0,0,0,0,0,0,0,0,0,0,0,0,0,0,0,0,0,0,0,0,0,0,0,0,0,0,0,0,0,0,0,0,0,0,0,0,0,0,0,151,0,1,0,0,0,1,0,0
58309,冒險套裝【魔法師】,4,5,10,0,1290,27,0010-0000-0000-0000-0000-0000-0000-0000,0,0,0,0,0,2,2,0,0,1,1,0,0,0,0,0,0,0,0,5400,0,0,0,0,0,0,0,0,0,0,0,0,0,0,0,0,0,0,0,0,0,0,0,0,0,0,0,0,0,0,0,0,0,0,0,0,0,0,0,0,0,0,0,0,0,0,0,63,1296000,1,0,0,0,1,0,0
58310,冒險套裝【魔法師】,4,5,10,0,1290,27,0010-0000-0000-0000-0000-0000-0000-0000,0,0,0,0,0,2,2,0,0,1,1,0,0,0,0,0,0,0,0,5400,0,0,0,0,0,0,0,0,0,0,0,0,0,0,0,0,0,0,0,0,0,0,0,0,0,0,0,0,0,0,0,0,0,0,0,0,0,0,0,0,0,0,0,0,0,0,0,110,2592000,1,0,0,0,1,0,0
58311,冒險套裝【魔法師】,4,5,10,0,1290,27,0010-0000-0000-0000-0000-0000-0000-0000,0,0,0,0,0,2,2,0,0,1,1,0,0,0,0,0,0,0,0,5400,0,0,0,0,0,0,0,0,0,0,0,0,0,0,0,0,0,0,0,0,0,0,0,0,0,0,0,0,0,0,0,0,0,0,0,0,0,0,0,0,0,0,0,0,0,0,0,151,0,1,0,0,0,1,0,0
58312,冒險套裝【驅魔師】,4,5,10,0,1290,27,0001-0000-0000-0000-0000-0000-0000-0000,0,0,0,0,0,2,2,0,0,1,1,0,0,0,0,0,0,0,0,5400,0,0,0,0,0,0,0,0,0,0,0,0,0,0,0,0,0,0,0,0,0,0,0,0,0,0,0,0,0,0,0,0,0,0,0,0,0,0,0,0,0,0,0,0,0,0,0,63,1296000,1,0,0,0,1,0,0
58313,冒險套裝【驅魔師】,4,5,10,0,1290,27,0001-0000-0000-0000-0000-0000-0000-0000,0,0,0,0,0,2,2,0,0,1,1,0,0,0,0,0,0,0,0,5400,0,0,0,0,0,0,0,0,0,0,0,0,0,0,0,0,0,0,0,0,0,0,0,0,0,0,0,0,0,0,0,0,0,0,0,0,0,0,0,0,0,0,0,0,0,0,0,110,2592000,1,0,0,0,1,0,0
58314,冒險套裝【驅魔師】,4,5,10,0,1290,27,0001-0000-0000-0000-0000-0000-0000-0000,0,0,0,0,0,2,2,0,0,1,1,0,0,0,0,0,0,0,0,5400,0,0,0,0,0,0,0,0,0,0,0,0,0,0,0,0,0,0,0,0,0,0,0,0,0,0,0,0,0,0,0,0,0,0,0,0,0,0,0,0,0,0,0,0,0,0,0,151,0,1,0,0,0,1,0,0
58315,冒險套裝【巫師】,4,5,10,0,1290,27,0000-1000-0000-0000-0000-0000-0000-0000,0,0,0,0,0,2,2,0,0,1,1,0,0,0,0,0,0,0,0,5400,0,0,0,0,0,0,0,0,0,0,0,0,0,0,0,0,0,0,0,0,0,0,0,0,0,0,0,0,0,0,0,0,0,0,0,0,0,0,0,0,0,0,0,0,0,0,0,63,1296000,1,0,0,0,1,0,0
58316,冒險套裝【巫師】,4,5,10,0,1290,27,0000-1000-0000-0000-0000-0000-0000-0000,0,0,0,0,0,2,2,0,0,1,1,0,0,0,0,0,0,0,0,5400,0,0,0,0,0,0,0,0,0,0,0,0,0,0,0,0,0,0,0,0,0,0,0,0,0,0,0,0,0,0,0,0,0,0,0,0,0,0,0,0,0,0,0,0,0,0,0,110,2592000,1,0,0,0,1,0,0
58317,冒險套裝【巫師】,4,5,10,0,1290,27,0000-1000-0000-0000-0000-0000-0000-0000,0,0,0,0,0,2,2,0,0,1,1,0,0,0,0,0,0,0,0,5400,0,0,0,0,0,0,0,0,0,0,0,0,0,0,0,0,0,0,0,0,0,0,0,0,0,0,0,0,0,0,0,0,0,0,0,0,0,0,0,0,0,0,0,0,0,0,0,151,0,1,0,0,0,1,0,0
58318,冒險套裝【狂戰士】,4,5,10,0,1290,27,0000-0100-0000-0000-0000-0000-0000-0000,0,0,0,0,0,2,2,0,0,1,1,0,0,0,0,0,0,0,0,5400,0,0,0,0,0,0,0,0,0,0,0,0,0,0,0,0,0,0,0,0,0,0,0,0,0,0,0,0,0,0,0,0,0,0,0,0,0,0,0,0,0,0,0,0,0,0,0,63,1296000,1,0,0,0,1,0,0
58319,冒險套裝【狂戰士】,4,5,10,0,1290,27,0000-0100-0000-0000-0000-0000-0000-0000,0,0,0,0,0,2,2,0,0,1,1,0,0,0,0,0,0,0,0,5400,0,0,0,0,0,0,0,0,0,0,0,0,0,0,0,0,0,0,0,0,0,0,0,0,0,0,0,0,0,0,0,0,0,0,0,0,0,0,0,0,0,0,0,0,0,0,0,110,2592000,1,0,0,0,1,0,0
58320,冒險套裝【狂戰士】,4,5,10,0,1290,27,0000-0100-0000-0000-0000-0000-0000-0000,0,0,0,0,0,2,2,0,0,1,1,0,0,0,0,0,0,0,0,5400,0,0,0,0,0,0,0,0,0,0,0,0,0,0,0,0,0,0,0,0,0,0,0,0,0,0,0,0,0,0,0,0,0,0,0,0,0,0,0,0,0,0,0,0,0,0,0,151,0,1,0,0,0,1,0,0
62501,戰魂,4,6,4,0,1536,24,1111-1111-1111-1111-1111-1111-1111-1111,0,0,0,30,0,1,1,0,0,1,1,0,0,0,0,0,0,0,0,5401,0,0,0,0,0,0,0,0,0,0,0,0,0,0,43,28,0,0,0,0,0,0,0,0,0,0,0,0,0,0,0,0,0,0,0,0,0,0,0,0,0,0,0,0,0,0,0,150,0,0,0,0,0,1,0,0
62502,疾風,4,6,4,0,1536,24,1111-1111-1111-1111-1111-1111-1111-1111,0,0,0,30,0,1,1,0,0,1,1,0,0,0,0,0,0,0,0,5402,0,0,0,0,0,0,0,0,0,0,0,0,0,0,43,28,0,0,0,0,0,0,0,0,0,0,0,0,0,0,0,0,0,0,0,0,0,0,0,0,0,0,0,0,0,0,0,150,0,0,0,0,0,1,0,0
62503,班圖,4,6,4,0,1536,24,1111-1111-1111-1111-1111-1111-1111-1111,0,0,0,30,0,1,1,0,0,1,1,0,0,0,0,0,0,0,0,5403,0,0,0,0,0,0,0,0,0,0,0,0,0,0,43,28,0,0,0,0,0,0,0,0,0,0,0,0,0,0,0,0,0,0,0,0,0,0,0,0,0,0,0,0,0,0,0,150,0,0,0,0,0,1,0,0
62504,超級戰魂,4,6,4,0,1536,24,1111-1111-1111-1111-1111-1111-1111-1111,0,0,0,30,0,1,1,0,0,1,1,0,0,0,0,0,0,0,0,5403,0,0,0,0,0,0,0,0,0,0,0,0,0,0,43,32,0,0,0,0,0,0,0,0,0,0,0,0,0,0,0,0,0,0,0,0,0,0,0,0,0,0,0,0,0,0,0,210,0,1,0,0,0,1,0,0
62505,超級疾風,4,6,4,0,1536,24,1111-1111-1111-1111-1111-1111-1111-1111,0,0,0,30,0,1,1,0,0,1,1,0,0,0,0,0,0,0,0,5403,0,0,0,0,0,0,0,0,0,0,0,0,0,0,43,32,0,0,0,0,0,0,0,0,0,0,0,0,0,0,0,0,0,0,0,0,0,0,0,0,0,0,0,0,0,0,0,210,0,1,0,0,0,1,0,0
62506,超級班圖,4,6,4,0,1536,24,1111-1111-1111-1111-1111-1111-1111-1111,0,0,0,30,0,1,1,0,0,1,1,0,0,0,0,0,0,0,0,5403,0,0,0,0,0,0,0,0,0,0,0,0,0,0,43,32,0,0,0,0,0,0,0,0,0,0,0,0,0,0,0,0,0,0,0,0,0,0,0,0,0,0,0,0,0,0,0,210,0,1,0,0,0,1,0,0
62507,超級迅電,4,6,4,0,1536,24,1111-1111-1111-1111-1111-1111-1111-1111,0,0,0,30,0,1,1,0,0,1,1,0,0,0,0,0,0,0,0,5403,0,0,0,0,0,0,0,0,0,0,0,0,0,0,43,32,0,0,0,0,0,0,0,0,0,0,0,0,0,0,0,0,0,0,0,0,0,0,0,0,0,0,0,0,0,0,0,210,0,1,0,0,0,1,0,0
62600,妖精的粉末,4,0,12,0,13,54,1111-1111-1111-1111-1111-1111-1111-1111,5000,300,1,0,0,1,1,500,0,1,1,0,0,0,0,0,0,0,0,5404,0,0,0,0,0,0,0,0,0,0,0,0,0,0,0,0,0,0,0,0,0,0,0,0,0,0,0,0,0,0,0,0,0,0,0,0,0,0,0,0,0,0,0,0,0,0,0,25,0,1,0,0,0,1,0,0
62601,妖精的粉末,4,0,12,0,13,54,1111-1111-1111-1111-1111-1111-1111-1111,5000,300,1,0,0,1,1,2500,0,1,1,0,0,0,0,0,0,0,0,5405,0,0,0,0,0,0,0,0,0,0,0,0,0,0,0,0,0,0,0,0,0,0,0,0,0,0,0,0,0,0,0,0,0,0,0,0,0,0,0,0,0,0,0,0,0,0,0,110,0,1,0,0,0,1,0,0
62602,惡魔的粉末,4,0,12,0,13,54,1111-1111-1111-1111-1111-1111-1111-1111,5000,301,1,0,0,1,1,500,0,1,1,0,0,0,0,0,0,0,0,5406,0,0,0,0,0,0,0,0,0,0,0,0,0,0,0,0,0,0,0,0,0,0,0,0,0,0,0,0,0,0,0,0,0,0,0,0,0,0,0,0,0,0,0,0,0,0,0,25,0,1,0,0,0,1,0,0
62603,惡魔的粉末,4,0,12,0,13,54,1111-1111-1111-1111-1111-1111-1111-1111,5000,301,1,0,0,1,1,2500,0,1,1,0,0,0,0,0,0,0,0,5406,0,0,0,0,0,0,0,0,0,0,0,0,0,0,0,0,0,0,0,0,0,0,0,0,0,0,0,0,0,0,0,0,0,0,0,0,0,0,0,0,0,0,0,0,0,0,0,110,0,1,0,0,0,1,0,0
62604,惡魔的粉末（活動）,4,0,12,0,13,54,1111-1111-1111-1111-1111-1111-1111-1111,5000,301,0,0,0,1,1,2500,0,1,1,0,0,0,0,0,0,0,0,5406,0,0,0,0,0,0,0,0,0,0,0,0,0,0,0,0,0,0,0,0,0,0,0,0,0,0,0,0,0,0,0,0,0,0,0,0,0,0,0,0,0,0,0,0,0,0,0,5200,0,0,0,0,0,1,0,0
62605,神奇迷你包,4,0,17,0,17,37,1111-1111-1111-1111-1111-1111-1111-1111,1800,480,0,0,0,1,1,50,0,1,1,0,0,0,0,0,0,0,0,5407,0,0,0,0,0,0,0,0,0,0,0,0,0,0,0,0,0,0,0,0,0,0,0,0,0,0,0,0,0,0,0,0,0,0,0,0,0,0,0,0,0,0,0,0,0,0,0,300,0,1,0,0,0,1,0,0
62606,驚奇迷你包,4,0,17,0,17,38,1111-1111-1111-1111-1111-1111-1111-1111,2000,820,0,0,0,1,1,100,0,1,1,0,0,0,0,0,0,0,0,5408,0,0,0,0,0,0,0,0,0,0,0,0,0,0,0,0,0,0,0,0,0,0,0,0,0,0,0,0,0,0,0,0,0,0,0,0,0,0,0,0,0,0,0,0,0,0,0,550,0,1,0,0,0,1,0,0
62607,暗黑迷你包,4,0,17,0,17,38,1111-1111-1111-1111-1111-1111-1111-1111,3200,1600,0,0,0,1,1,100,0,1,1,0,0,0,0,0,0,0,0,5409,0,0,0,0,0,0,0,0,0,0,0,0,0,0,0,0,0,0,0,0,0,0,0,0,0,0,0,0,0,0,0,0,0,0,0,0,0,0,0,0,0,0,0,0,0,0,0,1300,0,1,0,0,0,1,0,0
62608,傳送門卷軸（活動）,4,3,4,0,772,40,1111-1111-1111-1111-1111-1111-1111-1111,0,0,0,0,0,1,1,10,0,1,1,0,0,0,0,0,0,0,0,5410,0,0,0,0,0,0,0,0,0,0,0,0,0,0,0,0,0,0,0,0,0,0,0,0,0,0,0,0,0,0,0,0,0,0,0,0,0,0,0,0,0,0,0,0,0,0,0,1000,0,0,0,0,0,1,0,0
62609,暗黑VIP（活動）,4,6,0,0,1536,35,1111-1111-1111-1111-1111-1111-1111-1111,0,0,0,0,0,1,1,0,0,1,1,0,0,0,0,0,0,0,0,5411,0,0,0,0,0,0,0,0,0,0,0,0,0,0,0,0,0,0,0,0,0,0,0,0,0,0,0,0,0,0,0,0,0,0,0,0,0,0,0,0,0,0,0,0,0,0,0,5700,259200,0,0.2,0,0,1,0,0
