5080,10,36,145
5081,10,32,145
5081,10,39,147
5080,10,67,145
5081,10,63,147
5081,10,71,145
5080,10,45,176
5080,10,36,205
5080,10,69,198
5080,10,90,174
5080,10,119,186
5080,10,117,142
5080,10,145,142
5080,10,65,250
5080,10,26,286
5080,10,66,290
5080,10,32,341
5080,10,116,217
5080,10,142,238
5080,10,113,273
5080,10,117,322
5080,10,176,185
5080,10,194,245
5080,10,201,182
5080,10,194,145
5080,10,241,158
5080,10,264,150
5080,10,223,131
5080,10,239,91
5080,10,171,117
5080,10,203,75
5080,10,182,81
5080,10,125,27
5080,10,154,22
5080,10,203,32
5080,10,247,44
5080,10,264,61
5080,10,256,26
5080,10,297,105
5080,10,294,76
5080,10,323,74
5080,10,291,47
5080,10,339,23
5080,10,277,183
5080,10,293,147
5080,10,347,192
5080,10,346,157
5080,10,323,124
5081,10,47,174
5081,10,42,176
5081,10,33,203
5081,10,37,207
5081,10,26,282
5081,10,26,289
5081,10,62,284
5081,10,64,297
5081,10,29,340
5081,10,35,342
5081,10,113,319
5081,10,118,324
5081,10,112,270
5081,10,112,276
5081,10,117,213
5081,10,113,216
5081,10,140,236
5081,10,140,242
5081,10,69,200
5081,10,67,194
5081,10,90,176
5081,10,91,171
5081,10,116,139
5081,10,116,146
5081,10,144,145
5081,10,143,138
5081,10,122,184
5081,10,120,189
5081,10,177,188
5081,10,175,181
5081,10,191,243
5081,10,199,243
5080,10,184,215
5081,10,181,211
5081,10,184,219
5081,10,199,178
5081,10,203,184
5081,10,195,143
5081,10,192,148
5081,10,243,156
5081,10,242,163
5081,10,264,154
5081,10,277,187
5081,10,263,146
5081,10,275,179
5081,10,261,58
5081,10,265,64
5081,10,298,75
5081,10,291,78
5081,10,323,78
5081,10,319,72
5081,10,294,144
5081,10,297,103
5081,10,294,150
5081,10,301,104
5081,10,320,122
5081,10,323,127
5081,10,204,70
5081,10,205,78
5081,10,241,92
5081,10,227,130
5081,10,218,129
5081,10,236,88
5081,10,245,48
5081,10,204,36
5081,10,204,30
5081,10,252,23
5081,10,256,31
5081,10,244,43
5081,10,125,24
5081,10,128,27
5081,10,151,23
5081,10,153,26
5081,10,184,79
5081,10,182,83
5081,10,170,115
5081,10,171,119
5081,10,337,20
5081,10,337,25
5081,10,291,46
5081,10,291,50
5081,10,343,155
5081,10,346,161
5081,10,344,193
5081,10,349,194
5079,10,491,440
5079,10,467,454
5079,10,435,469
5079,10,468,469
5079,10,485,413
5079,10,455,419
5079,10,460,441
5079,10,437,403
5079,10,429,443
5079,10,410,429
5079,10,377,432
5079,10,411,454
5079,10,409,482
5079,10,383,464
5079,10,426,372
5079,10,419,404
5079,10,389,397
5079,10,398,373
5079,10,372,358
5079,10,377,307
5079,10,398,320
5079,10,378,335
5079,10,417,348
5079,10,443,360
5079,10,466,360
5079,10,461,383
5079,10,479,394
5079,10,488,363
5079,10,491,337
5079,10,490,308
5079,10,464,328
5079,10,468,302
5079,10,434,314
5079,10,440,282
5079,10,386,280
5079,10,405,252
5079,10,469,263
5079,10,402,208
5079,10,462,228
5079,10,434,251
5079,10,413,283
5083,10,485,416
5083,10,490,410
5083,10,493,436
5083,10,490,444
5083,10,469,453
5083,10,463,455
5083,10,471,467
5083,10,473,470
5083,10,456,422
5083,10,454,415
5083,10,479,396
5083,10,482,391
5083,10,462,384
5083,10,463,378
5083,10,435,467
5083,10,435,473
5083,10,431,444
5083,10,428,439
5083,10,459,438
5083,10,459,444
5083,10,390,393
5083,10,389,399
5083,10,419,398
5083,10,420,406
5083,10,408,426
5083,10,408,432
5083,10,378,428
5083,10,378,435
5083,10,383,461
5083,10,385,467
5083,10,412,480
5083,10,412,487
5083,10,415,457
5083,10,411,449
5083,10,401,377
5083,10,400,370
5083,10,374,362
5083,10,373,356
5083,10,379,338
5083,10,378,331
5083,10,373,309
5083,10,380,304
5083,10,400,315
5083,10,402,321
5083,10,417,345
5083,10,419,352
5083,10,444,358
5083,10,443,365
5083,10,470,362
5083,10,466,356
5083,10,489,367
5083,10,485,361
5083,10,494,340
5083,10,493,332
5083,10,493,310
5083,10,492,303
5083,10,466,330
5083,10,461,324
5083,10,472,299
5083,10,466,304
5083,10,437,311
5083,10,435,316
5083,10,403,203
5083,10,403,212
5083,10,408,253
5083,10,474,267
5083,10,412,287
5083,10,414,280
5083,10,404,248
5083,10,442,287
5083,10,465,231
5083,10,463,225
5083,10,442,279
5083,10,469,269
5083,10,433,255
5083,10,436,247
5083,10,384,284
5083,10,382,277
5077,10,489,38
5078,10,476,23
5077,10,455,34
5078,10,432,21
5077,10,419,36
5078,10,399,17
5077,10,386,38
5078,10,361,24
5077,10,352,49
5078,10,375,66
5077,10,400,63
5078,10,395,91
5077,10,426,75
5078,10,438,101
5077,10,455,124
5078,10,464,151
5077,10,445,60
5078,10,461,78
5078,10,488,67
5077,10,481,102
5077,10,468,114
5078,10,483,146
5077,10,483,182
5077,10,453,172
5078,10,465,198
5078,10,437,151
5077,10,429,181
5078,10,414,157
5078,10,436,212
5077,10,400,120
5078,10,393,149
5077,10,376,113
5078,10,353,93
5077,10,361,139
5078,10,337,112
5077,10,375,169
5078,10,368,203
5077,10,366,247
5077,10,21,489
5078,10,21,469
5077,10,19,447
5078,10,39,487
5077,10,40,465
5078,10,56,478
5077,10,71,490
5078,10,89,480
5077,10,104,491
5078,10,112,472
5077,10,126,492
5078,10,143,480
5077,10,157,491
5078,10,162,463
5077,10,181,490
5078,10,182,467
5078,10,39,443
5077,10,20,423
5078,10,29,399
5077,10,33,377
5078,10,42,421
5077,10,50,390
5078,10,61,407
5078,10,56,368
5077,10,79,363
5078,10,78,384
5078,10,96,350
5077,10,83,325
5077,10,122,351
5077,10,84,403
5077,10,98,379
5078,10,120,377
5078,10,105,398
5077,10,95,424
5077,10,134,402
5077,10,115,420
5078,10,112,441
5077,10,127,453
5077,10,94,453
5078,10,73,457
5077,10,62,436
5080,10,92,288
5081,10,88,285
5081,10,93,293
5078,10,140,340
5077,10,155,323
5078,10,163,345
5077,10,147,362
5077,10,171,369
5078,10,182,381
5077,10,198,388
5078,10,154,376
5077,10,168,390
5078,10,187,401
5077,10,213,404
5078,10,154,402
5077,10,177,413
5078,10,151,420
5077,10,176,429
5078,10,206,425
5077,10,148,439
5078,10,186,445
5077,10,219,443
5078,10,230,419
5077,10,195,337
5078,10,217,326
5077,10,236,344
5078,10,257,344
5077,10,278,343
5078,10,301,332
5077,10,249,362
5078,10,270,365
5077,10,258,382
5078,10,222,375
5078,10,264,404
5077,10,249,431
5078,10,275,435
5077,10,293,411
5078,10,309,386
5077,10,328,352
5078,10,340,298
5077,10,315,443
5078,10,324,470
5077,10,337,400
5078,10,339,431
5078,10,227,465
5077,10,245,490
5078,10,260,470
5077,10,281,485
5082,10,491,39
5082,10,486,35
5082,10,474,19
5082,10,472,25
5082,10,456,30
5082,10,457,35
5082,10,434,22
5082,10,435,18
5082,10,421,37
5082,10,419,33
5082,10,402,15
5082,10,400,19
5082,10,386,35
5082,10,386,40
5082,10,361,21
5082,10,361,26
5082,10,352,46
5082,10,352,51
5082,10,376,64
5082,10,376,69
5082,10,396,94
5082,10,393,91
5082,10,403,63
5082,10,404,65
5082,10,427,72
5082,10,428,78
5082,10,440,100
5082,10,442,105
5082,10,354,91
5082,10,355,95
5082,10,337,110
5082,10,338,114
5082,10,361,142
5082,10,363,141
5082,10,377,112
5082,10,378,115
5082,10,401,118
5082,10,402,122
5082,10,393,147
5082,10,391,152
5082,10,377,172
5082,10,379,170
5082,10,366,202
5082,10,370,204
5082,10,416,157
5082,10,418,163
5082,10,438,150
5082,10,439,155
5082,10,431,181
5082,10,431,187
5082,10,490,64
5082,10,489,70
5082,10,463,76
5082,10,459,81
5082,10,448,59
5082,10,445,61
5082,10,484,103
5082,10,481,106
5082,10,482,145
5082,10,483,150
5082,10,485,182
5082,10,483,187
5082,10,467,197
5082,10,465,204
5082,10,453,122
5082,10,455,125
5082,10,466,147
5082,10,466,152
5082,10,454,169
5082,10,454,177
5082,10,436,211
5082,10,435,216
5082,10,367,242
5082,10,367,247
5082,10,340,296
5082,10,341,301
5082,10,328,471
5082,10,326,474
5082,10,317,441
5082,10,317,448
5082,10,344,428
5082,10,342,435
5082,10,338,396
5082,10,338,402
5082,10,227,468
5082,10,229,463
5082,10,247,491
5082,10,245,488
5082,10,259,472
5082,10,263,469
5082,10,284,488
5082,10,280,484
5082,10,189,445
5082,10,186,442
5082,10,150,438
5082,10,146,436
5082,10,163,464
5082,10,164,461
5082,10,181,464
5082,10,185,467
5082,10,184,489
5082,10,180,491
5082,10,158,493
5082,10,156,494
5082,10,145,479
5082,10,141,480
5082,10,127,493
5082,10,123,493
5082,10,114,471
5082,10,109,471
5082,10,106,492
5082,10,102,491
5082,10,90,479
5082,10,88,481
5082,10,72,488
5082,10,69,491
5082,10,57,475
5082,10,58,479
5082,10,41,486
5082,10,36,488
5082,10,20,488
5082,10,23,492
5082,10,21,468
5082,10,21,471
5082,10,41,463
5082,10,41,466
5082,10,40,444
5082,10,37,443
5082,10,19,445
5082,10,20,448
5082,10,20,420
5082,10,19,424
5082,10,44,420
5082,10,41,422
5082,10,62,432
5082,10,64,436
5082,10,74,454
5082,10,75,458
5082,10,28,397
5082,10,29,401
5082,10,34,375
5082,10,33,379
5082,10,51,388
5082,10,51,391
5082,10,63,406
5082,10,62,409
5082,10,57,365
5082,10,58,368
5082,10,81,361
5082,10,77,363
5082,10,80,381
5082,10,80,384
5082,10,83,405
5082,10,80,404
5082,10,97,424
5082,10,95,427
5082,10,114,443
5082,10,110,443
5082,10,93,457
5082,10,93,454
5082,10,131,453
5082,10,130,457
5082,10,116,418
5082,10,117,422
5082,10,107,398
5082,10,105,396
5082,10,98,380
5082,10,96,377
5082,10,122,374
5082,10,122,378
5082,10,136,399
5082,10,136,405
5082,10,99,351
5082,10,95,350
5082,10,81,322
5082,10,83,326
5082,10,121,350
5082,10,123,353
5082,10,150,419
5082,10,152,422
5082,10,156,401
5082,10,155,404
5082,10,176,413
5082,10,179,415
5082,10,178,430
5082,10,174,428
5082,10,206,423
5082,10,206,427
5082,10,190,402
5082,10,187,400
5082,10,170,390
5082,10,168,388
5082,10,155,375
5082,10,151,377
5082,10,148,360
5082,10,145,360
5082,10,142,339
5082,10,139,336
5082,10,157,323
5082,10,155,319
5082,10,165,343
5082,10,165,345
5082,10,172,366
5082,10,171,370
5082,10,184,381
5082,10,181,382
5082,10,200,387
5082,10,197,387
5082,10,223,377
5082,10,221,372
5082,10,214,405
5082,10,212,403
5082,10,231,419
5082,10,231,423
5082,10,249,430
5082,10,250,435
5082,10,265,408
5082,10,266,406
5082,10,260,383
5082,10,259,380
5082,10,249,360
5082,10,247,362
5082,10,260,341
5082,10,257,340
5082,10,234,342
5082,10,234,345
5082,10,218,323
5082,10,215,325
5082,10,193,334
5082,10,194,339
5082,10,302,328
5082,10,303,330
5082,10,278,340
5082,10,280,343
5082,10,269,363
5082,10,270,366
5082,10,292,410
5082,10,294,410
5082,10,275,435
5082,10,277,439
5082,10,329,354
5082,10,330,350
5080,10,167,275
5080,10,200,287
5080,10,228,270
5080,10,246,200
5081,10,164,273
5081,10,162,275
5081,10,202,290
5081,10,203,286
5081,10,230,273
5081,10,231,268
5081,10,244,196
5081,10,248,197
5080,10,141,310
5081,10,139,308
5081,10,140,313
5080,10,68,173
5081,10,70,175
5081,10,69,171
5080,10,27,245
5081,10,27,242
5081,10,27,248
5080,10,42,258
5081,10,43,263
5081,10,45,254
5080,10,36,318
5081,10,38,321
5081,10,36,315
5081,10,62,248
5081,10,68,253
5080,10,45,286
5081,10,45,290
5081,10,47,285
5080,10,123,295
5081,10,125,292
5081,10,124,298
5080,10,83,222
5081,10,86,224
5081,10,85,220
5080,10,101,241
5081,10,99,239
5081,10,101,245
5080,10,117,242
5081,10,117,246
5081,10,118,239
5080,10,145,211
5081,10,146,215
5081,10,147,209
5080,10,152,182
5082,10,153,186
5082,10,156,181
5080,10,132,267
5081,10,135,269
5081,10,135,265
5080,10,133,158
5081,10,132,154
5081,10,134,160
5080,10,112,164
5081,10,111,167
5081,10,109,163
5080,10,215,153
5081,10,218,151
5081,10,216,156
5080,10,276,127
5081,10,279,128
5081,10,276,130
5080,10,258,108
5081,10,261,108
5081,10,259,110
5080,10,219,102
5081,10,218,107
5081,10,222,98
5080,10,228,30
5081,10,227,34
5081,10,231,28
5080,10,223,58
5081,10,219,54
5081,10,222,54
5080,10,241,122
5081,10,241,126
5081,10,244,124
5080,10,178,22
5081,10,179,19
5081,10,180,23
5080,10,172,41
5081,10,170,39
5081,10,173,44
5080,10,167,63
5081,10,169,63
5081,10,165,63
5080,10,156,50
5081,10,159,48
5081,10,158,53
5080,10,140,44
5081,10,142,42
5081,10,139,47
5080,10,133,64
5081,10,133,61
5081,10,135,64
5080,10,150,72
5081,10,153,72
5081,10,150,70
5080,10,128,86
5081,10,127,83
5081,10,131,85
5080,10,157,88
5081,10,161,89
5081,10,155,89
5080,10,200,96
5081,10,199,93
5081,10,199,100
5080,10,191,122
5081,10,189,123
5081,10,193,123
5080,10,185,106
5081,10,188,105
5081,10,184,108
5080,10,233,108
5081,10,230,110
5081,10,233,111
5080,10,207,214
5081,10,206,217
5081,10,204,212
5080,10,324,181
5081,10,327,184
5081,10,321,181
5080,10,303,175
5081,10,306,177
5081,10,300,173
5080,10,310,140
5081,10,311,143
5081,10,308,137
5080,10,274,88
5081,10,272,86
5081,10,276,89
5080,10,318,26
5081,10,319,23
5081,10,319,28
5080,10,334,48
5081,10,334,45
5081,10,334,50
5080,10,304,55
5081,10,303,53
5081,10,304,58
5080,10,317,45
5081,10,319,44
5081,10,315,47
5080,10,313,95
5081,10,316,95
5081,10,314,98
5080,10,324,158
5081,10,322,156
5081,10,325,156
5078,10,471,49
5082,10,470,47
5082,10,470,51
5077,10,389,191
5082,10,387,188
5082,10,389,193
5078,10,380,134
5082,10,377,131
5082,10,380,136
5078,10,416,93
5082,10,412,91
5082,10,416,96
