NpcIndex,3351,4149,1011,5165,5166,5168,5273,5266,5236,5295,5329,5341,5342,5343,5344,5345,5346
Direction,90,23,13,270,270,270,24,277,74,75,277,73,91,83,78,55,132
Location_X,249.606,263.581,258.721,257.000,255.000,260.000,247.542,247.042,247.341,250.700,272.508,271.457,271.353,271.322,271.458,271.006,270.892
Location_Y,248.740,257.590,262.778,267.000,245.000,255.000,252.302,255.438,260.043,266.459,245.246,258.606,256.844,255.219,253.632,260.676,251.352
Description,,,,,,,,,,,,,,,,,
