Creature,-6888,,,,,,,,,,,,,,,,
Index,2934511,,,,,,,,,,,,,,,,
Skeleton,Nyjra\jfutsaxjfqktwhjaFYYdJVZdHMSdXKHd563xpjq,,,,,,,,,,,,,,,,
,,,,,,,,,,,,,,,,,
Style,Action,Index,Animation,Start_Inter,End_Inter,TimeLength,Swing,Strike,Timing,Split,Timing2,Freeze,Effect,CancelTime,DefaultAction,Intersect,Through
<,UVCPF,0,Ozksb]kgvutbykgrluxikbGZZeKW[eINTeYLIe674gtos,?,B,E,0,0,0,0,0,0,20,0
<,UVCPF,-16376,Ozksb]kgvutbykgrluxikbGZZeKW[eINTeYLIe674gtos,?,B,E,0,0,0,0,0,0,20,0
<,UVCPF,-20470,Ozksb]kgvutbykgrluxikbGZZeKW[eINTeYLIe674gtos,?,B,E,0,0,0,0,0,0,20,0
<,UVCPF,-24564,Ozksb]kgvutbykgrluxikbGZZeKW[eINTeYLIe674gtos,?,B,E,0,0,0,0,0,0,20,0
<,OQXG,0,Ozksb]kgvutbykgrluxikbGZZeKW[eINTeYLIe674gtos,?,B,E,0,0,0,0,0,0,20,0
<,OQXG,-16376,Ozksb]kgvutbykgrluxikbGZZeKW[eINTeYLIe674gtos,?,B,E,0,0,0,0,0,0,20,0
<,QRGPOCTMGV,0,Ozksb]kgvutbykgrluxikbGZZeKW[eINTeYLIe674gtos,?,B,E,0,0,0,0,0,0,20,0
<,QRGPOCTMGV,-16376,Ozksb]kgvutbykgrluxikbGZZeKW[eINTeYLIe674gtos,?,B,E,0,0,0,0,0,0,20,0
<,ENQUGOCTMGV,0,Ozksb]kgvutbykgrluxikbGZZeKW[eINTeYLIe674gtos,?,B,E,0,0,0,0,0,0,20,0
=,UVCPF,0,Ozksb]kgvutbykgrluxikbGZZeKW[eINTeYLIe674gtos,?,B,E,0,0,0,0,0,0,20,0
=,UVCPF,-16376,Ozksb]kgvutbykgrluxikbGZZeKW[eINTeYLIe674gtos,?,B,E,0,0,0,0,0,0,20,0
=,OQXG,0,Ozksb]kgvutbykgrluxikbGZZeKW[eINTeYLIe674gtos,?,B,E,0,0,0,0,0,0,20,0
=,OQXG,-16376,Ozksb]kgvutbykgrluxikbGZZeKW[eINTeYLIe674gtos,?,B,E,0,0,0,0,0,0,20,0
=,QRGPOCTMGV,0,Ozksb]kgvutbykgrluxikbGZZeKW[eINTeYLIe674gtos,?,B,E,0,0,0,0,0,0,20,0
=,QRGPOCTMGV,-16376,Ozksb]kgvutbykgrluxikbGZZeKW[eINTeYLIe674gtos,?,B,E,0,0,0,0,0,0,20,0
=,ENQUGOCTMGV,0,Ozksb]kgvutbykgrluxikbGZZeKW[eINTeYLIe674gtos,?,B,E,0,0,0,0,0,0,20,0
>3,UVCPF,0,Ozksb]kgvutbykgrluxikbGZZeKW[eINTeYLIe674gtos,?,B,E,0,0,0,0,0,0,20,0
>3,UVCPF,-16376,Ozksb]kgvutbykgrluxikbGZZeKW[eINTeYLIe674gtos,?,B,E,0,0,0,0,0,0,20,0
>3,OQXG,0,Ozksb]kgvutbykgrluxikbGZZeKW[eINTeYLIe674gtos,?,B,E,0,0,0,0,0,0,20,0
>3,OQXG,-16376,Ozksb]kgvutbykgrluxikbGZZeKW[eINTeYLIe674gtos,?,B,E,0,0,0,0,0,0,20,0
>3,QRGPOCTMGV,0,Ozksb]kgvutbykgrluxikbGZZeKW[eINTeYLIe674gtos,?,B,E,0,0,0,0,0,0,20,0
>3,QRGPOCTMGV,-16376,Ozksb]kgvutbykgrluxikbGZZeKW[eINTeYLIe674gtos,?,B,E,0,0,0,0,0,0,20,0
>3,ENQUGOCTMGV,0,Ozksb]kgvutbykgrluxikbGZZeKW[eINTeYLIe674gtos,?,B,E,0,0,0,0,0,0,20,0
>3,HKUJHKIJVKPI,0,Ozksb]kgvutbykgrluxikbGZZeKW[eINTeYLIe674gtos,?,B,E,0,0,0,0,0,0,20,0
>3,HKUJHKIJVKPI,-16376,Ozksb]kgvutbykgrluxikbGZZeKW[eINTeYLIe674gtos,?,B,E,0,0,0,0,0,0,20,0
>3,QRGPHKUJKPI,0,Ozksb]kgvutbykgrluxikbGZZeKW[eINTeYLIe674gtos,?,B,E,0,0,0,0,0,0,20,0
>3,QRGPHKUJKPI,-16376,Ozksb]kgvutbykgrluxikbGZZeKW[eINTeYLIe674gtos,?,B,E,0,0,0,0,0,0,20,0
>3,ENQUGHKUJKPI,0,Ozksb]kgvutbykgrluxikbGZZeKW[eINTeYLIe674gtos,?,B,E,0,0,0,0,0,0,20,0
>3,ENQUGHKUJKPI,-16376,Ozksb]kgvutbykgrluxikbGZZeKW[eINTeYLIe674gtos,?,B,E,0,0,0,0,0,0,20,0
>3,ENQUGHKUJKPI,-20470,Ozksb]kgvutbykgrluxikbGZZeKW[eINTeYLIe674gtos,?,B,E,0,0,0,0,0,0,20,0
?4,UVCPF,0,Ozksb]kgvutbykgrluxikbGZZeKW[eINTeYLIe674gtos,?,B,E,0,0,0,0,0,0,20,0
?4,UVCPF,-16376,Ozksb]kgvutbykgrluxikbGZZeKW[eINTeYLIe674gtos,?,B,E,0,0,0,0,0,0,20,0
?4,OQXG,0,Ozksb]kgvutbykgrluxikbGZZeKW[eINTeYLIe674gtos,?,B,E,0,0,0,0,0,0,20,0
?4,OQXG,-16376,Ozksb]kgvutbykgrluxikbGZZeKW[eINTeYLIe674gtos,?,B,E,0,0,0,0,0,0,20,0
?4,QRGPOCTMGV,0,Ozksb]kgvutbykgrluxikbGZZeKW[eINTeYLIe674gtos,?,B,E,0,0,0,0,0,0,20,0
?4,QRGPOCTMGV,-16376,Ozksb]kgvutbykgrluxikbGZZeKW[eINTeYLIe674gtos,?,B,E,0,0,0,0,0,0,20,0
?4,ENQUGOCTMGV,0,Ozksb]kgvutbykgrluxikbGZZeKW[eINTeYLIe674gtos,?,B,E,0,0,0,0,0,0,20,0
?4,ENQUGOCTMGV,0,Ozksb]kgvutbykgrluxikbGZZeKW[eINTeYLIe674gtos,?,B,E,0,0,0,0,0,0,20,0
