Creature,ITEM,,,,,,,,,,,,,,
Index,53245,,,,,,,,,,,,,,
Skeleton,Wing\FAFNIR_WING_small.skel,,,,,,,,,,,,,,
,,,,,,,,,,,,,,,
Style,Action,Index,Animation,Start_Inter,End_Inter,TimeLength,Swing,Strike,Timing,Split,Timing2,Freeze,Effect,CancelTime,DefaultAction
0,STAND,0,Item\Armor\Wing\ALO_EQU_FAFNIR_WING_NON_STAND_01.anim,5,1,3,0,0,0,0,0,0,0,0,1
0,STAND,1,Item\Armor\Wing\ALO_EQU_FAFNIR_WING_NON_STAND_01.anim,5,1,3,0,0,0,0,0,0,0,0,1
0,STAND,2,Item\Armor\Wing\ALO_EQU_FAFNIR_WING_NON_STAND_01.anim,5,1,3,0,0,0,0,0,0,0,0,1
0,STAND,3,Item\Armor\Wing\ALO_EQU_FAFNIR_WING_NON_STAND_01.anim,5,1,3,0,0,0,0,0,0,0,0,1
0,MOVE,0,Item\Armor\Wing\ALO_EQU_FAFNIR_WING_NON_STAND_01.anim,5,1,1,0,0,0,0,0,0,0,0,1
0,MOVE,1,Item\Armor\Wing\ALO_EQU_FAFNIR_WING_NON_RUN_01.anim,5,1,1,0,0,0,0,0,0,0,0,1
0,SM_MOVE,0,Item\Armor\Wing\ALO_EQU_FAFNIR_WING_SWIM_RUN_01.anim,5,1,1,0,0,0,0,0,0,0,0,
0,SM_MOVE,1,Item\Armor\Wing\ALO_EQU_FAFNIR_WING_SWIM_RUN_01.anim,5,1,1,0,0,0,0,0,0,0,0,
0,OPENMARKET,0,Item\Armor\Wing\ALO_EQU_FAFNIR_WING_SITDOWN_01.anim,1,1,1.5,0,0,0,0,0,0,0,0,1
0,OPENMARKET,1,Item\Armor\Wing\ALO_EQU_FAFNIR_WING_SITDOWN_01.anim,1,1,1.5,0,0,0,0,0,0,0,0,1
0,CLOSEMARKET,0,Item\Armor\Wing\ALO_EQU_FAFNIR_WING_SITDOWN_01.anim,1,1,1.5,0,0,0,0,0,0,0,0,1
1,STAND,0,Item\Armor\Wing\ALO_EQU_FAFNIR_WING_NON_STAND_01.anim,5,1,2,0,0,0,0,0,0,0,0,1
1,STAND,1,Item\Armor\Wing\ALO_EQU_FAFNIR_WING_NON_STAND_01.anim,5,1,4,0,0,0,0,0,0,0,0,1
1,MOVE,0,Item\Armor\Wing\ALO_EQU_FAFNIR_WING_NON_STAND_01.anim,5,1,1,0,0,0,0,0,0,0,0,1
1,MOVE,1,Item\Armor\Wing\ALO_EQU_FAFNIR_WING_NON_RUN_01.anim,5,1,1,0,0,0,0,0,0,0,0,1
1,SM_MOVE,0,Item\Armor\Wing\ALO_EQU_FAFNIR_WING_SWIM_RUN_01.anim,5,1,1,0,0,0,0,0,0,0,0,
1,SM_MOVE,1,Item\Armor\Wing\ALO_EQU_FAFNIR_WING_SWIM_RUN_01.anim,5,1,1,0,0,0,0,0,0,0,0,
1,OPENMARKET,0,Item\Armor\Wing\ALO_EQU_FAFNIR_WING_SITDOWN_01.anim,1,1,1.5,0,0,0,0,0,0,0,0,1
1,OPENMARKET,1,Item\Armor\Wing\ALO_EQU_FAFNIR_WING_SITDOWN_01.anim,1,1,1.5,0,0,0,0,0,0,0,0,1
1,CLOSEMARKET,0,Item\Armor\Wing\ALO_EQU_FAFNIR_WING_SITDOWN_01.anim,1,1,1.5,0,0,0,0,0,0,0,0,1
2,STAND,0,Item\Armor\Wing\ALO_EQU_FAFNIR_WING_NON_STAND_01.anim,5,1,1,0,0,0,0,0,0,0,0,1
2,STAND,1,Item\Armor\Wing\ALO_EQU_FAFNIR_WING_NON_STAND_01.anim,5,1,4.1,0,0,0,0,0,0,0,0,1
2,MOVE,0,Item\Armor\Wing\ALO_EQU_FAFNIR_WING_NON_STAND_01.anim,5,1,1,0,0,0,0,0,0,0,0,1
2,MOVE,1,Item\Armor\Wing\ALO_EQU_FAFNIR_WING_NON_RUN_01.anim,5,1,1,0,0,0,0,0,0,0,0,1
2,SM_MOVE,0,Item\Armor\Wing\ALO_EQU_FAFNIR_WING_SWIM_RUN_01.anim,5,1,1,0,0,0,0,0,0,0,0,
2,SM_MOVE,1,Item\Armor\Wing\ALO_EQU_FAFNIR_WING_SWIM_RUN_01.anim,5,1,1,0,0,0,0,0,0,0,0,
2,OPENMARKET,0,Item\Armor\Wing\ALO_EQU_FAFNIR_WING_SITDOWN_01.anim,1,1,1.5,0,0,0,0,0,0,0,0,1
2,OPENMARKET,1,Item\Armor\Wing\ALO_EQU_FAFNIR_WING_SITDOWN_01.anim,1,1,1.5,0,0,0,0,0,0,0,0,1
2,CLOSEMARKET,0,Item\Armor\Wing\ALO_EQU_FAFNIR_WING_SITDOWN_01.anim,1,1,1.5,0,0,0,0,0,0,0,0,1
3,STAND,0,Item\Armor\Wing\ALO_EQU_FAFNIR_WING_NON_STAND_01.anim,5,1,1,0,0,0,0,0,0,0,0,1
3,STAND,1,Item\Armor\Wing\ALO_EQU_FAFNIR_WING_NON_STAND_01.anim,5,1,4.1,0,0,0,0,0,0,0,0,1
3,MOVE,0,Item\Armor\Wing\ALO_EQU_FAFNIR_WING_NON_STAND_01.anim,5,1,1,0,0,0,0,0,0,0,0,1
3,MOVE,1,Item\Armor\Wing\ALO_EQU_FAFNIR_WING_SPR_RUN_01.anim,5,1,1,0,0,0,0,0,0,0,0,1
3,SM_MOVE,0,Item\Armor\Wing\ALO_EQU_FAFNIR_WING_SWIM_RUN_01.anim,5,1,1,0,0,0,0,0,0,0,0,
3,SM_MOVE,1,Item\Armor\Wing\ALO_EQU_FAFNIR_WING_SWIM_RUN_01.anim,5,1,1,0,0,0,0,0,0,0,0,
3,OPENMARKET,0,Item\Armor\Wing\ALO_EQU_FAFNIR_WING_SITDOWN_01.anim,1,1,1.5,0,0,0,0,0,0,0,0,1
3,OPENMARKET,1,Item\Armor\Wing\ALO_EQU_FAFNIR_WING_SITDOWN_01.anim,1,1,1.5,0,0,0,0,0,0,0,0,1
3,CLOSEMARKET,0,Item\Armor\Wing\ALO_EQU_FAFNIR_WING_SITDOWN_01.anim,1,1,1.5,0,0,0,0,0,0,0,0,1
4,STAND,0,Item\Armor\Wing\ALO_EQU_FAFNIR_WING_NON_STAND_01.anim,5,1,1,0,0,0,0,0,0,0,0,1
4,STAND,1,Item\Armor\Wing\ALO_EQU_FAFNIR_WING_NON_STAND_01.anim,5,1,4.1,0,0,0,0,0,0,0,0,1
4,MOVE,0,Item\Armor\Wing\ALO_EQU_FAFNIR_WING_NON_STAND_01.anim,5,1,1,0,0,0,0,0,0,0,0,1
4,MOVE,1,Item\Armor\Wing\ALO_EQU_FAFNIR_WING_SPR_RUN_01.anim,5,1,1,0,0,0,0,0,0,0,0,1
4,SM_MOVE,0,Item\Armor\Wing\ALO_EQU_FAFNIR_WING_SWIM_RUN_01.anim,5,1,1,0,0,0,0,0,0,0,0,
4,SM_MOVE,1,Item\Armor\Wing\ALO_EQU_FAFNIR_WING_SWIM_RUN_01.anim,5,1,1,0,0,0,0,0,0,0,0,
4,OPENMARKET,0,Item\Armor\Wing\ALO_EQU_FAFNIR_WING_SITDOWN_01.anim,1,1,1.5,0,0,0,0,0,0,0,0,1
4,OPENMARKET,1,Item\Armor\Wing\ALO_EQU_FAFNIR_WING_SITDOWN_01.anim,1,1,1.5,0,0,0,0,0,0,0,0,1
4,CLOSEMARKET,0,Item\Armor\Wing\ALO_EQU_FAFNIR_WING_SITDOWN_01.anim,1,1,1.5,0,0,0,0,0,0,0,0,1
5,STAND,0,Item\Armor\Wing\ALO_EQU_FAFNIR_WING_NON_STAND_01.anim,5,1,1,0,0,0,0,0,0,0,0,1
5,STAND,1,Item\Armor\Wing\ALO_EQU_FAFNIR_WING_NON_STAND_01.anim,5,1,4.1,0,0,0,0,0,0,0,0,1
5,MOVE,0,Item\Armor\Wing\ALO_EQU_FAFNIR_WING_NON_STAND_01.anim,5,1,1,0,0,0,0,0,0,0,0,1
5,MOVE,1,Item\Armor\Wing\ALO_EQU_FAFNIR_WING_SPR_RUN_01.anim,5,1,1,0,0,0,0,0,0,0,0,1
5,SM_MOVE,0,Item\Armor\Wing\ALO_EQU_FAFNIR_WING_SWIM_RUN_01.anim,5,1,1,0,0,0,0,0,0,0,0,
5,SM_MOVE,1,Item\Armor\Wing\ALO_EQU_FAFNIR_WING_SWIM_RUN_01.anim,5,1,1,0,0,0,0,0,0,0,0,
5,OPENMARKET,0,Item\Armor\Wing\ALO_EQU_FAFNIR_WING_SITDOWN_01.anim,1,1,1.5,0,0,0,0,0,0,0,0,1
5,OPENMARKET,1,Item\Armor\Wing\ALO_EQU_FAFNIR_WING_SITDOWN_01.anim,1,1,1.5,0,0,0,0,0,0,0,0,1
5,CLOSEMARKET,0,Item\Armor\Wing\ALO_EQU_FAFNIR_WING_SITDOWN_01.anim,1,1,1.5,0,0,0,0,0,0,0,0,1
6,STAND,0,Item\Armor\Wing\ALO_EQU_FAFNIR_WING_NON_STAND_01.anim,5,1,1,0,0,0,0,0,0,0,0,1
6,STAND,1,Item\Armor\Wing\ALO_EQU_FAFNIR_WING_NON_STAND_01.anim,5,1,4.1,0,0,0,0,0,0,0,0,1
6,MOVE,0,Item\Armor\Wing\ALO_EQU_FAFNIR_WING_NON_STAND_01.anim,5,1,1,0,0,0,0,0,0,0,0,1
6,MOVE,1,Item\Armor\Wing\ALO_EQU_FAFNIR_WING_SPR_RUN_01.anim,5,1,1,0,0,0,0,0,0,0,0,1
6,SM_MOVE,0,Item\Armor\Wing\ALO_EQU_FAFNIR_WING_SWIM_RUN_01.anim,5,1,1,0,0,0,0,0,0,0,0,
6,SM_MOVE,1,Item\Armor\Wing\ALO_EQU_FAFNIR_WING_SWIM_RUN_01.anim,5,1,1,0,0,0,0,0,0,0,0,
6,OPENMARKET,0,Item\Armor\Wing\ALO_EQU_FAFNIR_WING_SITDOWN_01.anim,1,1,1.5,0,0,0,0,0,0,0,0,1
6,OPENMARKET,1,Item\Armor\Wing\ALO_EQU_FAFNIR_WING_SITDOWN_01.anim,1,1,1.5,0,0,0,0,0,0,0,0,1
6,CLOSEMARKET,0,Item\Armor\Wing\ALO_EQU_FAFNIR_WING_SITDOWN_01.anim,1,1,1.5,0,0,0,0,0,0,0,0,1
7,STAND,0,Item\Armor\Wing\ALO_EQU_FAFNIR_WING_NON_STAND_01.anim,5,1,1,0,0,0,0,0,0,0,0,1
7,STAND,1,Item\Armor\Wing\ALO_EQU_FAFNIR_WING_NON_STAND_01.anim,5,1,4.1,0,0,0,0,0,0,0,0,1
7,MOVE,0,Item\Armor\Wing\ALO_EQU_FAFNIR_WING_NON_STAND_01.anim,5,1,1,0,0,0,0,0,0,0,0,1
7,MOVE,1,Item\Armor\Wing\ALO_EQU_FAFNIR_WING_SPR_RUN_01.anim,5,1,1,0,0,0,0,0,0,0,0,1
7,SM_MOVE,0,Item\Armor\Wing\ALO_EQU_FAFNIR_WING_SWIM_RUN_01.anim,5,1,1,0,0,0,0,0,0,0,0,
7,SM_MOVE,1,Item\Armor\Wing\ALO_EQU_FAFNIR_WING_SWIM_RUN_01.anim,5,1,1,0,0,0,0,0,0,0,0,
7,OPENMARKET,0,Item\Armor\Wing\ALO_EQU_FAFNIR_WING_SITDOWN_01.anim,1,1,1.5,0,0,0,0,0,0,0,0,1
7,OPENMARKET,1,Item\Armor\Wing\ALO_EQU_FAFNIR_WING_SITDOWN_01.anim,1,1,1.5,0,0,0,0,0,0,0,0,1
7,CLOSEMARKET,0,Item\Armor\Wing\ALO_EQU_FAFNIR_WING_SITDOWN_01.anim,1,1,1.5,0,0,0,0,0,0,0,0,1
8,STAND,0,Item\Armor\Wing\ALO_EQU_FAFNIR_WING_NON_STAND_01.anim,5,1,1,0,0,0,0,0,0,0,0,1
8,STAND,1,Item\Armor\Wing\ALO_EQU_FAFNIR_WING_NON_STAND_01.anim,5,1,4.1,0,0,0,0,0,0,0,0,1
8,MOVE,0,Item\Armor\Wing\ALO_EQU_FAFNIR_WING_NON_STAND_01.anim,5,1,1,0,0,0,0,0,0,0,0,1
8,MOVE,1,Item\Armor\Wing\ALO_EQU_FAFNIR_WING_SPR_RUN_01.anim,5,1,1,0,0,0,0,0,0,0,0,1
8,SM_MOVE,0,Item\Armor\Wing\ALO_EQU_FAFNIR_WING_SWIM_RUN_01.anim,5,1,1,0,0,0,0,0,0,0,0,
8,SM_MOVE,1,Item\Armor\Wing\ALO_EQU_FAFNIR_WING_SWIM_RUN_01.anim,5,1,1,0,0,0,0,0,0,0,0,
8,OPENMARKET,0,Item\Armor\Wing\ALO_EQU_FAFNIR_WING_SITDOWN_01.anim,1,1,1.5,0,0,0,0,0,0,0,0,1
8,OPENMARKET,1,Item\Armor\Wing\ALO_EQU_FAFNIR_WING_SITDOWN_01.anim,1,1,1.5,0,0,0,0,0,0,0,0,1
8,CLOSEMARKET,0,Item\Armor\Wing\ALO_EQU_FAFNIR_WING_SITDOWN_01.anim,1,1,1.5,0,0,0,0,0,0,0,0,1
9,STAND,0,Item\Armor\Wing\ALO_EQU_FAFNIR_WING_NON_STAND_01.anim,5,1,1,0,0,0,0,0,0,0,0,1
9,STAND,1,Item\Armor\Wing\ALO_EQU_FAFNIR_WING_NON_STAND_01.anim,5,1,4.1,0,0,0,0,0,0,0,0,1
9,MOVE,0,Item\Armor\Wing\ALO_EQU_FAFNIR_WING_NON_STAND_01.anim,5,1,1,0,0,0,0,0,0,0,0,1
9,MOVE,1,Item\Armor\Wing\ALO_EQU_FAFNIR_WING_SPR_RUN_01.anim,5,1,1,0,0,0,0,0,0,0,0,1
9,SM_MOVE,0,Item\Armor\Wing\ALO_EQU_FAFNIR_WING_SWIM_RUN_01.anim,5,1,1,0,0,0,0,0,0,0,0,
9,SM_MOVE,1,Item\Armor\Wing\ALO_EQU_FAFNIR_WING_SWIM_RUN_01.anim,5,1,1,0,0,0,0,0,0,0,0,
9,OPENMARKET,0,Item\Armor\Wing\ALO_EQU_FAFNIR_WING_SITDOWN_01.anim,1,1,1.5,0,0,0,0,0,0,0,0,1
9,OPENMARKET,1,Item\Armor\Wing\ALO_EQU_FAFNIR_WING_SITDOWN_01.anim,1,1,1.5,0,0,0,0,0,0,0,0,1
9,CLOSEMARKET,0,Item\Armor\Wing\ALO_EQU_FAFNIR_WING_SITDOWN_01.anim,1,1,1.5,0,0,0,0,0,0,0,0,1
10,STAND,0,Item\Armor\Wing\ALO_EQU_FAFNIR_WING_NON_STAND_01.anim,5,1,1,0,0,0,0,0,0,0,0,1
10,STAND,1,Item\Armor\Wing\ALO_EQU_FAFNIR_WING_NON_STAND_01.anim,5,1,4.1,0,0,0,0,0,0,0,0,1
10,MOVE,0,Item\Armor\Wing\ALO_EQU_FAFNIR_WING_NON_STAND_01.anim,5,1,1,0,0,0,0,0,0,0,0,1
10,MOVE,1,Item\Armor\Wing\ALO_EQU_FAFNIR_WING_SPR_RUN_01.anim,5,1,1,0,0,0,0,0,0,0,0,1
10,SM_MOVE,0,Item\Armor\Wing\ALO_EQU_FAFNIR_WING_SWIM_RUN_01.anim,5,1,1,0,0,0,0,0,0,0,0,
10,SM_MOVE,1,Item\Armor\Wing\ALO_EQU_FAFNIR_WING_SWIM_RUN_01.anim,5,1,1,0,0,0,0,0,0,0,0,
10,OPENMARKET,0,Item\Armor\Wing\ALO_EQU_FAFNIR_WING_SITDOWN_01.anim,1,1,1.5,0,0,0,0,0,0,0,0,1
10,OPENMARKET,1,Item\Armor\Wing\ALO_EQU_FAFNIR_WING_SITDOWN_01.anim,1,1,1.5,0,0,0,0,0,0,0,0,1
10,CLOSEMARKET,0,Item\Armor\Wing\ALO_EQU_FAFNIR_WING_SITDOWN_01.anim,1,1,1.5,0,0,0,0,0,0,0,0,1
11,STAND,0,Item\Armor\Wing\ALO_EQU_FAFNIR_WING_NON_STAND_01.anim,5,1,1,0,0,0,0,0,0,0,0,1
11,STAND,1,Item\Armor\Wing\ALO_EQU_FAFNIR_WING_NON_STAND_01.anim,5,1,4.1,0,0,0,0,0,0,0,0,1
11,MOVE,0,Item\Armor\Wing\ALO_EQU_FAFNIR_WING_NON_STAND_01.anim,5,1,1,0,0,0,0,0,0,0,0,1
11,MOVE,1,Item\Armor\Wing\ALO_EQU_FAFNIR_WING_SPR_RUN_01.anim,5,1,1,0,0,0,0,0,0,0,0,1
11,SM_MOVE,0,Item\Armor\Wing\ALO_EQU_FAFNIR_WING_SWIM_RUN_01.anim,5,1,1,0,0,0,0,0,0,0,0,
11,SM_MOVE,1,Item\Armor\Wing\ALO_EQU_FAFNIR_WING_SWIM_RUN_01.anim,5,1,1,0,0,0,0,0,0,0,0,
11,OPENMARKET,0,Item\Armor\Wing\ALO_EQU_FAFNIR_WING_SITDOWN_01.anim,1,1,1.5,0,0,0,0,0,0,0,0,1
11,OPENMARKET,1,Item\Armor\Wing\ALO_EQU_FAFNIR_WING_SITDOWN_01.anim,1,1,1.5,0,0,0,0,0,0,0,0,1
11,CLOSEMARKET,0,Item\Armor\Wing\ALO_EQU_FAFNIR_WING_SITDOWN_01.anim,1,1,1.5,0,0,0,0,0,0,0,0,1
12,STAND,0,Item\Armor\Wing\ALO_EQU_FAFNIR_WING_NON_STAND_01.anim,5,1,1,0,0,0,0,0,0,0,0,1
12,STAND,1,Item\Armor\Wing\ALO_EQU_FAFNIR_WING_NON_STAND_01.anim,5,1,4.1,0,0,0,0,0,0,0,0,1
12,MOVE,0,Item\Armor\Wing\ALO_EQU_FAFNIR_WING_NON_STAND_01.anim,5,1,1,0,0,0,0,0,0,0,0,1
12,MOVE,1,Item\Armor\Wing\ALO_EQU_FAFNIR_WING_SPR_RUN_01.anim,5,1,1,0,0,0,0,0,0,0,0,1
12,SM_MOVE,0,Item\Armor\Wing\ALO_EQU_FAFNIR_WING_SWIM_RUN_01.anim,5,1,1,0,0,0,0,0,0,0,0,
12,SM_MOVE,1,Item\Armor\Wing\ALO_EQU_FAFNIR_WING_SWIM_RUN_01.anim,5,1,1,0,0,0,0,0,0,0,0,
12,OPENMARKET,0,Item\Armor\Wing\ALO_EQU_FAFNIR_WING_SITDOWN_01.anim,1,1,1.5,0,0,0,0,0,0,0,0,1
12,OPENMARKET,1,Item\Armor\Wing\ALO_EQU_FAFNIR_WING_SITDOWN_01.anim,1,1,1.5,0,0,0,0,0,0,0,0,1
12,CLOSEMARKET,0,Item\Armor\Wing\ALO_EQU_FAFNIR_WING_SITDOWN_01.anim,1,1,1.5,0,0,0,0,0,0,0,0,1
13,STAND,0,Item\Armor\Wing\ALO_EQU_FAFNIR_WING_NON_STAND_01.anim,5,1,1,0,0,0,0,0,0,0,0,1
13,STAND,1,Item\Armor\Wing\ALO_EQU_FAFNIR_WING_NON_STAND_01.anim,5,1,4.1,0,0,0,0,0,0,0,0,1
13,MOVE,0,Item\Armor\Wing\ALO_EQU_FAFNIR_WING_NON_STAND_01.anim,5,1,1,0,0,0,0,0,0,0,0,1
13,MOVE,1,Item\Armor\Wing\ALO_EQU_FAFNIR_WING_SPR_RUN_01.anim,5,1,1,0,0,0,0,0,0,0,0,1
13,SM_MOVE,0,Item\Armor\Wing\ALO_EQU_FAFNIR_WING_SWIM_RUN_01.anim,5,1,1,0,0,0,0,0,0,0,0,
13,SM_MOVE,1,Item\Armor\Wing\ALO_EQU_FAFNIR_WING_SWIM_RUN_01.anim,5,1,1,0,0,0,0,0,0,0,0,
13,OPENMARKET,0,Item\Armor\Wing\ALO_EQU_FAFNIR_WING_SITDOWN_01.anim,1,1,1.5,0,0,0,0,0,0,0,0,1
13,OPENMARKET,1,Item\Armor\Wing\ALO_EQU_FAFNIR_WING_SITDOWN_01.anim,1,1,1.5,0,0,0,0,0,0,0,0,1
13,CLOSEMARKET,0,Item\Armor\Wing\ALO_EQU_FAFNIR_WING_SITDOWN_01.anim,1,1,1.5,0,0,0,0,0,0,0,0,1
14,STAND,0,Item\Armor\Wing\ALO_EQU_FAFNIR_WING_NON_STAND_01.anim,5,1,1,0,0,0,0,0,0,0,0,1
14,STAND,1,Item\Armor\Wing\ALO_EQU_FAFNIR_WING_NON_STAND_01.anim,5,1,4.1,0,0,0,0,0,0,0,0,1
14,MOVE,0,Item\Armor\Wing\ALO_EQU_FAFNIR_WING_NON_STAND_01.anim,5,1,1,0,0,0,0,0,0,0,0,1
14,MOVE,1,Item\Armor\Wing\ALO_EQU_FAFNIR_WING_SPR_RUN_01.anim,5,1,1,0,0,0,0,0,0,0,0,1
14,SM_MOVE,0,Item\Armor\Wing\ALO_EQU_FAFNIR_WING_SWIM_RUN_01.anim,5,1,1,0,0,0,0,0,0,0,0,
14,SM_MOVE,1,Item\Armor\Wing\ALO_EQU_FAFNIR_WING_SWIM_RUN_01.anim,5,1,1,0,0,0,0,0,0,0,0,
14,OPENMARKET,0,Item\Armor\Wing\ALO_EQU_FAFNIR_WING_SITDOWN_01.anim,1,1,1.5,0,0,0,0,0,0,0,0,1
14,OPENMARKET,1,Item\Armor\Wing\ALO_EQU_FAFNIR_WING_SITDOWN_01.anim,1,1,1.5,0,0,0,0,0,0,0,0,1
14,CLOSEMARKET,0,Item\Armor\Wing\ALO_EQU_FAFNIR_WING_SITDOWN_01.anim,1,1,1.5,0,0,0,0,0,0,0,0,1
15,STAND,0,Item\Armor\Wing\ALO_EQU_FAFNIR_WING_NON_STAND_01.anim,5,1,1,0,0,0,0,0,0,0,0,1
15,STAND,1,Item\Armor\Wing\ALO_EQU_FAFNIR_WING_NON_STAND_01.anim,5,1,4.1,0,0,0,0,0,0,0,0,1
15,MOVE,0,Item\Armor\Wing\ALO_EQU_FAFNIR_WING_NON_STAND_01.anim,5,1,1,0,0,0,0,0,0,0,0,1
15,MOVE,1,Item\Armor\Wing\ALO_EQU_FAFNIR_WING_SPR_RUN_01.anim,5,1,1,0,0,0,0,0,0,0,0,1
15,SM_MOVE,0,Item\Armor\Wing\ALO_EQU_FAFNIR_WING_SWIM_RUN_01.anim,5,1,1,0,0,0,0,0,0,0,0,
15,SM_MOVE,1,Item\Armor\Wing\ALO_EQU_FAFNIR_WING_SWIM_RUN_01.anim,5,1,1,0,0,0,0,0,0,0,0,
15,OPENMARKET,0,Item\Armor\Wing\ALO_EQU_FAFNIR_WING_SITDOWN_01.anim,1,1,1.5,0,0,0,0,0,0,0,0,1
15,OPENMARKET,1,Item\Armor\Wing\ALO_EQU_FAFNIR_WING_SITDOWN_01.anim,1,1,1.5,0,0,0,0,0,0,0,0,1
15,CLOSEMARKET,0,Item\Armor\Wing\ALO_EQU_FAFNIR_WING_SITDOWN_01.anim,1,1,1.5,0,0,0,0,0,0,0,0,1
16,STAND,0,Item\Armor\Wing\ALO_EQU_FAFNIR_WING_NON_STAND_01.anim,5,1,1,0,0,0,0,0,0,0,0,1
16,STAND,1,Item\Armor\Wing\ALO_EQU_FAFNIR_WING_NON_STAND_01.anim,5,1,4.1,0,0,0,0,0,0,0,0,1
16,MOVE,0,Item\Armor\Wing\ALO_EQU_FAFNIR_WING_NON_STAND_01.anim,5,1,1,0,0,0,0,0,0,0,0,1
16,MOVE,1,Item\Armor\Wing\ALO_EQU_FAFNIR_WING_SPR_RUN_01.anim,5,1,1,0,0,0,0,0,0,0,0,1
16,SM_MOVE,0,Item\Armor\Wing\ALO_EQU_FAFNIR_WING_SWIM_RUN_01.anim,5,1,1,0,0,0,0,0,0,0,0,
16,SM_MOVE,1,Item\Armor\Wing\ALO_EQU_FAFNIR_WING_SWIM_RUN_01.anim,5,1,1,0,0,0,0,0,0,0,0,
16,OPENMARKET,0,Item\Armor\Wing\ALO_EQU_FAFNIR_WING_SITDOWN_01.anim,1,1,1.5,0,0,0,0,0,0,0,0,1
16,OPENMARKET,1,Item\Armor\Wing\ALO_EQU_FAFNIR_WING_SITDOWN_01.anim,1,1,1.5,0,0,0,0,0,0,0,0,1
16,CLOSEMARKET,0,Item\Armor\Wing\ALO_EQU_FAFNIR_WING_SITDOWN_01.anim,1,1,1.5,0,0,0,0,0,0,0,0,1
17,STAND,0,Item\Armor\Wing\ALO_EQU_FAFNIR_WING_NON_STAND_01.anim,5,1,1,0,0,0,0,0,0,0,0,1
17,STAND,1,Item\Armor\Wing\ALO_EQU_FAFNIR_WING_NON_STAND_01.anim,5,1,4.1,0,0,0,0,0,0,0,0,1
17,MOVE,0,Item\Armor\Wing\ALO_EQU_FAFNIR_WING_NON_STAND_01.anim,5,1,1,0,0,0,0,0,0,0,0,1
17,MOVE,1,Item\Armor\Wing\ALO_EQU_FAFNIR_WING_SPR_RUN_01.anim,5,1,1,0,0,0,0,0,0,0,0,1
17,SM_MOVE,0,Item\Armor\Wing\ALO_EQU_FAFNIR_WING_SWIM_RUN_01.anim,5,1,1,0,0,0,0,0,0,0,0,
17,SM_MOVE,1,Item\Armor\Wing\ALO_EQU_FAFNIR_WING_SWIM_RUN_01.anim,5,1,1,0,0,0,0,0,0,0,0,
17,OPENMARKET,0,Item\Armor\Wing\ALO_EQU_FAFNIR_WING_SITDOWN_01.anim,1,1,1.5,0,0,0,0,0,0,0,0,1
17,OPENMARKET,1,Item\Armor\Wing\ALO_EQU_FAFNIR_WING_SITDOWN_01.anim,1,1,1.5,0,0,0,0,0,0,0,0,1
17,CLOSEMARKET,0,Item\Armor\Wing\ALO_EQU_FAFNIR_WING_SITDOWN_01.anim,1,1,1.5,0,0,0,0,0,0,0,0,1
18,STAND,0,Item\Armor\Wing\ALO_EQU_FAFNIR_WING_NON_STAND_01.anim,5,1,1,0,0,0,0,0,0,0,0,1
18,STAND,1,Item\Armor\Wing\ALO_EQU_FAFNIR_WING_NON_STAND_01.anim,5,1,4.1,0,0,0,0,0,0,0,0,1
18,MOVE,0,Item\Armor\Wing\ALO_EQU_FAFNIR_WING_NON_STAND_01.anim,5,1,1,0,0,0,0,0,0,0,0,1
18,MOVE,1,Item\Armor\Wing\ALO_EQU_FAFNIR_WING_SPR_RUN_01.anim,5,1,1,0,0,0,0,0,0,0,0,1
18,SM_MOVE,0,Item\Armor\Wing\ALO_EQU_FAFNIR_WING_SWIM_RUN_01.anim,5,1,1,0,0,0,0,0,0,0,0,
18,SM_MOVE,1,Item\Armor\Wing\ALO_EQU_FAFNIR_WING_SWIM_RUN_01.anim,5,1,1,0,0,0,0,0,0,0,0,
18,OPENMARKET,0,Item\Armor\Wing\ALO_EQU_FAFNIR_WING_SITDOWN_01.anim,1,1,1.5,0,0,0,0,0,0,0,0,1
18,OPENMARKET,1,Item\Armor\Wing\ALO_EQU_FAFNIR_WING_SITDOWN_01.anim,1,1,1.5,0,0,0,0,0,0,0,0,1
18,CLOSEMARKET,0,Item\Armor\Wing\ALO_EQU_FAFNIR_WING_SITDOWN_01.anim,1,1,1.5,0,0,0,0,0,0,0,0,1
19,STAND,0,Item\Armor\Wing\ALO_EQU_FAFNIR_WING_NON_STAND_01.anim,5,1,1,0,0,0,0,0,0,0,0,1
19,STAND,1,Item\Armor\Wing\ALO_EQU_FAFNIR_WING_NON_STAND_01.anim,5,1,4.1,0,0,0,0,0,0,0,0,1
19,MOVE,0,Item\Armor\Wing\ALO_EQU_FAFNIR_WING_NON_STAND_01.anim,5,1,1,0,0,0,0,0,0,0,0,1
19,MOVE,1,Item\Armor\Wing\ALO_EQU_FAFNIR_WING_SPR_RUN_01.anim,5,1,1,0,0,0,0,0,0,0,0,1
19,SM_MOVE,0,Item\Armor\Wing\ALO_EQU_FAFNIR_WING_SWIM_RUN_01.anim,5,1,1,0,0,0,0,0,0,0,0,
19,SM_MOVE,1,Item\Armor\Wing\ALO_EQU_FAFNIR_WING_SWIM_RUN_01.anim,5,1,1,0,0,0,0,0,0,0,0,
19,OPENMARKET,0,Item\Armor\Wing\ALO_EQU_FAFNIR_WING_SITDOWN_01.anim,1,1,1.5,0,0,0,0,0,0,0,0,1
19,OPENMARKET,1,Item\Armor\Wing\ALO_EQU_FAFNIR_WING_SITDOWN_01.anim,1,1,1.5,0,0,0,0,0,0,0,0,1
19,CLOSEMARKET,0,Item\Armor\Wing\ALO_EQU_FAFNIR_WING_SITDOWN_01.anim,1,1,1.5,0,0,0,0,0,0,0,0,1
20,STAND,0,Item\Armor\Wing\ALO_EQU_FAFNIR_WING_NON_STAND_01.anim,5,1,1,0,0,0,0,0,0,0,0,1
20,STAND,1,Item\Armor\Wing\ALO_EQU_FAFNIR_WING_NON_STAND_01.anim,5,1,4.1,0,0,0,0,0,0,0,0,1
20,MOVE,0,Item\Armor\Wing\ALO_EQU_FAFNIR_WING_NON_STAND_01.anim,5,1,1,0,0,0,0,0,0,0,0,1
20,MOVE,1,Item\Armor\Wing\ALO_EQU_FAFNIR_WING_SPR_RUN_01.anim,5,1,1,0,0,0,0,0,0,0,0,1
20,SM_MOVE,0,Item\Armor\Wing\ALO_EQU_FAFNIR_WING_SWIM_RUN_01.anim,5,1,1,0,0,0,0,0,0,0,0,
20,SM_MOVE,1,Item\Armor\Wing\ALO_EQU_FAFNIR_WING_SWIM_RUN_01.anim,5,1,1,0,0,0,0,0,0,0,0,
20,OPENMARKET,0,Item\Armor\Wing\ALO_EQU_FAFNIR_WING_SITDOWN_01.anim,1,1,1.5,0,0,0,0,0,0,0,0,1
20,OPENMARKET,1,Item\Armor\Wing\ALO_EQU_FAFNIR_WING_SITDOWN_01.anim,1,1,1.5,0,0,0,0,0,0,0,0,1
20,CLOSEMARKET,0,Item\Armor\Wing\ALO_EQU_FAFNIR_WING_SITDOWN_01.anim,1,1,1.5,0,0,0,0,0,0,0,0,1
21,STAND,0,Item\Armor\Wing\ALO_EQU_FAFNIR_WING_NON_STAND_01.anim,5,1,1,0,0,0,0,0,0,0,0,1
21,STAND,1,Item\Armor\Wing\ALO_EQU_FAFNIR_WING_NON_STAND_01.anim,5,1,4.1,0,0,0,0,0,0,0,0,1
21,MOVE,0,Item\Armor\Wing\ALO_EQU_FAFNIR_WING_NON_STAND_01.anim,5,1,1,0,0,0,0,0,0,0,0,1
21,MOVE,1,Item\Armor\Wing\ALO_EQU_FAFNIR_WING_SPR_RUN_01.anim,5,1,1,0,0,0,0,0,0,0,0,1
21,SM_MOVE,0,Item\Armor\Wing\ALO_EQU_FAFNIR_WING_SWIM_RUN_01.anim,5,1,1,0,0,0,0,0,0,0,0,
21,SM_MOVE,1,Item\Armor\Wing\ALO_EQU_FAFNIR_WING_SWIM_RUN_01.anim,5,1,1,0,0,0,0,0,0,0,0,
21,OPENMARKET,0,Item\Armor\Wing\ALO_EQU_FAFNIR_WING_SITDOWN_01.anim,1,1,1.5,0,0,0,0,0,0,0,0,1
21,OPENMARKET,1,Item\Armor\Wing\ALO_EQU_FAFNIR_WING_SITDOWN_01.anim,1,1,1.5,0,0,0,0,0,0,0,0,1
21,CLOSEMARKET,0,Item\Armor\Wing\ALO_EQU_FAFNIR_WING_SITDOWN_01.anim,1,1,1.5,0,0,0,0,0,0,0,0,1
22,STAND,0,Item\Armor\Wing\ALO_EQU_FAFNIR_WING_NON_STAND_01.anim,5,1,1,0,0,0,0,0,0,0,0,1
22,STAND,1,Item\Armor\Wing\ALO_EQU_FAFNIR_WING_NON_STAND_01.anim,5,1,4.1,0,0,0,0,0,0,0,0,1
22,MOVE,0,Item\Armor\Wing\ALO_EQU_FAFNIR_WING_NON_STAND_01.anim,5,1,1,0,0,0,0,0,0,0,0,1
22,MOVE,1,Item\Armor\Wing\ALO_EQU_FAFNIR_WING_SPR_RUN_01.anim,5,1,1,0,0,0,0,0,0,0,0,1
22,SM_MOVE,0,Item\Armor\Wing\ALO_EQU_FAFNIR_WING_SWIM_RUN_01.anim,5,1,1,0,0,0,0,0,0,0,0,
22,SM_MOVE,1,Item\Armor\Wing\ALO_EQU_FAFNIR_WING_SWIM_RUN_01.anim,5,1,1,0,0,0,0,0,0,0,0,
22,OPENMARKET,0,Item\Armor\Wing\ALO_EQU_FAFNIR_WING_SITDOWN_01.anim,1,1,1.5,0,0,0,0,0,0,0,0,1
22,OPENMARKET,1,Item\Armor\Wing\ALO_EQU_FAFNIR_WING_SITDOWN_01.anim,1,1,1.5,0,0,0,0,0,0,0,0,1
22,CLOSEMARKET,0,Item\Armor\Wing\ALO_EQU_FAFNIR_WING_SITDOWN_01.anim,1,1,1.5,0,0,0,0,0,0,0,0,1
23,STAND,0,Item\Armor\Wing\ALO_EQU_FAFNIR_WING_NON_STAND_01.anim,5,1,2,0,0,0,0,0,0,0,0,1
23,STAND,1,Item\Armor\Wing\ALO_EQU_FAFNIR_WING_NON_STAND_01.anim,5,1,2,0,0,0,0,0,0,0,0,1
23,MOVE,0,Item\Armor\Wing\ALO_EQU_FAFNIR_WING_NON_STAND_01.anim,5,1,1,0,0,0,0,0,0,0,0,1
23,MOVE,1,Item\Armor\Wing\ALO_EQU_FAFNIR_WING_NON_RUN_01.anim,5,1,1,0,0,0,0,0,0,0,0,1
23,SM_MOVE,0,Item\Armor\Wing\ALO_EQU_FAFNIR_WING_SWIM_RUN_01.anim,5,1,1,0,0,0,0,0,0,0,0,
23,SM_MOVE,1,Item\Armor\Wing\ALO_EQU_FAFNIR_WING_SWIM_RUN_01.anim,5,1,1,0,0,0,0,0,0,0,0,
23,OPENMARKET,0,Item\Armor\Wing\ALO_EQU_FAFNIR_WING_SITDOWN_01.anim,1,1,1.5,0,0,0,0,0,0,0,0,1
23,OPENMARKET,1,Item\Armor\Wing\ALO_EQU_FAFNIR_WING_SITDOWN_01.anim,1,1,1.5,0,0,0,0,0,0,0,0,1
23,CLOSEMARKET,0,Item\Armor\Wing\ALO_EQU_FAFNIR_WING_SITDOWN_01.anim,1,1,1.5,0,0,0,0,0,0,0,0,1
23,OPENFISHING,0,Item\Armor\Wing\ALO_EQU_FAFNIR_WING_NON_STAND_01.anim,4,1,2,0,0,0,0,0,0,0,0,1
23,OPENFISHING,1,Item\Armor\Wing\ALO_EQU_FAFNIR_WING_NON_STAND_01.anim,4,1,2,0,0,0,0,0,0,0,0,1
23,CLOSEFISHING,0,Item\Armor\Wing\ALO_EQU_FAFNIR_WING_NON_STAND_01.anim,4,1,4,0,0,0,0,0,0,0,0,1
23,CLOSEFISHING,1,Item\Armor\Wing\ALO_EQU_FAFNIR_WING_NON_STAND_01.anim,4,1,3,0,0,0,0,0,0,0,0,1
23,CLOSEFISHING,2,Item\Armor\Wing\ALO_EQU_FAFNIR_WING_NON_STAND_01.anim,4,1,3,0,0,0,0,0,0,0,0,1
23,FISHFIGHTING,0,Item\Armor\Wing\ALO_EQU_FAFNIR_WING_NON_STAND_01.anim,1,1,1,0,0,0,0,0,0,0,0,1
23,FISHFIGHTING,1,Item\Armor\Wing\ALO_EQU_FAFNIR_WING_NON_STAND_01.anim,1,1,1,0,0,0,0,0,0,0,0,1
24,STAND,0,Item\Armor\Wing\ALO_EQU_FAFNIR_WING_NON_STAND_01.anim,5,1,1,0,0,0,0,0,0,0,0,1
24,STAND,1,Item\Armor\Wing\ALO_EQU_FAFNIR_WING_NON_STAND_01.anim,5,1,4.1,0,0,0,0,0,0,0,0,1
24,MOVE,0,Item\Armor\Wing\ALO_EQU_FAFNIR_WING_NON_STAND_01.anim,5,1,1,0,0,0,0,0,0,0,0,1
24,MOVE,1,Item\Armor\Wing\ALO_EQU_FAFNIR_WING_SPR_RUN_01.anim,5,1,1,0,0,0,0,0,0,0,0,1
24,SM_MOVE,0,Item\Armor\Wing\ALO_EQU_FAFNIR_WING_SWIM_RUN_01.anim,5,1,1,0,0,0,0,0,0,0,0,
24,SM_MOVE,1,Item\Armor\Wing\ALO_EQU_FAFNIR_WING_SWIM_RUN_01.anim,5,1,1,0,0,0,0,0,0,0,0,
24,OPENMARKET,0,Item\Armor\Wing\ALO_EQU_FAFNIR_WING_SITDOWN_01.anim,1,1,1.5,0,0,0,0,0,0,0,0,1
24,OPENMARKET,1,Item\Armor\Wing\ALO_EQU_FAFNIR_WING_SITDOWN_01.anim,1,1,1.5,0,0,0,0,0,0,0,0,1
24,CLOSEMARKET,0,Item\Armor\Wing\ALO_EQU_FAFNIR_WING_SITDOWN_01.anim,1,1,1.5,0,0,0,0,0,0,0,0,1
25,STAND,0,Item\Armor\Wing\ALO_EQU_FAFNIR_WING_NON_STAND_01.anim,5,1,1,0,0,0,0,0,0,0,0,1
25,STAND,1,Item\Armor\Wing\ALO_EQU_FAFNIR_WING_NON_STAND_01.anim,5,1,4.1,0,0,0,0,0,0,0,0,1
25,MOVE,0,Item\Armor\Wing\ALO_EQU_FAFNIR_WING_NON_STAND_01.anim,5,1,1,0,0,0,0,0,0,0,0,1
25,MOVE,1,Item\Armor\Wing\ALO_EQU_FAFNIR_WING_SPR_RUN_01.anim,5,1,1,0,0,0,0,0,0,0,0,1
25,SM_MOVE,0,Item\Armor\Wing\ALO_EQU_FAFNIR_WING_SWIM_RUN_01.anim,5,1,1,0,0,0,0,0,0,0,0,
25,SM_MOVE,1,Item\Armor\Wing\ALO_EQU_FAFNIR_WING_SWIM_RUN_01.anim,5,1,1,0,0,0,0,0,0,0,0,
25,OPENMARKET,0,Item\Armor\Wing\ALO_EQU_FAFNIR_WING_SITDOWN_01.anim,1,1,1.5,0,0,0,0,0,0,0,0,1
25,OPENMARKET,1,Item\Armor\Wing\ALO_EQU_FAFNIR_WING_SITDOWN_01.anim,1,1,1.5,0,0,0,0,0,0,0,0,1
25,CLOSEMARKET,0,Item\Armor\Wing\ALO_EQU_FAFNIR_WING_SITDOWN_01.anim,1,1,1.5,0,0,0,0,0,0,0,0,1
26,STAND,0,Item\Armor\Wing\ALO_EQU_FAFNIR_WING_NON_STAND_01.anim,5,1,1,0,0,0,0,0,0,0,0,1
26,STAND,1,Item\Armor\Wing\ALO_EQU_FAFNIR_WING_NON_STAND_01.anim,5,1,4.1,0,0,0,0,0,0,0,0,1
26,MOVE,0,Item\Armor\Wing\ALO_EQU_FAFNIR_WING_NON_STAND_01.anim,5,1,1,0,0,0,0,0,0,0,0,1
26,MOVE,1,Item\Armor\Wing\ALO_EQU_FAFNIR_WING_SPR_RUN_01.anim,5,1,1,0,0,0,0,0,0,0,0,1
26,SM_MOVE,0,Item\Armor\Wing\ALO_EQU_FAFNIR_WING_SWIM_RUN_01.anim,5,1,1,0,0,0,0,0,0,0,0,
26,SM_MOVE,1,Item\Armor\Wing\ALO_EQU_FAFNIR_WING_SWIM_RUN_01.anim,5,1,1,0,0,0,0,0,0,0,0,
26,OPENMARKET,0,Item\Armor\Wing\ALO_EQU_FAFNIR_WING_SITDOWN_01.anim,1,1,1.5,0,0,0,0,0,0,0,0,1
26,OPENMARKET,1,Item\Armor\Wing\ALO_EQU_FAFNIR_WING_SITDOWN_01.anim,1,1,1.5,0,0,0,0,0,0,0,0,1
26,CLOSEMARKET,0,Item\Armor\Wing\ALO_EQU_FAFNIR_WING_SITDOWN_01.anim,1,1,1.5,0,0,0,0,0,0,0,0,1
27,STAND,0,Item\Armor\Wing\ALO_EQU_FAFNIR_WING_NON_STAND_01.anim,5,1,1,0,0,0,0,0,0,0,0,1
27,STAND,1,Item\Armor\Wing\ALO_EQU_FAFNIR_WING_NON_STAND_01.anim,5,1,4.1,0,0,0,0,0,0,0,0,1
27,MOVE,0,Item\Armor\Wing\ALO_EQU_FAFNIR_WING_NON_STAND_01.anim,5,1,1,0,0,0,0,0,0,0,0,1
27,MOVE,1,Item\Armor\Wing\ALO_EQU_FAFNIR_WING_SPR_RUN_01.anim,5,1,1,0,0,0,0,0,0,0,0,1
27,SM_MOVE,0,Item\Armor\Wing\ALO_EQU_FAFNIR_WING_SWIM_RUN_01.anim,5,1,1,0,0,0,0,0,0,0,0,
27,SM_MOVE,1,Item\Armor\Wing\ALO_EQU_FAFNIR_WING_SWIM_RUN_01.anim,5,1,1,0,0,0,0,0,0,0,0,
27,OPENMARKET,0,Item\Armor\Wing\ALO_EQU_FAFNIR_WING_SITDOWN_01.anim,1,1,1.5,0,0,0,0,0,0,0,0,1
27,OPENMARKET,1,Item\Armor\Wing\ALO_EQU_FAFNIR_WING_SITDOWN_01.anim,1,1,1.5,0,0,0,0,0,0,0,0,1
27,CLOSEMARKET,0,Item\Armor\Wing\ALO_EQU_FAFNIR_WING_SITDOWN_01.anim,1,1,1.5,0,0,0,0,0,0,0,0,1
28,STAND,0,Item\Armor\Wing\ALO_EQU_FAFNIR_WING_NON_STAND_01.anim,5,1,1,0,0,0,0,0,0,0,0,1
28,STAND,1,Item\Armor\Wing\ALO_EQU_FAFNIR_WING_NON_STAND_01.anim,5,1,4.1,0,0,0,0,0,0,0,0,1
28,MOVE,0,Item\Armor\Wing\ALO_EQU_FAFNIR_WING_NON_STAND_01.anim,5,1,1,0,0,0,0,0,0,0,0,1
28,MOVE,1,Item\Armor\Wing\ALO_EQU_FAFNIR_WING_SPR_RUN_01.anim,5,1,1,0,0,0,0,0,0,0,0,1
28,SM_MOVE,0,Item\Armor\Wing\ALO_EQU_FAFNIR_WING_SWIM_RUN_01.anim,5,1,1,0,0,0,0,0,0,0,0,
28,SM_MOVE,1,Item\Armor\Wing\ALO_EQU_FAFNIR_WING_SWIM_RUN_01.anim,5,1,1,0,0,0,0,0,0,0,0,
28,OPENMARKET,0,Item\Armor\Wing\ALO_EQU_FAFNIR_WING_SITDOWN_01.anim,1,1,1.5,0,0,0,0,0,0,0,0,1
28,OPENMARKET,1,Item\Armor\Wing\ALO_EQU_FAFNIR_WING_SITDOWN_01.anim,1,1,1.5,0,0,0,0,0,0,0,0,1
28,CLOSEMARKET,0,Item\Armor\Wing\ALO_EQU_FAFNIR_WING_SITDOWN_01.anim,1,1,1.5,0,0,0,0,0,0,0,0,1
29,STAND,0,Item\Armor\Wing\ALO_EQU_FAFNIR_WING_NON_STAND_01.anim,5,1,1,0,0,0,0,0,0,0,0,1
29,STAND,1,Item\Armor\Wing\ALO_EQU_FAFNIR_WING_NON_STAND_01.anim,5,1,4.1,0,0,0,0,0,0,0,0,1
29,MOVE,0,Item\Armor\Wing\ALO_EQU_FAFNIR_WING_NON_STAND_01.anim,5,1,1,0,0,0,0,0,0,0,0,1
29,MOVE,1,Item\Armor\Wing\ALO_EQU_FAFNIR_WING_SPR_RUN_01.anim,5,1,1,0,0,0,0,0,0,0,0,1
29,SM_MOVE,0,Item\Armor\Wing\ALO_EQU_FAFNIR_WING_SWIM_RUN_01.anim,5,1,1,0,0,0,0,0,0,0,0,
29,SM_MOVE,1,Item\Armor\Wing\ALO_EQU_FAFNIR_WING_SWIM_RUN_01.anim,5,1,1,0,0,0,0,0,0,0,0,
29,OPENMARKET,0,Item\Armor\Wing\ALO_EQU_FAFNIR_WING_SITDOWN_01.anim,1,1,1.5,0,0,0,0,0,0,0,0,1
29,OPENMARKET,1,Item\Armor\Wing\ALO_EQU_FAFNIR_WING_SITDOWN_01.anim,1,1,1.5,0,0,0,0,0,0,0,0,1
29,CLOSEMARKET,0,Item\Armor\Wing\ALO_EQU_FAFNIR_WING_SITDOWN_01.anim,1,1,1.5,0,0,0,0,0,0,0,0,1
30,STAND,0,Item\Armor\Wing\MSE_EQU_FAFNIR_WING_STAND_SIC.anim,4,1,2,0,0,0,0,0,0,0,0,1
30,STAND,1,Item\Armor\Wing\MSE_EQU_FAFNIR_WING_STAND_SIC.anim,4,1,2,0,0,0,0,0,0,0,0,1
30,MOVE,0,Item\Armor\Wing\MSE_EQU_FAFNIR_WING_WALK_SIC.anim,4,1,1,0,0,0,0,0,0,0,0,1
30,MOVE,1,Item\Armor\Wing\MSE_EQU_FAFNIR_WING_RUN_SIC.anim,4,1,0.9,0,0,0,0,0,0,0,0,1
30,OPENMARKET,0,Item\Armor\Wing\MSE_EQU_FAFNIR_WING_SIT.anim,4,1,3,0,0,0,0,0,0,0,0,1
30,OPENMARKET,1,Item\Armor\Wing\MSE_EQU_FAFNIR_WING_SIT.anim,4,1,3,0,0,0,0,0,0,0,0,1
30,CLOSEMARKET,0,Item\Armor\Wing\MSE_EQU_FAFNIR_WING_SIT.anim,4,1,3,0,0,0,0,0,0,0,0,1
31,STAND,0,Item\Armor\Wing\MSE_EQU_FAFNIR_WING_STAND_SIC.anim,4,1,2,0,0,0,0,0,0,0,0,1
31,STAND,1,Item\Armor\Wing\MSE_EQU_FAFNIR_WING_STAND_SIC.anim,4,1,2,0,0,0,0,0,0,0,0,1
31,MOVE,0,Item\Armor\Wing\MSE_EQU_FAFNIR_WING_WALK_SIC.anim,4,1,1,0,0,0,0,0,0,0,0,1
31,MOVE,1,Item\Armor\Wing\MSE_EQU_FAFNIR_WING_RUN_SIC.anim,4,1,0.9,0,0,0,0,0,0,0,0,1
31,OPENMARKET,0,Item\Armor\Wing\MSE_EQU_FAFNIR_WING_SIT.anim,4,1,3,0,0,0,0,0,0,0,0,1
31,OPENMARKET,1,Item\Armor\Wing\MSE_EQU_FAFNIR_WING_SIT.anim,4,1,3,0,0,0,0,0,0,0,0,1
31,CLOSEMARKET,0,Item\Armor\Wing\MSE_EQU_FAFNIR_WING_SIT.anim,4,1,3,0,0,0,0,0,0,0,0,1
32,STAND,0,Item\Armor\Wing\ALO_EQU_FAFNIR_WING_NON_STAND_01.anim,5,1,1,0,0,0,0,0,0,0,0,1
32,STAND,1,Item\Armor\Wing\ALO_EQU_FAFNIR_WING_NON_STAND_01.anim,5,1,4.1,0,0,0,0,0,0,0,0,1
32,MOVE,0,Item\Armor\Wing\ALO_EQU_FAFNIR_WING_NON_STAND_01.anim,5,1,1,0,0,0,0,0,0,0,0,1
32,MOVE,1,Item\Armor\Wing\ALO_EQU_FAFNIR_WING_SPR_RUN_01.anim,5,1,1,0,0,0,0,0,0,0,0,1
32,SM_MOVE,0,Item\Armor\Wing\ALO_EQU_FAFNIR_WING_SWIM_RUN_01.anim,5,1,1,0,0,0,0,0,0,0,0,
32,SM_MOVE,1,Item\Armor\Wing\ALO_EQU_FAFNIR_WING_SWIM_RUN_01.anim,5,1,1,0,0,0,0,0,0,0,0,
32,OPENMARKET,0,Item\Armor\Wing\ALO_EQU_FAFNIR_WING_SITDOWN_01.anim,1,1,1.5,0,0,0,0,0,0,0,0,1
32,OPENMARKET,1,Item\Armor\Wing\ALO_EQU_FAFNIR_WING_SITDOWN_01.anim,1,1,1.5,0,0,0,0,0,0,0,0,1
32,CLOSEMARKET,0,Item\Armor\Wing\ALO_EQU_FAFNIR_WING_SITDOWN_01.anim,1,1,1.5,0,0,0,0,0,0,0,0,1
33,STAND,0,Item\Armor\Wing\ALO_EQU_FAFNIR_WING_NON_STAND_01.anim,5,1,1,0,0,0,0,0,0,0,0,1
33,STAND,1,Item\Armor\Wing\ALO_EQU_FAFNIR_WING_NON_STAND_01.anim,5,1,4.1,0,0,0,0,0,0,0,0,1
33,MOVE,0,Item\Armor\Wing\ALO_EQU_FAFNIR_WING_NON_STAND_01.anim,5,1,1,0,0,0,0,0,0,0,0,1
33,MOVE,1,Item\Armor\Wing\ALO_EQU_FAFNIR_WING_SPR_RUN_01.anim,5,1,1,0,0,0,0,0,0,0,0,1
33,SM_MOVE,0,Item\Armor\Wing\ALO_EQU_FAFNIR_WING_SWIM_RUN_01.anim,5,1,1,0,0,0,0,0,0,0,0,
33,SM_MOVE,1,Item\Armor\Wing\ALO_EQU_FAFNIR_WING_SWIM_RUN_01.anim,5,1,1,0,0,0,0,0,0,0,0,
33,OPENMARKET,0,Item\Armor\Wing\ALO_EQU_FAFNIR_WING_SITDOWN_01.anim,1,1,1.5,0,0,0,0,0,0,0,0,1
33,OPENMARKET,1,Item\Armor\Wing\ALO_EQU_FAFNIR_WING_SITDOWN_01.anim,1,1,1.5,0,0,0,0,0,0,0,0,1
33,CLOSEMARKET,0,Item\Armor\Wing\ALO_EQU_FAFNIR_WING_SITDOWN_01.anim,1,1,1.5,0,0,0,0,0,0,0,0,1
34,STAND,0,Item\Armor\Wing\drg_equ_fafnir_wing_sfc_stand.anim,5,1,1,0,0,0,0,0,0,0,0,1
34,STAND,1,Item\Armor\Wing\drg_equ_fafnir_wing_sfc_stand.anim,5,1,4.1,0,0,0,0,0,0,0,0,1
34,MOVE,0,Item\Armor\Wing\drg_equ_fafnir_wing_sfc_walk.anim,5,1,1,0,0,0,0,0,0,0,0,1
34,MOVE,1,Item\Armor\Wing\drg_equ_fafnir_wing_sfc_run.anim,5,1,1,0,0,0,0,0,0,0,0,1
34,SM_MOVE,0,Item\Armor\Wing\drg_equ_fafnir_wing_non_run.anim,5,1,1,0,0,0,0,0,0,0,0,
34,SM_MOVE,1,Item\Armor\Wing\drg_equ_fafnir_wing_non_run.anim,5,1,1,0,0,0,0,0,0,0,0,
34,OPENMARKET,0,Item\Armor\Wing\drg_equ_fafnir_wing_emt_sitdown.anim,1,1,1.5,0,0,0,0,0,0,0,0,1
34,OPENMARKET,1,Item\Armor\Wing\drg_equ_fafnir_wing_emt_sitdown.anim,1,1,1.5,0,0,0,0,0,0,0,0,1
34,CLOSEMARKET,0,Item\Armor\Wing\drg_equ_fafnir_wing_emt_sitdown.anim,1,1,1.5,0,0,0,0,0,0,0,0,1
