Creature,ITEM,,,,,,,,,,,,,,
Index,2310414,,,,,,,,,,,,,,
Skeleton,Wing\EQU_CAS_WING_02_BIG.skel,,,,,,,,,,,,,,
,,,,,,,,,,,,,,,
Style,Action,Index,Animation,Start_Inter,End_Inter,TimeLength,Swing,Strike,Timing,Split,Timing2,Freeze,Effect,CancelTime,DefaultAction
0,STAND,0,Item\Armor\Wing\WAR_EQU_CAS_WING_02_STAND.anim,4,1,2,0,0,0,0,0,0,0,0,1
0,STAND,1,Item\Armor\Wing\WAR_EQU_CAS_WING_02_STAND.anim,4,1,2,0,0,0,0,0,0,0,0,1
0,STAND,2,Item\Armor\Wing\WAR_EQU_CAS_WING_02_STAND.anim,4,1,2,0,0,0,0,0,0,0,0,1
0,STAND,3,Item\Armor\Wing\WAR_EQU_CAS_WING_02_STAND.anim,4,1,2,0,0,0,0,0,0,0,0,1
0,MOVE,0,Item\Armor\Wing\WAR_EQU_CAS_WING_02_STAND.anim,4,1,2,0,0,0,0,0,0,0,0,1
0,MOVE,1,Item\Armor\Wing\WSU_EQU_CAS_WING_02_RIDE.anim,4,1,1,0,0,0,0,0,0,0,0,1
0,SM_MOVE,0,Item\Armor\Wing\WAR_EQU_CAS_WING_02_SWIM_RUN.anim,4,1,0.9,0,0,0,0,0,0,0,0,1
0,SM_MOVE,1,Item\Armor\Wing\WAR_EQU_CAS_WING_02_SWIM_RUN.anim,4,1,0.9,0,0,0,0,0,0,0,0,1
0,OPENMARKET,0,Item\Armor\Wing\WAR_EQU_CAS_WING_02_SIT.anim,1,1,2,0,0,0,0,0,0,0,0,1
0,OPENMARKET,1,Item\Armor\Wing\WAR_EQU_CAS_WING_02_SIT.anim,4,1,2,0,0,0,0,0,0,0,0,1
0,CLOSEMARKET,0,Item\Armor\Wing\WAR_EQU_CAS_WING_02_SIT.anim,4,1,2,0,0,0,0,0,0,0,0,1
1,STAND,0,Item\Armor\Wing\WAR_EQU_CAS_WING_02_STAND.anim,4,1,2,0,0,0,0,0,0,0,0,1
1,STAND,1,Item\Armor\Wing\WAR_EQU_CAS_WING_02_STAND.anim,4,1,2,0,0,0,0,0,0,0,0,1
1,MOVE,0,Item\Armor\Wing\WAR_EQU_CAS_WING_02_STAND.anim,4,1,2,0,0,0,0,0,0,0,0,1
1,MOVE,1,Item\Armor\Wing\WSU_EQU_CAS_WING_02_RIDE.anim,4,1,1,0,0,0,0,0,0,0,0,1
1,SM_MOVE,0,Item\Armor\Wing\WAR_EQU_CAS_WING_02_SWIM_RUN.anim,4,1,0.9,0,0,0,0,0,0,0,0,1
1,SM_MOVE,1,Item\Armor\Wing\WAR_EQU_CAS_WING_02_SWIM_RUN.anim,4,1,0.9,0,0,0,0,0,0,0,0,1
1,OPENMARKET,0,Item\Armor\Wing\WAR_EQU_CAS_WING_02_SIT.anim,4,1,2,0,0,0,0,0,0,0,0,1
1,OPENMARKET,1,Item\Armor\Wing\WAR_EQU_CAS_WING_02_SIT.anim,4,1,2,0,0,0,0,0,0,0,0,1
1,CLOSEMARKET,0,Item\Armor\Wing\WAR_EQU_CAS_WING_02_SIT.anim,4,1,2,0,0,0,0,0,0,0,0,1
2,STAND,0,Item\Armor\Wing\WAR_EQU_CAS_WING_02_STAND.anim,4,1,2,0,0,0,0,0,0,0,0,1
2,STAND,1,Item\Armor\Wing\WAR_EQU_CAS_WING_02_STAND.anim,4,1,2,0,0,0,0,0,0,0,0,1
2,MOVE,0,Item\Armor\Wing\WAR_EQU_CAS_WING_02_STAND.anim,4,1,2,0,0,0,0,0,0,0,0,1
2,MOVE,1,Item\Armor\Wing\WSU_EQU_CAS_WING_02_RIDE.anim,4,1,1,0,0,0,0,0,0,0,0,1
2,SM_MOVE,0,Item\Armor\Wing\WAR_EQU_CAS_WING_02_SWIM_RUN.anim,4,1,0.9,0,0,0,0,0,0,0,0,1
2,SM_MOVE,1,Item\Armor\Wing\WAR_EQU_CAS_WING_02_SWIM_RUN.anim,4,1,0.9,0,0,0,0,0,0,0,0,1
2,OPENMARKET,0,Item\Armor\Wing\WAR_EQU_CAS_WING_02_SIT.anim,1,1,2,0,0,0,0,0,0,0,0,1
2,OPENMARKET,1,Item\Armor\Wing\WAR_EQU_CAS_WING_02_SIT.anim,4,1,2,0,0,0,0,0,0,0,0,1
2,CLOSEMARKET,0,Item\Armor\Wing\WAR_EQU_CAS_WING_02_SIT.anim,4,1,2,0,0,0,0,0,0,0,0,1
23,STAND,0,Item\Armor\Wing\WAR_EQU_CAS_WING_02_STAND.anim,4,1,2,0,0,0,0,0,0,0,0,1
23,STAND,1,Item\Armor\Wing\WAR_EQU_CAS_WING_02_STAND.anim,4,1,2,0,0,0,0,0,0,0,0,1
23,MOVE,0,Item\Armor\Wing\WAR_EQU_CAS_WING_02_STAND.anim,4,1,2,0,0,0,0,0,0,0,0,1
23,MOVE,1,Item\Armor\Wing\WSU_EQU_CAS_WING_02_RIDE.anim,4,1,1,0,0,0,0,0,0,0,0,1
23,SM_MOVE,0,Item\Armor\Wing\WAR_EQU_CAS_WING_02_SWIM_RUN.anim,4,1,0.9,0,0,0,0,0,0,0,0,1
23,SM_MOVE,1,Item\Armor\Wing\WAR_EQU_CAS_WING_02_SWIM_RUN.anim,4,1,0.9,0,0,0,0,0,0,0,0,1
23,OPENMARKET,0,Item\Armor\Wing\WAR_EQU_CAS_WING_02_SIT.anim,1,1,2,0,0,0,0,0,0,0,0,1
23,OPENMARKET,1,Item\Armor\Wing\WAR_EQU_CAS_WING_02_SIT.anim,4,1,2,0,0,0,0,0,0,0,0,1
23,CLOSEMARKET,0,Item\Armor\Wing\WAR_EQU_CAS_WING_02_SIT.anim,4,1,2,0,0,0,0,0,0,0,0,1
23,OPENFISHING,0,Item\Armor\Wing\WAR_EQU_CAS_WING_02_STAND.anim,4,1,2,0,0,0,0,0,0,0,0,1
23,OPENFISHING,1,Item\Armor\Wing\WAR_EQU_CAS_WING_02_STAND.anim,4,1,2,0,0,0,0,0,0,0,0,1
23,CLOSEFISHING,0,Item\Armor\Wing\WAR_EQU_CAS_WING_02_STAND.anim,4,1,2,0,0,0,0,0,0,0,0,1
23,CLOSEFISHING,1,Item\Armor\Wing\WAR_EQU_CAS_WING_02_STAND.anim,4,1,2,0,0,0,0,0,0,0,0,1
23,CLOSEFISHING,2,Item\Armor\Wing\WAR_EQU_CAS_WING_02_STAND.anim,4,1,2,0,0,0,0,0,0,0,0,1
23,FISHFIGHTING,0,Item\Armor\Wing\WAR_EQU_CAS_WING_02_STAND.anim,4,1,2,0,0,0,0,0,0,0,0,1
23,FISHFIGHTING,1,Item\Armor\Wing\WAR_EQU_CAS_WING_02_STAND.anim,4,1,2,0,0,0,0,0,0,0,0,1
24,STAND,0,Item\Armor\Wing\WAR_EQU_CAS_WING_02_STAND.anim,4,1,2,0,0,0,0,0,0,0,0,1
24,STAND,1,Item\Armor\Wing\WAR_EQU_CAS_WING_02_STAND.anim,4,1,2,0,0,0,0,0,0,0,0,1
24,MOVE,0,Item\Armor\Wing\WAR_EQU_CAS_WING_02_STAND.anim,4,1,2,0,0,0,0,0,0,0,0,1
24,MOVE,1,Item\Armor\Wing\WSU_EQU_CAS_WING_02_RIDE.anim,4,1,1,0,0,0,0,0,0,0,0,1
24,SM_MOVE,0,Item\Armor\Wing\WAR_EQU_CAS_WING_02_SWIM_RUN.anim,4,1,0.9,0,0,0,0,0,0,0,0,1
24,SM_MOVE,1,Item\Armor\Wing\WAR_EQU_CAS_WING_02_SWIM_RUN.anim,4,1,0.9,0,0,0,0,0,0,0,0,1
24,OPENMARKET,0,Item\Armor\Wing\WAR_EQU_CAS_WING_02_SIT.anim,1,1,2,0,0,0,0,0,0,0,0,1
24,OPENMARKET,1,Item\Armor\Wing\WAR_EQU_CAS_WING_02_SIT.anim,4,1,2,0,0,0,0,0,0,0,0,1
24,CLOSEMARKET,0,Item\Armor\Wing\WAR_EQU_CAS_WING_02_SIT.anim,4,1,2,0,0,0,0,0,0,0,0,1
