Creature,ITEM,,,,,,,,,,,,,,
Index,1753224,,,,,,,,,,,,,,
Skeleton,Wing\EQU_CAS_WING_BAG_9th_BIG.skel,,,,,,,,,,,,,,
,,,,,,,,,,,,,,,
Style,Action,Index,Animation,Start_Inter,End_Inter,TimeLength,Swing,Strike,Timing,Split,Timing2,Freeze,Effect,CancelTime,DefaultAction
0,STAND,0,Item\Armor\Wing\EQU_CAS_WING_BAG_9th_BIG.anim,4,1,1,0,0,0,0,0,0,0,0,0
0,STAND,1,Item\Armor\Wing\EQU_CAS_WING_BAG_9th_BIG.anim,4,1,1,0,0,0,0,0,0,0,0,0
0,STAND,2,Item\Armor\Wing\EQU_CAS_WING_BAG_9th_BIG.anim,4,1,1,0,0,0,0,0,0,0,0,0
0,STAND,3,Item\Armor\Wing\EQU_CAS_WING_BAG_9th_BIG.anim,4,1,1,0,0,0,0,0,0,0,0,0
0,MOVE,0,Item\Armor\Wing\EQU_CAS_WING_BAG_9th_BIG.anim,4,1,1,0,0,0,0,0,0,0,0,0
0,MOVE,1,Item\Armor\Wing\EQU_CAS_WING_BAG_9th_BIG.anim,4,1,1,0,0,0,0,0,0,0,0,0
0,OPENMARKET,0,Item\Armor\Wing\EQU_CAS_WING_BAG_9th_BIG.anim,1,1,1,0,0,0,0,0,0,0,0,0
0,OPENMARKET,1,Item\Armor\Wing\EQU_CAS_WING_BAG_9th_BIG.anim,4,1,1,0,0,0,0,0,0,0,0,0
0,CLOSEMARKET,0,Item\Armor\Wing\EQU_CAS_WING_BAG_9th_BIG.anim,4,1,1,0,0,0,0,0,0,0,0,0
1,STAND,0,Item\Armor\Wing\EQU_CAS_WING_BAG_9th_BIG.anim,4,1,1,0,0,0,0,0,0,0,0,0
1,STAND,1,Item\Armor\Wing\EQU_CAS_WING_BAG_9th_BIG.anim,4,1,1,0,0,0,0,0,0,0,0,0
1,MOVE,0,Item\Armor\Wing\EQU_CAS_WING_BAG_9th_BIG.anim,4,1,1,0,0,0,0,0,0,0,0,0
1,MOVE,1,Item\Armor\Wing\EQU_CAS_WING_BAG_9th_BIG.anim,4,1,1,0,0,0,0,0,0,0,0,0
1,OPENMARKET,0,Item\Armor\Wing\EQU_CAS_WING_BAG_9th_BIG.anim,4,1,1,0,0,0,0,0,0,0,0,0
1,OPENMARKET,1,Item\Armor\Wing\EQU_CAS_WING_BAG_9th_BIG.anim,4,1,1,0,0,0,0,0,0,0,0,0
1,CLOSEMARKET,0,Item\Armor\Wing\EQU_CAS_WING_BAG_9th_BIG.anim,4,1,1,0,0,0,0,0,0,0,0,0
2,STAND,0,Item\Armor\Wing\EQU_CAS_WING_BAG_9th_BIG.anim,4,1,1,0,0,0,0,0,0,0,0,0
2,STAND,1,Item\Armor\Wing\EQU_CAS_WING_BAG_9th_BIG.anim,4,1,1,0,0,0,0,0,0,0,0,0
2,MOVE,0,Item\Armor\Wing\EQU_CAS_WING_BAG_9th_BIG.anim,4,1,1,0,0,0,0,0,0,0,0,0
2,MOVE,1,Item\Armor\Wing\EQU_CAS_WING_BAG_9th_BIG.anim,4,1,1,0,0,0,0,0,0,0,0,0
2,OPENMARKET,0,Item\Armor\Wing\EQU_CAS_WING_BAG_9th_BIG.anim,1,1,1,0,0,0,0,0,0,0,0,0
2,OPENMARKET,1,Item\Armor\Wing\EQU_CAS_WING_BAG_9th_BIG.anim,4,1,1,0,0,0,0,0,0,0,0,0
2,CLOSEMARKET,0,Item\Armor\Wing\EQU_CAS_WING_BAG_9th_BIG.anim,4,1,1,0,0,0,0,0,0,0,0,0
23,STAND,0,Item\Armor\Wing\EQU_CAS_WING_BAG_9th_BIG.anim,4,1,1,0,0,0,0,0,0,0,0,0
23,STAND,1,Item\Armor\Wing\EQU_CAS_WING_BAG_9th_BIG.anim,4,1,1,0,0,0,0,0,0,0,0,0
23,MOVE,0,Item\Armor\Wing\EQU_CAS_WING_BAG_9th_BIG.anim,4,1,1,0,0,0,0,0,0,0,0,0
23,MOVE,1,Item\Armor\Wing\EQU_CAS_WING_BAG_9th_BIG.anim,4,1,1,0,0,0,0,0,0,0,0,0
23,OPENMARKET,0,Item\Armor\Wing\EQU_CAS_WING_BAG_9th_BIG.anim,1,1,1,0,0,0,0,0,0,0,0,0
23,OPENMARKET,1,Item\Armor\Wing\EQU_CAS_WING_BAG_9th_BIG.anim,4,1,1,0,0,0,0,0,0,0,0,0
23,CLOSEMARKET,0,Item\Armor\Wing\EQU_CAS_WING_BAG_9th_BIG.anim,4,1,1,0,0,0,0,0,0,0,0,0
23,OPENFISHING,0,Item\Armor\Wing\EQU_CAS_WING_BAG_9th_BIG.anim,4,1,1,0,0,0,0,0,0,0,0,0
23,OPENFISHING,1,Item\Armor\Wing\EQU_CAS_WING_BAG_9th_BIG.anim,4,1,1,0,0,0,0,0,0,0,0,0
23,CLOSEFISHING,0,Item\Armor\Wing\EQU_CAS_WING_BAG_9th_BIG.anim,4,1,1,0,0,0,0,0,0,0,0,0
23,CLOSEFISHING,1,Item\Armor\Wing\EQU_CAS_WING_BAG_9th_BIG.anim,4,1,1,0,0,0,0,0,0,0,0,0
23,CLOSEFISHING,2,Item\Armor\Wing\EQU_CAS_WING_BAG_9th_BIG.anim,4,1,1,0,0,0,0,0,0,0,0,0
23,FISHFIGHTING,0,Item\Armor\Wing\EQU_CAS_WING_BAG_9th_BIG.anim,4,1,1,0,0,0,0,0,0,0,0,0
23,FISHFIGHTING,1,Item\Armor\Wing\EQU_CAS_WING_BAG_9th_BIG.anim,4,1,1,0,0,0,0,0,0,0,0,0
24,STAND,0,Item\Armor\Wing\EQU_CAS_WING_BAG_9th_BIG.anim,4,1,1,0,0,0,0,0,0,0,0,0
24,STAND,1,Item\Armor\Wing\EQU_CAS_WING_BAG_9th_BIG.anim,4,1,1,0,0,0,0,0,0,0,0,0
24,MOVE,0,Item\Armor\Wing\EQU_CAS_WING_BAG_9th_BIG.anim,4,1,1,0,0,0,0,0,0,0,0,0
24,MOVE,1,Item\Armor\Wing\EQU_CAS_WING_BAG_9th_BIG.anim,4,1,1,0,0,0,0,0,0,0,0,0
24,OPENMARKET,0,Item\Armor\Wing\EQU_CAS_WING_BAG_9th_BIG.anim,1,1,1,0,0,0,0,0,0,0,0,0
24,OPENMARKET,1,Item\Armor\Wing\EQU_CAS_WING_BAG_9th_BIG.anim,4,1,1,0,0,0,0,0,0,0,0,0
24,CLOSEMARKET,0,Item\Armor\Wing\EQU_CAS_WING_BAG_9th_BIG.anim,4,1,1,0,0,0,0,0,0,0,0,0
