Creature,ITEM,,,,,,,,,,,,,,
Index,1752209,,,,,,,,,,,,,,
Skeleton,Wing\SWD_GEN_EQU_CAS_WIN_MID.skel,,,,,,,,,,,,,,
,,,,,,,,,,,,,,,
Style,Action,Index,Animation,Start_Inter,End_Inter,TimeLength,Swing,Strike,Timing,Split,Timing2,Freeze,Effect,CancelTime,DefaultAction
0,STAND,0,Item\Armor\Wing\SUM_GEN_EQU_CAS_WIN_MID_NONSTAND.anim,4,1,2,0,0,0,0,0,0,0,0,1
0,STAND,1,Item\Armor\Wing\SUM_GEN_EQU_CAS_WIN_MID_NONSTAND.anim,4,1,2,0,0,0,0,0,0,0,0,1
0,STAND,2,Item\Armor\Wing\SUM_GEN_EQU_CAS_WIN_MID_NONSTAND.anim,4,1,2,0,0,0,0,0,0,0,0,1
0,STAND,3,Item\Armor\Wing\SUM_GEN_EQU_CAS_WIN_MID_NONSTAND.anim,4,1,2,0,0,0,0,0,0,0,0,1
0,MOVE,0,Item\Armor\Wing\SUM_GEN_EQU_CAS_WIN_MID_NONWALK.anim,4,1,1,0,0,0,0,0,0,0,0,1
0,MOVE,1,Item\Armor\Wing\SUM_GEN_EQU_CAS_WIN_MID_NONRUN.anim,4,1,1,0,0,0,0,0,0,0,0,1
0,OPENMARKET,0,Item\Armor\Wing\SUM_GEN_EQU_CAS_WIN_MID_SIT.anim,4,1,4,0,0,0,0,0,0,0,0,1
0,OPENMARKET,1,Item\Armor\Wing\SUM_GEN_EQU_CAS_WIN_MID_SIT.anim,4,1,4,0,0,0,0,0,0,0,0,1
0,CLOSEMARKET,0,Item\Armor\Wing\SUM_GEN_EQU_CAS_WIN_MID_SIT.anim,4,1,4,0,0,0,0,0,0,0,0,1
1,STAND,0,Item\Armor\Wing\SUM_GEN_EQU_CAS_WIN_MID_NONSTAND.anim,4,1,2,0,0,0,0,0,0,0,0,1
1,STAND,1,Item\Armor\Wing\SUM_GEN_EQU_CAS_WIN_MID_NONSTAND.anim,4,1,2,0,0,0,0,0,0,0,0,1
1,MOVE,0,Item\Armor\Wing\SUM_GEN_EQU_CAS_WIN_MID_NONWALK.anim,4,1,1,0,0,0,0,0,0,0,0,1
1,MOVE,1,Item\Armor\Wing\SUM_GEN_EQU_CAS_WIN_MID_NONRUN.anim,4,1,1,0,0,0,0,0,0,0,0,1
1,OPENMARKET,0,Item\Armor\Wing\SUM_GEN_EQU_CAS_WIN_MID_SIT.anim,4,1,4,0,0,0,0,0,0,0,0,1
1,OPENMARKET,1,Item\Armor\Wing\SUM_GEN_EQU_CAS_WIN_MID_SIT.anim,4,1,4,0,0,0,0,0,0,0,0,1
1,CLOSEMARKET,0,Item\Armor\Wing\SUM_GEN_EQU_CAS_WIN_MID_SIT.anim,4,1,4,0,0,0,0,0,0,0,0,1
2,STAND,0,Item\Armor\Wing\SUM_GEN_EQU_CAS_WIN_MID_NONSTAND.anim,4,1,2,0,0,0,0,0,0,0,0,1
2,STAND,1,Item\Armor\Wing\SUM_GEN_EQU_CAS_WIN_MID_NONSTAND.anim,4,1,2,0,0,0,0,0,0,0,0,1
2,MOVE,0,Item\Armor\Wing\SUM_GEN_EQU_CAS_WIN_MID_NONWALK.anim,4,1,1,0,0,0,0,0,0,0,0,1
2,MOVE,1,Item\Armor\Wing\SUM_GEN_EQU_CAS_WIN_MID_NONRUN.anim,4,1,1,0,0,0,0,0,0,0,0,1
2,OPENMARKET,0,Item\Armor\Wing\SUM_GEN_EQU_CAS_WIN_MID_SIT.anim,4,1,4,0,0,0,0,0,0,0,0,1
2,OPENMARKET,1,Item\Armor\Wing\SUM_GEN_EQU_CAS_WIN_MID_SIT.anim,4,1,4,0,0,0,0,0,0,0,0,1
2,CLOSEMARKET,0,Item\Armor\Wing\SUM_GEN_EQU_CAS_WIN_MID_SIT.anim,4,1,4,0,0,0,0,0,0,0,0,1
9,STAND,0,Item\Armor\Wing\SUM_GEN_EQU_CAS_WIN_MID_STFSTAND.anim,4,1,2,0,0,0,0,0,0,0,0,1
9,STAND,1,Item\Armor\Wing\SUM_GEN_EQU_CAS_WIN_MID_STFSTAND.anim,4,1,2,0,0,0,0,0,0,0,0,1
9,MOVE,0,Item\Armor\Wing\SUM_GEN_EQU_CAS_WIN_MID_STFWALK.anim,4,1,1,0,0,0,0,0,0,0,0,1
9,MOVE,1,Item\Armor\Wing\SUM_GEN_EQU_CAS_WIN_MID_STFRUN.anim,4,1,1,0,0,0,0,0,0,0,0,1
9,OPENMARKET,0,Item\Armor\Wing\SUM_GEN_EQU_CAS_WIN_MID_SIT.anim,4,1,4,0,0,0,0,0,0,0,0,1
9,OPENMARKET,1,Item\Armor\Wing\SUM_GEN_EQU_CAS_WIN_MID_SIT.anim,4,1,4,0,0,0,0,0,0,0,0,1
9,CLOSEMARKET,0,Item\Armor\Wing\SUM_GEN_EQU_CAS_WIN_MID_SIT.anim,4,1,4,0,0,0,0,0,0,0,0,1
10,STAND,0,Item\Armor\Wing\SUM_GEN_EQU_CAS_WIN_MID_DULSTAND.anim,4,1,2,0,0,0,0,0,0,0,0,1
10,STAND,1,Item\Armor\Wing\SUM_GEN_EQU_CAS_WIN_MID_DULSTAND.anim,4,1,2,0,0,0,0,0,0,0,0,1
10,MOVE,0,Item\Armor\Wing\SUM_GEN_EQU_CAS_WIN_MID_DULWALK.anim,4,1,1,0,0,0,0,0,0,0,0,1
10,MOVE,1,Item\Armor\Wing\SUM_GEN_EQU_CAS_WIN_MID_DULRUN.anim,4,1,1,0,0,0,0,0,0,0,0,1
10,OPENMARKET,0,Item\Armor\Wing\SUM_GEN_EQU_CAS_WIN_MID_SIT.anim,4,1,4,0,0,0,0,0,0,0,0,1
10,OPENMARKET,1,Item\Armor\Wing\SUM_GEN_EQU_CAS_WIN_MID_SIT.anim,4,1,4,0,0,0,0,0,0,0,0,1
10,CLOSEMARKET,0,Item\Armor\Wing\SUM_GEN_EQU_CAS_WIN_MID_SIT.anim,4,1,4,0,0,0,0,0,0,0,0,1
21,STAND,0,Item\Armor\Wing\SUM_GEN_EQU_CAS_WIN_MID_DULSTAND.anim,4,1,2,0,0,0,0,0,0,0,0,1
21,STAND,1,Item\Armor\Wing\SUM_GEN_EQU_CAS_WIN_MID_DULSTAND.anim,4,1,2,0,0,0,0,0,0,0,0,1
21,MOVE,0,Item\Armor\Wing\SUM_GEN_EQU_CAS_WIN_MID_DULWALK.anim,4,1,1,0,0,0,0,0,0,0,0,1
21,MOVE,1,Item\Armor\Wing\SUM_GEN_EQU_CAS_WIN_MID_DULRUN.anim,4,1,1,0,0,0,0,0,0,0,0,1
21,OPENMARKET,0,Item\Armor\Wing\SUM_GEN_EQU_CAS_WIN_MID_SIT.anim,4,1,4,0,0,0,0,0,0,0,0,1
21,OPENMARKET,1,Item\Armor\Wing\SUM_GEN_EQU_CAS_WIN_MID_SIT.anim,4,1,4,0,0,0,0,0,0,0,0,1
21,CLOSEMARKET,0,Item\Armor\Wing\SUM_GEN_EQU_CAS_WIN_MID_SIT.anim,4,1,4,0,0,0,0,0,0,0,0,1
23,STAND,0,Item\Armor\Wing\SUM_GEN_EQU_CAS_WIN_MID_NONSTAND.anim,4,1,2,0,0,0,0,0,0,0,0,1
23,STAND,1,Item\Armor\Wing\SUM_GEN_EQU_CAS_WIN_MID_NONSTAND.anim,4,1,2,0,0,0,0,0,0,0,0,1
23,MOVE,0,Item\Armor\Wing\SUM_GEN_EQU_CAS_WIN_MID_NONWALK.anim,4,1,1,0,0,0,0,0,0,0,0,1
23,MOVE,1,Item\Armor\Wing\SUM_GEN_EQU_CAS_WIN_MID_NONRUN.anim,4,1,1,0,0,0,0,0,0,0,0,1
23,OPENMARKET,0,Item\Armor\Wing\SUM_GEN_EQU_CAS_WIN_MID_SIT.anim,4,1,4,0,0,0,0,0,0,0,0,1
23,OPENMARKET,1,Item\Armor\Wing\SUM_GEN_EQU_CAS_WIN_MID_SIT.anim,4,1,4,0,0,0,0,0,0,0,0,1
23,CLOSEMARKET,0,Item\Armor\Wing\SUM_GEN_EQU_CAS_WIN_MID_SIT.anim,4,1,4,0,0,0,0,0,0,0,0,1
23,OPENFISHING,0,Item\Armor\Wing\SUM_GEN_EQU_CAS_WIN_MID_NONSTAND.anim,4,1,2,0,0,0,0,0,0,0,0,1
23,OPENFISHING,1,Item\Armor\Wing\SUM_GEN_EQU_CAS_WIN_MID_NONSTAND.anim,4,1,2,0,0,0,0,0,0,0,0,1
23,CLOSEFISHING,0,Item\Armor\Wing\SUM_GEN_EQU_CAS_WIN_MID_NONSTAND.anim,4,1,2,0,0,0,0,0,0,0,0,1
23,CLOSEFISHING,1,Item\Armor\Wing\SUM_GEN_EQU_CAS_WIN_MID_NONSTAND.anim,4,1,2,0,0,0,0,0,0,0,0,1
23,CLOSEFISHING,2,Item\Armor\Wing\SUM_GEN_EQU_CAS_WIN_MID_NONSTAND.anim,4,1,2,0,0,0,0,0,0,0,0,1
23,FISHFIGHTING,0,Item\Armor\Wing\SUM_GEN_EQU_CAS_WIN_MID_NONSTAND.anim,4,1,2,0,0,0,0,0,0,0,0,1
23,FISHFIGHTING,1,Item\Armor\Wing\SUM_GEN_EQU_CAS_WIN_MID_NONSTAND.anim,4,1,2,0,0,0,0,0,0,0,0,1
