Creature,-6888,,,,,,,,,,,,,,
Index,1685102,,,,,,,,,,,,,,
Skeleton,\nslaJVZdHFXd\NSLd57dRNI3xpjq,,,,,,,,,,,,,,
,,,,,,,,,,,,,,,
Style,Action,Index,Animation,Start_Inter,End_Inter,TimeLength,Swing,Strike,Timing,Split,Timing2,Freeze,Effect,CancelTime,DefaultAction
<,UVCPF,0,OzksbGxsuxb]otmbH]`eKW[eIGYe]OTMe68eTUTeYZGTJ4gtos,?,B,E,0,0,0,0,0,0,0,0
<,UVCPF,-16376,OzksbGxsuxb]otmbH]`eKW[eIGYe]OTMe68eTUTeYZGTJ4gtos,?,B,E,0,0,0,0,0,0,0,0
<,UVCPF,-20470,OzksbGxsuxb]otmbH]`eKW[eIGYe]OTMe68eTUTeYZGTJ4gtos,?,B,E,0,0,0,0,0,0,0,0
<,UVCPF,-24564,OzksbGxsuxb]otmbH]`eKW[eIGYe]OTMe68eTUTeYZGTJ4gtos,?,B,E,0,0,0,0,0,0,0,0
<,OQXG,0,OzksbGxsuxb]otmbH]`eKW[eIGYe]OTMe68eTUTe]GRQ4gtos,?,B,D,0,0,0,0,0,0,0,0
<,OQXG,-16376,OzksbGxsuxb]otmbH]`eKW[eIGYe]OTMe68eTUTeX[T4gtos,?,B,C.9,0,0,0,0,0,0,0,0
<,UOaOQXG,0,OzksbGxsuxb]otmbH]`eKW[eIGYe]OTMe68eY]OSeX[T4gtos,?,B,G,0,0,0,0,0,0,0,0
<,UOaOQXG,-16376,OzksbGxsuxb]otmbH]`eKW[eIGYe]OTMe68eY]OSeX[T4gtos,?,B,G,0,0,0,0,0,0,0,0
<,QRGPOCTMGV,0,OzksbGxsuxb]otmbH]`eKW[eIGYe]OTMe68eYOZ4gtos,?,B,G,0,0,0,0,0,0,0,0
<,QRGPOCTMGV,-16376,OzksbGxsuxb]otmbH]`eKW[eIGYe]OTMe68eYOZ4gtos,?,B,G,0,0,0,0,0,0,0,0
<,ENQUGOCTMGV,0,OzksbGxsuxb]otmbH]`eKW[eIGYe]OTMe68eYOZ4gtos,?,B,G,0,0,0,0,0,0,0,0
=,UVCPF,0,OzksbGxsuxb]otmbH]`eKW[eIGYe]OTMe68eTUTeYZGTJ4gtos,?,B,E,0,0,0,0,0,0,0,0
=,UVCPF,-16376,OzksbGxsuxb]otmbH]`eKW[eIGYe]OTMe68eTUTeYZGTJ4gtos,?,B,E,0,0,0,0,0,0,0,0
=,OQXG,0,OzksbGxsuxb]otmbH]`eKW[eIGYe]OTMe68eTUTe]GRQ4gtos,?,B,D,0,0,0,0,0,0,0,0
=,OQXG,-16376,OzksbGxsuxb]otmbH]`eKW[eIGYe]OTMe68eTUTeX[T4gtos,?,B,C.9,0,0,0,0,0,0,0,0
=,QRGPOCTMGV,0,OzksbGxsuxb]otmbH]`eKW[eIGYe]OTMe68eYOZ4gtos,?,B,G,0,0,0,0,0,0,0,0
=,QRGPOCTMGV,-16376,OzksbGxsuxb]otmbH]`eKW[eIGYe]OTMe68eYOZ4gtos,?,B,G,0,0,0,0,0,0,0,0
=,ENQUGOCTMGV,0,OzksbGxsuxb]otmbH]`eKW[eIGYe]OTMe68eYOZ4gtos,?,B,G,0,0,0,0,0,0,0,0
=,UOaOQXG,0,OzksbGxsuxb]otmbH]`eKW[eIGYe]OTMe68eY]OSeX[T4gtos,?,B,G,0,0,0,0,0,0,0,0
=,UOaOQXG,-16376,OzksbGxsuxb]otmbH]`eKW[eIGYe]OTMe68eY]OSeX[T4gtos,?,B,G,0,0,0,0,0,0,0,0
>,UVCPF,0,OzksbGxsuxb]otmbH]`eKW[eIGYe]OTMe68eTUTeYZGTJ4gtos,?,B,E,0,0,0,0,0,0,0,0
>,UVCPF,-16376,OzksbGxsuxb]otmbH]`eKW[eIGYe]OTMe68eTUTeYZGTJ4gtos,?,B,E,0,0,0,0,0,0,0,0
>,OQXG,0,OzksbGxsuxb]otmbH]`eKW[eIGYe]OTMe68eTUTe]GRQ4gtos,?,B,D,0,0,0,0,0,0,0,0
>,OQXG,-16376,OzksbGxsuxb]otmbH]`eKW[eIGYe]OTMe68eTUTeX[T4gtos,?,B,C.9,0,0,0,0,0,0,0,0
>,QRGPOCTMGV,0,OzksbGxsuxb]otmbH]`eKW[eIGYe]OTMe68eYOZ4gtos,?,B,G,0,0,0,0,0,0,0,0
>,QRGPOCTMGV,-16376,OzksbGxsuxb]otmbH]`eKW[eIGYe]OTMe68eYOZ4gtos,?,B,G,0,0,0,0,0,0,0,0
>,ENQUGOCTMGV,0,OzksbGxsuxb]otmbH]`eKW[eIGYe]OTMe68eYOZ4gtos,?,B,G,0,0,0,0,0,0,0,0
>,UOaOQXG,0,OzksbGxsuxb]otmbH]`eKW[eIGYe]OTMe68eY]OSeX[T4gtos,?,B,G,0,0,0,0,0,0,0,0
>,UOaOQXG,-16376,OzksbGxsuxb]otmbH]`eKW[eIGYe]OTMe68eY]OSeX[T4gtos,?,B,G,0,0,0,0,0,0,0,0
>3,UVCPF,0,OzksbGxsuxb]otmbH]`eKW[eIGYe]OTMe68eTUTeYZGTJ4gtos,?,B,E,0,0,0,0,0,0,0,0
>3,UVCPF,-16376,OzksbGxsuxb]otmbH]`eKW[eIGYe]OTMe68eTUTeYZGTJ4gtos,?,B,E,0,0,0,0,0,0,0,0
>3,OQXG,0,OzksbGxsuxb]otmbH]`eKW[eIGYe]OTMe68eTUTe]GRQ4gtos,?,B,D,0,0,0,0,0,0,0,0
>3,OQXG,-16376,OzksbGxsuxb]otmbH]`eKW[eIGYe]OTMe68eTUTeX[T4gtos,?,B,C.9,0,0,0,0,0,0,0,0
>3,UOaOQXG,0,OzksbGxsuxb]otmbH]`eKW[eIGYe]OTMe68eY]OSeX[T4gtos,?,B,G,0,0,0,0,0,0,0,0
>3,UOaOQXG,-16376,OzksbGxsuxb]otmbH]`eKW[eIGYe]OTMe68eY]OSeX[T4gtos,?,B,G,0,0,0,0,0,0,0,0
>3,QRGPOCTMGV,0,OzksbGxsuxb]otmbH]`eKW[eIGYe]OTMe68eYOZ4gtos,?,B,G,0,0,0,0,0,0,0,0
>3,QRGPOCTMGV,-16376,OzksbGxsuxb]otmbH]`eKW[eIGYe]OTMe68eYOZ4gtos,?,B,G,0,0,0,0,0,0,0,0
>3,ENQUGOCTMGV,0,OzksbGxsuxb]otmbH]`eKW[eIGYe]OTMe68eYOZ4gtos,?,B,G,0,0,0,0,0,0,0,0
>3,QRGPHKUJKPI,0,OzksbGxsuxb]otmbH]`eKW[eIGYe]OTMe68eTUTeYZGTJ4gtos,?,B,E,0,0,0,0,0,0,0,0
>3,QRGPHKUJKPI,-16376,OzksbGxsuxb]otmbH]`eKW[eIGYe]OTMe68eTUTeYZGTJ4gtos,?,B,E,0,0,0,0,0,0,0,0
>3,ENQUGHKUJKPI,0,OzksbGxsuxb]otmbH]`eKW[eIGYe]OTMe68eTUTeYZGTJ4gtos,?,B,E,0,0,0,0,0,0,0,0
>3,ENQUGHKUJKPI,-16376,OzksbGxsuxb]otmbH]`eKW[eIGYe]OTMe68eTUTeYZGTJ4gtos,?,B,E,0,0,0,0,0,0,0,0
>3,ENQUGHKUJKPI,-20470,OzksbGxsuxb]otmbH]`eKW[eIGYe]OTMe68eTUTeYZGTJ4gtos,?,B,E,0,0,0,0,0,0,0,0
>3,HKUJHKIJVKPI,0,OzksbGxsuxb]otmbH]`eKW[eIGYe]OTMe68eTUTeYZGTJ4gtos,?,B,E,0,0,0,0,0,0,0,0
>3,HKUJHKIJVKPI,-16376,OzksbGxsuxb]otmbH]`eKW[eIGYe]OTMe68eTUTeYZGTJ4gtos,?,B,E,0,0,0,0,0,0,0,0
?1,UVCPF,0,OzksbGxsuxb]otmbH]`eKW[eIGYe]OTMe68eHGReYZGTJ4gtos,?,B,F,0,0,0,0,0,0,0,0
?1,UVCPF,-16376,OzksbGxsuxb]otmbH]`eKW[eIGYe]OTMe68eHGReYZGTJ4gtos,?,B,F,0,0,0,0,0,0,0,0
?1,OQXG,0,OzksbGxsuxb]otmbH]`eKW[eIGYe]OTMe68eHGRe]GRQ4gtos,?,B,D,0,0,0,0,0,0,0,0
?1,OQXG,-16376,OzksbGxsuxb]otmbH]`eKW[eIGYe]OTMe68eHGReX[T4gtos,?,B,C.9,0,0,0,0,0,0,0,0
?1,UOaOQXG,0,OzksbGxsuxb]otmbH]`eKW[eIGYe]OTMe68eY]OSeX[T4gtos,?,B,G,0,0,0,0,0,0,0,0
?1,UOaOQXG,-16376,OzksbGxsuxb]otmbH]`eKW[eIGYe]OTMe68eY]OSeX[T4gtos,?,B,G,0,0,0,0,0,0,0,0
?1,QRGPOCTMGV,0,OzksbGxsuxb]otmbH]`eKW[eIGYe]OTMe68eYOZ4gtos,?,B,G,0,0,0,0,0,0,0,0
?1,QRGPOCTMGV,-16376,OzksbGxsuxb]otmbH]`eKW[eIGYe]OTMe68eYOZ4gtos,?,B,G,0,0,0,0,0,0,0,0
?1,ENQUGOCTMGV,0,OzksbGxsuxb]otmbH]`eKW[eIGYe]OTMe68eYOZ4gtos,?,B,G,0,0,0,0,0,0,0,0
