Creature,-6888,,,,,,,,,,,,,,,,
Index,-56583,,,,,,,,,,,,,,,,
Skeleton,\nslaIWLdJVZd\NS573xpjq,,,,,,,,,,,,,,,,
,,,,,,,,,,,,,,,,,
Style,Action,Index,Animation,Start_Inter,End_Inter,TimeLength,Swing,Strike,Timing,Split,Timing2,Freeze,Effect,CancelTime,DefaultAction,Intersect,Through
<,UVCPF,0,OzksbGxsuxb]otmbJXMeKW[e]OT68eTUTeYZGTJ4gtos,?,B,E.333,0,0,0,0,0,0,0,0
<,UVCPF,-16376,OzksbGxsuxb]otmbJXMeKW[e]OT68eTUTeYZGTJ4gtos,?,B,E.333,0,0,0,0,0,0,0,0
<,UVCPF,-20470,OzksbGxsuxb]otmbJXMeKW[e]OT68eTUTeYZGTJ4gtos,?,B,E.333,0,0,0,0,0,0,0,0
<,UVCPF,-24564,OzksbGxsuxb]otmbJXMeKW[e]OT68eTUTeYZGTJ4gtos,?,B,E.333,0,0,0,0,0,0,0,0
<,OQXG,0,OzksbGxsuxb]otmbJXMeKW[e]OT68eTUTe]GRQ4gtos,?,B,D,0,0,0,0,0,0,0,0
<,OQXG,-16376,OzksbGxsuxb]otmbJXMeKW[e]OT68eTUTeX[T4gtos,?,B,D,0,0,0,0,0,0,0,0
<,QRGPOCTMGV,0,OzksbGxsuxb]otmbJXMeKW[e]OT68eKSZeYOZJU]T4gtos,?,B,E,0,0,0,0,0,0,0,0
<,QRGPOCTMGV,-16376,OzksbGxsuxb]otmbJXMeKW[e]OT68eKSZeYOZJU]T4gtos,?,B,E,0,0,0,0,0,0,0,0
<,ENQUGOCTMGV,0,OzksbGxsuxb]otmbJXMeKW[e]OT68eKSZeYOZJU]T4gtos,?,B,E,0,0,0,0,0,0,0,0
=,UVCPF,0,OzksbGxsuxb]otmbJXMeKW[e]OT68eTUTeYZGTJ4gtos,?,B,E.333,0,0,0,0,0,0,0,0
=,UVCPF,-16376,OzksbGxsuxb]otmbJXMeKW[e]OT68eTUTeYZGTJ4gtos,?,B,E.333,0,0,0,0,0,0,0,0
=,OQXG,0,OzksbGxsuxb]otmbJXMeKW[e]OT68eTUTe]GRQ4gtos,?,B,D,0,0,0,0,0,0,0,0
=,OQXG,-16376,OzksbGxsuxb]otmbJXMeKW[e]OT68eTUTeX[T4gtos,?,B,D,0,0,0,0,0,0,0,0
=,QRGPOCTMGV,0,OzksbGxsuxb]otmbJXMeKW[e]OT68eKSZeYOZJU]T4gtos,?,B,E,0,0,0,0,0,0,0,0
=,QRGPOCTMGV,-16376,OzksbGxsuxb]otmbJXMeKW[e]OT68eKSZeYOZJU]T4gtos,?,B,E,0,0,0,0,0,0,0,0
=,ENQUGOCTMGV,0,OzksbGxsuxb]otmbJXMeKW[e]OT68eKSZeYOZJU]T4gtos,?,B,E,0,0,0,0,0,0,0,0
>,UVCPF,0,OzksbGxsuxb]otmbJXMeKW[e]OT68eYY]eYZGTJ4gtos,?,B,D.333,0,0,0,0,0,0,0,0
>,UVCPF,-16376,OzksbGxsuxb]otmbJXMeKW[e]OT68eYY]eYZGTJ4gtos,?,B,D.333,0,0,0,0,0,0,0,0
>,OQXG,0,OzksbGxsuxb]otmbJXMeKW[e]OT68eTUTe]GRQ4gtos,?,B,D,0,0,0,0,0,0,0,0
>,OQXG,-16376,OzksbGxsuxb]otmbJXMeKW[e]OT68eTUTeX[T4gtos,?,B,D,0,0,0,0,0,0,0,0
>,QRGPOCTMGV,0,OzksbGxsuxb]otmbJXMeKW[e]OT68eKSZeYOZJU]T4gtos,?,B,E,0,0,0,0,0,0,0,0
>,QRGPOCTMGV,-16376,OzksbGxsuxb]otmbJXMeKW[e]OT68eKSZeYOZJU]T4gtos,?,B,E,0,0,0,0,0,0,0,0
>,ENQUGOCTMGV,0,OzksbGxsuxb]otmbJXMeKW[e]OT68eKSZeYOZJU]T4gtos,?,B,E,0,0,0,0,0,0,0,0
>3,UVCPF,0,OzksbGxsuxb]otmbJXMeKW[e]OT68eHOYOIeYZGTJ4gtos,?,B,E,0,0,0,0,0,0,0,0
>3,UVCPF,-16376,OzksbGxsuxb]otmbJXMeKW[e]OT68eHOYOIeYZGTJ4gtos,?,B,E,0,0,0,0,0,0,0,0
>3,OQXG,0,OzksbGxsuxb]otmbJXMeKW[e]OT68eHOYOIeYZGTJ4gtos,?,B,E,0,0,0,0,0,0,0,0
>3,OQXG,-16376,OzksbGxsuxb]otmbJXMeKW[e]OT68eHGYOIeX[T&4gtos,?,B,D,0,0,0,0,0,0,0,0
>3,QRGPOCTMGV,0,OzksbGxsuxb]otmbJXMeKW[e]OT68eHOYOIeYZGTJ4gtos,?,B,E,0,0,0,0,0,0,0,0
>3,QRGPOCTMGV,-16376,OzksbGxsuxb]otmbJXMeKW[e]OT68eHOYOIeYZGTJ4gtos,?,B,E,0,0,0,0,0,0,0,0
>3,ENQUGOCTMGV,0,OzksbGxsuxb]otmbJXMeKW[e]OT68eHOYOIeYZGTJ4gtos,?,B,E,0,0,0,0,0,0,0,0
>3,HKUJHKIJVKPI,0,OzksbGxsuxb]otmbJXMeKW[e]OT68eHOYOIeYZGTJ4gtos,?,B,E,0,0,0,0,0,0,0,0
>3,HKUJHKIJVKPI,-16376,OzksbGxsuxb]otmbJXMeKW[e]OT68eHOYOIeYZGTJ4gtos,?,B,E,0,0,0,0,0,0,0,0
>3,QRGPHKUJKPI,0,OzksbGxsuxb]otmbJXMeKW[e]OT68eHOYOIeYZGTJ4gtos,?,B,E,0,0,0,0,0,0,0,0
>3,QRGPHKUJKPI,-16376,OzksbGxsuxb]otmbJXMeKW[e]OT68eHOYOIeYZGTJ4gtos,?,B,E,0,0,0,0,0,0,0,0
>3,ENQUGHKUJKPI,0,OzksbGxsuxb]otmbJXMeKW[e]OT68eHOYOIeYZGTJ4gtos,?,B,E,0,0,0,0,0,0,0,0
>3,ENQUGHKUJKPI,-16376,OzksbGxsuxb]otmbJXMeKW[e]OT68eHOYOIeYZGTJ4gtos,?,B,E,0,0,0,0,0,0,0,0
>3,ENQUGHKUJKPI,-20470,OzksbGxsuxb]otmbJXMeKW[e]OT68eHOYOIeYZGTJ4gtos,?,B,E,0,0,0,0,0,0,0,0
?4,UVCPF,0,OzksbGxsuxb]otmbJXMeKW[e]OT68eYLIeYZGTJ4gtos,?,B,D.666,0,0,0,0,0,0,0,0
?4,UVCPF,-16376,OzksbGxsuxb]otmbJXMeKW[e]OT68eYLIeYZGTJ4gtos,?,B,D.666,0,0,0,0,0,0,0,0
?4,OQXG,0,OzksbGxsuxb]otmbJXMeKW[e]OT68eYLIe]GRQ4gtos,?,B,D,0,0,0,0,0,0,0,0
?4,OQXG,-16376,OzksbGxsuxb]otmbJXMeKW[e]OT68eYLIeX[T4gtos,?,B,C.933,0,0,0,0,0,0,0,0
?4,QRGPOCTMGV,0,OzksbGxsuxb]otmbJXMeKW[e]OT68eKSZeYOZJU]T4gtos,?,B,E,0,0,0,0,0,0,0,0
?4,QRGPOCTMGV,-16376,OzksbGxsuxb]otmbJXMeKW[e]OT68eKSZeYOZJU]T4gtos,?,B,E,0,0,0,0,0,0,0,0
?4,ENQUGOCTMGV,0,OzksbGxsuxb]otmbJXMeKW[e]OT68eKSZeYOZJU]T4gtos,?,B,E,0,0,0,0,0,0,0,0
?4,ENQUGOCTMGV,0,OzksbGxsuxb]otmbJXMeKW[e]OT68eKSZeYOZJU]T4gtos,?,B,E,0,0,0,0,0,0,0,0
