Creature,-6888,,,,,,,,,,,,,,,,
Index,-56579,,,,,,,,,,,,,,,,
Skeleton,\nslaKFKSNWd\NSLdxrfqq3xpjq,,,,,,,,,,,,,,,,
,,,,,,,,,,,,,,,,,
Style,Action,Index,Animation,Start_Inter,End_Inter,TimeLength,Swing,Strike,Timing,Split,Timing2,Freeze,Effect,CancelTime,DefaultAction,Intersect,Through
<,UVCPF,0,OzksbGxsuxb]otmbJXMeKW[eLGLTOXe]OTMeTUTeYZGTJ4gtos,?,B,E.333,0,0,0,0,0,0,0,0
<,UVCPF,-16376,OzksbGxsuxb]otmbJXMeKW[eLGLTOXe]OTMeTUTeYZGTJ4gtos,?,B,E.333,0,0,0,0,0,0,0,0
<,UVCPF,-20470,OzksbGxsuxb]otmbJXMeKW[eLGLTOXe]OTMeTUTeYZGTJ4gtos,?,B,E.333,0,0,0,0,0,0,0,0
<,UVCPF,-24564,OzksbGxsuxb]otmbJXMeKW[eLGLTOXe]OTMeTUTeYZGTJ4gtos,?,B,E.333,0,0,0,0,0,0,0,0
<,OQXG,0,OzksbGxsuxb]otmbJXMeKW[eLGLTOXe]OTMeTUTe]GRQ4gtos,?,B,D,0,0,0,0,0,0,0,0
<,OQXG,-16376,OzksbGxsuxb]otmbJXMeKW[eLGLTOXe]OTMeTUTeX[T4gtos,?,B,D,0,0,0,0,0,0,0,0
<,QRGPOCTMGV,0,OzksbGxsuxb]otmbJXMeKW[eLGLTOXe]OTMeKSZeYOZJU]T4gtos,?,B,E,0,0,0,0,0,0,0,0
<,QRGPOCTMGV,-16376,OzksbGxsuxb]otmbJXMeKW[eLGLTOXe]OTMeKSZeYOZJU]T4gtos,?,B,E,0,0,0,0,0,0,0,0
<,ENQUGOCTMGV,0,OzksbGxsuxb]otmbJXMeKW[eLGLTOXe]OTMeKSZeYOZJU]T4gtos,?,B,E,0,0,0,0,0,0,0,0
=,UVCPF,0,OzksbGxsuxb]otmbJXMeKW[eLGLTOXe]OTMeTUTeYZGTJ4gtos,?,B,E.333,0,0,0,0,0,0,0,0
=,UVCPF,-16376,OzksbGxsuxb]otmbJXMeKW[eLGLTOXe]OTMeTUTeYZGTJ4gtos,?,B,E.333,0,0,0,0,0,0,0,0
=,OQXG,0,OzksbGxsuxb]otmbJXMeKW[eLGLTOXe]OTMeTUTe]GRQ4gtos,?,B,D,0,0,0,0,0,0,0,0
=,OQXG,-16376,OzksbGxsuxb]otmbJXMeKW[eLGLTOXe]OTMeTUTeX[T4gtos,?,B,D,0,0,0,0,0,0,0,0
=,QRGPOCTMGV,0,OzksbGxsuxb]otmbJXMeKW[eLGLTOXe]OTMeKSZeYOZJU]T4gtos,?,B,E,0,0,0,0,0,0,0,0
=,QRGPOCTMGV,-16376,OzksbGxsuxb]otmbJXMeKW[eLGLTOXe]OTMeKSZeYOZJU]T4gtos,?,B,E,0,0,0,0,0,0,0,0
=,ENQUGOCTMGV,0,OzksbGxsuxb]otmbJXMeKW[eLGLTOXe]OTMeKSZeYOZJU]T4gtos,?,B,E,0,0,0,0,0,0,0,0
>,UVCPF,0,OzksbGxsuxb]otmbJXMeKW[eLGLTOXe]OTMeYY]eYZGTJ4gtos,?,B,D.333,0,0,0,0,0,0,0,0
>,UVCPF,-16376,OzksbGxsuxb]otmbJXMeKW[eLGLTOXe]OTMeYY]eYZGTJ4gtos,?,B,D.333,0,0,0,0,0,0,0,0
>,OQXG,0,OzksbGxsuxb]otmbJXMeKW[eLGLTOXe]OTMeTUTe]GRQ4gtos,?,B,D,0,0,0,0,0,0,0,0
>,OQXG,-16376,OzksbGxsuxb]otmbJXMeKW[eLGLTOXe]OTMeTUTeX[T4gtos,?,B,D,0,0,0,0,0,0,0,0
>,QRGPOCTMGV,0,OzksbGxsuxb]otmbJXMeKW[eLGLTOXe]OTMeKSZeYOZJU]T4gtos,?,B,E,0,0,0,0,0,0,0,0
>,QRGPOCTMGV,-16376,OzksbGxsuxb]otmbJXMeKW[eLGLTOXe]OTMeKSZeYOZJU]T4gtos,?,B,E,0,0,0,0,0,0,0,0
>,ENQUGOCTMGV,0,OzksbGxsuxb]otmbJXMeKW[eLGLTOXe]OTMeKSZeYOZJU]T4gtos,?,B,E,0,0,0,0,0,0,0,0
>3,UVCPF,0,OzksbGxsuxb]otmbJXMeKW[eLGLTOXe]OTMeHOYOIeYZGTJ4gtos,?,B,E,0,0,0,0,0,0,0,0
>3,UVCPF,-16376,OzksbGxsuxb]otmbJXMeKW[eLGLTOXe]OTMeHOYOIeYZGTJ4gtos,?,B,E,0,0,0,0,0,0,0,0
>3,OQXG,0,OzksbGxsuxb]otmbJXMeKW[eLGLTOXe]OTMeHOYOIeYZGTJ4gtos,?,B,E,0,0,0,0,0,0,0,0
>3,OQXG,-16376,OzksbGxsuxb]otmbJXMeKW[eLGLTOXe]OTMeHGYOIeX[T&4gtos,?,B,D,0,0,0,0,0,0,0,0
>3,QRGPOCTMGV,0,OzksbGxsuxb]otmbJXMeKW[eLGLTOXe]OTMeHOYOIeYZGTJ4gtos,?,B,E,0,0,0,0,0,0,0,0
>3,QRGPOCTMGV,-16376,OzksbGxsuxb]otmbJXMeKW[eLGLTOXe]OTMeHOYOIeYZGTJ4gtos,?,B,E,0,0,0,0,0,0,0,0
>3,ENQUGOCTMGV,0,OzksbGxsuxb]otmbJXMeKW[eLGLTOXe]OTMeHOYOIeYZGTJ4gtos,?,B,E,0,0,0,0,0,0,0,0
>3,HKUJHKIJVKPI,0,OzksbGxsuxb]otmbJXMeKW[eLGLTOXe]OTMeHOYOIeYZGTJ4gtos,?,B,E,0,0,0,0,0,0,0,0
>3,HKUJHKIJVKPI,-16376,OzksbGxsuxb]otmbJXMeKW[eLGLTOXe]OTMeHOYOIeYZGTJ4gtos,?,B,E,0,0,0,0,0,0,0,0
>3,QRGPHKUJKPI,0,OzksbGxsuxb]otmbJXMeKW[eLGLTOXe]OTMeHOYOIeYZGTJ4gtos,?,B,E,0,0,0,0,0,0,0,0
>3,QRGPHKUJKPI,-16376,OzksbGxsuxb]otmbJXMeKW[eLGLTOXe]OTMeHOYOIeYZGTJ4gtos,?,B,E,0,0,0,0,0,0,0,0
>3,ENQUGHKUJKPI,0,OzksbGxsuxb]otmbJXMeKW[eLGLTOXe]OTMeHOYOIeYZGTJ4gtos,?,B,E,0,0,0,0,0,0,0,0
>3,ENQUGHKUJKPI,-16376,OzksbGxsuxb]otmbJXMeKW[eLGLTOXe]OTMeHOYOIeYZGTJ4gtos,?,B,E,0,0,0,0,0,0,0,0
>3,ENQUGHKUJKPI,-20470,OzksbGxsuxb]otmbJXMeKW[eLGLTOXe]OTMeHOYOIeYZGTJ4gtos,?,B,E,0,0,0,0,0,0,0,0
?4,UVCPF,0,OzksbGxsuxb]otmbJXMeKW[eLGLTOXe]OTMeYLIeYZGTJ4gtos,?,B,D.666,0,0,0,0,0,0,0,0
?4,UVCPF,-16376,OzksbGxsuxb]otmbJXMeKW[eLGLTOXe]OTMeYLIeYZGTJ4gtos,?,B,D.666,0,0,0,0,0,0,0,0
?4,OQXG,0,OzksbGxsuxb]otmbJXMeKW[eLGLTOXe]OTMeYLIe]GRQ4gtos,?,B,D,0,0,0,0,0,0,0,0
?4,OQXG,-16376,OzksbGxsuxb]otmbJXMeKW[eLGLTOXe]OTMeYLIeX[T4gtos,?,B,C.933,0,0,0,0,0,0,0,0
?4,QRGPOCTMGV,0,OzksbGxsuxb]otmbJXMeKW[eLGLTOXe]OTMeKSZeYOZJU]T4gtos,?,B,E,0,0,0,0,0,0,0,0
?4,QRGPOCTMGV,-16376,OzksbGxsuxb]otmbJXMeKW[eLGLTOXe]OTMeKSZeYOZJU]T4gtos,?,B,E,0,0,0,0,0,0,0,0
?4,ENQUGOCTMGV,0,OzksbGxsuxb]otmbJXMeKW[eLGLTOXe]OTMeKSZeYOZJU]T4gtos,?,B,E,0,0,0,0,0,0,0,0
?4,ENQUGOCTMGV,0,OzksbGxsuxb]otmbJXMeKW[eLGLTOXe]OTMeKSZeYOZJU]T4gtos,?,B,E,0,0,0,0,0,0,0,0
