Creature,-6888,,,,,,,,,,,,,,,,
Index,1689164,,,,,,,,,,,,,,,,
Skeleton,\nslaLJSdJVZdHFXd\NSLd5>dXRF3xpjq,,,,,,,,,,,,,,,,
,,,,,,,,,,,,,,,,,
Style,Action,Index,Animation,Start_Inter,End_Inter,TimeLength,Swing,Strike,Timing,Split,Timing2,Freeze,Effect,CancelTime,DefaultAction,Intersect,Through
<,UVCPF,0,OzksbGxsuxb]otmb]Y[eMKTeKW[eIGYe]OTMe6?eTUTeYZGTJ4gtos,?,B,E,0,0,0,0,0,0,0,0
<,UVCPF,-16376,OzksbGxsuxb]otmb]Y[eMKTeKW[eIGYe]OTMe6?eTUTeYZGTJ4gtos,?,B,E,0,0,0,0,0,0,0,0
<,UVCPF,-20470,OzksbGxsuxb]otmb]Y[eMKTeKW[eIGYe]OTMe6?eTUTeYZGTJ4gtos,?,B,E,0,0,0,0,0,0,0,0
<,UVCPF,-24564,OzksbGxsuxb]otmb]Y[eMKTeKW[eIGYe]OTMe6?eTUTeYZGTJ4gtos,?,B,E,0,0,0,0,0,0,0,0
<,OQXG,0,OzksbGxsuxb]otmb]Y[eMKTeKW[eIGYe]OTMe6?eTUTe]GRQ4gtos,?,B,D,0,0,0,0,0,0,0,0
<,OQXG,-16376,OzksbGxsuxb]otmb]Y[eMKTeKW[eIGYe]OTMe6?eJ[GReX[T4gtos,?,B,D,0,0,0,0,0,0,0,0
<,QRGPOCTMGV,0,OzksbGxsuxb]otmb]Y[eMKTeKW[eIGYe]OTMe6?eYOZJU]T4gtos,?,B,G,0,0,0,0,0,0,0,0
<,QRGPOCTMGV,-16376,OzksbGxsuxb]otmb]Y[eMKTeKW[eIGYe]OTMe6?eYOZJU]T4gtos,?,B,G,0,0,0,0,0,0,0,0
<,ENQUGOCTMGV,0,OzksbGxsuxb]otmb]Y[eMKTeKW[eIGYe]OTMe6?eYOZJU]T4gtos,?,B,G,0,0,0,0,0,0,0,0
=,UVCPF,0,OzksbGxsuxb]otmb]Y[eMKTeKW[eIGYe]OTMe6?eTUTeYZGTJ4gtos,?,B,E,0,0,0,0,0,0,0,0
=,UVCPF,-16376,OzksbGxsuxb]otmb]Y[eMKTeKW[eIGYe]OTMe6?eTUTeYZGTJ4gtos,?,B,E,0,0,0,0,0,0,0,0
=,OQXG,0,OzksbGxsuxb]otmb]Y[eMKTeKW[eIGYe]OTMe6?eTUTe]GRQ4gtos,?,B,D,0,0,0,0,0,0,0,0
=,OQXG,-16376,OzksbGxsuxb]otmb]Y[eMKTeKW[eIGYe]OTMe6?eJ[GReX[T4gtos,?,B,D,0,0,0,0,0,0,0,0
=,QRGPOCTMGV,0,OzksbGxsuxb]otmb]Y[eMKTeKW[eIGYe]OTMe6?eYOZJU]T4gtos,?,B,G,0,0,0,0,0,0,0,0
=,QRGPOCTMGV,-16376,OzksbGxsuxb]otmb]Y[eMKTeKW[eIGYe]OTMe6?eYOZJU]T4gtos,?,B,G,0,0,0,0,0,0,0,0
=,ENQUGOCTMGV,0,OzksbGxsuxb]otmb]Y[eMKTeKW[eIGYe]OTMe6?eYOZJU]T4gtos,?,B,G,0,0,0,0,0,0,0,0
>,UVCPF,0,OzksbGxsuxb]otmb]Y[eMKTeKW[eIGYe]OTMe6?eJ[GReYZGTJ4gtos,?,B,E,0,0,0,0,0,0,0,0
>,UVCPF,-16376,OzksbGxsuxb]otmb]Y[eMKTeKW[eIGYe]OTMe6?eJ[GReYZGTJ4gtos,?,B,E,0,0,0,0,0,0,0,0
>,OQXG,0,OzksbGxsuxb]otmb]Y[eMKTeKW[eIGYe]OTMe6?eJ[GRe]GRQ4gtos,?,B,D,0,0,0,0,0,0,0,0
>,OQXG,-16376,OzksbGxsuxb]otmb]Y[eMKTeKW[eIGYe]OTMe6?eJ[GReX[T4gtos,?,B,D,0,0,0,0,0,0,0,0
>,QRGPOCTMGV,0,OzksbGxsuxb]otmb]Y[eMKTeKW[eIGYe]OTMe6?eYOZJU]T4gtos,?,B,G,0,0,0,0,0,0,0,0
>,QRGPOCTMGV,-16376,OzksbGxsuxb]otmb]Y[eMKTeKW[eIGYe]OTMe6?eYOZJU]T4gtos,?,B,G,0,0,0,0,0,0,0,0
>,ENQUGOCTMGV,0,OzksbGxsuxb]otmb]Y[eMKTeKW[eIGYe]OTMe6?eYOZJU]T4gtos,?,B,G,0,0,0,0,0,0,0,0
E,UVCPF,0,OzksbGxsuxb]otmb]Y[eMKTeKW[eIGYe]OTMe6?eJ[GReYZGTJ4gtos,?,B,E,0,0,0,0,0,0,0,0
E,UVCPF,-16376,OzksbGxsuxb]otmb]Y[eMKTeKW[eIGYe]OTMe6?eJ[GReYZGTJ4gtos,?,B,E,0,0,0,0,0,0,0,0
E,OQXG,0,OzksbGxsuxb]otmb]Y[eMKTeKW[eIGYe]OTMe6?eJ[GRe]GRQ4gtos,?,B,D,0,0,0,0,0,0,0,0
E,OQXG,-16376,OzksbGxsuxb]otmb]Y[eMKTeKW[eIGYe]OTMe6?eJ[GReX[T4gtos,?,B,D,0,0,0,0,0,0,0,0
E,QRGPOCTMGV,0,OzksbGxsuxb]otmb]Y[eMKTeKW[eIGYe]OTMe6?eYOZJU]T4gtos,?,B,G,0,0,0,0,0,0,0,0
E,QRGPOCTMGV,-16376,OzksbGxsuxb]otmb]Y[eMKTeKW[eIGYe]OTMe6?eYOZJU]T4gtos,?,B,G,0,0,0,0,0,0,0,0
E,ENQUGOCTMGV,0,OzksbGxsuxb]otmb]Y[eMKTeKW[eIGYe]OTMe6?eYOZJU]T4gtos,?,B,G,0,0,0,0,0,0,0,0
=0,UVCPF,0,OzksbGxsuxb]otmb]Y[eMKTeKW[eIGYe]OTMe6?eJ[GReYZGTJ4gtos,?,B,E,0,0,0,0,0,0,0,0
=0,UVCPF,-16376,OzksbGxsuxb]otmb]Y[eMKTeKW[eIGYe]OTMe6?eJ[GReYZGTJ4gtos,?,B,E,0,0,0,0,0,0,0,0
=0,OQXG,0,OzksbGxsuxb]otmb]Y[eMKTeKW[eIGYe]OTMe6?eJ[GRe]GRQ4gtos,?,B,D,0,0,0,0,0,0,0,0
=0,OQXG,-16376,OzksbGxsuxb]otmb]Y[eMKTeKW[eIGYe]OTMe6?eJ[GReX[T4gtos,?,B,D,0,0,0,0,0,0,0,0
=0,QRGPOCTMGV,0,OzksbGxsuxb]otmb]Y[eMKTeKW[eIGYe]OTMe6?eYOZJU]T4gtos,?,B,G,0,0,0,0,0,0,0,0
=0,QRGPOCTMGV,-16376,OzksbGxsuxb]otmb]Y[eMKTeKW[eIGYe]OTMe6?eYOZJU]T4gtos,?,B,G,0,0,0,0,0,0,0,0
=0,ENQUGOCTMGV,0,OzksbGxsuxb]otmb]Y[eMKTeKW[eIGYe]OTMe6?eYOZJU]T4gtos,?,B,G,0,0,0,0,0,0,0,0
>3,UVCPF,0,OzksbGxsuxb]otmb]Y[eMKTeKW[eIGYe]OTMe6?eJ[GReYZGTJ4gtos,?,B,E,0,0,0,0,0,0,0,0
>3,UVCPF,-16376,OzksbGxsuxb]otmb]Y[eMKTeKW[eIGYe]OTMe6?eJ[GReYZGTJ4gtos,?,B,E,0,0,0,0,0,0,0,0
>3,OQXG,0,OzksbGxsuxb]otmb]Y[eMKTeKW[eIGYe]OTMe6?eJ[GRe]GRQ4gtos,?,B,D,0,0,0,0,0,0,0,0
>3,OQXG,-16376,OzksbGxsuxb]otmb]Y[eMKTeKW[eIGYe]OTMe6?eJ[GReX[T4gtos,?,B,D,0,0,0,0,0,0,0,0
>3,QRGPOCTMGV,0,OzksbGxsuxb]otmb]Y[eMKTeKW[eIGYe]OTMe6?eYOZJU]T4gtos,?,B,G,0,0,0,0,0,0,0,0
>3,QRGPOCTMGV,-16376,OzksbGxsuxb]otmb]Y[eMKTeKW[eIGYe]OTMe6?eYOZJU]T4gtos,?,B,G,0,0,0,0,0,0,0,0
>3,ENQUGOCTMGV,0,OzksbGxsuxb]otmb]Y[eMKTeKW[eIGYe]OTMe6?eYOZJU]T4gtos,?,B,G,0,0,0,0,0,0,0,0
>3,HKUJHKIJVKPI,0,OzksbGxsuxb]otmb]Y[eMKTeKW[eIGYe]OTMe6?eTUTeYZGTJ4gtos,?,B,E,0,0,0,0,0,0,0,0
>3,HKUJHKIJVKPI,-16376,OzksbGxsuxb]otmb]Y[eMKTeKW[eIGYe]OTMe6?eTUTeYZGTJ4gtos,?,B,E,0,0,0,0,0,0,0,0
>3,QRGPHKUJKPI,0,OzksbGxsuxb]otmb]Y[eMKTeKW[eIGYe]OTMe6?eTUTeYZGTJ4gtos,?,B,E,0,0,0,0,0,0,0,0
>3,QRGPHKUJKPI,-16376,OzksbGxsuxb]otmb]Y[eMKTeKW[eIGYe]OTMe6?eTUTeYZGTJ4gtos,?,B,E,0,0,0,0,0,0,0,0
>3,ENQUGHKUJKPI,0,OzksbGxsuxb]otmb]Y[eMKTeKW[eIGYe]OTMe6?eTUTeYZGTJ4gtos,?,B,E,0,0,0,0,0,0,0,0
>3,ENQUGHKUJKPI,-16376,OzksbGxsuxb]otmb]Y[eMKTeKW[eIGYe]OTMe6?eTUTeYZGTJ4gtos,?,B,E,0,0,0,0,0,0,0,0
>3,ENQUGHKUJKPI,-20470,OzksbGxsuxb]otmb]Y[eMKTeKW[eIGYe]OTMe6?eTUTeYZGTJ4gtos,?,B,E,0,0,0,0,0,0,0,0
>9,UVCPF,0,OzksbGxsuxb]otmb]Y[eMKTeKW[eIGYe]OTMe6?eJ[GReYZGTJ4gtos,?,B,E,0,0,0,0,0,0,0,0
>9,UVCPF,-16376,OzksbGxsuxb]otmb]Y[eMKTeKW[eIGYe]OTMe6?eJ[GReYZGTJ4gtos,?,B,E,0,0,0,0,0,0,0,0
>9,OQXG,0,OzksbGxsuxb]otmb]Y[eMKTeKW[eIGYe]OTMe6?eJ[GRe]GRQ4gtos,?,B,D,0,0,0,0,0,0,0,0
>9,OQXG,-16376,OzksbGxsuxb]otmb]Y[eMKTeKW[eIGYe]OTMe6?eJ[GReX[T4gtos,?,B,D,0,0,0,0,0,0,0,0
>9,QRGPOCTMGV,0,OzksbGxsuxb]otmb]Y[eMKTeKW[eIGYe]OTMe6?eYOZJU]T4gtos,?,B,G,0,0,0,0,0,0,0,0
>9,QRGPOCTMGV,-16376,OzksbGxsuxb]otmb]Y[eMKTeKW[eIGYe]OTMe6?eYOZJU]T4gtos,?,B,G,0,0,0,0,0,0,0,0
>9,ENQUGOCTMGV,0,OzksbGxsuxb]otmb]Y[eMKTeKW[eIGYe]OTMe6?eYOZJU]T4gtos,?,B,G,0,0,0,0,0,0,0,0
>9,ENQUGOCTMGV,0,OzksbGxsuxb]otmb]Y[eMKTeKW[eIGYe]OTMe6?eYOZJU]T4gtos,?,B,G,0,0,0,0,0,0,0,0
