Creature,ITEM,,,,,,,,,,,,,,
Index,2310173,,,,,,,,,,,,,,
Skeleton,Wing\GEN_EQU_CAS_WING_03_SMA.skel,,,,,,,,,,,,,,
,,,,,,,,,,,,,,,
Style,Action,Index,Animation,Start_Inter,End_Inter,TimeLength,Swing,Strike,Timing,Split,Timing2,Freeze,Effect,CancelTime,DefaultAction
0,STAND,0,Item\Armor\Wing\ARC_GEN_EQU_CAS_WING_03_NON_STAND.anim,4,1,1,0,0,0,0,0,0,0,0,1
0,STAND,1,Item\Armor\Wing\ARC_GEN_EQU_CAS_WING_03_NON_STAND.anim,4,1,1,0,0,0,0,0,0,0,0,1
0,STAND,2,Item\Armor\Wing\ARC_GEN_EQU_CAS_WING_03_NON_STAND.anim,4,1,1,0,0,0,0,0,0,0,0,1
0,STAND,3,Item\Armor\Wing\ARC_GEN_EQU_CAS_WING_03_NON_STAND.anim,4,1,1,0,0,0,0,0,0,0,0,1
0,MOVE,0,Item\Armor\Wing\ARC_GEN_EQU_CAS_WING_03_NON_WALK.anim,4,1,1,0,0,0,0,0,0,0,0,1
0,MOVE,1,Item\Armor\Wing\ARC_GEN_EQU_CAS_WING_03_RIDE_RUN.anim,4,1,0.93,0,0,0,0,0,0,0,0,1
0,OPENMARKET,0,Item\Armor\Wing\ARC_GEN_EQU_CAS_WING_03_SIT.anim,4,1,4,0,0,0,0,0,0,0,0,1
0,OPENMARKET,1,Item\Armor\Wing\ARC_GEN_EQU_CAS_WING_03_SIT.anim,4,1,4,0,0,0,0,0,0,0,0,1
0,CLOSEMARKET,0,Item\Armor\Wing\ARC_GEN_EQU_CAS_WING_03_SIT.anim,4,1,4,0,0,0,0,0,0,0,0,1
1,STAND,0,Item\Armor\Wing\ARC_GEN_EQU_CAS_WING_03_NON_STAND.anim,4,1,1,0,0,0,0,0,0,0,0,1
1,STAND,1,Item\Armor\Wing\ARC_GEN_EQU_CAS_WING_03_NON_STAND.anim,4,1,1,0,0,0,0,0,0,0,0,1
1,MOVE,0,Item\Armor\Wing\ARC_GEN_EQU_CAS_WING_03_NON_WALK.anim,4,1,1,0,0,0,0,0,0,0,0,1
1,MOVE,1,Item\Armor\Wing\ARC_GEN_EQU_CAS_WING_03_RIDE_RUN.anim,4,1,0.93,0,0,0,0,0,0,0,0,1
1,OPENMARKET,0,Item\Armor\Wing\ARC_GEN_EQU_CAS_WING_03_SIT.anim,4,1,4,0,0,0,0,0,0,0,0,1
1,OPENMARKET,1,Item\Armor\Wing\ARC_GEN_EQU_CAS_WING_03_SIT.anim,4,1,4,0,0,0,0,0,0,0,0,1
1,CLOSEMARKET,0,Item\Armor\Wing\ARC_GEN_EQU_CAS_WING_03_SIT.anim,4,1,4,0,0,0,0,0,0,0,0,1
2,STAND,0,Item\Armor\Wing\ARC_GEN_EQU_CAS_WING_03_NON_STAND.anim,4,1,1,0,0,0,0,0,0,0,0,1
2,STAND,1,Item\Armor\Wing\ARC_GEN_EQU_CAS_WING_03_NON_STAND.anim,4,1,1,0,0,0,0,0,0,0,0,1
2,MOVE,0,Item\Armor\Wing\ARC_GEN_EQU_CAS_WING_03_SSW_WALK.anim,4,1,1,0,0,0,0,0,0,0,0,1
2,MOVE,1,Item\Armor\Wing\ARC_GEN_EQU_CAS_WING_03_RIDE_RUN.anim,4,1,0.93,0,0,0,0,0,0,0,0,1
2,OPENMARKET,0,Item\Armor\Wing\ARC_GEN_EQU_CAS_WING_03_SIT.anim,4,1,4,0,0,0,0,0,0,0,0,1
2,OPENMARKET,1,Item\Armor\Wing\ARC_GEN_EQU_CAS_WING_03_SIT.anim,4,1,4,0,0,0,0,0,0,0,0,1
2,CLOSEMARKET,0,Item\Armor\Wing\ARC_GEN_EQU_CAS_WING_03_SIT.anim,4,1,4,0,0,0,0,0,0,0,0,1
7,STAND,0,Item\Armor\Wing\ARC_GEN_EQU_CAS_WING_03_BOW_STAND.anim,4,1,1,0,0,0,0,0,0,0,0,1
7,STAND,1,Item\Armor\Wing\ARC_GEN_EQU_CAS_WING_03_BOW_STAND.anim,4,1,1,0,0,0,0,0,0,0,0,1
7,MOVE,0,Item\Armor\Wing\ARC_GEN_EQU_CAS_WING_03_BOW_WALK.anim,4,1,1,0,0,0,0,0,0,0,0,1
7,MOVE,1,Item\Armor\Wing\ARC_GEN_EQU_CAS_WING_03_RIDE_RUN.anim,4,1,0.93,0,0,0,0,0,0,0,0,1
7,OPENMARKET,0,Item\Armor\Wing\ARC_GEN_EQU_CAS_WING_03_SIT.anim,4,1,4,0,0,0,0,0,0,0,0,1
7,OPENMARKET,1,Item\Armor\Wing\ARC_GEN_EQU_CAS_WING_03_SIT.anim,4,1,4,0,0,0,0,0,0,0,0,1
7,CLOSEMARKET,0,Item\Armor\Wing\ARC_GEN_EQU_CAS_WING_03_SIT.anim,4,1,4,0,0,0,0,0,0,0,0,1
8,STAND,0,Item\Armor\Wing\ARC_GEN_EQU_CAS_WING_03_CRS_STAND.anim,4,1,1,0,0,0,0,0,0,0,0,1
8,STAND,1,Item\Armor\Wing\ARC_GEN_EQU_CAS_WING_03_CRS_STAND.anim,4,1,1,0,0,0,0,0,0,0,0,1
8,MOVE,0,Item\Armor\Wing\ARC_GEN_EQU_CAS_WING_03_CRS_WALK.anim,4,1,1,0,0,0,0,0,0,0,0,1
8,MOVE,1,Item\Armor\Wing\ARC_GEN_EQU_CAS_WING_03_RIDE_RUN.anim,4,1,0.93,0,0,0,0,0,0,0,0,1
8,OPENMARKET,0,Item\Armor\Wing\ARC_GEN_EQU_CAS_WING_03_SIT.anim,4,1,4,0,0,0,0,0,0,0,0,1
8,OPENMARKET,1,Item\Armor\Wing\ARC_GEN_EQU_CAS_WING_03_SIT.anim,4,1,4,0,0,0,0,0,0,0,0,1
8,CLOSEMARKET,0,Item\Armor\Wing\ARC_GEN_EQU_CAS_WING_03_SIT.anim,4,1,4,0,0,0,0,0,0,0,0,1
23,STAND,0,Item\Armor\Wing\ARC_GEN_EQU_CAS_WING_03_NON_STAND.anim,4,1,1,0,0,0,0,0,0,0,0,1
23,STAND,1,Item\Armor\Wing\ARC_GEN_EQU_CAS_WING_03_NON_STAND.anim,4,1,1,0,0,0,0,0,0,0,0,1
23,MOVE,0,Item\Armor\Wing\ARC_GEN_EQU_CAS_WING_03_NON_WALK.anim,4,1,1,0,0,0,0,0,0,0,0,1
23,MOVE,1,Item\Armor\Wing\ARC_GEN_EQU_CAS_WING_03_RIDE_RUN.anim,4,1,0.93,0,0,0,0,0,0,0,0,1
23,OPENMARKET,0,Item\Armor\Wing\ARC_GEN_EQU_CAS_WING_03_SIT.anim,4,1,4,0,0,0,0,0,0,0,0,1
23,OPENMARKET,1,Item\Armor\Wing\ARC_GEN_EQU_CAS_WING_03_SIT.anim,4,1,4,0,0,0,0,0,0,0,0,1
23,CLOSEMARKET,0,Item\Armor\Wing\ARC_GEN_EQU_CAS_WING_03_SIT.anim,4,1,4,0,0,0,0,0,0,0,0,1
23,OPENFISHING,0,Item\Armor\Wing\ARC_GEN_EQU_CAS_WING_03_NON_STAND.anim,4,1,1,0,0,0,0,0,0,0,0,1
23,OPENFISHING,1,Item\Armor\Wing\ARC_GEN_EQU_CAS_WING_03_NON_STAND.anim,4,1,1,0,0,0,0,0,0,0,0,1
23,CLOSEFISHING,0,Item\Armor\Wing\ARC_GEN_EQU_CAS_WING_03_NON_STAND.anim,4,1,1,0,0,0,0,0,0,0,0,1
23,CLOSEFISHING,1,Item\Armor\Wing\ARC_GEN_EQU_CAS_WING_03_NON_STAND.anim,4,1,1,0,0,0,0,0,0,0,0,1
23,CLOSEFISHING,2,Item\Armor\Wing\ARC_GEN_EQU_CAS_WING_03_NON_STAND.anim,4,1,1,0,0,0,0,0,0,0,0,1
23,FISHFIGHTING,0,Item\Armor\Wing\ARC_GEN_EQU_CAS_WING_03_NON_STAND.anim,4,1,1,0,0,0,0,0,0,0,0,1
23,FISHFIGHTING,1,Item\Armor\Wing\ARC_GEN_EQU_CAS_WING_03_NON_STAND.anim,4,1,1,0,0,0,0,0,0,0,0,1
