2006-08-24 18:16,MapIndex,RespawnMap,StageCount,StageIndex_1,LocationX_1,LocationY_1,StageIndex_2,LocationX_2,LocationY_2,StageIndex_3,LocationX_3,LocationY_3,StageIndex_4,LocationX_4,LocationY_4,StageIndex_5,LocationX_5,LocationY_5,StageIndex_6,LocationX_6,LocationY_6,StageIndex_7,LocationX_7,LocationY_7,StageIndex_8,LocationX_8,LocationY_8,StageIndex_9,LocationX_9,LocationY_9,StageIndex_10,LocationX_10,LocationY_10
101,49,49,9,10,464,479,11,464,479,12,464,479,13,464,479,14,464,479,15,115,217,16,115,217,17,272,72,18,272,72,,,
102,52,51,1,0,260,348,,,,,,,,,,,,,,,,,,,,,,,,,,,
103,53,51,1,0,260,348,,,,,,,,,,,,,,,,,,,,,,,,,,,
104,54,51,1,0,260,348,,,,,,,,,,,,,,,,,,,,,,,,,,,
105,55,51,1,0,260,348,,,,,,,,,,,,,,,,,,,,,,,,,,,
