12/12/2011 15:23,From_LocationIndex,Rect_X,Rect_Y,To_LocationIndex,Seige,Dengeon
1003,1003,11,8,1004,0,0
1005,1005,3,3,1006,0,0
1007,1007,4,4,1008,0,0
1025,1025,3,7,1026,0,0
1035,1035,9,10,1036,0,0
1039,1039,4,5,1040,0,0
1041,1041,10,5,1042,0,0
1043,1043,4,3,1044,0,0
1045,1045,9,7,1046,0,0
1048,1048,0,0,1048,0,0
1049,1049,3,2,1050,0,0
1069,1069,6,6,1070,0,0
1071,1071,4,2,1072,0,0
1075,1075,2,5,1076,0,0
1077,1077,4,6,1078,0,0
1079,1079,4,2,1080,0,0
1082,1082,0,0,1082,0,0
1083,1083,0,0,1083,0,0
1084,1084,0,0,1084,0,0
1089,1089,2,2,1090,0,0
1091,1091,4,2,1092,0,0
1135,1135,6,6,1136,0,0
1137,1137,1,1,1138,0,0
1139,1139,1,1,1140,0,0
1141,1141,1,1,1142,0,0
1143,1143,1,1,1144,0,0
1145,1145,1,1,1146,0,0
1147,1147,1,1,1148,0,0
1149,1149,1,1,1150,0,0
1151,1151,1,1,1152,0,0
1153,1153,1,1,1154,0,0
1155,1155,1,1,1156,0,0
1157,1157,4,4,1158,0,0
1159,1159,1,1,1160,0,0
1161,1161,1,1,1162,0,0
1163,1163,1,1,1164,0,0
1165,1165,1,1,1166,0,0
1167,1167,3,4,1168,0,0
1169,1169,1,1,1170,0,0
1171,1171,1,1,1172,0,0
1173,1173,1,1,1174,0,0
1175,1175,2,4,1176,0,0
1176,1175,2,4,1176,0,0
10000,10000,1,1,10001,0,0
20000,20000,1,1,20001,0,0
11000,11000,1,1,11001,0,0
11002,11002,1,1,11003,0,0
11004,11004,1,1,11005,0,0
11006,11006,1,1,11007,0,0
11008,11008,1,1,11009,0,0
11010,11010,1,1,11011,0,0
11012,11012,1,1,11013,0,0
11014,11014,1,1,11015,0,0
11016,11016,1,1,11017,0,0
11018,11018,1,1,11019,0,0
11020,11020,1,1,11021,0,0
11022,11022,1,1,11023,0,0
11024,11024,1,1,11025,0,0
11026,11026,1,1,11027,0,0
11028,11028,1,1,11029,0,0
11030,11030,1,1,11031,0,0
11032,11032,1,1,11033,0,0
11034,11034,1,1,11035,0,0
11036,11036,1,1,11037,0,0
11040,11040,1,1,11041,0,0
11042,11042,1,1,11043,0,0
11050,11050,3,3,11051,1,0
11052,11052,3,3,11053,1,0
11054,11054,3,3,11055,1,0
11056,11056,3,3,11057,1,0
11058,11058,3,3,11059,1,0
11060,11060,3,3,11061,1,0
11062,11062,3,3,11063,1,0
11064,11064,3,3,11065,1,0
11066,11066,3,3,11067,1,0
11068,11068,3,3,11069,1,0
11076,11076,3,3,11077,1,0
11078,11078,3,3,11079,1,0
11080,11080,3,4,11081,1,0
11082,11082,3,3,11083,1,0
11084,11084,3,4,11085,0,1
11086,11086,3,4,11087,0,1
11088,11088,3,4,11089,0,1
11090,11090,4,3,11091,0,1
11092,11092,3,4,11093,0,1
11094,11094,3,4,11095,0,1
11096,11096,3,4,11097,0,1
11098,11098,3,4,11099,0,1
11100,11100,4,3,11101,0,1
11102,11102,3,4,11103,0,1
11104,11104,3,4,11105,0,1
11106,11106,3,4,11107,0,1
11108,11108,3,4,11109,0,1
11110,11110,4,3,11111,0,1
11112,11112,3,4,11113,0,1
11114,11114,2,2,11115,0,1
11116,11116,2,2,11117,0,1
11118,11118,2,2,11119,0,1
11120,11120,4,6,11121,0,0
11122,11122,4,5,11123,0,0
11124,11124,5,4,11125,0,0
11126,11126,5,4,11127,0,0
11128,11128,5,4,11129,0,0
11130,11130,5,4,11131,0,0
11132,11132,5,4,11133,0,0
11134,11134,5,4,11135,0,0
11136,11136,3,4,11137,0,0
11138,11138,3,4,11139,0,0
11140,11140,3,4,11141,0,0
11142,11142,3,4,11143,0,0
11144,11144,3,4,11145,0,0
11146,11146,3,4,11147,0,0
11149,11149,0,0,11149,0,0
11150,11150,3,3,11151,0,0
11152,11152,1,1,11153,0,0
11154,11154,1,1,11155,0,0
11156,11156,4,4,11157,0,0
11158,11158,1,1,11159,0,0
11160,11160,2,2,11161,0,0
11162,11162,2,2,11163,0,0
11164,11164,2,2,11165,0,0
11166,11166,2,2,11167,0,0
11168,11168,2,2,11169,0,0
11170,11170,2,2,11171,0,0
11172,11172,2,2,11173,0,0
11174,11174,3,3,11175,0,0
11176,11176,2,4,11177,0,0
11178,11178,5,5,11179,0,1
11184,11184,0,0,11185,0,0
11186,11186,0,0,11187,0,0
11188,11188,0,0,11189,0,0
11190,11190,0,0,11191,0,0
11192,11192,4,4,11193,0,1
11194,11194,4,4,11195,0,1
11196,11196,4,4,11197,0,1
11198,11198,4,4,11199,0,1
11200,11200,0,0,11201,0,1
11202,11202,0,0,11203,0,1
11204,11204,5,4,11205,0,0
11207,11206,3,4,11207,0,0
11209,11208,1,1,11209,0,0
11211,11210,1,1,11211,0,0
11212,11211,0,0,11212,0,0
11213,11212,1,1,11213,0,0
11214,11213,0,0,11214,0,0
11215,11214,1,1,11215,0,0
11216,11215,0,0,11216,0,0
11218,11218,1,1,11219,0,0
11220,11220,10,12,11221,0,0
11222,11222,0,0,11223,0,0
11224,11224,5,5,11225,0,0
11227,11226,0,0,11227,0,1
11229,11228,0,0,11229,0,0
11241,11240,0,0,11241,0,0
11243,11242,0,0,11243,0,0
11253,11252,0,0,11253,0,0
11255,11254,0,0,11255,0,0
11257,11256,0,0,11257,0,0
11259,11258,0,0,11259,0,0
11261,11260,0,0,11261,0,0
11263,11262,0,0,11263,0,0
11285,11284,0,0,11285,0,0
11287,11286,0,0,11287,0,0
11289,11288,0,0,11289,0,0
11291,11290,0,0,11291,0,0
11293,11292,0,0,11293,0,0
11295,11294,0,0,11295,0,0
11297,11296,5,4,11297,0,0
11299,11298,5,4,11299,0,0
11301,11300,5,4,11301,0,0
11303,11302,5,4,11303,0,0
11305,11304,5,4,11305,0,0
11307,11306,5,4,11307,0,0
11309,11308,5,4,11309,0,0
11311,11310,3,4,11311,0,0
11313,11312,3,4,11313,0,0
11315,11314,3,4,11315,0,0
11317,11316,3,4,11317,0,0
11319,11318,3,4,11319,0,0
11321,11320,3,4,11321,0,0
11323,11322,3,4,11323,0,0
11325,11324,1,1,11325,0,1
11327,11326,1,1,11327,0,1
11329,11328,1,1,11329,0,1
11331,11330,1,1,11331,0,1
11333,11332,1,1,11333,0,1
11335,11334,1,1,11335,0,1
11337,11336,1,1,11337,0,1
11339,11338,1,1,11339,0,1
11341,11340,1,1,11341,0,1
11343,11342,1,1,11343,0,1
11345,11344,1,1,11345,0,1
11347,11346,1,1,11347,0,1
11349,11348,1,1,11349,0,1
11351,11350,1,1,11351,0,1
11353,11352,1,1,11353,0,1
11355,11354,1,1,11355,0,1
11357,11356,1,1,11357,0,1
11359,11358,1,1,11359,0,1
11361,11360,1,1,11361,0,1
11363,11362,1,1,11363,0,1
11365,11364,1,1,11365,0,1
11367,11366,1,1,11367,0,1
11369,11368,1,1,11369,0,1
11371,11370,1,1,11371,0,1
11377,11376,0,0,11377,0,0
11379,11378,0,0,11379,0,0
11381,11380,0,0,11381,0,0
11383,11382,0,0,11383,0,0
11385,11384,0,0,11385,0,0
11387,11386,0,0,11387,0,0
11389,11388,0,0,11389,0,0
11391,11390,0,0,11391,0,0
11393,11392,5,5,11393,0,0
11395,11394,5,5,11395,0,0
11397,11396,3,3,11397,0,1
11399,11398,3,3,11399,0,1
11401,11400,1,1,11401,0,1
11403,11402,1,1,11403,0,1
11405,11404,1,1,11405,0,1
11407,11406,1,1,11407,0,1
11409,11408,1,1,11409,0,1
11411,11410,1,1,11411,0,1
11412,11412,3,6,11413,0,1
11413,11414,3,6,11415,0,1
11416,11416,1,1,11417,0,1
11418,11418,1,1,11419,0,1
11420,11420,1,1,11421,0,1
11422,11422,1,1,11423,0,1
11424,11424,1,1,11425,0,1
11426,11426,1,1,11427,0,1
11428,11428,1,1,11429,0,1
11430,11430,1,1,11431,0,1
11432,11432,1,1,11433,0,1
11434,11434,1,1,11435,0,1
11436,11436,1,1,11437,0,1
11438,11438,1,1,11439,0,1
11440,11440,1,1,11441,0,1
11442,11442,1,1,11443,0,1
11444,11444,1,1,11445,0,1
11446,11446,1,1,11447,0,1
11448,11448,1,1,11449,0,1
11450,11450,1,1,11451,0,1
11452,11452,1,1,11453,0,1
11454,11454,1,1,11455,0,1
11456,11456,1,1,11457,0,1
11458,11458,1,1,11459,0,1
11460,11460,1,1,11461,0,1
11462,11462,1,1,11463,0,1
11463,11464,7,2,11465,0,1
11464,11466,6,2,11467,0,1
11465,11468,6,3,11469,0,1
11505,11505,1,1,11506,0,0
11507,11507,6,3,11508,0,0
11509,11509,8,1,11510,0,1
11511,11511,8,1,11512,0,1
11513,11513,2,2,11514,0,0
11515,11515,2,2,11516,0,0
11517,11517,5,10,11520,0,0
11519,11519,8,2,11518,0,0
11521,11521,1,8,11522,0,0
11523,11523,1,15,11524,0,0
11525,11525,1,15,11528,0,0
11527,11527,1,9,11526,0,0
11529,11529,0,0,11530,0,0
11531,11531,1,9,11532,0,0
11534,11534,5,4,11535,0,0
11536,11536,3,4,11537,0,0
11538,11538,5,4,11539,0,0
11540,11540,3,4,11541,0,0
11542,11542,1,5,11545,0,0
11543,11543,1,5,11544,0,0
11549,11549,7,8,11550,0,0
11551,11551,7,8,11552,0,0
11553,11553,4,3,11554,0,0
11555,11555,4,3,11556,0,0
11558,11558,7,8,11559,0,0
11560,11560,7,8,11561,0,0
11562,11562,4,3,11563,0,0
11564,11564,4,3,11565,0,0
11566,11566,7,8,11567,0,0
11568,11568,7,8,11569,0,0
11570,11570,4,3,11571,0,0
11572,11572,4,3,11573,0,0
11574,11574,7,8,11575,0,0
11576,11576,7,8,11577,0,0
11578,11578,4,3,11579,0,0
11580,11580,4,3,11581,0,0
11582,11582,7,8,11583,0,0
11584,11584,7,8,11585,0,0
11586,11586,4,3,11587,0,0
11588,11588,4,3,11589,0,0
11590,11590,7,8,11591,0,0
11592,11592,7,8,11593,0,0
11594,11594,4,3,11595,0,0
11596,11596,4,3,11597,0,0
11598,11598,7,8,11599,0,0
11600,11600,7,8,11601,0,0
11602,11602,4,3,11603,0,0
11604,11604,4,3,11605,0,0
11606,11606,7,8,11607,0,0
11608,11608,7,8,11609,0,0
11610,11610,4,3,11611,0,0
11612,11612,4,3,11613,0,0
11614,11614,2,7,11615,0,0
11616,11616,2,15,11617,0,0
11618,11618,0,0,11619,0,1
11620,11620,0,0,11621,0,1
11622,11622,0,0,11623,0,1
11624,11624,0,0,11625,0,1
11626,11626,0,0,11627,0,1
11628,11628,0,0,11629,0,1
11630,11630,0,0,11631,0,1
11632,11632,0,0,11633,0,1
11634,11634,0,0,11635,0,1
11636,11636,2,4,11637,0,1
11638,11638,2,3,11639,0,1
11648,11648,9,6,11649,0,1
11650,11650,8,4,11651,0,1
