Skill,,,,,,,,,,,,,,,,,,,,,,,,
Index,2103,,,,,,,,,,,,,,,,,,,,,,,
MaxLevel,10,,,,,,,,,,,,,,,,,,,,,,,
MaxStyleCode,1,,,,,,,,,,,,,,,,,,,,,,,
Name,-,,,,,,,,,,,,,,,,,,,,,,,
Distance,5,,,,,,,,,,,,,,,,,,,,,,,
TypeFlag,ACTION,,,,,,,,,,,,,,,,,,,,,,,
PCClassFlag,HWA,,,,,,,,,,,,,,,,,,,,,,,
Target,4,,,,,,,,,,,,,,,,,,,,,,,
AvailFlag,1,,,,,,,,,,,,,,,,,,,,,,,
IconIndex,2103,,,,,,,,,,,,,,,,,,,,,,,
IconPosX,2,,,,,,,,,,,,,,,,,,,,,,,
IconPosY,4,,,,,,,,,,,,,,,,,,,,,,,
IconTabIndex,2,,,,,,,,,,,,,,,,,,,,,,,
Description,-,,,,,,,,,,,,,,,,,,,,,,,
ActionType,PREPARE,,,,,,,,,,,,,,,,,,,,,,,
ReadyActionStyle,0,,,,,,,,,,,,,,,,,,,,,,,
ReadyActionIndex,0,,,,,,,,,,,,,,,,,,,,,,,
ReadyActionTimeTick,0,,,,,,,,,,,,,,,,,,,,,,,
ReadyEffectID,0,,,,,,,,,,,,,,,,,,,,,,,
ReadySceneID,0,,,,,,,,,,,,,,,,,,,,,,,
ReadyEffectTime,0,,,,,,,,,,,,,,,,,,,,,,,
ChargeActionStyle,0,,,,,,,,,,,,,,,,,,,,,,,
ChargeActionIndex,0,,,,,,,,,,,,,,,,,,,,,,,
ChargeActionTimeTick,0,,,,,,,,,,,,,,,,,,,,,,,
ChargeEffectID,0,,,,,,,,,,,,,,,,,,,,,,,
ChargeSceneID,0, ,,,,,,,,,,,,,,,,,,,,,,
ChargeEffectTime,0,,,,,,,,,,,,,,,,,,,,,,,
AwakeningCheck,0,,,,,,,,,,,,,,,,,,,,,,,
NeedType,0,,,,,,,,,,,,,,,,,,,,,,,
NeedIndex,0,,,,,,,,,,,,,,,,,,,,,,,
,,,,,,,,,,,,,,,,,,,,,,,,
Combo,,,,,,,,,,,,,,,,,Style,,,,,,,
ComboIndex,ActionType,Style,ActionIndex,TimeTick,EffectID,SceneID,EffectTime,AggroCode,PCDamageRate,ResultCode,Arg1,Arg2,Arg3,Arg4,Arg5,Arg6,Arg7,Arg8,Defeat,ResultEffectID,ResultSceneID,ResultEffectTime,StyleCodeIndex,StyleCode
0,ACTION,0,0,0,0,0,0,0,0,0,0,0,0,0,0,0,0,0,0,0,0,0,0,KATAR
1,NO_CANCEL,255,60,700,1374,1,3500,0,40,1000101,0,0,76,5,14800,3000,0,0,0,1375,1,500,1,
2,NO_CANCEL,255,61,500,0,0,0,0,40,1000101,0,0,229,8,14800,3000,0,0,0,1375,1,500,2,
3,NO_CANCEL,255,62,400,0,0,0,0,40,1000101,0,0,382,11,14800,3000,0,0,0,1375,1,500,3,
4,NO_CANCEL,255,63,400,0,0,0,0,40,1000101,0,0,535,14,14800,3000,0,0,0,1375,1,500,4,
5,NO_CANCEL,255,64,300,0,0,0,0,40,1000101,0,0,688,17,14800,3000,0,0,0,1375,1,500,5,
6,NO_CANCEL,255,65,300,0,0,0,0,40,1000101,0,0,842,20,14800,3000,0,0,0,1375,1,500,6,
7,NO_CANCEL,255,66,700,0,0,0,0,40,1000101,0,0,842,23,14800,3000,0,0,0,1375,1,500,7,
8,ACTION,0,0,0,0,0,0,0,0,0,0,0,0,0,0,0,0,0,0,0,0,0,8,
9,ACTION,0,0,0,0,0,0,0,0,0,0,0,0,0,0,0,0,0,0,0,0,0,9,
10,ACTION,0,0,0,0,0,0,0,0,0,0,0,0,0,0,0,0,0,0,0,0,0,10,
11,NO_CANCEL,255,60,700,1374,1,3500,0,40,1000101,0,0,132,10,14801,3000,0,0,0,1375,1,500,11,
12,NO_CANCEL,255,61,500,0,0,0,0,40,1000101,0,0,314,13,14801,3000,0,0,0,1375,1,500,12,
13,NO_CANCEL,255,62,400,0,0,0,0,40,1000101,0,0,496,16,14801,3000,0,0,0,1375,1,500,13,
14,NO_CANCEL,255,63,400,0,0,0,0,40,1000101,0,0,678,19,14801,3000,0,0,0,1375,1,500,14,
15,NO_CANCEL,255,64,300,0,0,0,0,40,1000101,0,0,860,22,14801,3000,0,0,0,1375,1,500,15,
16,NO_CANCEL,255,65,300,0,0,0,0,40,1000101,0,0,1042,25,14801,3000,0,0,0,1375,1,500,16,
17,NO_CANCEL,255,66,700,0,0,0,0,40,1000101,0,0,1042,28,14801,3000,0,0,0,1375,1,500,17,
18,ACTION,0,0,0,0,0,0,0,0,0,0,0,0,0,0,0,0,0,0,0,0,0,18,
19,ACTION,0,0,0,0,0,0,0,0,0,0,0,0,0,0,0,0,0,0,0,0,0,19,
20,ACTION,0,0,0,0,0,0,0,0,0,0,0,0,0,0,0,0,0,0,0,0,0,,
21,NO_CANCEL,255,60,700,1374,1,3500,0,40,1000101,0,0,195,15,14802,3000,0,0,0,1375,1,500,,
22,NO_CANCEL,255,61,500,0,0,0,0,40,1000101,0,0,409,18,14802,3000,0,0,0,1375,1,500,,
23,NO_CANCEL,255,62,400,0,0,0,0,40,1000101,0,0,622,21,14802,3000,0,0,0,1375,1,500,,
24,NO_CANCEL,255,63,400,0,0,0,0,40,1000101,0,0,836,24,14802,3000,0,0,0,1375,1,500,,
25,NO_CANCEL,255,64,300,0,0,0,0,40,1000101,0,0,1049,27,14802,3000,0,0,0,1375,1,500,,
26,NO_CANCEL,255,65,300,0,0,0,0,40,1000101,0,0,1263,30,14802,3000,0,0,0,1375,1,500,,
27,NO_CANCEL,255,66,700,0,0,0,0,40,1000101,0,0,1263,33,14802,3000,0,0,0,1375,1,500,,
28,ACTION,0,0,0,0,0,0,0,0,0,0,0,0,0,0,0,0,0,0,0,0,0,,
29,ACTION,0,0,0,0,0,0,0,0,0,0,0,0,0,0,0,0,0,0,0,0,0,,
30,ACTION,0,0,0,0,0,0,0,0,0,0,0,0,0,0,0,0,0,0,0,0,0,,
31,NO_CANCEL,255,60,700,1374,1,3500,0,40,1000101,0,0,266,20,14803,3000,0,0,0,1375,1,500,,
32,NO_CANCEL,255,61,500,0,0,0,0,40,1000101,0,0,514,23,14803,3000,0,0,0,1375,1,500,,
33,NO_CANCEL,255,62,400,0,0,0,0,40,1000101,0,0,762,26,14803,3000,0,0,0,1375,1,500,,
34,NO_CANCEL,255,63,400,0,0,0,0,40,1000101,0,0,1010,29,14803,3000,0,0,0,1375,1,500,,
35,NO_CANCEL,255,64,300,0,0,0,0,40,1000101,0,0,1257,32,14803,3000,0,0,0,1375,1,500,,
36,NO_CANCEL,255,65,300,0,0,0,0,40,1000101,0,0,1505,35,14803,3000,0,0,0,1375,1,500,,
37,NO_CANCEL,255,66,700,0,0,0,0,40,1000101,0,0,1505,38,14803,3000,0,0,0,1375,1,500,,
38,ACTION,0,0,0,0,0,0,0,0,0,0,0,0,0,0,0,0,0,0,0,0,0,,
39,ACTION,0,0,0,0,0,0,0,0,0,0,0,0,0,0,0,0,0,0,0,0,0,,
40,ACTION,0,0,0,0,0,0,0,0,0,0,0,0,0,0,0,0,0,0,0,0,0,,
41,NO_CANCEL,255,60,700,1374,1,3500,0,40,1000101,0,0,346,25,14804,3000,0,0,0,1375,1,500,,
42,NO_CANCEL,255,61,500,0,0,0,0,40,1000101,0,0,631,28,14804,3000,0,0,0,1375,1,500,,
43,NO_CANCEL,255,62,400,0,0,0,0,40,1000101,0,0,916,31,14804,3000,0,0,0,1375,1,500,,
44,NO_CANCEL,255,63,400,0,0,0,0,40,1000101,0,0,1201,34,14804,3000,0,0,0,1375,1,500,,
45,NO_CANCEL,255,64,300,0,0,0,0,40,1000101,0,0,1486,37,14804,3000,0,0,0,1375,1,500,,
46,NO_CANCEL,255,65,300,0,0,0,0,40,1000101,0,0,1771,40,14804,3000,0,0,0,1375,1,500,,
47,NO_CANCEL,255,66,700,0,0,0,0,40,1000101,0,0,1771,43,14804,3000,0,0,0,1375,1,500,,
48,ACTION,0,0,0,0,0,0,0,0,0,0,0,0,0,0,0,0,0,0,0,0,0,,
49,ACTION,0,0,0,0,0,0,0,0,0,0,0,0,0,0,0,0,0,0,0,0,0,,
50,ACTION,0,0,0,0,0,0,0,0,0,0,0,0,0,0,0,0,0,0,0,0,0,,
51,NO_CANCEL,255,60,700,1374,1,3500,0,40,1000101,0,0,432,30,14805,3000,0,0,0,1375,1,500,,
52,NO_CANCEL,255,61,500,0,0,0,0,40,1000101,0,0,757,33,14805,3000,0,0,0,1375,1,500,,
53,NO_CANCEL,255,62,400,0,0,0,0,40,1000101,0,0,1082,36,14805,3000,0,0,0,1375,1,500,,
54,NO_CANCEL,255,63,400,0,0,0,0,40,1000101,0,0,1406,39,14805,3000,0,0,0,1375,1,500,,
55,NO_CANCEL,255,64,300,0,0,0,0,40,1000101,0,0,1731,42,14805,3000,0,0,0,1375,1,500,,
56,NO_CANCEL,255,65,300,0,0,0,0,40,1000101,0,0,2055,45,14805,3000,0,0,0,1375,1,500,,
57,NO_CANCEL,255,66,700,0,0,0,0,40,1000101,0,0,2055,48,14805,3000,0,0,0,1375,1,500,,
58,ACTION,0,0,0,0,0,0,0,0,0,0,0,0,0,0,0,0,0,0,0,0,0,,
59,ACTION,0,0,0,0,0,0,0,0,0,0,0,0,0,0,0,0,0,0,0,0,0,,
60,ACTION,0,0,0,0,0,0,0,0,0,0,0,0,0,0,0,0,0,0,0,0,0,,
61,NO_CANCEL,255,60,700,1374,1,3500,0,40,1000101,0,0,528,35,14806,3000,0,0,0,1375,1,500,,
62,NO_CANCEL,255,61,500,0,0,0,0,40,1000101,0,0,895,38,14806,3000,0,0,0,1375,1,500,,
63,NO_CANCEL,255,62,400,0,0,0,0,40,1000101,0,0,1262,41,14806,3000,0,0,0,1375,1,500,,
64,NO_CANCEL,255,63,400,0,0,0,0,40,1000101,0,0,1630,44,14806,3000,0,0,0,1375,1,500,,
65,NO_CANCEL,255,64,300,0,0,0,0,40,1000101,0,0,1997,47,14806,3000,0,0,0,1375,1,500,,
66,NO_CANCEL,255,65,300,0,0,0,0,40,1000101,0,0,2364,50,14806,3000,0,0,0,1375,1,500,,
67,NO_CANCEL,255,66,700,0,0,0,0,40,1000101,0,0,2364,53,14806,3000,0,0,0,1375,1,500,,
68,ACTION,0,0,0,0,0,0,0,0,0,0,0,0,0,0,0,0,0,0,0,0,0,,
69,ACTION,0,0,0,0,0,0,0,0,0,0,0,0,0,0,0,0,0,0,0,0,0,,
70,ACTION,0,0,0,0,0,0,0,0,0,0,0,0,0,0,0,0,0,0,0,0,0,,
71,NO_CANCEL,255,60,700,1374,1,3500,0,40,1000101,0,0,631,40,14807,3000,0,0,0,1375,1,500,,
72,NO_CANCEL,255,61,500,0,0,0,0,40,1000101,0,0,1044,43,14807,3000,0,0,0,1375,1,500,,
73,NO_CANCEL,255,62,400,0,0,0,0,40,1000101,0,0,1457,46,14807,3000,0,0,0,1375,1,500,,
74,NO_CANCEL,255,63,400,0,0,0,0,40,1000101,0,0,1870,49,14807,3000,0,0,0,1375,1,500,,
75,NO_CANCEL,255,64,300,0,0,0,0,40,1000101,0,0,2283,52,14807,3000,0,0,0,1375,1,500,,
76,NO_CANCEL,255,65,300,0,0,0,0,40,1000101,0,0,2696,55,14807,3000,0,0,0,1375,1,500,,
77,NO_CANCEL,255,66,700,0,0,0,0,40,1000101,0,0,2696,58,14807,3000,0,0,0,1375,1,500,,
78,ACTION,0,0,0,0,0,0,0,0,0,0,0,0,0,0,0,0,0,0,0,0,0,,
79,ACTION,0,0,0,0,0,0,0,0,0,0,0,0,0,0,0,0,0,0,0,0,0,,
80,ACTION,0,0,0,0,0,0,0,0,0,0,0,0,0,0,0,0,0,0,0,0,0,,
81,NO_CANCEL,255,60,700,1374,1,3500,0,40,1000101,0,0,743,45,14808,3000,0,0,0,1375,1,500,,
82,NO_CANCEL,255,61,500,0,0,0,0,40,1000101,0,0,1205,48,14808,3000,0,0,0,1375,1,500,,
83,NO_CANCEL,255,62,400,0,0,0,0,40,1000101,0,0,1667,51,14808,3000,0,0,0,1375,1,500,,
84,NO_CANCEL,255,63,400,0,0,0,0,40,1000101,0,0,2128,54,14808,3000,0,0,0,1375,1,500,,
85,NO_CANCEL,255,64,300,0,0,0,0,40,1000101,0,0,2590,57,14808,3000,0,0,0,1375,1,500,,
86,NO_CANCEL,255,65,300,0,0,0,0,40,1000101,0,0,3052,60,14808,3000,0,0,0,1375,1,500,,
87,NO_CANCEL,255,66,700,0,0,0,0,40,1000101,0,0,3052,63,14808,3000,0,0,0,1375,1,500,,
88,ACTION,0,0,0,0,0,0,0,0,0,0,0,0,0,0,0,0,0,0,0,0,0,,
89,ACTION,0,0,0,0,0,0,0,0,0,0,0,0,0,0,0,0,0,0,0,0,0,,
90,ACTION,0,0,0,0,0,0,0,0,0,0,0,0,0,0,0,0,0,0,0,0,0,,
91,NO_CANCEL,255,60,700,1374,1,3500,0,40,1000101,0,0,864,50,14809,3000,0,0,0,1375,1,500,,
92,NO_CANCEL,255,61,500,0,0,0,0,40,1000101,0,0,1378,53,14809,3000,0,0,0,1375,1,500,,
93,NO_CANCEL,255,62,400,0,0,0,0,40,1000101,0,0,1892,56,14809,3000,0,0,0,1375,1,500,,
94,NO_CANCEL,255,63,400,0,0,0,0,40,1000101,0,0,2405,59,14809,3000,0,0,0,1375,1,500,,
95,NO_CANCEL,255,64,300,0,0,0,0,40,1000101,0,0,2919,62,14809,3000,0,0,0,1375,1,500,,
96,NO_CANCEL,255,65,300,0,0,0,0,40,1000101,0,0,3432,65,14809,3000,0,0,0,1375,1,500,,
97,NO_CANCEL,255,66,700,0,0,0,0,40,1000101,0,0,3432,68,14809,3000,0,0,0,1375,1,500,,
98,ACTION,0,0,0,0,0,0,0,0,0,0,0,0,0,0,0,0,0,0,0,0,0,,
99,ACTION,0,0,0,0,0,0,0,0,0,0,0,0,0,0,0,0,0,0,0,0,0,,
100,ACTION,0,0,0,0,0,0,0,0,0,0,0,0,0,0,0,0,0,0,0,0,0,,
101,NO_CANCEL,255,60,700,1374,1,3500,0,40,1000101,0,0,1002,50,14810,3000,0,0,0,1375,1,500,,
102,NO_CANCEL,255,61,500,0,0,0,0,40,1000101,0,0,1575,53,14810,3000,0,0,0,1375,1,500,,
103,NO_CANCEL,255,62,400,0,0,0,0,40,1000101,0,0,2148,56,14810,3000,0,0,0,1375,1,500,,
104,NO_CANCEL,255,63,400,0,0,0,0,40,1000101,0,0,2721,59,14810,3000,0,0,0,1375,1,500,,
105,NO_CANCEL,255,64,300,0,0,0,0,40,1000101,0,0,3294,62,14810,3000,0,0,0,1375,1,500,,
106,NO_CANCEL,255,65,300,0,0,0,0,40,1000101,0,0,3867,65,14810,3000,0,0,0,1375,1,500,,
107,NO_CANCEL,255,66,700,0,0,0,0,40,1000101,0,0,3867,68,14810,3000,0,0,0,1375,1,500,,
108,ACTION,0,0,0,0,0,0,0,0,0,0,0,0,0,0,0,0,0,0,0,0,0,,
109,ACTION,0,0,0,0,0,0,0,0,0,0,0,0,0,0,0,0,0,0,0,0,0,,
110,ACTION,0,0,0,0,0,0,0,0,0,0,0,0,0,0,0,0,0,0,0,0,0,,
111,NO_CANCEL,255,60,700,1374,1,3500,0,40,1000101,0,0,1151,50,14811,3000,0,0,0,1375,1,500,,
112,NO_CANCEL,255,61,500,0,0,0,0,40,1000101,0,0,1787,53,14811,3000,0,0,0,1375,1,500,,
113,NO_CANCEL,255,62,400,0,0,0,0,40,1000101,0,0,2424,56,14811,3000,0,0,0,1375,1,500,,
114,NO_CANCEL,255,63,400,0,0,0,0,40,1000101,0,0,3060,59,14811,3000,0,0,0,1375,1,500,,
115,NO_CANCEL,255,64,300,0,0,0,0,40,1000101,0,0,3696,62,14811,3000,0,0,0,1375,1,500,,
116,NO_CANCEL,255,65,300,0,0,0,0,40,1000101,0,0,4332,65,14811,3000,0,0,0,1375,1,500,,
117,NO_CANCEL,255,66,700,0,0,0,0,40,1000101,0,0,4332,68,14811,3000,0,0,0,1375,1,500,,
118,ACTION,0,0,0,0,0,0,0,0,0,0,0,0,0,0,0,0,0,0,0,0,0,,
119,ACTION,0,0,0,0,0,0,0,0,0,0,0,0,0,0,0,0,0,0,0,0,0,,
120,ACTION,0,0,0,0,0,0,0,0,0,0,0,0,0,0,0,0,0,0,0,0,0,,
121,NO_CANCEL,255,60,700,1374,1,3500,0,40,1000101,0,0,1310,50,14812,3000,0,0,0,1375,1,500,,
122,NO_CANCEL,255,61,500,0,0,0,0,40,1000101,0,0,2013,53,14812,3000,0,0,0,1375,1,500,,
123,NO_CANCEL,255,62,400,0,0,0,0,40,1000101,0,0,2716,56,14812,3000,0,0,0,1375,1,500,,
124,NO_CANCEL,255,63,400,0,0,0,0,40,1000101,0,0,3419,59,14812,3000,0,0,0,1375,1,500,,
125,NO_CANCEL,255,64,300,0,0,0,0,40,1000101,0,0,4122,62,14812,3000,0,0,0,1375,1,500,,
126,NO_CANCEL,255,65,300,0,0,0,0,40,1000101,0,0,4825,65,14812,3000,0,0,0,1375,1,500,,
127,NO_CANCEL,255,66,700,0,0,0,0,40,1000101,0,0,4825,68,14812,3000,0,0,0,1375,1,500,,
128,ACTION,0,0,0,0,0,0,0,0,0,0,0,0,0,0,0,0,0,0,0,0,0,,
129,ACTION,0,0,0,0,0,0,0,0,0,0,0,0,0,0,0,0,0,0,0,0,0,,
130,ACTION,0,0,0,0,0,0,0,0,0,0,0,0,0,0,0,0,0,0,0,0,0,,
131,NO_CANCEL,255,60,700,1374,1,3500,0,40,1000101,0,0,1481,50,14813,3000,0,0,0,1375,1,500,,
132,NO_CANCEL,255,61,500,0,0,0,0,40,1000101,0,0,2255,53,14813,3000,0,0,0,1375,1,500,,
133,NO_CANCEL,255,62,400,0,0,0,0,40,1000101,0,0,3029,56,14813,3000,0,0,0,1375,1,500,,
134,NO_CANCEL,255,63,400,0,0,0,0,40,1000101,0,0,3803,59,14813,3000,0,0,0,1375,1,500,,
135,NO_CANCEL,255,64,300,0,0,0,0,40,1000101,0,0,4577,62,14813,3000,0,0,0,1375,1,500,,
136,NO_CANCEL,255,65,300,0,0,0,0,40,1000101,0,0,5351,65,14813,3000,0,0,0,1375,1,500,,
137,NO_CANCEL,255,66,700,0,0,0,0,40,1000101,0,0,5351,68,14813,3000,0,0,0,1375,1,500,,
138,ACTION,0,0,0,0,0,0,0,0,0,0,0,0,0,0,0,0,0,0,0,0,0,,
139,ACTION,0,0,0,0,0,0,0,0,0,0,0,0,0,0,0,0,0,0,0,0,0,,
140,ACTION,0,0,0,0,0,0,0,0,0,0,0,0,0,0,0,0,0,0,0,0,0,,
141,NO_CANCEL,255,60,700,1374,1,3500,0,40,1000101,0,0,1663,50,14814,3000,0,0,0,1375,1,500,,
142,NO_CANCEL,255,61,500,0,0,0,0,40,1000101,0,0,2512,53,14814,3000,0,0,0,1375,1,500,,
143,NO_CANCEL,255,62,400,0,0,0,0,40,1000101,0,0,3362,56,14814,3000,0,0,0,1375,1,500,,
144,NO_CANCEL,255,63,400,0,0,0,0,40,1000101,0,0,4211,59,14814,3000,0,0,0,1375,1,500,,
145,NO_CANCEL,255,64,300,0,0,0,0,40,1000101,0,0,5060,62,14814,3000,0,0,0,1375,1,500,,
146,NO_CANCEL,255,65,300,0,0,0,0,40,1000101,0,0,5910,65,14814,3000,0,0,0,1375,1,500,,
147,NO_CANCEL,255,66,700,0,0,0,0,40,1000101,0,0,5910,68,14814,3000,0,0,0,1375,1,500,,
148,ACTION,0,0,0,0,0,0,0,0,0,0,0,0,0,0,0,0,0,0,0,0,0,,
149,ACTION,0,0,0,0,0,0,0,0,0,0,0,0,0,0,0,0,0,0,0,0,0,,
,,,,,,,,,,,,,,,,,,,,,,,,
,,,,,,,,,,,,,,,,,,,,,,,,
LevelIndex,SPCostLevelUp,PCLevel,Grade,ChoiceLimit,MaxOption,OptionIndex,OptionCode,OptionValue,MaxRequire,ReqIndex,Index,Level,CastTick,CoolTick,StartComboIndex,EndComboIndex,ResourceHP,ResourceMP,ResourceItemCode,ResourceItemCount,,,,
0,-,-,-,-,0,-,-,-,0,-,-,-,0,0,0,0,0,0,0,0,,,,
-,-,-,-,-,-,-,-,-,-,-,-,-,0,0,0,0,0,0,0,0,,,,
-,-,-,-,-,-,-,-,-,-,-,-,-,0,0,0,0,0,0,0,0,,,,
-,-,-,-,-,-,-,-,-,-,-,-,-,0,0,0,0,0,0,0,0,,,,
-,-,-,-,-,-,-,-,-,-,-,-,-,0,0,0,0,0,0,0,0,,,,
-,-,-,-,-,-,-,-,-,-,-,-,-,0,0,0,0,0,0,0,0,,,,
1,0,82,-,-,0,-,-,-,1,0,2102,1,0,15000,1,7,536,0,0,0,,,,
-,-,-,-,-,-,-,-,-,-,-,-,-,0,0,0,0,0,0,0,0,,,,
-,-,-,-,-,-,-,-,-,-,-,-,-,0,0,0,0,0,0,0,0,,,,
-,-,-,-,-,-,-,-,-,-,-,-,-,0,0,0,0,0,0,0,0,,,,
-,-,-,-,-,-,-,-,-,-,-,-,-,0,0,0,0,0,0,0,0,,,,
-,-,-,-,-,-,-,-,-,-,-,-,-,0,0,0,0,0,0,0,0,,,,
2,1,88,-,-,0,-,-,-,1,0,2102,1,0,15000,11,17,580,0,0,0,,,,
-,-,-,-,-,-,-,-,-,-,-,-,-,0,0,0,0,0,0,0,0,,,,
-,-,-,-,-,-,-,-,-,-,-,-,-,0,0,0,0,0,0,0,0,,,,
-,-,-,-,-,-,-,-,-,-,-,-,-,0,0,0,0,0,0,0,0,,,,
-,-,-,-,-,-,-,-,-,-,-,-,-,0,0,0,0,0,0,0,0,,,,
-,-,-,-,-,-,-,-,-,-,-,-,-,0,0,0,0,0,0,0,0,,,,
3,1,94,-,-,0,-,-,-,1,0,2102,1,0,15000,21,27,662,0,0,0,,,,
-,-,-,-,-,-,-,-,-,-,-,-,-,0,0,0,0,0,0,0,0,,,,
-,-,-,-,-,-,-,-,-,-,-,-,-,0,0,0,0,0,0,0,0,,,,
-,-,-,-,-,-,-,-,-,-,-,-,-,0,0,0,0,0,0,0,0,,,,
-,-,-,-,-,-,-,-,-,-,-,-,-,0,0,0,0,0,0,0,0,,,,
-,-,-,-,-,-,-,-,-,-,-,-,-,0,0,0,0,0,0,0,0,,,,
4,1,100,-,-,0,-,-,-,1,0,2102,1,0,15000,31,37,708,0,0,0,,,,
-,-,-,-,-,-,-,-,-,-,-,-,-,0,0,0,0,0,0,0,0,,,,
-,-,-,-,-,-,-,-,-,-,-,-,-,0,0,0,0,0,0,0,0,,,,
-,-,-,-,-,-,-,-,-,-,-,-,-,0,0,0,0,0,0,0,0,,,,
-,-,-,-,-,-,-,-,-,-,-,-,-,0,0,0,0,0,0,0,0,,,,
-,-,-,-,-,-,-,-,-,-,-,-,-,0,0,0,0,0,0,0,0,,,,
5,1,106,-,-,0,-,-,-,1,0,2102,1,0,15000,41,47,799,0,0,0,,,,
-,-,-,-,-,-,-,-,-,-,-,-,-,0,0,0,0,0,0,0,0,,,,
-,-,-,-,-,-,-,-,-,-,-,-,-,0,0,0,0,0,0,0,0,,,,
-,-,-,-,-,-,-,-,-,-,-,-,-,0,0,0,0,0,0,0,0,,,,
-,-,-,-,-,-,-,-,-,-,-,-,-,0,0,0,0,0,0,0,0,,,,
-,-,-,-,-,-,-,-,-,-,-,-,-,0,0,0,0,0,0,0,0,,,,
6,1,112,-,-,0,-,-,-,1,0,2102,1,0,15000,51,57,848,0,0,0,,,,
-,-,-,-,-,-,-,-,-,-,-,-,-,0,0,0,0,0,0,0,0,,,,
-,-,-,-,-,-,-,-,-,-,-,-,-,0,0,0,0,0,0,0,0,,,,
-,-,-,-,-,-,-,-,-,-,-,-,-,0,0,0,0,0,0,0,0,,,,
-,-,-,-,-,-,-,-,-,-,-,-,-,0,0,0,0,0,0,0,0,,,,
-,-,-,-,-,-,-,-,-,-,-,-,-,0,0,0,0,0,0,0,0,,,,
7,1,118,-,-,0,-,-,-,1,0,2102,1,0,15000,61,67,947,0,0,0,,,,
-,-,-,-,-,-,-,-,-,-,-,-,-,0,0,0,0,0,0,0,0,,,,
-,-,-,-,-,-,-,-,-,-,-,-,-,0,0,0,0,0,0,0,0,,,,
-,-,-,-,-,-,-,-,-,-,-,-,-,0,0,0,0,0,0,0,0,,,,
-,-,-,-,-,-,-,-,-,-,-,-,-,0,0,0,0,0,0,0,0,,,,
-,-,-,-,-,-,-,-,-,-,-,-,-,0,0,0,0,0,0,0,0,,,,
8,1,124,-,-,0,-,-,-,1,0,2102,1,0,15000,71,77,999,0,0,0,,,,
-,-,-,-,-,-,-,-,-,-,-,-,-,0,0,0,0,0,0,0,0,,,,
-,-,-,-,-,-,-,-,-,-,-,-,-,0,0,0,0,0,0,0,0,,,,
-,-,-,-,-,-,-,-,-,-,-,-,-,0,0,0,0,0,0,0,0,,,,
-,-,-,-,-,-,-,-,-,-,-,-,-,0,0,0,0,0,0,0,0,,,,
-,-,-,-,-,-,-,-,-,-,-,-,-,0,0,0,0,0,0,0,0,,,,
9,1,130,-,-,0,-,-,-,1,0,2102,1,0,15000,81,87,1050,0,0,0,,,,
-,-,-,-,-,-,-,-,-,-,-,-,-,0,0,0,0,0,0,0,0,,,,
-,-,-,-,-,-,-,-,-,-,-,-,-,0,0,0,0,0,0,0,0,,,,
-,-,-,-,-,-,-,-,-,-,-,-,-,0,0,0,0,0,0,0,0,,,,
-,-,-,-,-,-,-,-,-,-,-,-,-,0,0,0,0,0,0,0,0,,,,
-,-,-,-,-,-,-,-,-,-,-,-,-,0,0,0,0,0,0,0,0,,,,
10,1,136,-,-,0,-,-,-,1,0,2102,1,0,15000,91,97,1102,0,0,0,,,,
-,-,-,-,-,-,-,-,-,-,-,-,-,0,0,0,0,0,0,0,0,,,,
-,-,-,-,-,-,-,-,-,-,-,-,-,0,0,0,0,0,0,0,0,,,,
-,-,-,-,-,-,-,-,-,-,-,-,-,0,0,0,0,0,0,0,0,,,,
-,-,-,-,-,-,-,-,-,-,-,-,-,0,0,0,0,0,0,0,0,,,,
-,-,-,-,-,-,-,-,-,-,-,-,-,0,0,0,0,0,0,0,0,,,,
11,1,170,-,-,0,-,-,-,1,0,2082,15,0,15000,101,107,1329,0,0,0,,,,
-,-,-,-,-,-,-,-,-,-,-,-,-,0,0,0,0,0,0,0,0,,,,
-,-,-,-,-,-,-,-,-,-,-,-,-,0,0,0,0,0,0,0,0,,,,
-,-,-,-,-,-,-,-,-,-,-,-,-,0,0,0,0,0,0,0,0,,,,
-,-,-,-,-,-,-,-,-,-,-,-,-,0,0,0,0,0,0,0,0,,,,
-,-,-,-,-,-,-,-,-,-,-,-,-,0,0,0,0,0,0,0,0,,,,
12,1,170,-,-,0,-,-,-,1,0,2082,15,0,15000,111,117,1329,0,0,0,,,,
-,-,-,-,-,-,-,-,-,-,-,-,-,0,0,0,0,0,0,0,0,,,,
-,-,-,-,-,-,-,-,-,-,-,-,-,0,0,0,0,0,0,0,0,,,,
-,-,-,-,-,-,-,-,-,-,-,-,-,0,0,0,0,0,0,0,0,,,,
-,-,-,-,-,-,-,-,-,-,-,-,-,0,0,0,0,0,0,0,0,,,,
-,-,-,-,-,-,-,-,-,-,-,-,-,0,0,0,0,0,0,0,0,,,,
13,1,170,-,-,0,-,-,-,1,0,2082,15,0,15000,121,127,1329,0,0,0,,,,
-,-,-,-,-,-,-,-,-,-,-,-,-,0,0,0,0,0,0,0,0,,,,
-,-,-,-,-,-,-,-,-,-,-,-,-,0,0,0,0,0,0,0,0,,,,
-,-,-,-,-,-,-,-,-,-,-,-,-,0,0,0,0,0,0,0,0,,,,
-,-,-,-,-,-,-,-,-,-,-,-,-,0,0,0,0,0,0,0,0,,,,
-,-,-,-,-,-,-,-,-,-,-,-,-,0,0,0,0,0,0,0,0,,,,
14,1,170,-,-,0,-,-,-,1,0,2082,15,0,15000,131,137,1329,0,0,0,,,,
-,-,-,-,-,-,-,-,-,-,-,-,-,0,0,0,0,0,0,0,0,,,,
-,-,-,-,-,-,-,-,-,-,-,-,-,0,0,0,0,0,0,0,0,,,,
-,-,-,-,-,-,-,-,-,-,-,-,-,0,0,0,0,0,0,0,0,,,,
-,-,-,-,-,-,-,-,-,-,-,-,-,0,0,0,0,0,0,0,0,,,,
-,-,-,-,-,-,-,-,-,-,-,-,-,0,0,0,0,0,0,0,0,,,,
15,1,170,-,-,0,-,-,-,1,0,2082,15,0,15000,141,147,1329,0,0,0,,,,
-,-,-,-,-,-,-,-,-,-,-,-,-,0,0,0,0,0,0,0,0,,,,
-,-,-,-,-,-,-,-,-,-,-,-,-,0,0,0,0,0,0,0,0,,,,
-,-,-,-,-,-,-,-,-,-,-,-,-,0,0,0,0,0,0,0,0,,,,
-,-,-,-,-,-,-,-,-,-,-,-,-,0,0,0,0,0,0,0,0,,,,
-,-,-,-,-,-,-,-,-,-,-,-,-,0,0,0,0,0,0,0,0,,,,
