skill,,,,,,,,,,,,,,,,,,,,,,,,
Index,1022,,,,,,,,,,,,,,,,,,,,,,,
MaxLevel,10,,,,,,,,,,,,,,,,,,,,,,,
MaxStyleCode,1,,,,,,,,,,,,,,,,,,,,,,,
Name,-,,,,,,,,,,,,,,,,,,,,,,,
Distance,3,,,,,,,,,,,,,,,,,,,,,,,
TypeFlag,ACTION,,,,,,,,,,,,,,,,,,,,,,,
PCClassFlag,WAR,,,,,,,,,,,,,,,,,,,,,,,
Target,16,,,,,,,,,,,,,,,,,,,,,,,
AvailFlag,0,,,,,,,,,,,,,,,,,,,,,,,
IconIndex,1022,,,,,,,,,,,,,,,,,,,,,,,
IconPosX,0,,,,,,,,,,,,,,,,,,,,,,,
IconPosY,1,,,,,,,,,,,,,,,,,,,,,,,
IconTabIndex,1,,,,,,,,,,,,,,,,,,,,,,,
Description,-,,,,,,,,,,,,,,,,,,,,,,,
ActionType,PREPARE,,,,,,,,,,,,,,,,,,,,,,,
ReadyActionStyle,0,,,,,,,,,,,,,,,,,,,,,,,
ReadyActionIndex,0,,,,,,,,,,,,,,,,,,,,,,,
ReadyActionTimeTick,0,,,,,,,,,,,,,,,,,,,,,,,
ReadyEffectID,0,,,,,,,,,,,,,,,,,,,,,,,
ReadySceneID,0,,,,,,,,,,,,,,,,,,,,,,,
ReadyEffectTime,0,,,,,,,,,,,,,,,,,,,,,,,
ChargeActionStyle,0,,,,,,,,,,,,,,,,,,,,,,,
ChargeActionIndex,0,,,,,,,,,,,,,,,,,,,,,,,
ChargeActionTimeTick,0,,,,,,,,,,,,,,,,,,,,,,,
ChargeEffectID,0,,,,,,,,,,,,,,,,,,,,,,,
ChargeSceneID,0, ,,,,,,,,,,,,,,,,,,,,,,
ChargeEffectTime,0,,,,,,,,,,,,,,,,,,,,,,,
AwakeningCheck,0,,,,,,,,,,,,,,,,,,,,,,,
NeedType,0,,,,,,,,,,,,,,,,,,,,,,,
NeedIndex,0,,,,,,,,,,,,,,,,,,,,,,,
,,,,,,,,,,,,,,,,,,,,,,,,
Combo,,,,,,,,,,,,,,,,,Style,,,,,,,
ComboIndex,ActionType,Style,ActionIndex,TimeTick,EffectID,SceneID,EffectTime,AggroCode,PCDamageRate,ResultCode,Arg1,Arg2,Arg3,Arg4,Arg5,Arg6,Arg7,Arg8,Defeat,ResultEffectID,ResultSceneID,ResultEffectTime,StyleCodeIndex,StyleCode
0,ACTION,0,0,0,0,0,0,0,0,0,0,0,0,0,0,0,0,0,0,0,0,0,0,GAUNTLET
1,NO_CANCEL,255,24,1400,0,0,0,2014,0,4000003,100,8001,600000,0,0,0,0,0,0,0,0,0,1,
2,NO_CANCEL,255,2,3,0,0,0,0,0,0,0,0,0,0,0,0,0,0,0,0,0,0,2,
3,ACTION,0,0,0,0,0,0,0,0,0,0,0,0,0,0,0,0,0,0,0,0,0,3,
4,ACTION,0,0,0,0,0,0,0,0,0,0,0,0,0,0,0,0,0,0,0,0,0,4,
5,ACTION,0,0,0,0,0,0,0,0,0,0,0,0,0,0,0,0,0,0,0,0,0,5,
6,ACTION,0,0,0,0,0,0,0,0,0,0,0,0,0,0,0,0,0,0,0,0,0,6,
7,ACTION,0,0,0,0,0,0,0,0,0,0,0,0,0,0,0,0,0,0,0,0,0,7,
8,ACTION,0,0,0,0,0,0,0,0,0,0,0,0,0,0,0,0,0,0,0,0,0,8,
9,ACTION,0,0,0,0,0,0,0,0,0,0,0,0,0,0,0,0,0,0,0,0,0,9,
10,ACTION,0,0,0,0,0,0,0,0,0,0,0,0,0,0,0,0,0,0,0,0,0,10,
11,NO_CANCEL,255,24,1400,0,0,0,2014,0,4000003,100,8002,600000,0,0,0,0,0,0,0,0,0,11,
12,NO_CANCEL,255,2,3,0,0,0,0,0,4000003,100,8222,14000,0,0,0,0,0,0,0,0,0,12,
13,ACTION,0,0,0,0,0,0,0,0,0,0,0,0,0,0,0,0,0,0,0,0,0,13,
14,ACTION,0,0,0,0,0,0,0,0,0,0,0,0,0,0,0,0,0,0,0,0,0,14,
15,ACTION,0,0,0,0,0,0,0,0,0,0,0,0,0,0,0,0,0,0,0,0,0,15,
16,ACTION,0,0,0,0,0,0,0,0,0,0,0,0,0,0,0,0,0,0,0,0,0,16,
17,ACTION,0,0,0,0,0,0,0,0,0,0,0,0,0,0,0,0,0,0,0,0,0,17,
18,ACTION,0,0,0,0,0,0,0,0,0,0,0,0,0,0,0,0,0,0,0,0,0,18,
19,ACTION,0,0,0,0,0,0,0,0,0,0,0,0,0,0,0,0,0,0,0,0,0,19,
20,ACTION,0,0,0,0,0,0,0,0,0,0,0,0,0,0,0,0,0,0,0,0,0,,
21,NO_CANCEL,255,24,1400,0,0,0,2014,0,4000003,100,8003,600000,0,0,0,0,0,0,0,0,0,,
22,NO_CANCEL,255,2,3,0,0,0,0,0,4000003,100,8223,22000,0,0,0,0,0,0,0,0,0,,
23,ACTION,0,0,0,0,0,0,0,0,0,0,0,0,0,0,0,0,0,0,0,0,0,,
24,ACTION,0,0,0,0,0,0,0,0,0,0,0,0,0,0,0,0,0,0,0,0,0,,
25,ACTION,0,0,0,0,0,0,0,0,0,0,0,0,0,0,0,0,0,0,0,0,0,,
26,ACTION,0,0,0,0,0,0,0,0,0,0,0,0,0,0,0,0,0,0,0,0,0,,
27,ACTION,0,0,0,0,0,0,0,0,0,0,0,0,0,0,0,0,0,0,0,0,0,,
28,ACTION,0,0,0,0,0,0,0,0,0,0,0,0,0,0,0,0,0,0,0,0,0,,
29,ACTION,0,0,0,0,0,0,0,0,0,0,0,0,0,0,0,0,0,0,0,0,0,,
30,ACTION,0,0,0,0,0,0,0,0,0,0,0,0,0,0,0,0,0,0,0,0,0,,
31,NO_CANCEL,255,24,1400,0,0,0,2014,0,4000003,100,8004,600000,0,0,0,0,0,0,0,0,0,,
32,NO_CANCEL,255,2,3,0,0,0,0,0,4000003,100,8224,30000,0,0,0,0,0,0,0,0,0,,
33,ACTION,0,0,0,0,0,0,0,0,0,0,0,0,0,0,0,0,0,0,0,0,0,,
34,ACTION,0,0,0,0,0,0,0,0,0,0,0,0,0,0,0,0,0,0,0,0,0,,
35,ACTION,0,0,0,0,0,0,0,0,0,0,0,0,0,0,0,0,0,0,0,0,0,,
36,ACTION,0,0,0,0,0,0,0,0,0,0,0,0,0,0,0,0,0,0,0,0,0,,
37,ACTION,0,0,0,0,0,0,0,0,0,0,0,0,0,0,0,0,0,0,0,0,0,,
38,ACTION,0,0,0,0,0,0,0,0,0,0,0,0,0,0,0,0,0,0,0,0,0,,
39,ACTION,0,0,0,0,0,0,0,0,0,0,0,0,0,0,0,0,0,0,0,0,0,,
40,ACTION,0,0,0,0,0,0,0,0,0,0,0,0,0,0,0,0,0,0,0,0,0,,
41,NO_CANCEL,255,24,1400,0,0,0,2014,0,4000003,100,8005,600000,0,0,0,0,0,0,0,0,0,,
42,NO_CANCEL,255,2,3,0,0,0,0,0,4000003,100,8225,38000,0,0,0,0,0,0,0,0,0,,
43,ACTION,0,0,0,0,0,0,0,0,0,0,0,0,0,0,0,0,0,0,0,0,0,,
44,ACTION,0,0,0,0,0,0,0,0,0,0,0,0,0,0,0,0,0,0,0,0,0,,
45,ACTION,0,0,0,0,0,0,0,0,0,0,0,0,0,0,0,0,0,0,0,0,0,,
46,ACTION,0,0,0,0,0,0,0,0,0,0,0,0,0,0,0,0,0,0,0,0,0,,
47,ACTION,0,0,0,0,0,0,0,0,0,0,0,0,0,0,0,0,0,0,0,0,0,,
48,ACTION,0,0,0,0,0,0,0,0,0,0,0,0,0,0,0,0,0,0,0,0,0,,
49,ACTION,0,0,0,0,0,0,0,0,0,0,0,0,0,0,0,0,0,0,0,0,0,,
50,ACTION,0,0,0,0,0,0,0,0,0,0,0,0,0,0,0,0,0,0,0,0,0,,
51,NO_CANCEL,255,24,1400,0,0,0,2014,0,4000003,100,8006,600000,0,0,0,0,0,0,0,0,0,,
52,NO_CANCEL,255,2,3,0,0,0,0,0,4000003,100,8226,46000,0,0,0,0,0,0,0,0,0,,
53,ACTION,0,0,0,0,0,0,0,0,0,0,0,0,0,0,0,0,0,0,0,0,0,,
54,ACTION,0,0,0,0,0,0,0,0,0,0,0,0,0,0,0,0,0,0,0,0,0,,
55,ACTION,0,0,0,0,0,0,0,0,0,0,0,0,0,0,0,0,0,0,0,0,0,,
56,ACTION,0,0,0,0,0,0,0,0,0,0,0,0,0,0,0,0,0,0,0,0,0,,
57,ACTION,0,0,0,0,0,0,0,0,0,0,0,0,0,0,0,0,0,0,0,0,0,,
58,ACTION,0,0,0,0,0,0,0,0,0,0,0,0,0,0,0,0,0,0,0,0,0,,
59,ACTION,0,0,0,0,0,0,0,0,0,0,0,0,0,0,0,0,0,0,0,0,0,,
60,ACTION,0,0,0,0,0,0,0,0,0,0,0,0,0,0,0,0,0,0,0,0,0,,
61,NO_CANCEL,255,24,1400,0,0,0,2014,0,4000003,100,8007,600000,0,0,0,0,0,0,0,0,0,,
62,NO_CANCEL,255,2,3,0,0,0,0,0,4000003,100,8227,46000,0,0,0,0,0,0,0,0,0,,
63,ACTION,0,0,0,0,0,0,0,0,0,0,0,0,0,0,0,0,0,0,0,0,0,,
64,ACTION,0,0,0,0,0,0,0,0,0,0,0,0,0,0,0,0,0,0,0,0,0,,
65,ACTION,0,0,0,0,0,0,0,0,0,0,0,0,0,0,0,0,0,0,0,0,0,,
66,ACTION,0,0,0,0,0,0,0,0,0,0,0,0,0,0,0,0,0,0,0,0,0,,
67,ACTION,0,0,0,0,0,0,0,0,0,0,0,0,0,0,0,0,0,0,0,0,0,,
68,ACTION,0,0,0,0,0,0,0,0,0,0,0,0,0,0,0,0,0,0,0,0,0,,
69,ACTION,0,0,0,0,0,0,0,0,0,0,0,0,0,0,0,0,0,0,0,0,0,,
70,ACTION,0,0,0,0,0,0,0,0,0,0,0,0,0,0,0,0,0,0,0,0,0,,
71,NO_CANCEL,255,24,1400,0,0,0,2014,0,4000003,100,8008,600000,0,0,0,0,0,0,0,0,0,,
72,NO_CANCEL,255,2,3,0,0,0,0,0,4000003,100,8228,46000,0,0,0,0,0,0,0,0,0,,
73,ACTION,0,0,0,0,0,0,0,0,0,0,0,0,0,0,0,0,0,0,0,0,0,,
74,ACTION,0,0,0,0,0,0,0,0,0,0,0,0,0,0,0,0,0,0,0,0,0,,
75,ACTION,0,0,0,0,0,0,0,0,0,0,0,0,0,0,0,0,0,0,0,0,0,,
76,ACTION,0,0,0,0,0,0,0,0,0,0,0,0,0,0,0,0,0,0,0,0,0,,
77,ACTION,0,0,0,0,0,0,0,0,0,0,0,0,0,0,0,0,0,0,0,0,0,,
78,ACTION,0,0,0,0,0,0,0,0,0,0,0,0,0,0,0,0,0,0,0,0,0,,
79,ACTION,0,0,0,0,0,0,0,0,0,0,0,0,0,0,0,0,0,0,0,0,0,,
80,ACTION,0,0,0,0,0,0,0,0,0,0,0,0,0,0,0,0,0,0,0,0,0,,
81,NO_CANCEL,255,24,1400,0,0,0,2014,0,4000003,100,8009,600000,0,0,0,0,0,0,0,0,0,,
82,NO_CANCEL,255,2,3,0,0,0,0,0,4000003,100,8229,46000,0,0,0,0,0,0,0,0,0,,
83,ACTION,0,0,0,0,0,0,0,0,0,0,0,0,0,0,0,0,0,0,0,0,0,,
84,ACTION,0,0,0,0,0,0,0,0,0,0,0,0,0,0,0,0,0,0,0,0,0,,
85,ACTION,0,0,0,0,0,0,0,0,0,0,0,0,0,0,0,0,0,0,0,0,0,,
86,ACTION,0,0,0,0,0,0,0,0,0,0,0,0,0,0,0,0,0,0,0,0,0,,
87,ACTION,0,0,0,0,0,0,0,0,0,0,0,0,0,0,0,0,0,0,0,0,0,,
88,ACTION,0,0,0,0,0,0,0,0,0,0,0,0,0,0,0,0,0,0,0,0,0,,
89,ACTION,0,0,0,0,0,0,0,0,0,0,0,0,0,0,0,0,0,0,0,0,0,,
90,ACTION,0,0,0,0,0,0,0,0,0,0,0,0,0,0,0,0,0,0,0,0,0,,
91,NO_CANCEL,255,24,1400,0,0,0,2014,0,4000003,100,8010,600000,0,0,0,0,0,0,0,0,0,,
92,NO_CANCEL,255,2,3,0,0,0,0,0,4000003,100,8230,46000,0,0,0,0,0,0,0,0,0,,
93,ACTION,0,0,0,0,0,0,0,0,0,0,0,0,0,0,0,0,0,0,0,0,0,,
94,ACTION,0,0,0,0,0,0,0,0,0,0,0,0,0,0,0,0,0,0,0,0,0,,
95,ACTION,0,0,0,0,0,0,0,0,0,0,0,0,0,0,0,0,0,0,0,0,0,,
96,ACTION,0,0,0,0,0,0,0,0,0,0,0,0,0,0,0,0,0,0,0,0,0,,
97,ACTION,0,0,0,0,0,0,0,0,0,0,0,0,0,0,0,0,0,0,0,0,0,,
98,ACTION,0,0,0,0,0,0,0,0,0,0,0,0,0,0,0,0,0,0,0,0,0,,
99,ACTION,0,0,0,0,0,0,0,0,0,0,0,0,0,0,0,0,0,0,0,0,0,,
100,ACTION,0,0,0,0,0,0,0,0,0,0,0,0,0,0,0,0,0,0,0,0,0,,
101,NO_CANCEL,255,24,1400,0,0,0,2014,0,4000003,100,8011,600000,0,0,0,0,0,0,0,0,0,,
102,NO_CANCEL,255,2,3,0,0,0,0,0,4000003,100,8231,48000,0,0,0,0,0,0,0,0,0,,
103,ACTION,0,0,0,0,0,0,0,0,0,0,0,0,0,0,0,0,0,0,0,0,0,,
104,ACTION,0,0,0,0,0,0,0,0,0,0,0,0,0,0,0,0,0,0,0,0,0,,
105,ACTION,0,0,0,0,0,0,0,0,0,0,0,0,0,0,0,0,0,0,0,0,0,,
106,ACTION,0,0,0,0,0,0,0,0,0,0,0,0,0,0,0,0,0,0,0,0,0,,
107,ACTION,0,0,0,0,0,0,0,0,0,0,0,0,0,0,0,0,0,0,0,0,0,,
108,ACTION,0,0,0,0,0,0,0,0,0,0,0,0,0,0,0,0,0,0,0,0,0,,
109,ACTION,0,0,0,0,0,0,0,0,0,0,0,0,0,0,0,0,0,0,0,0,0,,
110,ACTION,0,0,0,0,0,0,0,0,0,0,0,0,0,0,0,0,0,0,0,0,0,,
111,NO_CANCEL,255,24,1400,0,0,0,2014,0,4000003,100,8012,600000,0,0,0,0,0,0,0,0,0,,
112,NO_CANCEL,255,2,3,0,0,0,0,0,4000003,100,8232,50000,0,0,0,0,0,0,0,0,0,,
113,ACTION,0,0,0,0,0,0,0,0,0,0,0,0,0,0,0,0,0,0,0,0,0,,
114,ACTION,0,0,0,0,0,0,0,0,0,0,0,0,0,0,0,0,0,0,0,0,0,,
115,ACTION,0,0,0,0,0,0,0,0,0,0,0,0,0,0,0,0,0,0,0,0,0,,
116,ACTION,0,0,0,0,0,0,0,0,0,0,0,0,0,0,0,0,0,0,0,0,0,,
117,ACTION,0,0,0,0,0,0,0,0,0,0,0,0,0,0,0,0,0,0,0,0,0,,
118,ACTION,0,0,0,0,0,0,0,0,0,0,0,0,0,0,0,0,0,0,0,0,0,,
119,ACTION,0,0,0,0,0,0,0,0,0,0,0,0,0,0,0,0,0,0,0,0,0,,
120,ACTION,0,0,0,0,0,0,0,0,0,0,0,0,0,0,0,0,0,0,0,0,0,,
121,NO_CANCEL,255,24,1400,0,0,0,2014,0,4000003,100,8013,600000,0,0,0,0,0,0,0,0,0,,
122,NO_CANCEL,255,2,3,0,0,0,0,0,4000003,100,8233,52000,0,0,0,0,0,0,0,0,0,,
123,ACTION,0,0,0,0,0,0,0,0,0,0,0,0,0,0,0,0,0,0,0,0,0,,
124,ACTION,0,0,0,0,0,0,0,0,0,0,0,0,0,0,0,0,0,0,0,0,0,,
125,ACTION,0,0,0,0,0,0,0,0,0,0,0,0,0,0,0,0,0,0,0,0,0,,
126,ACTION,0,0,0,0,0,0,0,0,0,0,0,0,0,0,0,0,0,0,0,0,0,,
127,ACTION,0,0,0,0,0,0,0,0,0,0,0,0,0,0,0,0,0,0,0,0,0,,
128,ACTION,0,0,0,0,0,0,0,0,0,0,0,0,0,0,0,0,0,0,0,0,0,,
129,ACTION,0,0,0,0,0,0,0,0,0,0,0,0,0,0,0,0,0,0,0,0,0,,
130,ACTION,0,0,0,0,0,0,0,0,0,0,0,0,0,0,0,0,0,0,0,0,0,,
131,NO_CANCEL,255,24,1400,0,0,0,2014,0,4000003,100,8014,600000,0,0,0,0,0,0,0,0,0,,
132,NO_CANCEL,255,2,3,0,0,0,0,0,4000003,100,8234,54000,0,0,0,0,0,0,0,0,0,,
133,ACTION,0,0,0,0,0,0,0,0,0,0,0,0,0,0,0,0,0,0,0,0,0,,
134,ACTION,0,0,0,0,0,0,0,0,0,0,0,0,0,0,0,0,0,0,0,0,0,,
135,ACTION,0,0,0,0,0,0,0,0,0,0,0,0,0,0,0,0,0,0,0,0,0,,
136,ACTION,0,0,0,0,0,0,0,0,0,0,0,0,0,0,0,0,0,0,0,0,0,,
137,ACTION,0,0,0,0,0,0,0,0,0,0,0,0,0,0,0,0,0,0,0,0,0,,
138,ACTION,0,0,0,0,0,0,0,0,0,0,0,0,0,0,0,0,0,0,0,0,0,,
139,ACTION,0,0,0,0,0,0,0,0,0,0,0,0,0,0,0,0,0,0,0,0,0,,
140,ACTION,0,0,0,0,0,0,0,0,0,0,0,0,0,0,0,0,0,0,0,0,0,,
141,NO_CANCEL,255,24,1400,0,0,0,2014,0,4000003,100,8015,600000,0,0,0,0,0,0,0,0,0,,
142,NO_CANCEL,255,2,3,0,0,0,0,0,4000003,100,8235,56000,0,0,0,0,0,0,0,0,0,,
143,ACTION,0,0,0,0,0,0,0,0,0,0,0,0,0,0,0,0,0,0,0,0,0,,
144,ACTION,0,0,0,0,0,0,0,0,0,0,0,0,0,0,0,0,0,0,0,0,0,,
145,ACTION,0,0,0,0,0,0,0,0,0,0,0,0,0,0,0,0,0,0,0,0,0,,
146,ACTION,0,0,0,0,0,0,0,0,0,0,0,0,0,0,0,0,0,0,0,0,0,,
147,ACTION,0,0,0,0,0,0,0,0,0,0,0,0,0,0,0,0,0,0,0,0,0,,
148,ACTION,0,0,0,0,0,0,0,0,0,0,0,0,0,0,0,0,0,0,0,0,0,,
149,ACTION,0,0,0,0,0,0,0,0,0,0,0,0,0,0,0,0,0,0,0,0,0,,
,,,,,,,,,,,,,,,,,,,,,,,,
,,,,,,,,,,,,,,,,,,,,,,,,
LevelIndex,SPCostLevelUp,PCLevel,Grade,ChoiceLimit,MaxOption,OptionIndex,OptionCode,OptionValue,MaxRequire,ReqIndex,Index,Level,CastTick,CoolTick,StartComboIndex,EndComboIndex,ResourceHP,ResourceMP,ResourceItemCode,ResourceItemCount,,,,
0,0,0,0,0,0,-,-,-,0,-,-,-,0,0,0,0,0,0,0,0,,,,
-,-,-,-,-,-,-,-,-,-,-,-,-,0,0,0,0,0,0,0,0,,,,
-,-,-,-,-,-,-,-,-,-,-,-,-,0,0,0,0,0,0,0,0,,,,
-,-,-,-,-,-,-,-,-,-,-,-,-,0,0,0,0,0,0,0,0,,,,
-,-,-,-,-,-,-,-,-,-,-,-,-,0,0,0,0,0,0,0,0,,,,
-,-,-,-,-,-,-,-,-,-,-,-,-,0,0,0,0,0,0,0,0,,,,
1,0,10,0,0,0,-,-,-,1,0,1101,1,0,14000,1,2,0,14,0,0,,,,
-,-,-,-,-,-,-,-,-,-,-,-,-,0,0,0,0,0,0,0,0,,,,
-,-,-,-,-,-,-,-,-,-,-,-,-,0,0,0,0,0,0,0,0,,,,
-,-,-,-,-,-,-,-,-,-,-,-,-,0,0,0,0,0,0,0,0,,,,
-,-,-,-,-,-,-,-,-,-,-,-,-,0,0,0,0,0,0,0,0,,,,
-,-,-,-,-,-,-,-,-,-,-,-,-,0,0,0,0,0,0,0,0,,,,
2,1,22,0,0,0,-,-,-,1,0,1101,1,0,28000,11,12,0,30,0,0,,,,
-,-,-,-,-,-,-,-,-,-,-,-,-,0,0,0,0,0,0,0,0,,,,
-,-,-,-,-,-,-,-,-,-,-,-,-,0,0,0,0,0,0,0,0,,,,
-,-,-,-,-,-,-,-,-,-,-,-,-,0,0,0,0,0,0,0,0,,,,
-,-,-,-,-,-,-,-,-,-,-,-,-,0,0,0,0,0,0,0,0,,,,
-,-,-,-,-,-,-,-,-,-,-,-,-,0,0,0,0,0,0,0,0,,,,
3,1,34,0,0,0,-,-,-,1,0,1101,1,0,44000,21,22,0,46,0,0,,,,
-,-,-,-,-,-,-,-,-,-,-,-,-,0,0,0,0,0,0,0,0,,,,
-,-,-,-,-,-,-,-,-,-,-,-,-,0,0,0,0,0,0,0,0,,,,
-,-,-,-,-,-,-,-,-,-,-,-,-,0,0,0,0,0,0,0,0,,,,
-,-,-,-,-,-,-,-,-,-,-,-,-,0,0,0,0,0,0,0,0,,,,
-,-,-,-,-,-,-,-,-,-,-,-,-,0,0,0,0,0,0,0,0,,,,
4,1,46,0,0,0,-,-,-,1,0,1101,1,0,60000,31,32,0,62,0,0,,,,
-,-,-,-,-,-,-,-,-,-,-,-,-,0,0,0,0,0,0,0,0,,,,
-,-,-,-,-,-,-,-,-,-,-,-,-,0,0,0,0,0,0,0,0,,,,
-,-,-,-,-,-,-,-,-,-,-,-,-,0,0,0,0,0,0,0,0,,,,
-,-,-,-,-,-,-,-,-,-,-,-,-,0,0,0,0,0,0,0,0,,,,
-,-,-,-,-,-,-,-,-,-,-,-,-,0,0,0,0,0,0,0,0,,,,
5,1,58,0,0,0,-,-,-,1,0,1101,1,0,76000,41,42,0,78,0,0,,,,
-,-,-,-,-,-,-,-,-,-,-,-,-,0,0,0,0,0,0,0,0,,,,
-,-,-,-,-,-,-,-,-,-,-,-,-,0,0,0,0,0,0,0,0,,,,
-,-,-,-,-,-,-,-,-,-,-,-,-,0,0,0,0,0,0,0,0,,,,
-,-,-,-,-,-,-,-,-,-,-,-,-,0,0,0,0,0,0,0,0,,,,
-,-,-,-,-,-,-,-,-,-,-,-,-,0,0,0,0,0,0,0,0,,,,
6,1,70,0,0,0,-,-,-,1,0,1101,1,0,76000,51,52,0,94,0,0,,,,
-,-,-,-,-,-,-,-,-,-,-,-,-,0,0,0,0,0,0,0,0,,,,
-,-,-,-,-,-,-,-,-,-,-,-,-,0,0,0,0,0,0,0,0,,,,
-,-,-,-,-,-,-,-,-,-,-,-,-,0,0,0,0,0,0,0,0,,,,
-,-,-,-,-,-,-,-,-,-,-,-,-,0,0,0,0,0,0,0,0,,,,
-,-,-,-,-,-,-,-,-,-,-,-,-,0,0,0,0,0,0,0,0,,,,
7,1,82,0,0,0,-,-,-,1,0,1101,1,0,76000,61,62,0,110,0,0,,,,
-,-,-,-,-,-,-,-,-,-,-,-,-,0,0,0,0,0,0,0,0,,,,
-,-,-,-,-,-,-,-,-,-,-,-,-,0,0,0,0,0,0,0,0,,,,
-,-,-,-,-,-,-,-,-,-,-,-,-,0,0,0,0,0,0,0,0,,,,
-,-,-,-,-,-,-,-,-,-,-,-,-,0,0,0,0,0,0,0,0,,,,
-,-,-,-,-,-,-,-,-,-,-,-,-,0,0,0,0,0,0,0,0,,,,
8,1,94,0,0,0,-,-,-,1,0,1101,1,0,76000,71,72,0,126,0,0,,,,
-,-,-,-,-,-,-,-,-,-,-,-,-,0,0,0,0,0,0,0,0,,,,
-,-,-,-,-,-,-,-,-,-,-,-,-,0,0,0,0,0,0,0,0,,,,
-,-,-,-,-,-,-,-,-,-,-,-,-,0,0,0,0,0,0,0,0,,,,
-,-,-,-,-,-,-,-,-,-,-,-,-,0,0,0,0,0,0,0,0,,,,
-,-,-,-,-,-,-,-,-,-,-,-,-,0,0,0,0,0,0,0,0,,,,
9,1,106,0,0,0,-,-,-,1,0,1101,1,0,76000,81,82,0,142,0,0,,,,
-,-,-,-,-,-,-,-,-,-,-,-,-,0,0,0,0,0,0,0,0,,,,
-,-,-,-,-,-,-,-,-,-,-,-,-,0,0,0,0,0,0,0,0,,,,
-,-,-,-,-,-,-,-,-,-,-,-,-,0,0,0,0,0,0,0,0,,,,
-,-,-,-,-,-,-,-,-,-,-,-,-,0,0,0,0,0,0,0,0,,,,
-,-,-,-,-,-,-,-,-,-,-,-,-,0,0,0,0,0,0,0,0,,,,
10,1,118,0,0,0,-,-,-,1,0,1101,1,0,76000,91,92,0,158,0,0,,,,
-,-,-,-,-,-,-,-,-,-,-,-,-,0,0,0,0,0,0,0,0,,,,
-,-,-,-,-,-,-,-,-,-,-,-,-,0,0,0,0,0,0,0,0,,,,
-,-,-,-,-,-,-,-,-,-,-,-,-,0,0,0,0,0,0,0,0,,,,
-,-,-,-,-,-,-,-,-,-,-,-,-,0,0,0,0,0,0,0,0,,,,
-,-,-,-,-,-,-,-,-,-,-,-,-,0,0,0,0,0,0,0,0,,,,
11,1,170,0,0,0,-,-,-,1,0,1101,1,0,76000,101,102,0,228,0,0,,,,
-,-,-,-,-,-,-,-,-,-,-,-,-,0,0,0,0,0,0,0,0,,,,
-,-,-,-,-,-,-,-,-,-,-,-,-,0,0,0,0,0,0,0,0,,,,
-,-,-,-,-,-,-,-,-,-,-,-,-,0,0,0,0,0,0,0,0,,,,
-,-,-,-,-,-,-,-,-,-,-,-,-,0,0,0,0,0,0,0,0,,,,
-,-,-,-,-,-,-,-,-,-,-,-,-,0,0,0,0,0,0,0,0,,,,
12,1,170,0,0,0,-,-,-,1,0,1101,1,0,76000,111,112,0,228,0,0,,,,
-,-,-,-,-,-,-,-,-,-,-,-,-,0,0,0,0,0,0,0,0,,,,
-,-,-,-,-,-,-,-,-,-,-,-,-,0,0,0,0,0,0,0,0,,,,
-,-,-,-,-,-,-,-,-,-,-,-,-,0,0,0,0,0,0,0,0,,,,
-,-,-,-,-,-,-,-,-,-,-,-,-,0,0,0,0,0,0,0,0,,,,
-,-,-,-,-,-,-,-,-,-,-,-,-,0,0,0,0,0,0,0,0,,,,
13,1,170,0,0,0,-,-,-,1,0,1101,1,0,76000,121,122,0,228,0,0,,,,
-,-,-,-,-,-,-,-,-,-,-,-,-,0,0,0,0,0,0,0,0,,,,
-,-,-,-,-,-,-,-,-,-,-,-,-,0,0,0,0,0,0,0,0,,,,
-,-,-,-,-,-,-,-,-,-,-,-,-,0,0,0,0,0,0,0,0,,,,
-,-,-,-,-,-,-,-,-,-,-,-,-,0,0,0,0,0,0,0,0,,,,
-,-,-,-,-,-,-,-,-,-,-,-,-,0,0,0,0,0,0,0,0,,,,
14,1,170,0,0,0,-,-,-,1,0,1101,1,0,76000,131,132,0,228,0,0,,,,
-,-,-,-,-,-,-,-,-,-,-,-,-,0,0,0,0,0,0,0,0,,,,
-,-,-,-,-,-,-,-,-,-,-,-,-,0,0,0,0,0,0,0,0,,,,
-,-,-,-,-,-,-,-,-,-,-,-,-,0,0,0,0,0,0,0,0,,,,
-,-,-,-,-,-,-,-,-,-,-,-,-,0,0,0,0,0,0,0,0,,,,
-,-,-,-,-,-,-,-,-,-,-,-,-,0,0,0,0,0,0,0,0,,,,
15,1,170,0,0,0,-,-,-,1,0,1101,1,0,76000,141,142,0,228,0,0,,,,
-,-,-,-,-,-,-,-,-,-,-,-,-,0,0,0,0,0,0,0,0,,,,
-,-,-,-,-,-,-,-,-,-,-,-,-,0,0,0,0,0,0,0,0,,,,
-,-,-,-,-,-,-,-,-,-,-,-,-,0,0,0,0,0,0,0,0,,,,
-,-,-,-,-,-,-,-,-,-,-,-,-,0,0,0,0,0,0,0,0,,,,
-,-,-,-,-,-,-,-,-,-,-,-,-,0,0,0,0,0,0,0,0,,,,
