skill,
Index,1042
MaxLevel,10
MaxStyleCode,2
Name,헬리온의 의지
Distance,16
TypeFlag,MASTERY
PCClassFlag,WAR
Target,4
AvailFlag,1
IconIndex,1042
IconPosX,3
IconPosY,7
IconTabIndex,1
Description,소드 계열\ 몸을 회전시켜 원심력으로 적을 베는 청기사단의\기본 기술로서 가장 보편적으로 사용된다.
ActionType,PREPARE
ReadyActionStyle,0,
ReadyActionIndex,0,
ReadyActionTimeTick,0,
ReadyEffectID,0,
ReadySceneID,0,
ReadyEffectTime,0,
ChargeActionStyle,0,
ChargeActionIndex,0,
ChargeActionTimeTick,0,
ChargeEffectID,0,
ChargeSceneID,0, 
ChargeEffectTime,0,
AwakeningCheck,0,
NeedType,0,
NeedIndex,,

Combo,,,,,,,,,,,,,,,,,Style,,,,,,,
ComboIndex,ActionType,Style,ActionIndex,TimeTick,EffectID,SceneID,EffectTime,AggroCode,PCDamageRate,ResultCode,Arg1,Arg2,Arg3,Arg4,Arg5,Arg6,Arg7,Arg8,Defeat,ResultEffectID,ResultSceneID,ResultEffectTime,StyleCodeIndex,StyleCode
0,ACTION,0,0,0,0,0,0,0,0,0,0,0,0,0,0,0,0,0,0,0,0,0,0,BAREHANDS
1,ACTION,0,0,0,0,0,0,0,0,0,0,0,0,0,0,0,0,0,0,0,0,0,1,GAUNTLET
2,ACTION,0,0,0,0,0,0,0,0,0,0,0,0,0,0,0,0,0,0,0,0,0,2,
3,ACTION,0,0,0,0,0,0,0,0,0,0,0,0,0,0,0,0,0,0,0,0,0,3,
4,ACTION,0,0,0,0,0,0,0,0,0,0,0,0,0,0,0,0,0,0,0,0,0,4,
5,ACTION,0,0,0,0,0,0,0,0,0,0,0,0,0,0,0,0,0,0,0,0,0,5,
6,ACTION,0,0,0,0,0,0,0,0,0,0,0,0,0,0,0,0,0,0,0,0,0,6,
7,ACTION,0,0,0,0,0,0,0,0,0,0,0,0,0,0,0,0,0,0,0,0,0,7,
8,ACTION,0,0,0,0,0,0,0,0,0,0,0,0,0,0,0,0,0,0,0,0,0,8,
9,ACTION,0,0,0,0,0,0,0,0,0,0,0,0,0,0,0,0,0,0,0,0,0,9,
10,ACTION,0,0,0,0,0,0,0,0,0,0,0,0,0,0,0,0,0,0,0,0,0,10,
11,ACTION,0,0,0,0,0,0,0,0,0,0,0,0,0,0,0,0,0,0,0,0,0,11,
12,ACTION,0,0,0,0,0,0,0,0,0,0,0,0,0,0,0,0,0,0,0,0,0,12,
13,ACTION,0,0,0,0,0,0,0,0,0,0,0,0,0,0,0,0,0,0,0,0,0,13,
14,ACTION,0,0,0,0,0,0,0,0,0,0,0,0,0,0,0,0,0,0,0,0,0,14
15,ACTION,0,0,0,0,0,0,0,0,0,0,0,0,0,0,0,0,0,0,0,0,0,15
16,ACTION,0,0,0,0,0,0,0,0,0,0,0,0,0,0,0,0,0,0,0,0,0,16
17,ACTION,0,0,0,0,0,0,0,0,0,0,0,0,0,0,0,0,0,0,0,0,0,17
18,ACTION,0,0,0,0,0,0,0,0,0,0,0,0,0,0,0,0,0,0,0,0,0,18
19,ACTION,0,0,0,0,0,0,0,0,0,0,0,0,0,0,0,0,0,0,0,0,0,19
20,ACTION,0,0,0,0,0,0,0,0,0,0,0,0,0,0,0,0,0,0,0,0,0,
21,ACTION,0,0,0,0,0,0,0,0,0,0,0,0,0,0,0,0,0,0,0,0,0,
22,ACTION,0,0,0,0,0,0,0,0,0,0,0,0,0,0,0,0,0,0,0,0,0,
23,ACTION,0,0,0,0,0,0,0,0,0,0,0,0,0,0,0,0,0,0,0,0,0,
24,ACTION,0,0,0,0,0,0,0,0,0,0,0,0,0,0,0,0,0,0,0,0,0,
25,ACTION,0,0,0,0,0,0,0,0,0,0,0,0,0,0,0,0,0,0,0,0,0,
26,ACTION,0,0,0,0,0,0,0,0,0,0,0,0,0,0,0,0,0,0,0,0,0,
27,ACTION,0,0,0,0,0,0,0,0,0,0,0,0,0,0,0,0,0,0,0,0,0,
28,ACTION,0,0,0,0,0,0,0,0,0,0,0,0,0,0,0,0,0,0,0,0,0,
29,ACTION,0,0,0,0,0,0,0,0,0,0,0,0,0,0,0,0,0,0,0,0,0,
30,ACTION,0,0,0,0,0,0,0,0,0,0,0,0,0,0,0,0,0,0,0,0,0
31,ACTION,0,0,0,0,0,0,0,0,0,0,0,0,0,0,0,0,0,0,0,0,0
32,ACTION,0,0,0,0,0,0,0,0,0,0,0,0,0,0,0,0,0,0,0,0,0
33,ACTION,0,0,0,0,0,0,0,0,0,0,0,0,0,0,0,0,0,0,0,0,0
34,ACTION,0,0,0,0,0,0,0,0,0,0,0,0,0,0,0,0,0,0,0,0,0
35,ACTION,0,0,0,0,0,0,0,0,0,0,0,0,0,0,0,0,0,0,0,0,0
36,ACTION,0,0,0,0,0,0,0,0,0,0,0,0,0,0,0,0,0,0,0,0,0
37,ACTION,0,0,0,0,0,0,0,0,0,0,0,0,0,0,0,0,0,0,0,0,0
38,ACTION,0,0,0,0,0,0,0,0,0,0,0,0,0,0,0,0,0,0,0,0,0
39,ACTION,0,0,0,0,0,0,0,0,0,0,0,0,0,0,0,0,0,0,0,0,0
40,ACTION,0,0,0,0,0,0,0,0,0,0,0,0,0,0,0,0,0,0,0,0,0
41,ACTION,0,0,0,0,0,0,0,0,0,0,0,0,0,0,0,0,0,0,0,0,0
42,ACTION,0,0,0,0,0,0,0,0,0,0,0,0,0,0,0,0,0,0,0,0,0
43,ACTION,0,0,0,0,0,0,0,0,0,0,0,0,0,0,0,0,0,0,0,0,0
44,ACTION,0,0,0,0,0,0,0,0,0,0,0,0,0,0,0,0,0,0,0,0,0
45,ACTION,0,0,0,0,0,0,0,0,0,0,0,0,0,0,0,0,0,0,0,0,0
46,ACTION,0,0,0,0,0,0,0,0,0,0,0,0,0,0,0,0,0,0,0,0,0
47,ACTION,0,0,0,0,0,0,0,0,0,0,0,0,0,0,0,0,0,0,0,0,0
48,ACTION,0,0,0,0,0,0,0,0,0,0,0,0,0,0,0,0,0,0,0,0,0
49,ACTION,0,0,0,0,0,0,0,0,0,0,0,0,0,0,0,0,0,0,0,0,0
50,ACTION,0,0,0,0,0,0,0,0,0,0,0,0,0,0,0,0,0,0,0,0,0
51,ACTION,0,0,0,0,0,0,0,0,0,0,0,0,0,0,0,0,0,0,0,0,0
52,ACTION,0,0,0,0,0,0,0,0,0,0,0,0,0,0,0,0,0,0,0,0,0
53,ACTION,0,0,0,0,0,0,0,0,0,0,0,0,0,0,0,0,0,0,0,0,0
54,ACTION,0,0,0,0,0,0,0,0,0,0,0,0,0,0,0,0,0,0,0,0,0
55,ACTION,0,0,0,0,0,0,0,0,0,0,0,0,0,0,0,0,0,0,0,0,0
56,ACTION,0,0,0,0,0,0,0,0,0,0,0,0,0,0,0,0,0,0,0,0,0
57,ACTION,0,0,0,0,0,0,0,0,0,0,0,0,0,0,0,0,0,0,0,0,0
58,ACTION,0,0,0,0,0,0,0,0,0,0,0,0,0,0,0,0,0,0,0,0,0
59,ACTION,0,0,0,0,0,0,0,0,0,0,0,0,0,0,0,0,0,0,0,0,0
60,ACTION,0,0,0,0,0,0,0,0,0,0,0,0,0,0,0,0,0,0,0,0,0
61,ACTION,0,0,0,0,0,0,0,0,0,0,0,0,0,0,0,0,0,0,0,0,0
62,ACTION,0,0,0,0,0,0,0,0,0,0,0,0,0,0,0,0,0,0,0,0,0
63,ACTION,0,0,0,0,0,0,0,0,0,0,0,0,0,0,0,0,0,0,0,0,0
64,ACTION,0,0,0,0,0,0,0,0,0,0,0,0,0,0,0,0,0,0,0,0,0
65,ACTION,0,0,0,0,0,0,0,0,0,0,0,0,0,0,0,0,0,0,0,0,0
66,ACTION,0,0,0,0,0,0,0,0,0,0,0,0,0,0,0,0,0,0,0,0,0
67,ACTION,0,0,0,0,0,0,0,0,0,0,0,0,0,0,0,0,0,0,0,0,0
68,ACTION,0,0,0,0,0,0,0,0,0,0,0,0,0,0,0,0,0,0,0,0,0
69,ACTION,0,0,0,0,0,0,0,0,0,0,0,0,0,0,0,0,0,0,0,0,0
70,ACTION,0,0,0,0,0,0,0,0,0,0,0,0,0,0,0,0,0,0,0,0,0
71,ACTION,0,0,0,0,0,0,0,0,0,0,0,0,0,0,0,0,0,0,0,0,0
72,ACTION,0,0,0,0,0,0,0,0,0,0,0,0,0,0,0,0,0,0,0,0,0
73,ACTION,0,0,0,0,0,0,0,0,0,0,0,0,0,0,0,0,0,0,0,0,0
74,ACTION,0,0,0,0,0,0,0,0,0,0,0,0,0,0,0,0,0,0,0,0,0
75,ACTION,0,0,0,0,0,0,0,0,0,0,0,0,0,0,0,0,0,0,0,0,0
76,ACTION,0,0,0,0,0,0,0,0,0,0,0,0,0,0,0,0,0,0,0,0,0
77,ACTION,0,0,0,0,0,0,0,0,0,0,0,0,0,0,0,0,0,0,0,0,0
78,ACTION,0,0,0,0,0,0,0,0,0,0,0,0,0,0,0,0,0,0,0,0,0
79,ACTION,0,0,0,0,0,0,0,0,0,0,0,0,0,0,0,0,0,0,0,0,0
80,ACTION,0,0,0,0,0,0,0,0,0,0,0,0,0,0,0,0,0,0,0,0,0
81,ACTION,0,0,0,0,0,0,0,0,0,0,0,0,0,0,0,0,0,0,0,0,0
82,ACTION,0,0,0,0,0,0,0,0,0,0,0,0,0,0,0,0,0,0,0,0,0
83,ACTION,0,0,0,0,0,0,0,0,0,0,0,0,0,0,0,0,0,0,0,0,0
84,ACTION,0,0,0,0,0,0,0,0,0,0,0,0,0,0,0,0,0,0,0,0,0
85,ACTION,0,0,0,0,0,0,0,0,0,0,0,0,0,0,0,0,0,0,0,0,0
86,ACTION,0,0,0,0,0,0,0,0,0,0,0,0,0,0,0,0,0,0,0,0,0
87,ACTION,0,0,0,0,0,0,0,0,0,0,0,0,0,0,0,0,0,0,0,0,0
88,ACTION,0,0,0,0,0,0,0,0,0,0,0,0,0,0,0,0,0,0,0,0,0
89,ACTION,0,0,0,0,0,0,0,0,0,0,0,0,0,0,0,0,0,0,0,0,0
90,ACTION,0,0,0,0,0,0,0,0,0,0,0,0,0,0,0,0,0,0,0,0,0
91,ACTION,0,0,0,0,0,0,0,0,0,0,0,0,0,0,0,0,0,0,0,0,0
92,ACTION,0,0,0,0,0,0,0,0,0,0,0,0,0,0,0,0,0,0,0,0,0
93,ACTION,0,0,0,0,0,0,0,0,0,0,0,0,0,0,0,0,0,0,0,0,0
94,ACTION,0,0,0,0,0,0,0,0,0,0,0,0,0,0,0,0,0,0,0,0,0
95,ACTION,0,0,0,0,0,0,0,0,0,0,0,0,0,0,0,0,0,0,0,0,0
96,ACTION,0,0,0,0,0,0,0,0,0,0,0,0,0,0,0,0,0,0,0,0,0
97,ACTION,0,0,0,0,0,0,0,0,0,0,0,0,0,0,0,0,0,0,0,0,0
98,ACTION,0,0,0,0,0,0,0,0,0,0,0,0,0,0,0,0,0,0,0,0,0
99,ACTION,0,0,0,0,0,0,0,0,0,0,0,0,0,0,0,0,0,0,0,0,0
100,ACTION,0,0,0,0,0,0,0,0,0,0,0,0,0,0,0,0,0,0,0,0,0
101,ACTION,0,0,0,0,0,0,0,0,0,0,0,0,0,0,0,0,0,0,0,0,0
102,ACTION,0,0,0,0,0,0,0,0,0,0,0,0,0,0,0,0,0,0,0,0,0
103,ACTION,0,0,0,0,0,0,0,0,0,0,0,0,0,0,0,0,0,0,0,0,0
104,ACTION,0,0,0,0,0,0,0,0,0,0,0,0,0,0,0,0,0,0,0,0,0
105,ACTION,0,0,0,0,0,0,0,0,0,0,0,0,0,0,0,0,0,0,0,0,0
106,ACTION,0,0,0,0,0,0,0,0,0,0,0,0,0,0,0,0,0,0,0,0,0
107,ACTION,0,0,0,0,0,0,0,0,0,0,0,0,0,0,0,0,0,0,0,0,0
108,ACTION,0,0,0,0,0,0,0,0,0,0,0,0,0,0,0,0,0,0,0,0,0
109,ACTION,0,0,0,0,0,0,0,0,0,0,0,0,0,0,0,0,0,0,0,0,0
110,ACTION,0,0,0,0,0,0,0,0,0,0,0,0,0,0,0,0,0,0,0,0,0
111,ACTION,0,0,0,0,0,0,0,0,0,0,0,0,0,0,0,0,0,0,0,0,0
112,ACTION,0,0,0,0,0,0,0,0,0,0,0,0,0,0,0,0,0,0,0,0,0
113,ACTION,0,0,0,0,0,0,0,0,0,0,0,0,0,0,0,0,0,0,0,0,0
114,ACTION,0,0,0,0,0,0,0,0,0,0,0,0,0,0,0,0,0,0,0,0,0
115,ACTION,0,0,0,0,0,0,0,0,0,0,0,0,0,0,0,0,0,0,0,0,0
116,ACTION,0,0,0,0,0,0,0,0,0,0,0,0,0,0,0,0,0,0,0,0,0
117,ACTION,0,0,0,0,0,0,0,0,0,0,0,0,0,0,0,0,0,0,0,0,0
118,ACTION,0,0,0,0,0,0,0,0,0,0,0,0,0,0,0,0,0,0,0,0,0
119,ACTION,0,0,0,0,0,0,0,0,0,0,0,0,0,0,0,0,0,0,0,0,0
120,ACTION,0,0,0,0,0,0,0,0,0,0,0,0,0,0,0,0,0,0,0,0,0
121,ACTION,0,0,0,0,0,0,0,0,0,0,0,0,0,0,0,0,0,0,0,0,0
122,ACTION,0,0,0,0,0,0,0,0,0,0,0,0,0,0,0,0,0,0,0,0,0
123,ACTION,0,0,0,0,0,0,0,0,0,0,0,0,0,0,0,0,0,0,0,0,0
124,ACTION,0,0,0,0,0,0,0,0,0,0,0,0,0,0,0,0,0,0,0,0,0
125,ACTION,0,0,0,0,0,0,0,0,0,0,0,0,0,0,0,0,0,0,0,0,0
126,ACTION,0,0,0,0,0,0,0,0,0,0,0,0,0,0,0,0,0,0,0,0,0
127,ACTION,0,0,0,0,0,0,0,0,0,0,0,0,0,0,0,0,0,0,0,0,0
128,ACTION,0,0,0,0,0,0,0,0,0,0,0,0,0,0,0,0,0,0,0,0,0
129,ACTION,0,0,0,0,0,0,0,0,0,0,0,0,0,0,0,0,0,0,0,0,0
130,ACTION,0,0,0,0,0,0,0,0,0,0,0,0,0,0,0,0,0,0,0,0,0
131,ACTION,0,0,0,0,0,0,0,0,0,0,0,0,0,0,0,0,0,0,0,0,0
132,ACTION,0,0,0,0,0,0,0,0,0,0,0,0,0,0,0,0,0,0,0,0,0
133,ACTION,0,0,0,0,0,0,0,0,0,0,0,0,0,0,0,0,0,0,0,0,0
134,ACTION,0,0,0,0,0,0,0,0,0,0,0,0,0,0,0,0,0,0,0,0,0
135,ACTION,0,0,0,0,0,0,0,0,0,0,0,0,0,0,0,0,0,0,0,0,0
136,ACTION,0,0,0,0,0,0,0,0,0,0,0,0,0,0,0,0,0,0,0,0,0
137,ACTION,0,0,0,0,0,0,0,0,0,0,0,0,0,0,0,0,0,0,0,0,0
138,ACTION,0,0,0,0,0,0,0,0,0,0,0,0,0,0,0,0,0,0,0,0,0
139,ACTION,0,0,0,0,0,0,0,0,0,0,0,0,0,0,0,0,0,0,0,0,0
140,ACTION,0,0,0,0,0,0,0,0,0,0,0,0,0,0,0,0,0,0,0,0,0
141,ACTION,0,0,0,0,0,0,0,0,0,0,0,0,0,0,0,0,0,0,0,0,0
142,ACTION,0,0,0,0,0,0,0,0,0,0,0,0,0,0,0,0,0,0,0,0,0
143,ACTION,0,0,0,0,0,0,0,0,0,0,0,0,0,0,0,0,0,0,0,0,0
144,ACTION,0,0,0,0,0,0,0,0,0,0,0,0,0,0,0,0,0,0,0,0,0
145,ACTION,0,0,0,0,0,0,0,0,0,0,0,0,0,0,0,0,0,0,0,0,0
146,ACTION,0,0,0,0,0,0,0,0,0,0,0,0,0,0,0,0,0,0,0,0,0
147,ACTION,0,0,0,0,0,0,0,0,0,0,0,0,0,0,0,0,0,0,0,0,0
148,ACTION,0,0,0,0,0,0,0,0,0,0,0,0,0,0,0,0,0,0,0,0,0
149,ACTION,0,0,0,0,0,0,0,0,0,0,0,0,0,0,0,0,0,0,0,0,0


LevelIndex,SPCostLevelUp,PCLevel,Grade,ChoiceLimit,MaxOption,OptionIndex,OptionCode,OptionValue,MaxRequire,ReqIndex,Index,Level,CastTick,CoolTick,StartComboIndex,EndComboIndex,ResourceHP,ResourceMP,ResourceItemCode,ResourceItemCount,,
0,-,-,-,-,0,-,-,-,0,-,-,-,0,0,0,0,0,0,0,0,,
-,-,-,-,-,-,-,-,-,-,-,-,-,0,0,0,0,0,0,0,0,,
-,-,-,-,-,-,-,-,-,-,-,-,-,0,0,0,0,0,0,0,0,,
-,-,-,-,-,-,-,-,-,-,-,-,-,0,0,0,0,0,0,0,0,,
-,-,-,-,-,-,-,-,-,-,-,-,-,0,0,0,0,0,0,0,0,,
-,-,-,-,-,-,-,-,-,-,-,-,-,0,0,0,0,0,0,0,0
1,0,170,-,-,5,0,DEFENSE_MIN_ADD,115,0,-,-,-,0,0,0,0,0,0,0,0
-,-,-,-,-,-,1,POSITIVE_ALLRESIST_ADD,74,-,-,-,-,0,0,0,0,0,0,0,0
-,-,-,-,-,-,2,BALANCE_DEATHBLOW_ADD,74,-,-,-,-,0,0,0,0,0,0,0,0
-,-,-,-,-,-,3,BALANCE_GUARD_ADD,52,-,-,-,-,0,0,0,0,0,0,0,0
-,-,-,-,-,-,4,BALANCE_MAGIC_REGIST_ADD,297,-,-,-,-,0,0,0,0,0,0,0,0
-,-,-,-,-,-,-,-,-,-,-,-,-,0,0,0,0,0,0,0,0
2,0,171,-,-,5,0,DEFENSE_MIN_ADD,136,0,-,-,-,0,0,0,0,0,0,0,0
-,-,-,-,-,-,1,POSITIVE_ALLRESIST_ADD,79,-,-,-,-,0,0,0,0,0,0,0,0
-,-,-,-,-,-,2,BALANCE_DEATHBLOW_ADD,80,-,-,-,-,0,0,0,0,0,0,0,0
-,-,-,-,-,-,3,BALANCE_GUARD_ADD,56,-,-,-,-,0,0,0,0,0,0,0,0
-,-,-,-,-,-,4,BALANCE_MAGIC_REGIST_ADD,341,-,-,-,-,0,0,0,0,0,0,0,0
-,-,-,-,-,-,-,-,-,-,-,-,-,0,0,0,0,0,0,0,0
3,0,172,-,-,5,0,DEFENSE_MIN_ADD,167,0,-,-,-,0,0,0,0,0,0,0,0
-,-,-,-,-,-,1,POSITIVE_ALLRESIST_ADD,86,-,-,-,-,0,0,0,0,0,0,0,0
-,-,-,-,-,-,2,BALANCE_DEATHBLOW_ADD,89,-,-,-,-,0,0,0,0,0,0,0,0
-,-,-,-,-,-,3,BALANCE_GUARD_ADD,63,-,-,-,-,0,0,0,0,0,0,0,0
-,-,-,-,-,-,4,BALANCE_MAGIC_REGIST_ADD,387,-,-,-,-,0,0,0,0,0,0,0,0
-,-,-,-,-,-,-,-,-,-,-,-,-,0,0,0,0,0,0,0,0
4,0,173,-,-,5,0,DEFENSE_MIN_ADD,209,0,-,-,-,0,0,0,0,0,0,0,0
-,-,-,-,-,-,1,POSITIVE_ALLRESIST_ADD,96,-,-,-,-,0,0,0,0,0,0,0,0
-,-,-,-,-,-,2,BALANCE_DEATHBLOW_ADD,101,-,-,-,-,0,0,0,0,0,0,0,0
-,-,-,-,-,-,3,BALANCE_GUARD_ADD,73,-,-,-,-,0,0,0,0,0,0,0,0
-,-,-,-,-,-,4,BALANCE_MAGIC_REGIST_ADD,432,-,-,-,-,0,0,0,0,0,0,0,0
-,-,-,-,-,-,-,-,-,-,-,-,-,0,0,0,0,0,0,0,0
5,0,174,-,-,5,0,DEFENSE_MIN_ADD,262,0,-,-,-,0,0,0,0,0,0,0,0
-,-,-,-,-,-,1,POSITIVE_ALLRESIST_ADD,109,-,-,-,-,0,0,0,0,0,0,0,0
-,-,-,-,-,-,2,BALANCE_DEATHBLOW_ADD,116,-,-,-,-,0,0,0,0,0,0,0,0
-,-,-,-,-,-,3,BALANCE_GUARD_ADD,85,-,-,-,-,0,0,0,0,0,0,0,0
-,-,-,-,-,-,4,BALANCE_MAGIC_REGIST_ADD,478,-,-,-,-,0,0,0,0,0,0,0,0
-,-,-,-,-,-,-,-,-,-,-,-,-,0,0,0,0,0,0,0,0
6,0,175,-,-,5,0,DEFENSE_MIN_ADD,327,0,-,-,-,0,0,0,0,0,0,0,0
-,-,-,-,-,-,1,POSITIVE_ALLRESIST_ADD,124,-,-,-,-,0,0,0,0,0,0,0,0
-,-,-,-,-,-,2,BALANCE_DEATHBLOW_ADD,134,-,-,-,-,0,0,0,0,0,0,0,0
-,-,-,-,-,-,3,BALANCE_GUARD_ADD,100,-,-,-,-,0,0,0,0,0,0,0,0
-,-,-,-,-,-,4,BALANCE_MAGIC_REGIST_ADD,524,-,-,-,-,0,0,0,0,0,0,0,0
-,-,-,-,-,-,-,-,-,-,-,-,-,0,0,0,0,0,0,0,0
7,0,176,-,-,5,0,DEFENSE_MIN_ADD,403,0,-,-,-,0,0,0,0,0,0,0,0
-,-,-,-,-,-,1,POSITIVE_ALLRESIST_ADD,142,-,-,-,-,0,0,0,0,0,0,0,0
-,-,-,-,-,-,2,BALANCE_DEATHBLOW_ADD,155,-,-,-,-,0,0,0,0,0,0,0,0
-,-,-,-,-,-,3,BALANCE_GUARD_ADD,117,-,-,-,-,0,0,0,0,0,0,0,0
-,-,-,-,-,-,4,BALANCE_MAGIC_REGIST_ADD,572,-,-,-,-,0,0,0,0,0,0,0,0
-,-,-,-,-,-,-,-,-,-,-,-,-,0,0,0,0,0,0,0,0
8,0,177,-,-,5,0,DEFENSE_MIN_ADD,490,0,-,-,-,0,0,0,0,0,0,0,0
-,-,-,-,-,-,1,POSITIVE_ALLRESIST_ADD,163,-,-,-,-,0,0,0,0,0,0,0,0
-,-,-,-,-,-,2,BALANCE_DEATHBLOW_ADD,179,-,-,-,-,0,0,0,0,0,0,0,0
-,-,-,-,-,-,3,BALANCE_GUARD_ADD,137,-,-,-,-,0,0,0,0,0,0,0,0
-,-,-,-,-,-,4,BALANCE_MAGIC_REGIST_ADD,619,-,-,-,-,0,0,0,0,0,0,0,0
-,-,-,-,-,-,-,-,-,-,-,-,-,0,0,0,0,0,0,0,0
9,0,178,-,-,5,0,DEFENSE_MIN_ADD,589,0,-,-,-,0,0,0,0,0,0,0,0
-,-,-,-,-,-,1,POSITIVE_ALLRESIST_ADD,187,-,-,-,-,0,0,0,0,0,0,0,0
-,-,-,-,-,-,2,BALANCE_DEATHBLOW_ADD,207,-,-,-,-,0,0,0,0,0,0,0,0
-,-,-,-,-,-,3,BALANCE_GUARD_ADD,160,-,-,-,-,0,0,0,0,0,0,0,0
-,-,-,-,-,-,4,BALANCE_MAGIC_REGIST_ADD,667,-,-,-,-,0,0,0,0,0,0,0,0
-,-,-,-,-,-,-,-,-,-,-,-,-,0,0,0,0,0,0,0,0
10,0,179,-,-,5,0,DEFENSE_MIN_ADD,700,0,-,-,-,0,0,0,0,0,0,0,0
-,-,-,-,-,-,1,POSITIVE_ALLRESIST_ADD,213,-,-,-,-,0,0,0,0,0,0,0,0
-,-,-,-,-,-,2,BALANCE_DEATHBLOW_ADD,238,-,-,-,-,0,0,0,0,0,0,0,0
-,-,-,-,-,-,3,BALANCE_GUARD_ADD,186,-,-,-,-,0,0,0,0,0,0,0,0
-,-,-,-,-,-,4,BALANCE_MAGIC_REGIST_ADD,715,-,-,-,-,0,0,0,0,0,0,0,0
-,-,-,-,-,-,-,-,-,-,-,-,-,0,0,0,0,0,0,0,0
11,0,180,-,-,5,0,DEFENSE_MIN_ADD,22,0,-,-,-,0,0,0,0,0,0,0,0
-,-,-,-,-,-,1,POSITIVE_ALLRESIST_ADD,-,-,-,-,-,0,0,0,0,0,0,0,0
-,-,-,-,-,-,2,BALANCE_DEATHBLOW_ADD,-,-,-,-,-,0,0,0,0,0,0,0,0
-,-,-,-,-,-,3,BALANCE_GUARD_ADD,-,-,-,-,-,0,0,0,0,0,0,0,0
-,-,-,-,-,-,4,BALANCE_MAGIC_REGIST_ADD,-,-,-,-,-,0,0,0,0,0,0,0,0
-,-,-,-,-,-,-,-,-,-,-,-,-,0,0,0,0,0,0,0,0
12,0,181,-,-,5,0,DEFENSE_MIN_ADD,24,0,-,-,-,0,0,0,0,0,0,0,0
-,-,-,-,-,-,1,POSITIVE_ALLRESIST_ADD,-,-,-,-,-,0,0,0,0,0,0,0,0
-,-,-,-,-,-,2,BALANCE_DEATHBLOW_ADD,-,-,-,-,-,0,0,0,0,0,0,0,0
-,-,-,-,-,-,3,BALANCE_GUARD_ADD,-,-,-,-,-,0,0,0,0,0,0,0,0
-,-,-,-,-,-,4,BALANCE_MAGIC_REGIST_ADD,-,-,-,-,-,0,0,0,0,0,0,0,0
-,-,-,-,-,-,-,-,-,-,-,-,-,0,0,0,0,0,0,0,0
13,0,182,-,-,5,0,DEFENSE_MIN_ADD,26,0,-,-,-,0,0,0,0,0,0,0,0
-,-,-,-,-,-,1,POSITIVE_ALLRESIST_ADD,-,-,-,-,-,0,0,0,0,0,0,0,0
-,-,-,-,-,-,2,BALANCE_DEATHBLOW_ADD,-,-,-,-,-,0,0,0,0,0,0,0,0
-,-,-,-,-,-,3,BALANCE_GUARD_ADD,-,-,-,-,-,0,0,0,0,0,0,0,0
-,-,-,-,-,-,4,BALANCE_MAGIC_REGIST_ADD,-,-,-,-,-,0,0,0,0,0,0,0,0
-,-,-,-,-,-,-,-,-,-,-,-,-,0,0,0,0,0,0,0,0
14,0,183,-,-,5,0,DEFENSE_MIN_ADD,28,0,-,-,-,0,0,0,0,0,0,0,0
-,-,-,-,-,-,1,POSITIVE_ALLRESIST_ADD,-,-,-,-,-,0,0,0,0,0,0,0,0
-,-,-,-,-,-,2,BALANCE_DEATHBLOW_ADD,-,-,-,-,-,0,0,0,0,0,0,0,0
-,-,-,-,-,-,3,BALANCE_GUARD_ADD,-,-,-,-,-,0,0,0,0,0,0,0,0
-,-,-,-,-,-,4,BALANCE_MAGIC_REGIST_ADD,-,-,-,-,-,0,0,0,0,0,0,0,0
-,-,-,-,-,-,-,-,-,-,-,-,-,0,0,0,0,0,0,0,0
15,0,184,-,-,5,0,DEFENSE_MIN_ADD,30,0,-,-,-,0,0,0,0,0,0,0,0
-,-,-,-,-,-,1,POSITIVE_ALLRESIST_ADD,-,-,-,-,-,0,0,0,0,0,0,0,0
-,-,-,-,-,-,2,BALANCE_DEATHBLOW_ADD,-,-,-,-,-,0,0,0,0,0,0,0,0
-,-,-,-,-,-,3,BALANCE_GUARD_ADD,-,-,-,-,-,0,0,0,0,0,0,0,0
-,-,-,-,-,-,4,BALANCE_MAGIC_REGIST_ADD,-,-,-,-,-,0,0,0,0,0,0,0,0
-,-,-,-,-,-,-,-,-,-,-,-,-,0,0,0,0,0,0,0,0
