skill,,,,,,,,,,,,,,,,,,,,,,,,
Index,1105,,,,,,,,,,,,,,,,,,,,,,,
MaxLevel,10,,,,,,,,,,,,,,,,,,,,,,,
MaxStyleCode,1,,,,,,,,,,,,,,,,,,,,,,,
Name,-,,,,,,,,,,,,,,,,,,,,,,,
Distance,4,,,,,,,,,,,,,,,,,,,,,,,
TypeFlag,ACTION,,,,,,,,,,,,,,,,,,,,,,,
PCClassFlag,WAR,,,,,,,,,,,,,,,,,,,,,,,
Target,5,,,,,,,,,,,,,,,,,,,,,,,
AvailFlag,1,,,,,,,,,,,,,,,,,,,,,,,
IconIndex,1105,,,,,,,,,,,,,,,,,,,,,,,
IconPosX,2,,,,,,,,,,,,,,,,,,,,,,,
IconPosY,4,,,,,,,,,,,,,,,,,,,,,,,
IconTabIndex,2,,,,,,,,,,,,,,,,,,,,,,,
Description,-,,,,,,,,,,,,,,,,,,,,,,,
ActionType,PREPARE,,,,,,,,,,,,,,,,,,,,,,,
ReadyActionStyle,0,,,,,,,,,,,,,,,,,,,,,,,
ReadyActionIndex,0,,,,,,,,,,,,,,,,,,,,,,,
ReadyActionTimeTick,0,,,,,,,,,,,,,,,,,,,,,,,
ReadyEffectID,0,,,,,,,,,,,,,,,,,,,,,,,
ReadySceneID,0,,,,,,,,,,,,,,,,,,,,,,,
ReadyEffectTime,0,,,,,,,,,,,,,,,,,,,,,,,
ChargeActionStyle,0,,,,,,,,,,,,,,,,,,,,,,,
ChargeActionIndex,0,,,,,,,,,,,,,,,,,,,,,,,
ChargeActionTimeTick,0,,,,,,,,,,,,,,,,,,,,,,,
ChargeEffectID,0,,,,,,,,,,,,,,,,,,,,,,,
ChargeSceneID,0, ,,,,,,,,,,,,,,,,,,,,,,
ChargeEffectTime,0,,,,,,,,,,,,,,,,,,,,,,,
AwakeningCheck,0,,,,,,,,,,,,,,,,,,,,,,,
NeedType,0,,,,,,,,,,,,,,,,,,,,,,,
NeedIndex,0,,,,,,,,,,,,,,,,,,,,,,,
,,,,,,,,,,,,,,,,,,,,,,,,
Combo,,,,,,,,,,,,,,,,,Style,,,,,,,
ComboIndex,ActionType,Style,ActionIndex,TimeTick,EffectID,SceneID,EffectTime,AggroCode,PCDamageRate,ResultCode,Arg1,Arg2,Arg3,Arg4,Arg5,Arg6,Arg7,Arg8,Defeat,ResultEffectID,ResultSceneID,ResultEffectTime,StyleCodeIndex,StyleCode
0,ACTION,0,0,0,0,0,0,0,0,0,0,0,0,0,0,0,0,0,0,0,0,0,0,GAUNTLET
1,NO_CANCEL,255,28,700,0,0,0,2011,38,1000202,550,0,377,0,0,0,0,0,0,0,0,0,1,
2,NO_CANCEL,255,29,600,0,0,0,0,38,1000202,550,0,439,0,0,0,0,0,0,0,0,0,2,
3,NO_CANCEL,255,30,500,0,0,0,0,38,1000202,550,0,502,0,0,0,0,0,0,0,0,0,3,
4,NO_CANCEL,255,31,300,0,0,0,0,38,1000202,550,0,565,0,0,0,0,0,0,0,0,0,4,
5,NO_CANCEL,255,32,900,0,0,0,0,38,1000202,750,0,942,0,0,0,0,0,0,0,0,0,5,
6,ACTION,0,0,0,0,0,0,0,0,0,0,0,0,0,0,0,0,0,0,0,0,0,6,
7,ACTION,0,0,0,0,0,0,0,0,0,0,0,0,0,0,0,0,0,0,0,0,0,7,
8,ACTION,0,0,0,0,0,0,0,0,0,0,0,0,0,0,0,0,0,0,0,0,0,8,
9,ACTION,0,0,0,0,0,0,0,0,0,0,0,0,0,0,0,0,0,0,0,0,0,9,
10,ACTION,0,0,0,0,0,0,0,0,0,0,0,0,0,0,0,0,0,0,0,0,0,10,
11,NO_CANCEL,255,28,700,0,0,0,2011,38,1000202,550,0,465,0,0,0,0,0,0,0,0,0,11,
12,NO_CANCEL,255,29,600,0,0,0,0,38,1000202,550,0,534,0,0,0,0,0,0,0,0,0,12,
13,NO_CANCEL,255,30,500,0,0,0,0,38,1000202,550,0,602,0,0,0,0,0,0,0,0,0,13,
14,NO_CANCEL,255,31,300,0,0,0,0,38,1000202,550,0,671,0,0,0,0,0,0,0,0,0,14,
15,NO_CANCEL,255,32,900,0,0,0,0,38,1000202,750,0,1089,0,0,0,0,0,0,0,0,0,15,
16,ACTION,0,0,0,0,0,0,0,0,0,0,0,0,0,0,0,0,0,0,0,0,0,16,
17,ACTION,0,0,0,0,0,0,0,0,0,0,0,0,0,0,0,0,0,0,0,0,0,17,
18,ACTION,0,0,0,0,0,0,0,0,0,0,0,0,0,0,0,0,0,0,0,0,0,18,
19,ACTION,0,0,0,0,0,0,0,0,0,0,0,0,0,0,0,0,0,0,0,0,0,19,
20,ACTION,0,0,0,0,0,0,0,0,0,0,0,0,0,0,0,0,0,0,0,0,0,,
21,NO_CANCEL,255,28,700,0,0,0,2011,38,1000202,550,0,564,0,0,0,0,0,0,0,0,0,,
22,NO_CANCEL,255,29,600,0,0,0,0,38,1000202,550,0,638,0,0,0,0,0,0,0,0,0,,
23,NO_CANCEL,255,30,500,0,0,0,0,38,1000202,550,0,713,0,0,0,0,0,0,0,0,0,,
24,NO_CANCEL,255,31,300,0,0,0,0,38,1000202,550,0,787,0,0,0,0,0,0,0,0,0,,
25,NO_CANCEL,255,32,900,0,0,0,0,38,1000202,750,0,1248,0,0,0,0,0,0,0,0,0,,
26,ACTION,0,0,0,0,0,0,0,0,0,0,0,0,0,0,0,0,0,0,0,0,0,,
27,ACTION,0,0,0,0,0,0,0,0,0,0,0,0,0,0,0,0,0,0,0,0,0,,
28,ACTION,0,0,0,0,0,0,0,0,0,0,0,0,0,0,0,0,0,0,0,0,0,,
29,ACTION,0,0,0,0,0,0,0,0,0,0,0,0,0,0,0,0,0,0,0,0,0,,
30,ACTION,0,0,0,0,0,0,0,0,0,0,0,0,0,0,0,0,0,0,0,0,0,,
31,NO_CANCEL,255,28,700,0,0,0,2011,38,1000202,550,0,672,0,0,0,0,0,0,0,0,0,,
32,NO_CANCEL,255,29,600,0,0,0,0,38,1000202,550,0,752,0,0,0,0,0,0,0,0,0,,
33,NO_CANCEL,255,30,500,0,0,0,0,38,1000202,550,0,833,0,0,0,0,0,0,0,0,0,,
34,NO_CANCEL,255,31,300,0,0,0,0,38,1000202,550,0,913,0,0,0,0,0,0,0,0,0,,
35,NO_CANCEL,255,32,900,0,0,0,0,38,1000202,750,0,1417,0,0,0,0,0,0,0,0,0,,
36,ACTION,0,0,0,0,0,0,0,0,0,0,0,0,0,0,0,0,0,0,0,0,0,,
37,ACTION,0,0,0,0,0,0,0,0,0,0,0,0,0,0,0,0,0,0,0,0,0,,
38,ACTION,0,0,0,0,0,0,0,0,0,0,0,0,0,0,0,0,0,0,0,0,0,,
39,ACTION,0,0,0,0,0,0,0,0,0,0,0,0,0,0,0,0,0,0,0,0,0,,
40,ACTION,0,0,0,0,0,0,0,0,0,0,0,0,0,0,0,0,0,0,0,0,0,,
41,NO_CANCEL,255,28,700,0,0,0,2011,38,1000202,550,0,791,0,0,0,0,0,0,0,0,0,,
42,NO_CANCEL,255,29,600,0,0,0,0,38,1000202,550,0,877,0,0,0,0,0,0,0,0,0,,
43,NO_CANCEL,255,30,500,0,0,0,0,38,1000202,550,0,963,0,0,0,0,0,0,0,0,0,,
44,NO_CANCEL,255,31,300,0,0,0,0,38,1000202,550,0,1049,0,0,0,0,0,0,0,0,0,,
45,NO_CANCEL,255,32,900,0,0,0,0,38,1000202,750,0,1599,0,0,0,0,0,0,0,0,0,,
46,ACTION,0,0,0,0,0,0,0,0,0,0,0,0,0,0,0,0,0,0,0,0,0,,
47,ACTION,0,0,0,0,0,0,0,0,0,0,0,0,0,0,0,0,0,0,0,0,0,,
48,ACTION,0,0,0,0,0,0,0,0,0,0,0,0,0,0,0,0,0,0,0,0,0,,
49,ACTION,0,0,0,0,0,0,0,0,0,0,0,0,0,0,0,0,0,0,0,0,0,,
50,ACTION,0,0,0,0,0,0,0,0,0,0,0,0,0,0,0,0,0,0,0,0,0,,
51,NO_CANCEL,255,28,700,0,0,0,2011,38,1000202,550,0,920,0,0,0,0,0,0,0,0,0,,
52,NO_CANCEL,255,29,600,0,0,0,0,38,1000202,550,0,1012,0,0,0,0,0,0,0,0,0,,
53,NO_CANCEL,255,30,500,0,0,0,0,38,1000202,550,0,1104,0,0,0,0,0,0,0,0,0,,
54,NO_CANCEL,255,31,300,0,0,0,0,38,1000202,550,0,1196,0,0,0,0,0,0,0,0,0,,
55,NO_CANCEL,255,32,900,0,0,0,0,38,1000202,750,0,1794,0,0,0,0,0,0,0,0,0,,
56,ACTION,0,0,0,0,0,0,0,0,0,0,0,0,0,0,0,0,0,0,0,0,0,,
57,ACTION,0,0,0,0,0,0,0,0,0,0,0,0,0,0,0,0,0,0,0,0,0,,
58,ACTION,0,0,0,0,0,0,0,0,0,0,0,0,0,0,0,0,0,0,0,0,0,,
59,ACTION,0,0,0,0,0,0,0,0,0,0,0,0,0,0,0,0,0,0,0,0,0,,
60,ACTION,0,0,0,0,0,0,0,0,0,0,0,0,0,0,0,0,0,0,0,0,0,,
61,NO_CANCEL,255,28,700,0,0,0,2011,38,1000202,550,0,1059,0,0,0,0,0,0,0,0,0,,
62,NO_CANCEL,255,29,600,0,0,0,0,38,1000202,550,0,1157,0,0,0,0,0,0,0,0,0,,
63,NO_CANCEL,255,30,500,0,0,0,0,38,1000202,550,0,1255,0,0,0,0,0,0,0,0,0,,
64,NO_CANCEL,255,31,300,0,0,0,0,38,1000202,550,0,1353,0,0,0,0,0,0,0,0,0,,
65,NO_CANCEL,255,32,900,0,0,0,0,38,1000202,750,0,2001,0,0,0,0,0,0,0,0,0,,
66,ACTION,0,0,0,0,0,0,0,0,0,0,0,0,0,0,0,0,0,0,0,0,0,,
67,ACTION,0,0,0,0,0,0,0,0,0,0,0,0,0,0,0,0,0,0,0,0,0,,
68,ACTION,0,0,0,0,0,0,0,0,0,0,0,0,0,0,0,0,0,0,0,0,0,,
69,ACTION,0,0,0,0,0,0,0,0,0,0,0,0,0,0,0,0,0,0,0,0,0,,
70,ACTION,0,0,0,0,0,0,0,0,0,0,0,0,0,0,0,0,0,0,0,0,0,,
71,NO_CANCEL,255,28,700,0,0,0,2011,38,1000202,550,0,1210,0,0,0,0,0,0,0,0,0,,
72,NO_CANCEL,255,29,600,0,0,0,0,38,1000202,550,0,1314,0,0,0,0,0,0,0,0,0,,
73,NO_CANCEL,255,30,500,0,0,0,0,38,1000202,550,0,1419,0,0,0,0,0,0,0,0,0,,
74,NO_CANCEL,255,31,300,0,0,0,0,38,1000202,550,0,1523,0,0,0,0,0,0,0,0,0,,
75,NO_CANCEL,255,32,900,0,0,0,0,38,1000202,750,0,2222,0,0,0,0,0,0,0,0,0,,
76,ACTION,0,0,0,0,0,0,0,0,0,0,0,0,0,0,0,0,0,0,0,0,0,,
77,ACTION,0,0,0,0,0,0,0,0,0,0,0,0,0,0,0,0,0,0,0,0,0,,
78,ACTION,0,0,0,0,0,0,0,0,0,0,0,0,0,0,0,0,0,0,0,0,0,,
79,ACTION,0,0,0,0,0,0,0,0,0,0,0,0,0,0,0,0,0,0,0,0,0,,
80,ACTION,0,0,0,0,0,0,0,0,0,0,0,0,0,0,0,0,0,0,0,0,0,,
81,NO_CANCEL,255,28,700,0,0,0,2011,38,1000202,550,0,1372,0,0,0,0,0,0,0,0,0,,
82,NO_CANCEL,255,29,600,0,0,0,0,38,1000202,550,0,1482,0,0,0,0,0,0,0,0,0,,
83,NO_CANCEL,255,30,500,0,0,0,0,38,1000202,550,0,1593,0,0,0,0,0,0,0,0,0,,
84,NO_CANCEL,255,31,300,0,0,0,0,38,1000202,550,0,1704,0,0,0,0,0,0,0,0,0,,
85,NO_CANCEL,255,32,900,0,0,0,0,38,1000202,750,0,2456,0,0,0,0,0,0,0,0,0,,
86,ACTION,0,0,0,0,0,0,0,0,0,0,0,0,0,0,0,0,0,0,0,0,0,,
87,ACTION,0,0,0,0,0,0,0,0,0,0,0,0,0,0,0,0,0,0,0,0,0,,
88,ACTION,0,0,0,0,0,0,0,0,0,0,0,0,0,0,0,0,0,0,0,0,0,,
89,ACTION,0,0,0,0,0,0,0,0,0,0,0,0,0,0,0,0,0,0,0,0,0,,
90,ACTION,0,0,0,0,0,0,0,0,0,0,0,0,0,0,0,0,0,0,0,0,0,,
91,NO_CANCEL,255,28,700,0,0,0,2011,38,1000202,550,0,1544,0,0,0,0,0,0,0,0,0,,
92,NO_CANCEL,255,29,600,0,0,0,0,38,1000202,550,0,1661,0,0,0,0,0,0,0,0,0,,
93,NO_CANCEL,255,30,500,0,0,0,0,38,1000202,550,0,1778,0,0,0,0,0,0,0,0,0,,
94,NO_CANCEL,255,31,300,0,0,0,0,38,1000202,550,0,1895,0,0,0,0,0,0,0,0,0,,
95,NO_CANCEL,255,32,900,0,0,0,0,38,1000202,750,0,2702,0,0,0,0,0,0,0,0,0,,
96,ACTION,0,0,0,0,0,0,0,0,0,0,0,0,0,0,0,0,0,0,0,0,0,,
97,ACTION,0,0,0,0,0,0,0,0,0,0,0,0,0,0,0,0,0,0,0,0,0,,
98,ACTION,0,0,0,0,0,0,0,0,0,0,0,0,0,0,0,0,0,0,0,0,0,,
99,ACTION,0,0,0,0,0,0,0,0,0,0,0,0,0,0,0,0,0,0,0,0,0,,
100,ACTION,0,0,0,0,0,0,0,0,0,0,0,0,0,0,0,0,0,0,0,0,0,,
101,NO_CANCEL,255,28,700,0,0,0,2011,38,1000202,550,0,1775,0,0,0,0,0,0,0,0,0,,
102,NO_CANCEL,255,29,600,0,0,0,0,38,1000202,550,0,1902,0,0,0,0,0,0,0,0,0,,
103,NO_CANCEL,255,30,500,0,0,0,0,38,1000202,550,0,2028,0,0,0,0,0,0,0,0,0,,
104,NO_CANCEL,255,31,300,0,0,0,0,38,1000202,550,0,2155,0,0,0,0,0,0,0,0,0,,
105,NO_CANCEL,255,32,900,0,0,0,0,38,1000202,750,0,3043,0,0,0,0,0,0,0,0,0,,
106,ACTION,0,0,0,0,0,0,0,0,0,0,0,0,0,0,0,0,0,0,0,0,0,,
107,ACTION,0,0,0,0,0,0,0,0,0,0,0,0,0,0,0,0,0,0,0,0,0,,
108,ACTION,0,0,0,0,0,0,0,0,0,0,0,0,0,0,0,0,0,0,0,0,0,,
109,ACTION,0,0,0,0,0,0,0,0,0,0,0,0,0,0,0,0,0,0,0,0,0,,
110,ACTION,0,0,0,0,0,0,0,0,0,0,0,0,0,0,0,0,0,0,0,0,0,,
111,NO_CANCEL,255,28,700,0,0,0,2011,38,1000202,550,0,2023,0,0,0,0,0,0,0,0,0,,
112,NO_CANCEL,255,29,600,0,0,0,0,38,1000202,550,0,2160,0,0,0,0,0,0,0,0,0,,
113,NO_CANCEL,255,30,500,0,0,0,0,38,1000202,550,0,2297,0,0,0,0,0,0,0,0,0,,
114,NO_CANCEL,255,31,300,0,0,0,0,38,1000202,550,0,2434,0,0,0,0,0,0,0,0,0,,
115,NO_CANCEL,255,32,900,0,0,0,0,38,1000202,750,0,3405,0,0,0,0,0,0,0,0,0,,
116,ACTION,0,0,0,0,0,0,0,0,0,0,0,0,0,0,0,0,0,0,0,0,0,,
117,ACTION,0,0,0,0,0,0,0,0,0,0,0,0,0,0,0,0,0,0,0,0,0,,
118,ACTION,0,0,0,0,0,0,0,0,0,0,0,0,0,0,0,0,0,0,0,0,0,,
119,ACTION,0,0,0,0,0,0,0,0,0,0,0,0,0,0,0,0,0,0,0,0,0,,
120,ACTION,0,0,0,0,0,0,0,0,0,0,0,0,0,0,0,0,0,0,0,0,0,,
121,NO_CANCEL,255,28,700,0,0,0,2011,38,1000202,550,0,2291,0,0,0,0,0,0,0,0,0,,
122,NO_CANCEL,255,29,600,0,0,0,0,38,1000202,550,0,2438,0,0,0,0,0,0,0,0,0,,
123,NO_CANCEL,255,30,500,0,0,0,0,38,1000202,550,0,2585,0,0,0,0,0,0,0,0,0,,
124,NO_CANCEL,255,31,300,0,0,0,0,38,1000202,550,0,2732,0,0,0,0,0,0,0,0,0,,
125,NO_CANCEL,255,32,900,0,0,0,0,38,1000202,750,0,3790,0,0,0,0,0,0,0,0,0,,
126,ACTION,0,0,0,0,0,0,0,0,0,0,0,0,0,0,0,0,0,0,0,0,0,,
127,ACTION,0,0,0,0,0,0,0,0,0,0,0,0,0,0,0,0,0,0,0,0,0,,
128,ACTION,0,0,0,0,0,0,0,0,0,0,0,0,0,0,0,0,0,0,0,0,0,,
129,ACTION,0,0,0,0,0,0,0,0,0,0,0,0,0,0,0,0,0,0,0,0,0,,
130,ACTION,0,0,0,0,0,0,0,0,0,0,0,0,0,0,0,0,0,0,0,0,0,,
131,NO_CANCEL,255,28,700,0,0,0,2011,38,1000202,550,0,2578,0,0,0,0,0,0,0,0,0,,
132,NO_CANCEL,255,29,600,0,0,0,0,38,1000202,550,0,2736,0,0,0,0,0,0,0,0,0,,
133,NO_CANCEL,255,30,500,0,0,0,0,38,1000202,550,0,2893,0,0,0,0,0,0,0,0,0,,
134,NO_CANCEL,255,31,300,0,0,0,0,38,1000202,550,0,3050,0,0,0,0,0,0,0,0,0,,
135,NO_CANCEL,255,32,900,0,0,0,0,38,1000202,750,0,4198,0,0,0,0,0,0,0,0,0,,
136,ACTION,0,0,0,0,0,0,0,0,0,0,0,0,0,0,0,0,0,0,0,0,0,,
137,ACTION,0,0,0,0,0,0,0,0,0,0,0,0,0,0,0,0,0,0,0,0,0,,
138,ACTION,0,0,0,0,0,0,0,0,0,0,0,0,0,0,0,0,0,0,0,0,0,,
139,ACTION,0,0,0,0,0,0,0,0,0,0,0,0,0,0,0,0,0,0,0,0,0,,
140,ACTION,0,0,0,0,0,0,0,0,0,0,0,0,0,0,0,0,0,0,0,0,0,,
141,NO_CANCEL,255,28,700,0,0,0,2011,38,1000202,550,0,2885,0,0,0,0,0,0,0,0,0,,
142,NO_CANCEL,255,29,600,0,0,0,0,38,1000202,550,0,3053,0,0,0,0,0,0,0,0,0,,
143,NO_CANCEL,255,30,500,0,0,0,0,38,1000202,550,0,3220,0,0,0,0,0,0,0,0,0,,
144,NO_CANCEL,255,31,300,0,0,0,0,38,1000202,550,0,3388,0,0,0,0,0,0,0,0,0,,
145,NO_CANCEL,255,32,900,0,0,0,0,38,1000202,750,0,4629,0,0,0,0,0,0,0,0,0,,
146,ACTION,0,0,0,0,0,0,0,0,0,0,0,0,0,0,0,0,0,0,0,0,0,,
147,ACTION,0,0,0,0,0,0,0,0,0,0,0,0,0,0,0,0,0,0,0,0,0,,
148,ACTION,0,0,0,0,0,0,0,0,0,0,0,0,0,0,0,0,0,0,0,0,0,,
149,ACTION,0,0,0,0,0,0,0,0,0,0,0,0,0,0,0,0,0,0,0,0,0,,
,,,,,,,,,,,,,,,,,,,,,,,,
,,,,,,,,,,,,,,,,,,,,,,,,
LevelIndex,SPCostLevelUp,PCLevel,Grade,ChoiceLimit,MaxOption,OptionIndex,OptionCode,OptionValue,MaxRequire,ReqIndex,Index,Level,CastTick,CoolTick,StartComboIndex,EndComboIndex,ResourceHP,ResourceMP,ResourceItemCode,ResourceItemCount,,,,
0,0,0,0,0,0,-,-,-,0,-,-,-,0,0,0,0,0,0,0,0,,,,
-,-,-,-,-,-,-,-,-,-,-,-,-,0,0,0,0,0,0,0,0,,,,
-,-,-,-,-,-,-,-,-,-,-,-,-,0,0,0,0,0,0,0,0,,,,
-,-,-,-,-,-,-,-,-,-,-,-,-,0,0,0,0,0,0,0,0,,,,
-,-,-,-,-,-,-,-,-,-,-,-,-,0,0,0,0,0,0,0,0,,,,
-,-,-,-,-,-,-,-,-,-,-,-,-,0,0,0,0,0,0,0,0,,,,
1,0,73,0,0,0,-,-,-,1,0,1106,1,0,22000,1,5,0,91,0,0,,,,
-,-,-,-,-,-,-,-,-,-,-,-,-,0,0,0,0,0,0,0,0,,,,
-,-,-,-,-,-,-,-,-,-,-,-,-,0,0,0,0,0,0,0,0,,,,
-,-,-,-,-,-,-,-,-,-,-,-,-,0,0,0,0,0,0,0,0,,,,
-,-,-,-,-,-,-,-,-,-,-,-,-,0,0,0,0,0,0,0,0,,,,
-,-,-,-,-,-,-,-,-,-,-,-,-,0,0,0,0,0,0,0,0,,,,
2,1,79,0,0,0,-,-,-,1,0,1106,1,0,21500,11,15,0,98,0,0,,,,
-,-,-,-,-,-,-,-,-,-,-,-,-,0,0,0,0,0,0,0,0,,,,
-,-,-,-,-,-,-,-,-,-,-,-,-,0,0,0,0,0,0,0,0,,,,
-,-,-,-,-,-,-,-,-,-,-,-,-,0,0,0,0,0,0,0,0,,,,
-,-,-,-,-,-,-,-,-,-,-,-,-,0,0,0,0,0,0,0,0,,,,
-,-,-,-,-,-,-,-,-,-,-,-,-,0,0,0,0,0,0,0,0,,,,
3,1,85,0,0,0,-,-,-,1,0,1106,1,0,21000,21,25,0,106,0,0,,,,
-,-,-,-,-,-,-,-,-,-,-,-,-,0,0,0,0,0,0,0,0,,,,
-,-,-,-,-,-,-,-,-,-,-,-,-,0,0,0,0,0,0,0,0,,,,
-,-,-,-,-,-,-,-,-,-,-,-,-,0,0,0,0,0,0,0,0,,,,
-,-,-,-,-,-,-,-,-,-,-,-,-,0,0,0,0,0,0,0,0,,,,
-,-,-,-,-,-,-,-,-,-,-,-,-,0,0,0,0,0,0,0,0,,,,
4,1,91,0,0,0,-,-,-,1,0,1106,1,0,20500,31,35,0,113,0,0,,,,
-,-,-,-,-,-,-,-,-,-,-,-,-,0,0,0,0,0,0,0,0,,,,
-,-,-,-,-,-,-,-,-,-,-,-,-,0,0,0,0,0,0,0,0,,,,
-,-,-,-,-,-,-,-,-,-,-,-,-,0,0,0,0,0,0,0,0,,,,
-,-,-,-,-,-,-,-,-,-,-,-,-,0,0,0,0,0,0,0,0,,,,
-,-,-,-,-,-,-,-,-,-,-,-,-,0,0,0,0,0,0,0,0,,,,
5,1,97,0,0,0,-,-,-,1,0,1106,1,0,20000,41,45,0,120,0,0,,,,
-,-,-,-,-,-,-,-,-,-,-,-,-,0,0,0,0,0,0,0,0,,,,
-,-,-,-,-,-,-,-,-,-,-,-,-,0,0,0,0,0,0,0,0,,,,
-,-,-,-,-,-,-,-,-,-,-,-,-,0,0,0,0,0,0,0,0,,,,
-,-,-,-,-,-,-,-,-,-,-,-,-,0,0,0,0,0,0,0,0,,,,
-,-,-,-,-,-,-,-,-,-,-,-,-,0,0,0,0,0,0,0,0,,,,
6,1,103,0,0,0,-,-,-,1,0,1106,1,0,19500,51,55,0,128,0,0,,,,
-,-,-,-,-,-,-,-,-,-,-,-,-,0,0,0,0,0,0,0,0,,,,
-,-,-,-,-,-,-,-,-,-,-,-,-,0,0,0,0,0,0,0,0,,,,
-,-,-,-,-,-,-,-,-,-,-,-,-,0,0,0,0,0,0,0,0,,,,
-,-,-,-,-,-,-,-,-,-,-,-,-,0,0,0,0,0,0,0,0,,,,
-,-,-,-,-,-,-,-,-,-,-,-,-,0,0,0,0,0,0,0,0,,,,
7,1,109,0,0,0,-,-,-,1,0,1106,1,0,19000,61,65,0,135,0,0,,,,
-,-,-,-,-,-,-,-,-,-,-,-,-,0,0,0,0,0,0,0,0,,,,
-,-,-,-,-,-,-,-,-,-,-,-,-,0,0,0,0,0,0,0,0,,,,
-,-,-,-,-,-,-,-,-,-,-,-,-,0,0,0,0,0,0,0,0,,,,
-,-,-,-,-,-,-,-,-,-,-,-,-,0,0,0,0,0,0,0,0,,,,
-,-,-,-,-,-,-,-,-,-,-,-,-,0,0,0,0,0,0,0,0,,,,
8,1,115,0,0,0,-,-,-,1,0,1106,1,0,18500,71,75,0,142,0,0,,,,
-,-,-,-,-,-,-,-,-,-,-,-,-,0,0,0,0,0,0,0,0,,,,
-,-,-,-,-,-,-,-,-,-,-,-,-,0,0,0,0,0,0,0,0,,,,
-,-,-,-,-,-,-,-,-,-,-,-,-,0,0,0,0,0,0,0,0,,,,
-,-,-,-,-,-,-,-,-,-,-,-,-,0,0,0,0,0,0,0,0,,,,
-,-,-,-,-,-,-,-,-,-,-,-,-,0,0,0,0,0,0,0,0,,,,
9,1,121,0,0,0,-,-,-,1,0,1106,1,0,18000,81,85,0,150,0,0,,,,
-,-,-,-,-,-,-,-,-,-,-,-,-,0,0,0,0,0,0,0,0,,,,
-,-,-,-,-,-,-,-,-,-,-,-,-,0,0,0,0,0,0,0,0,,,,
-,-,-,-,-,-,-,-,-,-,-,-,-,0,0,0,0,0,0,0,0,,,,
-,-,-,-,-,-,-,-,-,-,-,-,-,0,0,0,0,0,0,0,0,,,,
-,-,-,-,-,-,-,-,-,-,-,-,-,0,0,0,0,0,0,0,0,,,,
10,1,127,0,0,0,-,-,-,1,0,1106,1,0,17500,91,95,0,157,0,0,,,,
-,-,-,-,-,-,-,-,-,-,-,-,-,0,0,0,0,0,0,0,0,,,,
-,-,-,-,-,-,-,-,-,-,-,-,-,0,0,0,0,0,0,0,0,,,,
-,-,-,-,-,-,-,-,-,-,-,-,-,0,0,0,0,0,0,0,0,,,,
-,-,-,-,-,-,-,-,-,-,-,-,-,0,0,0,0,0,0,0,0,,,,
-,-,-,-,-,-,-,-,-,-,-,-,-,0,0,0,0,0,0,0,0,,,,
11,1,170,0,0,0,-,-,-,1,0,1106,1,0,17500,101,105,0,210,0,0,,,,
-,-,-,-,-,-,-,-,-,-,-,-,-,0,0,0,0,0,0,0,0,,,,
-,-,-,-,-,-,-,-,-,-,-,-,-,0,0,0,0,0,0,0,0,,,,
-,-,-,-,-,-,-,-,-,-,-,-,-,0,0,0,0,0,0,0,0,,,,
-,-,-,-,-,-,-,-,-,-,-,-,-,0,0,0,0,0,0,0,0,,,,
-,-,-,-,-,-,-,-,-,-,-,-,-,0,0,0,0,0,0,0,0,,,,
12,1,170,0,0,0,-,-,-,1,0,1106,1,0,17500,111,115,0,210,0,0,,,,
-,-,-,-,-,-,-,-,-,-,-,-,-,0,0,0,0,0,0,0,0,,,,
-,-,-,-,-,-,-,-,-,-,-,-,-,0,0,0,0,0,0,0,0,,,,
-,-,-,-,-,-,-,-,-,-,-,-,-,0,0,0,0,0,0,0,0,,,,
-,-,-,-,-,-,-,-,-,-,-,-,-,0,0,0,0,0,0,0,0,,,,
-,-,-,-,-,-,-,-,-,-,-,-,-,0,0,0,0,0,0,0,0,,,,
13,1,170,0,0,0,-,-,-,1,0,1106,1,0,17500,121,125,0,210,0,0,,,,
-,-,-,-,-,-,-,-,-,-,-,-,-,0,0,0,0,0,0,0,0,,,,
-,-,-,-,-,-,-,-,-,-,-,-,-,0,0,0,0,0,0,0,0,,,,
-,-,-,-,-,-,-,-,-,-,-,-,-,0,0,0,0,0,0,0,0,,,,
-,-,-,-,-,-,-,-,-,-,-,-,-,0,0,0,0,0,0,0,0,,,,
-,-,-,-,-,-,-,-,-,-,-,-,-,0,0,0,0,0,0,0,0,,,,
14,1,170,0,0,0,-,-,-,1,0,1106,1,0,17500,131,135,0,210,0,0,,,,
-,-,-,-,-,-,-,-,-,-,-,-,-,0,0,0,0,0,0,0,0,,,,
-,-,-,-,-,-,-,-,-,-,-,-,-,0,0,0,0,0,0,0,0,,,,
-,-,-,-,-,-,-,-,-,-,-,-,-,0,0,0,0,0,0,0,0,,,,
-,-,-,-,-,-,-,-,-,-,-,-,-,0,0,0,0,0,0,0,0,,,,
-,-,-,-,-,-,-,-,-,-,-,-,-,0,0,0,0,0,0,0,0,,,,
15,1,170,0,0,0,-,-,-,1,0,1106,1,0,17500,141,145,0,210,0,0,,,,
-,-,-,-,-,-,-,-,-,-,-,-,-,0,0,0,0,0,0,0,0,,,,
-,-,-,-,-,-,-,-,-,-,-,-,-,0,0,0,0,0,0,0,0,,,,
-,-,-,-,-,-,-,-,-,-,-,-,-,0,0,0,0,0,0,0,0,,,,
-,-,-,-,-,-,-,-,-,-,-,-,-,0,0,0,0,0,0,0,0,,,,
-,-,-,-,-,-,-,-,-,-,-,-,-,0,0,0,0,0,0,0,0,,,,
