skill,,,,,,,,,,,,,,,,,,,,,,,,
Index,1211,,,,,,,,,,,,,,,,,,,,,,,
MaxLevel,10,,,,,,,,,,,,,,,,,,,,,,,
MaxStyleCode,2,,,,,,,,,,,,,,,,,,,,,,,
Name,-,,,,,,,,,,,,,,,,,,,,,,,
Distance,4,,,,,,,,,,,,,,,,,,,,,,,
TypeFlag,ACTION,,,,,,,,,,,,,,,,,,,,,,,
PCClassFlag,ALO,,,,,,,,,,,,,,,,,,,,,,,
Target,5,,,,,,,,,,,,,,,,,,,,,,,
AvailFlag,1,,,,,,,,,,,,,,,,,,,,,,,
IconIndex,1211,,,,,,,,,,,,,,,,,,,,,,,
IconPosX,1,,,,,,,,,,,,,,,,,,,,,,,
IconPosY,8,,,,,,,,,,,,,,,,,,,,,,,
IconTabIndex,1,,,,,,,,,,,,,,,,,,,,,,,
Description,-,,,,,,,,,,,,,,,,,,,,,,,
ActionType,PREPARE,,,,,,,,,,,,,,,,,,,,,,,
ReadyActionStyle,0,,,,,,,,,,,,,,,,,,,,,,,
ReadyActionIndex,0,,,,,,,,,,,,,,,,,,,,,,,
ReadyActionTimeTick,0,,,,,,,,,,,,,,,,,,,,,,,
ReadyEffectID,0,,,,,,,,,,,,,,,,,,,,,,,
ReadySceneID,0,,,,,,,,,,,,,,,,,,,,,,,
ReadyEffectTime,0,,,,,,,,,,,,,,,,,,,,,,,
ChargeActionStyle,0,,,,,,,,,,,,,,,,,,,,,,,
ChargeActionIndex,0,,,,,,,,,,,,,,,,,,,,,,,
ChargeActionTimeTick,0,,,,,,,,,,,,,,,,,,,,,,,
ChargeEffectID,0,,,,,,,,,,,,,,,,,,,,,,,
ChargeSceneID,0, ,,,,,,,,,,,,,,,,,,,,,,
ChargeEffectTime,0,,,,,,,,,,,,,,,,,,,,,,,
AwakeningCheck,0,,,,,,,,,,,,,,,,,,,,,,,
NeedType,0,,,,,,,,,,,,,,,,,,,,,,,
NeedIndex,0,,,,,,,,,,,,,,,,,,,,,,,
,,,,,,,,,,,,,,,,,,,,,,,,
Combo,,,,,,,,,,,,,,,,,Style,,,,,,,
ComboIndex,ActionType,Style,ActionIndex,TimeTick,EffectID,SceneID,EffectTime,AggroCode,PCDamageRate,ResultCode,Arg1,Arg2,Arg3,Arg4,Arg5,Arg6,Arg7,Arg8,Defeat,ResultEffectID,ResultSceneID,ResultEffectTime,StyleCodeIndex,StyleCode
0,ACTION,0,0,0,0,0,0,0,0,0,0,0,0,0,0,0,0,0,0,0,0,0,0,ALOKEN_SPEAR
1,NO_CANCEL,255,57,3,0,0,0,4009,0,4000003,100,9740,14000,0,0,0,0,0,0,0,0,0,1,GUARDARM_SPEAR
2,NO_CANCEL,255,72,1000,0,0,0,0,42,1000202,576,0,717,0,0,0,0,0,0,35,1,500,2,
3,NO_CANCEL,255,73,500,0,0,0,0,42,1000202,576,0,897,0,0,0,0,0,0,35,1,500,3,
4,NO_CANCEL,255,74,500,0,0,0,0,42,1000202,576,0,897,0,0,0,0,0,0,35,1,500,4,
5,NO_CANCEL,255,75,500,0,0,0,0,42,1000202,576,0,897,0,0,0,0,0,0,35,1,500,5,
6,NO_CANCEL,255,76,1000,0,0,0,0,42,1000202,576,0,897,0,0,0,0,0,0,35,1,500,6,
7,ACTION,0,0,0,0,0,0,0,0,0,0,0,0,0,0,0,0,0,0,0,0,0,7,
8,ACTION,0,0,0,0,0,0,0,0,0,0,0,0,0,0,0,0,0,0,0,0,0,8,
9,ACTION,0,0,0,0,0,0,0,0,0,0,0,0,0,0,0,0,0,0,0,0,0,9,
10,ACTION,0,0,0,0,0,0,0,0,0,0,0,0,0,0,0,0,0,0,0,0,0,10,
11,NO_CANCEL,255,57,3,0,0,0,4009,0,4000003,100,9741,14000,0,0,0,0,0,0,0,0,0,11,
12,NO_CANCEL,255,72,1000,0,0,0,0,42,1000202,576,0,866,0,0,0,0,0,0,35,1,500,12,
13,NO_CANCEL,255,73,500,0,0,0,0,42,1000202,576,0,1059,0,0,0,0,0,0,35,1,500,13,
14,NO_CANCEL,255,74,500,0,0,0,0,42,1000202,576,0,1059,0,0,0,0,0,0,35,1,500,14,
15,NO_CANCEL,255,75,500,0,0,0,0,42,1000202,576,0,1059,0,0,0,0,0,0,35,1,500,15,
16,NO_CANCEL,255,76,1000,0,0,0,0,42,1000202,576,0,1059,0,0,0,0,0,0,35,1,500,16,
17,ACTION,0,0,0,0,0,0,0,0,0,0,0,0,0,0,0,0,0,0,0,0,0,17,
18,ACTION,0,0,0,0,0,0,0,0,0,0,0,0,0,0,0,0,0,0,0,0,0,18,
19,ACTION,0,0,0,0,0,0,0,0,0,0,0,0,0,0,0,0,0,0,0,0,0,19,
20,ACTION,0,0,0,0,0,0,0,0,0,0,0,0,0,0,0,0,0,0,0,0,0,,
21,NO_CANCEL,255,57,3,0,0,0,4009,0,4000003,100,9742,14000,0,0,0,0,0,0,0,0,0,,
22,NO_CANCEL,255,72,1000,0,0,0,0,42,1000202,576,0,1030,0,0,0,0,0,0,35,1,500,,
23,NO_CANCEL,255,73,500,0,0,0,0,42,1000202,576,0,1236,0,0,0,0,0,0,35,1,500,,
24,NO_CANCEL,255,74,500,0,0,0,0,42,1000202,576,0,1236,0,0,0,0,0,0,35,1,500,,
25,NO_CANCEL,255,75,500,0,0,0,0,42,1000202,576,0,1236,0,0,0,0,0,0,35,1,500,,
26,NO_CANCEL,255,76,1000,0,0,0,0,42,1000202,576,0,1236,0,0,0,0,0,0,35,1,500,,
27,ACTION,0,0,0,0,0,0,0,0,0,0,0,0,0,0,0,0,0,0,0,0,0,,
28,ACTION,0,0,0,0,0,0,0,0,0,0,0,0,0,0,0,0,0,0,0,0,0,,
29,ACTION,0,0,0,0,0,0,0,0,0,0,0,0,0,0,0,0,0,0,0,0,0,,
30,ACTION,0,0,0,0,0,0,0,0,0,0,0,0,0,0,0,0,0,0,0,0,0,,
31,NO_CANCEL,255,57,3,0,0,0,4009,0,4000003,100,9743,14000,0,0,0,0,0,0,0,0,0,,
32,NO_CANCEL,255,72,1000,0,0,0,0,42,1000202,576,0,1208,0,0,0,0,0,0,35,1,500,,
33,NO_CANCEL,255,73,500,0,0,0,0,42,1000202,576,0,1428,0,0,0,0,0,0,35,1,500,,
34,NO_CANCEL,255,74,500,0,0,0,0,42,1000202,576,0,1428,0,0,0,0,0,0,35,1,500,,
35,NO_CANCEL,255,75,500,0,0,0,0,42,1000202,576,0,1428,0,0,0,0,0,0,35,1,500,,
36,NO_CANCEL,255,76,1000,0,0,0,0,42,1000202,576,0,1428,0,0,0,0,0,0,35,1,500,,
37,ACTION,0,0,0,0,0,0,0,0,0,0,0,0,0,0,0,0,0,0,0,0,0,,
38,ACTION,0,0,0,0,0,0,0,0,0,0,0,0,0,0,0,0,0,0,0,0,0,,
39,ACTION,0,0,0,0,0,0,0,0,0,0,0,0,0,0,0,0,0,0,0,0,0,,
40,ACTION,0,0,0,0,0,0,0,0,0,0,0,0,0,0,0,0,0,0,0,0,0,,
41,NO_CANCEL,255,57,3,0,0,0,4009,0,4000003,100,9744,14000,0,0,0,0,0,0,0,0,0,,
42,NO_CANCEL,255,72,1000,0,0,0,0,42,1000202,576,0,1402,0,0,0,0,0,0,35,1,500,,
43,NO_CANCEL,255,73,500,0,0,0,0,42,1000202,576,0,1636,0,0,0,0,0,0,35,1,500,,
44,NO_CANCEL,255,74,500,0,0,0,0,42,1000202,576,0,1636,0,0,0,0,0,0,35,1,500,,
45,NO_CANCEL,255,75,500,0,0,0,0,42,1000202,576,0,1636,0,0,0,0,0,0,35,1,500,,
46,NO_CANCEL,255,76,1000,0,0,0,0,42,1000202,576,0,1636,0,0,0,0,0,0,35,1,500,,
47,ACTION,0,0,0,0,0,0,0,0,0,0,0,0,0,0,0,0,0,0,0,0,0,,
48,ACTION,0,0,0,0,0,0,0,0,0,0,0,0,0,0,0,0,0,0,0,0,0,,
49,ACTION,0,0,0,0,0,0,0,0,0,0,0,0,0,0,0,0,0,0,0,0,0,,
50,ACTION,0,0,0,0,0,0,0,0,0,0,0,0,0,0,0,0,0,0,0,0,0,,
51,NO_CANCEL,255,57,3,0,0,0,4009,0,4000003,100,9745,14000,0,0,0,0,0,0,0,0,0,,
52,NO_CANCEL,255,72,1000,0,0,0,0,42,1000202,576,0,1610,0,0,0,0,0,0,35,1,500,,
53,NO_CANCEL,255,73,500,0,0,0,0,42,1000202,576,0,1858,0,0,0,0,0,0,35,1,500,,
54,NO_CANCEL,255,74,500,0,0,0,0,42,1000202,576,0,1858,0,0,0,0,0,0,35,1,500,,
55,NO_CANCEL,255,75,500,0,0,0,0,42,1000202,576,0,1858,0,0,0,0,0,0,35,1,500,,
56,NO_CANCEL,255,76,1000,0,0,0,0,42,1000202,576,0,1858,0,0,0,0,0,0,35,1,500,,
57,ACTION,0,0,0,0,0,0,0,0,0,0,0,0,0,0,0,0,0,0,0,0,0,,
58,ACTION,0,0,0,0,0,0,0,0,0,0,0,0,0,0,0,0,0,0,0,0,0,,
59,ACTION,0,0,0,0,0,0,0,0,0,0,0,0,0,0,0,0,0,0,0,0,0,,
60,ACTION,0,0,0,0,0,0,0,0,0,0,0,0,0,0,0,0,0,0,0,0,0,,
61,NO_CANCEL,255,57,3,0,0,0,4009,0,4000003,100,9746,14000,0,0,0,0,0,0,0,0,0,,
62,NO_CANCEL,255,72,1000,0,0,0,0,42,1000202,576,0,1834,0,0,0,0,0,0,35,1,500,,
63,NO_CANCEL,255,73,500,0,0,0,0,42,1000202,576,0,2096,0,0,0,0,0,0,35,1,500,,
64,NO_CANCEL,255,74,500,0,0,0,0,42,1000202,576,0,2096,0,0,0,0,0,0,35,1,500,,
65,NO_CANCEL,255,75,500,0,0,0,0,42,1000202,576,0,2096,0,0,0,0,0,0,35,1,500,,
66,NO_CANCEL,255,76,1000,0,0,0,0,42,1000202,576,0,2096,0,0,0,0,0,0,35,1,500,,
67,ACTION,0,0,0,0,0,0,0,0,0,0,0,0,0,0,0,0,0,0,0,0,0,,
68,ACTION,0,0,0,0,0,0,0,0,0,0,0,0,0,0,0,0,0,0,0,0,0,,
69,ACTION,0,0,0,0,0,0,0,0,0,0,0,0,0,0,0,0,0,0,0,0,0,,
70,ACTION,0,0,0,0,0,0,0,0,0,0,0,0,0,0,0,0,0,0,0,0,0,,
71,NO_CANCEL,255,57,3,0,0,0,4009,0,4000003,100,9747,14000,0,0,0,0,0,0,0,0,0,,
72,NO_CANCEL,255,72,1000,0,0,0,0,42,1000202,576,0,2074,0,0,0,0,0,0,35,1,500,,
73,NO_CANCEL,255,73,500,0,0,0,0,42,1000202,576,0,2351,0,0,0,0,0,0,35,1,500,,
74,NO_CANCEL,255,74,500,0,0,0,0,42,1000202,576,0,2351,0,0,0,0,0,0,35,1,500,,
75,NO_CANCEL,255,75,500,0,0,0,0,42,1000202,576,0,2351,0,0,0,0,0,0,35,1,500,,
76,NO_CANCEL,255,76,1000,0,0,0,0,42,1000202,576,0,2351,0,0,0,0,0,0,35,1,500,,
77,ACTION,0,0,0,0,0,0,0,0,0,0,0,0,0,0,0,0,0,0,0,0,0,,
78,ACTION,0,0,0,0,0,0,0,0,0,0,0,0,0,0,0,0,0,0,0,0,0,,
79,ACTION,0,0,0,0,0,0,0,0,0,0,0,0,0,0,0,0,0,0,0,0,0,,
80,ACTION,0,0,0,0,0,0,0,0,0,0,0,0,0,0,0,0,0,0,0,0,0,,
81,NO_CANCEL,255,57,3,0,0,0,4009,0,4000003,100,9748,14000,0,0,0,0,0,0,0,0,0,,
82,NO_CANCEL,255,72,1000,0,0,0,0,42,1000202,576,0,2330,0,0,0,0,0,0,35,1,500,,
83,NO_CANCEL,255,73,500,0,0,0,0,42,1000202,576,0,2621,0,0,0,0,0,0,35,1,500,,
84,NO_CANCEL,255,74,500,0,0,0,0,42,1000202,576,0,2621,0,0,0,0,0,0,35,1,500,,
85,NO_CANCEL,255,75,500,0,0,0,0,42,1000202,576,0,2621,0,0,0,0,0,0,35,1,500,,
86,NO_CANCEL,255,76,1000,0,0,0,0,42,1000202,576,0,2621,0,0,0,0,0,0,35,1,500,,
87,ACTION,0,0,0,0,0,0,0,0,0,0,0,0,0,0,0,0,0,0,0,0,0,,
88,ACTION,0,0,0,0,0,0,0,0,0,0,0,0,0,0,0,0,0,0,0,0,0,,
89,ACTION,0,0,0,0,0,0,0,0,0,0,0,0,0,0,0,0,0,0,0,0,0,,
90,ACTION,0,0,0,0,0,0,0,0,0,0,0,0,0,0,0,0,0,0,0,0,0,,
91,NO_CANCEL,255,57,3,0,0,0,4009,0,4000003,100,9749,14000,0,0,0,0,0,0,0,0,0,,
92,NO_CANCEL,255,72,1000,0,0,0,0,42,1000202,576,0,2602,0,0,0,0,0,0,35,1,500,,
93,NO_CANCEL,255,73,500,0,0,0,0,42,1000202,576,0,2908,0,0,0,0,0,0,35,1,500,,
94,NO_CANCEL,255,74,500,0,0,0,0,42,1000202,576,0,2908,0,0,0,0,0,0,35,1,500,,
95,NO_CANCEL,255,75,500,0,0,0,0,42,1000202,576,0,2908,0,0,0,0,0,0,35,1,500,,
96,NO_CANCEL,255,76,1000,0,0,0,0,42,1000202,576,0,2908,0,0,0,0,0,0,35,1,500,,
97,ACTION,0,0,0,0,0,0,0,0,0,0,0,0,0,0,0,0,0,0,0,0,0,,
98,ACTION,0,0,0,0,0,0,0,0,0,0,0,0,0,0,0,0,0,0,0,0,0,,
99,ACTION,0,0,0,0,0,0,0,0,0,0,0,0,0,0,0,0,0,0,0,0,0,,
100,ACTION,0,0,0,0,0,0,0,0,0,0,0,0,0,0,0,0,0,0,0,0,0,,
101,NO_CANCEL,255,57,3,0,0,0,4009,0,4000003,100,9750,14000,0,0,0,0,0,0,0,0,0,,
102,NO_CANCEL,255,72,1000,0,0,0,0,42,1000202,576,0,2869,0,0,0,0,0,0,35,1,500,,
103,NO_CANCEL,255,73,500,0,0,0,0,42,1000202,576,0,3188,0,0,0,0,0,0,35,1,500,,
104,NO_CANCEL,255,74,500,0,0,0,0,42,1000202,576,0,3188,0,0,0,0,0,0,35,1,500,,
105,NO_CANCEL,255,75,500,0,0,0,0,42,1000202,576,0,3188,0,0,0,0,0,0,35,1,500,,
106,NO_CANCEL,255,76,1000,0,0,0,0,42,1000202,576,0,3188,0,0,0,0,0,0,35,1,500,,
107,ACTION,0,0,0,0,0,0,0,0,0,0,0,0,0,0,0,0,0,0,0,0,0,,
108,ACTION,0,0,0,0,0,0,0,0,0,0,0,0,0,0,0,0,0,0,0,0,0,,
109,ACTION,0,0,0,0,0,0,0,0,0,0,0,0,0,0,0,0,0,0,0,0,0,,
110,ACTION,0,0,0,0,0,0,0,0,0,0,0,0,0,0,0,0,0,0,0,0,0,,
111,NO_CANCEL,255,57,3,0,0,0,4009,0,4000003,100,9751,14000,0,0,0,0,0,0,0,0,0,,
112,NO_CANCEL,255,72,1000,0,0,0,0,42,1000202,576,0,3149,0,0,0,0,0,0,35,1,500,,
113,NO_CANCEL,255,73,500,0,0,0,0,42,1000202,576,0,3480,0,0,0,0,0,0,35,1,500,,
114,NO_CANCEL,255,74,500,0,0,0,0,42,1000202,576,0,3480,0,0,0,0,0,0,35,1,500,,
115,NO_CANCEL,255,75,500,0,0,0,0,42,1000202,576,0,3480,0,0,0,0,0,0,35,1,500,,
116,NO_CANCEL,255,76,1000,0,0,0,0,42,1000202,576,0,3480,0,0,0,0,0,0,35,1,500,,
117,ACTION,0,0,0,0,0,0,0,0,0,0,0,0,0,0,0,0,0,0,0,0,0,,
118,ACTION,0,0,0,0,0,0,0,0,0,0,0,0,0,0,0,0,0,0,0,0,0,,
119,ACTION,0,0,0,0,0,0,0,0,0,0,0,0,0,0,0,0,0,0,0,0,0,,
120,ACTION,0,0,0,0,0,0,0,0,0,0,0,0,0,0,0,0,0,0,0,0,0,,
121,NO_CANCEL,255,57,3,0,0,0,4009,0,4000003,100,9752,14000,0,0,0,0,0,0,0,0,0,,
122,NO_CANCEL,255,72,1000,0,0,0,0,42,1000202,576,0,3444,0,0,0,0,0,0,35,1,500,,
123,NO_CANCEL,255,73,500,0,0,0,0,42,1000202,576,0,3788,0,0,0,0,0,0,35,1,500,,
124,NO_CANCEL,255,74,500,0,0,0,0,42,1000202,576,0,3788,0,0,0,0,0,0,35,1,500,,
125,NO_CANCEL,255,75,500,0,0,0,0,42,1000202,576,0,3788,0,0,0,0,0,0,35,1,500,,
126,NO_CANCEL,255,76,1000,0,0,0,0,42,1000202,576,0,3788,0,0,0,0,0,0,35,1,500,,
127,ACTION,0,0,0,0,0,0,0,0,0,0,0,0,0,0,0,0,0,0,0,0,0,,
128,ACTION,0,0,0,0,0,0,0,0,0,0,0,0,0,0,0,0,0,0,0,0,0,,
129,ACTION,0,0,0,0,0,0,0,0,0,0,0,0,0,0,0,0,0,0,0,0,0,,
130,ACTION,0,0,0,0,0,0,0,0,0,0,0,0,0,0,0,0,0,0,0,0,0,,
131,NO_CANCEL,255,57,3,0,0,0,4009,0,4000003,100,9753,14000,0,0,0,0,0,0,0,0,0,,
132,NO_CANCEL,255,72,1000,0,0,0,0,42,1000202,576,0,3752,0,0,0,0,0,0,35,1,500,,
133,NO_CANCEL,255,73,500,0,0,0,0,42,1000202,576,0,4110,0,0,0,0,0,0,35,1,500,,
134,NO_CANCEL,255,74,500,0,0,0,0,42,1000202,576,0,4110,0,0,0,0,0,0,35,1,500,,
135,NO_CANCEL,255,75,500,0,0,0,0,42,1000202,576,0,4110,0,0,0,0,0,0,35,1,500,,
136,NO_CANCEL,255,76,1000,0,0,0,0,42,1000202,576,0,4110,0,0,0,0,0,0,35,1,500,,
137,ACTION,0,0,0,0,0,0,0,0,0,0,0,0,0,0,0,0,0,0,0,0,0,,
138,ACTION,0,0,0,0,0,0,0,0,0,0,0,0,0,0,0,0,0,0,0,0,0,,
139,ACTION,0,0,0,0,0,0,0,0,0,0,0,0,0,0,0,0,0,0,0,0,0,,
140,ACTION,0,0,0,0,0,0,0,0,0,0,0,0,0,0,0,0,0,0,0,0,0,,
141,NO_CANCEL,255,57,3,0,0,0,4009,0,4000003,100,9754,14000,0,0,0,0,0,0,0,0,0,,
142,NO_CANCEL,255,72,1000,0,0,0,0,42,1000202,576,0,4075,0,0,0,0,0,0,35,1,500,,
143,NO_CANCEL,255,73,500,0,0,0,0,42,1000202,576,0,4446,0,0,0,0,0,0,35,1,500,,
144,NO_CANCEL,255,74,500,0,0,0,0,42,1000202,576,0,4446,0,0,0,0,0,0,35,1,500,,
145,NO_CANCEL,255,75,500,0,0,0,0,42,1000202,576,0,4446,0,0,0,0,0,0,35,1,500,,
146,NO_CANCEL,255,76,1000,0,0,0,0,42,1000202,576,0,4446,0,0,0,0,0,0,35,1,500,,
147,ACTION,0,0,0,0,0,0,0,0,0,0,0,0,0,0,0,0,0,0,0,0,0,,
148,ACTION,0,0,0,0,0,0,0,0,0,0,0,0,0,0,0,0,0,0,0,0,0,,
149,ACTION,0,0,0,0,0,0,0,0,0,0,0,0,0,0,0,0,0,0,0,0,0,,
,,,,,,,,,,,,,,,,,,,,,,,,
,,,,,,,,,,,,,,,,,,,,,,,,
LevelIndex,SPCostLevelUp,PCLevel,Grade,ChoiceLimit,MaxOption,OptionIndex,OptionCode,OptionValue,MaxRequire,ReqIndex,Index,Level,CastTick,CoolTick,StartComboIndex,EndComboIndex,ResourceHP,ResourceMP,ResourceItemCode,ResourceItemCount,,,,
0,0,0,0,0,0,-,-,-,0,-,-,-,0,0,0,0,0,0,0,0,,,,
-,-,-,-,-,-,-,-,-,-,-,-,-,0,0,0,0,0,0,0,0,,,,
-,-,-,-,-,-,-,-,-,-,-,-,-,0,0,0,0,0,0,0,0,,,,
-,-,-,-,-,-,-,-,-,-,-,-,-,0,0,0,0,0,0,0,0,,,,
-,-,-,-,-,-,-,-,-,-,-,-,-,0,0,0,0,0,0,0,0,,,,
-,-,-,-,-,-,-,-,-,-,-,-,-,0,0,0,0,0,0,0,0,,,,
1,0,91,0,0,0,-,-,-,1,0,1213,1,0,19000,1,6,0,128,0,0,,,,
-,-,-,-,-,-,-,-,-,-,-,-,-,0,0,0,0,0,0,0,0,,,,
-,-,-,-,-,-,-,-,-,-,-,-,-,0,0,0,0,0,0,0,0,,,,
-,-,-,-,-,-,-,-,-,-,-,-,-,0,0,0,0,0,0,0,0,,,,
-,-,-,-,-,-,-,-,-,-,-,-,-,0,0,0,0,0,0,0,0,,,,
-,-,-,-,-,-,-,-,-,-,-,-,-,0,0,0,0,0,0,0,0,,,,
2,1,97,0,0,0,-,-,-,1,0,1213,1,0,19000,11,16,0,136,0,0,,,,
-,-,-,-,-,-,-,-,-,-,-,-,-,0,0,0,0,0,0,0,0,,,,
-,-,-,-,-,-,-,-,-,-,-,-,-,0,0,0,0,0,0,0,0,,,,
-,-,-,-,-,-,-,-,-,-,-,-,-,0,0,0,0,0,0,0,0,,,,
-,-,-,-,-,-,-,-,-,-,-,-,-,0,0,0,0,0,0,0,0,,,,
-,-,-,-,-,-,-,-,-,-,-,-,-,0,0,0,0,0,0,0,0,,,,
3,1,103,0,0,0,-,-,-,1,0,1213,1,0,19000,21,26,0,145,0,0,,,,
-,-,-,-,-,-,-,-,-,-,-,-,-,0,0,0,0,0,0,0,0,,,,
-,-,-,-,-,-,-,-,-,-,-,-,-,0,0,0,0,0,0,0,0,,,,
-,-,-,-,-,-,-,-,-,-,-,-,-,0,0,0,0,0,0,0,0,,,,
-,-,-,-,-,-,-,-,-,-,-,-,-,0,0,0,0,0,0,0,0,,,,
-,-,-,-,-,-,-,-,-,-,-,-,-,0,0,0,0,0,0,0,0,,,,
4,1,109,0,0,0,-,-,-,1,0,1213,1,0,19000,31,36,0,153,0,0,,,,
-,-,-,-,-,-,-,-,-,-,-,-,-,0,0,0,0,0,0,0,0,,,,
-,-,-,-,-,-,-,-,-,-,-,-,-,0,0,0,0,0,0,0,0,,,,
-,-,-,-,-,-,-,-,-,-,-,-,-,0,0,0,0,0,0,0,0,,,,
-,-,-,-,-,-,-,-,-,-,-,-,-,0,0,0,0,0,0,0,0,,,,
-,-,-,-,-,-,-,-,-,-,-,-,-,0,0,0,0,0,0,0,0,,,,
5,1,115,0,0,0,-,-,-,1,0,1213,1,0,19000,41,46,0,161,0,0,,,,
-,-,-,-,-,-,-,-,-,-,-,-,-,0,0,0,0,0,0,0,0,,,,
-,-,-,-,-,-,-,-,-,-,-,-,-,0,0,0,0,0,0,0,0,,,,
-,-,-,-,-,-,-,-,-,-,-,-,-,0,0,0,0,0,0,0,0,,,,
-,-,-,-,-,-,-,-,-,-,-,-,-,0,0,0,0,0,0,0,0,,,,
-,-,-,-,-,-,-,-,-,-,-,-,-,0,0,0,0,0,0,0,0,,,,
6,1,121,0,0,0,-,-,-,1,0,1213,1,0,19000,51,56,0,170,0,0,,,,
-,-,-,-,-,-,-,-,-,-,-,-,-,0,0,0,0,0,0,0,0,,,,
-,-,-,-,-,-,-,-,-,-,-,-,-,0,0,0,0,0,0,0,0,,,,
-,-,-,-,-,-,-,-,-,-,-,-,-,0,0,0,0,0,0,0,0,,,,
-,-,-,-,-,-,-,-,-,-,-,-,-,0,0,0,0,0,0,0,0,,,,
-,-,-,-,-,-,-,-,-,-,-,-,-,0,0,0,0,0,0,0,0,,,,
7,1,127,0,0,0,-,-,-,1,0,1213,1,0,19000,61,66,0,178,0,0,,,,
-,-,-,-,-,-,-,-,-,-,-,-,-,0,0,0,0,0,0,0,0,,,,
-,-,-,-,-,-,-,-,-,-,-,-,-,0,0,0,0,0,0,0,0,,,,
-,-,-,-,-,-,-,-,-,-,-,-,-,0,0,0,0,0,0,0,0,,,,
-,-,-,-,-,-,-,-,-,-,-,-,-,0,0,0,0,0,0,0,0,,,,
-,-,-,-,-,-,-,-,-,-,-,-,-,0,0,0,0,0,0,0,0,,,,
8,1,133,0,0,0,-,-,-,1,0,1213,1,0,19000,71,76,0,186,0,0,,,,
-,-,-,-,-,-,-,-,-,-,-,-,-,0,0,0,0,0,0,0,0,,,,
-,-,-,-,-,-,-,-,-,-,-,-,-,0,0,0,0,0,0,0,0,,,,
-,-,-,-,-,-,-,-,-,-,-,-,-,0,0,0,0,0,0,0,0,,,,
-,-,-,-,-,-,-,-,-,-,-,-,-,0,0,0,0,0,0,0,0,,,,
-,-,-,-,-,-,-,-,-,-,-,-,-,0,0,0,0,0,0,0,0,,,,
9,1,139,0,0,0,-,-,-,1,0,1213,1,0,19000,81,86,0,195,0,0,,,,
-,-,-,-,-,-,-,-,-,-,-,-,-,0,0,0,0,0,0,0,0,,,,
-,-,-,-,-,-,-,-,-,-,-,-,-,0,0,0,0,0,0,0,0,,,,
-,-,-,-,-,-,-,-,-,-,-,-,-,0,0,0,0,0,0,0,0,,,,
-,-,-,-,-,-,-,-,-,-,-,-,-,0,0,0,0,0,0,0,0,,,,
-,-,-,-,-,-,-,-,-,-,-,-,-,0,0,0,0,0,0,0,0,,,,
10,1,145,0,0,0,-,-,-,1,0,1213,1,0,19000,91,96,0,203,0,0,,,,
-,-,-,-,-,-,-,-,-,-,-,-,-,0,0,0,0,0,0,0,0,,,,
-,-,-,-,-,-,-,-,-,-,-,-,-,0,0,0,0,0,0,0,0,,,,
-,-,-,-,-,-,-,-,-,-,-,-,-,0,0,0,0,0,0,0,0,,,,
-,-,-,-,-,-,-,-,-,-,-,-,-,0,0,0,0,0,0,0,0,,,,
-,-,-,-,-,-,-,-,-,-,-,-,-,0,0,0,0,0,0,0,0,,,,
11,1,170,0,0,0,-,-,-,1,0,1213,1,0,19000,101,106,0,238,0,0,,,,
-,-,-,-,-,-,-,-,-,-,-,-,-,0,0,0,0,0,0,0,0,,,,
-,-,-,-,-,-,-,-,-,-,-,-,-,0,0,0,0,0,0,0,0,,,,
-,-,-,-,-,-,-,-,-,-,-,-,-,0,0,0,0,0,0,0,0,,,,
-,-,-,-,-,-,-,-,-,-,-,-,-,0,0,0,0,0,0,0,0,,,,
-,-,-,-,-,-,-,-,-,-,-,-,-,0,0,0,0,0,0,0,0,,,,
12,1,170,0,0,0,-,-,-,1,0,1213,1,0,19000,111,116,0,238,0,0,,,,
-,-,-,-,-,-,-,-,-,-,-,-,-,0,0,0,0,0,0,0,0,,,,
-,-,-,-,-,-,-,-,-,-,-,-,-,0,0,0,0,0,0,0,0,,,,
-,-,-,-,-,-,-,-,-,-,-,-,-,0,0,0,0,0,0,0,0,,,,
-,-,-,-,-,-,-,-,-,-,-,-,-,0,0,0,0,0,0,0,0,,,,
-,-,-,-,-,-,-,-,-,-,-,-,-,0,0,0,0,0,0,0,0,,,,
13,1,170,0,0,0,-,-,-,1,0,1213,1,0,19000,121,126,0,238,0,0,,,,
-,-,-,-,-,-,-,-,-,-,-,-,-,0,0,0,0,0,0,0,0,,,,
-,-,-,-,-,-,-,-,-,-,-,-,-,0,0,0,0,0,0,0,0,,,,
-,-,-,-,-,-,-,-,-,-,-,-,-,0,0,0,0,0,0,0,0,,,,
-,-,-,-,-,-,-,-,-,-,-,-,-,0,0,0,0,0,0,0,0,,,,
-,-,-,-,-,-,-,-,-,-,-,-,-,0,0,0,0,0,0,0,0,,,,
14,1,170,0,0,0,-,-,-,1,0,1213,1,0,19000,131,136,0,238,0,0,,,,
-,-,-,-,-,-,-,-,-,-,-,-,-,0,0,0,0,0,0,0,0,,,,
-,-,-,-,-,-,-,-,-,-,-,-,-,0,0,0,0,0,0,0,0,,,,
-,-,-,-,-,-,-,-,-,-,-,-,-,0,0,0,0,0,0,0,0,,,,
-,-,-,-,-,-,-,-,-,-,-,-,-,0,0,0,0,0,0,0,0,,,,
-,-,-,-,-,-,-,-,-,-,-,-,-,0,0,0,0,0,0,0,0,,,,
15,1,170,0,0,0,-,-,-,1,0,1213,1,0,19000,141,146,0,238,0,0,,,,
-,-,-,-,-,-,-,-,-,-,-,-,-,0,0,0,0,0,0,0,0,,,,
-,-,-,-,-,-,-,-,-,-,-,-,-,0,0,0,0,0,0,0,0,,,,
-,-,-,-,-,-,-,-,-,-,-,-,-,0,0,0,0,0,0,0,0,,,,
-,-,-,-,-,-,-,-,-,-,-,-,-,0,0,0,0,0,0,0,0,,,,
-,-,-,-,-,-,-,-,-,-,-,-,-,0,0,0,0,0,0,0,0,,,,
