skill,,,,,,,,,,,,,,,,,,,,,,,,
Index,1442,,,,,,,,,,,,,,,,,,,,,,,
MaxLevel,5,,,,,,,,,,,,,,,,,,,,,,,
MaxStyleCode,6,,,,,,,,,,,,,,,,,,,,,,,
Name,타란툴라,,,,,,,,,,,,,,,,,,,,,,,
Distance,10,,,,,,,,,,,,,,,,,,,,,,,
TypeFlag,ACTION,,,,,,,,,,,,,,,,,,,,,,,
PCClassFlag,CON,,,,,,,,,,,,,,,,,,,,,,,
Target,16,,,,,,,,,,,,,,,,,,,,,,,
AvailFlag,0,,,,,,,,,,,,,,,,,,,,,,,
IconIndex,1442,,,,,,,,,,,,,,,,,,,,,,,
IconPosX,2,,,,,,,,,,,,,,,,,,,,,,,
IconPosY,1,,,,,,,,,,,,,,,,,,,,,,,
IconTabIndex,4,,,,,,,,,,,,,,,,,,,,,,,
Description,모든 무기\ 이계의 생명체인 타란툴라를 소환한다.,,,,,,,,,,,,,,,,,,,,,,,
ActionType,PREPARE,,,,,,,,,,,,,,,,,,,,,,,
ReadyActionStyle,0,,,,,,,,,,,,,,,,,,,,,,,
ReadyActionIndex,4,,,,,,,,,,,,,,,,,,,,,,,
ReadyActionTimeTick,1000,,,,,,,,,,,,,,,,,,,,,,,
ReadyEffectID,0,,,,,,,,,,,,,,,,,,,,,,,
ReadySceneID,0,,,,,,,,,,,,,,,,,,,,,,,
ReadyEffectTime,0,,,,,,,,,,,,,,,,,,,,,,,
ChargeActionStyle,0,,,,,,,,,,,,,,,,,,,,,,,
ChargeActionIndex,5,,,,,,,,,,,,,,,,,,,,,,,
ChargeActionTimeTick,500,,,,,,,,,,,,,,,,,,,,,,,
ChargeEffectID,0,,,,,,,,,,,,,,,,,,,,,,,
ChargeSceneID,0, ,,,,,,,,,,,,,,,,,,,,,,
ChargeEffectTime,0,,,,,,,,,,,,,,,,,,,,,,,
AwakeningCheck,0,,,,,,,,,,,,,,,,,,,,,,,
NeedType,0,,,,,,,,,,,,,,,,,,,,,,,
NeedIndexMin,0,,,,,,,,,,,,,,,,,,,,,,,
,,,,,,,,,,,,,,,,,,,,,,,,
Combo,,,,,,,,,,,,,,,,,Style,,,,,,,
ComboIndex,ActionType,Style,ActionIndex,TimeTick,EffectID,SceneID,EffectTime,AggroCode,PCDamageRate,ResultCode,Arg1,Arg2,Arg3,Arg4,Arg5,Arg6,Arg7,Arg8,Defeat,ResultEffectID,ResultSceneID,ResultEffectTime,StyleCodeIndex,StyleCode
0,ACTION,0,0,0,0,0,0,0,0,0,0,0,0,0,0,0,0,0,0,0,0,0,0,BAREHANDS
1,NO_CANCEL,255,10004,1000,0,0,0,0,0,0,0,0,0,0,0,0,0,0,0,0,0,0,1,SHORTSWORD
2,NO_CANCEL,255,10005,500,0,0,0,0,0,0,0,0,0,0,0,0,0,0,0,0,0,0,2,SWORD
3,NO_CANCEL,255,2,1200,0,0,0,5034,0,5000001,4041,0,0,0,0,0,0,0,0,0,0,0,3,DUAL
4,ACTION,255,0,0,0,0,0,0,0,0,0,0,0,0,0,0,0,0,0,0,0,0,4,STAFF
5,ACTION,255,0,0,0,0,0,0,0,0,0,0,0,0,0,0,0,0,0,0,0,0,5,DUALBLADE
6,ACTION,255,0,0,0,0,0,0,0,0,0,0,0,0,0,0,0,0,0,0,0,0,6,
7,ACTION,255,0,0,0,0,0,0,0,0,0,0,0,0,0,0,0,0,0,0,0,0,7,
8,ACTION,255,0,0,0,0,0,0,0,0,0,0,0,0,0,0,0,0,0,0,0,0,8,
9,ACTION,255,0,0,0,0,0,0,0,0,0,0,0,0,0,0,0,0,0,0,0,0,9,
10,ACTION,0,0,0,0,0,0,0,0,0,0,0,0,0,0,0,0,0,0,0,0,0,10,
11,NO_CANCEL,255,10004,1000,0,0,0,0,0,0,0,0,0,0,0,0,0,0,0,0,0,0,11,
12,NO_CANCEL,255,10005,500,0,0,0,0,0,0,0,0,0,0,0,0,0,0,0,0,0,0,12,
13,NO_CANCEL,255,2,1200,0,0,0,5034,0,5000001,4042,0,0,0,0,0,0,0,0,0,0,0,13,
14,ACTION,255,0,0,0,0,0,0,0,0,0,0,0,0,0,0,0,0,0,0,0,0,14,
15,ACTION,255,0,0,0,0,0,0,0,0,0,0,0,0,0,0,0,0,0,0,0,0,15,
16,ACTION,255,0,0,0,0,0,0,0,0,0,0,0,0,0,0,0,0,0,0,0,0,16,
17,ACTION,255,0,0,0,0,0,0,0,0,0,0,0,0,0,0,0,0,0,0,0,0,17,
18,ACTION,255,0,0,0,0,0,0,0,0,0,0,0,0,0,0,0,0,0,0,0,0,18,
19,ACTION,255,0,0,0,0,0,0,0,0,0,0,0,0,0,0,0,0,0,0,0,0,19,
20,ACTION,0,0,0,0,0,0,0,0,0,0,0,0,0,0,0,0,0,0,0,0,0,,
21,NO_CANCEL,255,10004,1000,0,0,0,0,0,0,0,0,0,0,0,0,0,0,0,0,0,0,,
22,NO_CANCEL,255,10005,500,0,0,0,0,0,0,0,0,0,0,0,0,0,0,0,0,0,0,,
23,NO_CANCEL,255,2,1200,0,0,0,5034,0,5000001,4043,0,0,0,0,0,0,0,0,0,0,0,,
24,ACTION,255,0,0,0,0,0,0,0,0,0,0,0,0,0,0,0,0,0,0,0,0,,
25,ACTION,255,0,0,0,0,0,0,0,0,0,0,0,0,0,0,0,0,0,0,0,0,,
26,ACTION,255,0,0,0,0,0,0,0,0,0,0,0,0,0,0,0,0,0,0,0,0,,
27,ACTION,255,0,0,0,0,0,0,0,0,0,0,0,0,0,0,0,0,0,0,0,0,,
28,ACTION,255,0,0,0,0,0,0,0,0,0,0,0,0,0,0,0,0,0,0,0,0,,
29,ACTION,255,0,0,0,0,0,0,0,0,0,0,0,0,0,0,0,0,0,0,0,0,,
30,ACTION,0,0,0,0,0,0,0,0,0,0,0,0,0,0,0,0,0,0,0,0,0,,
31,NO_CANCEL,255,10004,1000,0,0,0,0,0,0,0,0,0,0,0,0,0,0,0,0,0,0,,
32,NO_CANCEL,255,10005,500,0,0,0,0,0,0,0,0,0,0,0,0,0,0,0,0,0,0,,
33,NO_CANCEL,255,2,1200,0,0,0,5034,0,5000001,4044,0,0,0,0,0,0,0,0,0,0,0,,
34,ACTION,255,0,0,0,0,0,0,0,0,0,0,0,0,0,0,0,0,0,0,0,0,,
35,ACTION,255,0,0,0,0,0,0,0,0,0,0,0,0,0,0,0,0,0,0,0,0,,
36,ACTION,255,0,0,0,0,0,0,0,0,0,0,0,0,0,0,0,0,0,0,0,0,,
37,ACTION,255,0,0,0,0,0,0,0,0,0,0,0,0,0,0,0,0,0,0,0,0,,
38,ACTION,255,0,0,0,0,0,0,0,0,0,0,0,0,0,0,0,0,0,0,0,0,,
39,ACTION,255,0,0,0,0,0,0,0,0,0,0,0,0,0,0,0,0,0,0,0,0,,
40,ACTION,0,0,0,0,0,0,0,0,0,0,0,0,0,0,0,0,0,0,0,0,0,,
41,NO_CANCEL,255,10004,1000,0,0,0,0,0,0,0,0,0,0,0,0,0,0,0,0,0,0,,
42,NO_CANCEL,255,10005,500,0,0,0,0,0,0,0,0,0,0,0,0,0,0,0,0,0,0,,
43,NO_CANCEL,255,2,1200,0,0,0,5034,0,5000001,4045,0,0,0,0,0,0,0,0,0,0,0,,
44,ACTION,255,0,0,0,0,0,0,0,0,0,0,0,0,0,0,0,0,0,0,0,0,,
45,ACTION,255,0,0,0,0,0,0,0,0,0,0,0,0,0,0,0,0,0,0,0,0,,
46,ACTION,255,0,0,0,0,0,0,0,0,0,0,0,0,0,0,0,0,0,0,0,0,,
47,ACTION,255,0,0,0,0,0,0,0,0,0,0,0,0,0,0,0,0,0,0,0,0,,
48,ACTION,255,0,0,0,0,0,0,0,0,0,0,0,0,0,0,0,0,0,0,0,0,,
49,ACTION,255,0,0,0,0,0,0,0,0,0,0,0,0,0,0,0,0,0,0,0,0,,
50,ACTION,0,0,0,0,0,0,0,0,0,0,0,0,0,0,0,0,0,0,0,0,0,,
51,NO_CANCEL,255,10004,1000,0,0,0,0,0,0,0,0,0,0,0,0,0,0,0,0,0,0,,
52,NO_CANCEL,255,10005,500,0,0,0,0,0,0,0,0,0,0,0,0,0,0,0,0,0,0,,
53,NO_CANCEL,255,2,1200,0,0,0,5034,0,5000001,4046,0,0,0,0,0,0,0,0,0,0,0,,
54,ACTION,255,0,0,0,0,0,0,0,0,0,0,0,0,0,0,0,0,0,0,0,0,,
55,ACTION,255,0,0,0,0,0,0,0,0,0,0,0,0,0,0,0,0,0,0,0,0,,
56,ACTION,255,0,0,0,0,0,0,0,0,0,0,0,0,0,0,0,0,0,0,0,0,,
57,ACTION,255,0,0,0,0,0,0,0,0,0,0,0,0,0,0,0,0,0,0,0,0,,
58,ACTION,255,0,0,0,0,0,0,0,0,0,0,0,0,0,0,0,0,0,0,0,0,,
59,ACTION,255,0,0,0,0,0,0,0,0,0,0,0,0,0,0,0,0,0,0,0,0,,
60,ACTION,0,0,0,0,0,0,0,0,0,0,0,0,0,0,0,0,0,0,0,0,0,,
61,NO_CANCEL,255,10004,1000,0,0,0,0,0,0,0,0,0,0,0,0,0,0,0,0,0,0,,
62,NO_CANCEL,255,10005,500,0,0,0,0,0,0,0,0,0,0,0,0,0,0,0,0,0,0,,
63,NO_CANCEL,255,2,1200,0,0,0,5034,0,5000001,4047,0,0,0,0,0,0,0,0,0,0,0,,
64,ACTION,255,0,0,0,0,0,0,0,0,0,0,0,0,0,0,0,0,0,0,0,0,,
65,ACTION,255,0,0,0,0,0,0,0,0,0,0,0,0,0,0,0,0,0,0,0,0,,
66,ACTION,255,0,0,0,0,0,0,0,0,0,0,0,0,0,0,0,0,0,0,0,0,,
67,ACTION,255,0,0,0,0,0,0,0,0,0,0,0,0,0,0,0,0,0,0,0,0,,
68,ACTION,255,0,0,0,0,0,0,0,0,0,0,0,0,0,0,0,0,0,0,0,0,,
69,ACTION,255,0,0,0,0,0,0,0,0,0,0,0,0,0,0,0,0,0,0,0,0,,
70,ACTION,0,0,0,0,0,0,0,0,0,0,0,0,0,0,0,0,0,0,0,0,0,,
71,NO_CANCEL,255,10004,1000,0,0,0,0,0,0,0,0,0,0,0,0,0,0,0,0,0,0,,
72,NO_CANCEL,255,10005,500,0,0,0,0,0,0,0,0,0,0,0,0,0,0,0,0,0,0,,
73,NO_CANCEL,255,2,1200,0,0,0,5034,0,5000001,4048,0,0,0,0,0,0,0,0,0,0,0,,
74,ACTION,255,0,0,0,0,0,0,0,0,0,0,0,0,0,0,0,0,0,0,0,0,,
75,ACTION,255,0,0,0,0,0,0,0,0,0,0,0,0,0,0,0,0,0,0,0,0,,
76,ACTION,255,0,0,0,0,0,0,0,0,0,0,0,0,0,0,0,0,0,0,0,0,,
77,ACTION,255,0,0,0,0,0,0,0,0,0,0,0,0,0,0,0,0,0,0,0,0,,
78,ACTION,255,0,0,0,0,0,0,0,0,0,0,0,0,0,0,0,0,0,0,0,0,,
79,ACTION,255,0,0,0,0,0,0,0,0,0,0,0,0,0,0,0,0,0,0,0,0,,
80,ACTION,0,0,0,0,0,0,0,0,0,0,0,0,0,0,0,0,0,0,0,0,0,,
81,NO_CANCEL,255,10004,1000,0,0,0,0,0,0,0,0,0,0,0,0,0,0,0,0,0,0,,
82,NO_CANCEL,255,10005,500,0,0,0,0,0,0,0,0,0,0,0,0,0,0,0,0,0,0,,
83,NO_CANCEL,255,2,1200,0,0,0,5034,0,5000001,4049,0,0,0,0,0,0,0,0,0,0,0,,
84,ACTION,255,0,0,0,0,0,0,0,0,0,0,0,0,0,0,0,0,0,0,0,0,,
85,ACTION,255,0,0,0,0,0,0,0,0,0,0,0,0,0,0,0,0,0,0,0,0,,
86,ACTION,255,0,0,0,0,0,0,0,0,0,0,0,0,0,0,0,0,0,0,0,0,,
87,ACTION,255,0,0,0,0,0,0,0,0,0,0,0,0,0,0,0,0,0,0,0,0,,
88,ACTION,255,0,0,0,0,0,0,0,0,0,0,0,0,0,0,0,0,0,0,0,0,,
89,ACTION,255,0,0,0,0,0,0,0,0,0,0,0,0,0,0,0,0,0,0,0,0,,
90,ACTION,0,0,0,0,0,0,0,0,0,0,0,0,0,0,0,0,0,0,0,0,0,,
91,NO_CANCEL,255,10004,1000,0,0,0,0,0,0,0,0,0,0,0,0,0,0,0,0,0,0,,
92,NO_CANCEL,255,10005,500,0,0,0,0,0,0,0,0,0,0,0,0,0,0,0,0,0,0,,
93,NO_CANCEL,255,2,1200,0,0,0,5034,0,5000001,4050,0,0,0,0,0,0,0,0,0,0,0,,
94,ACTION,255,0,0,0,0,0,0,0,0,0,0,0,0,0,0,0,0,0,0,0,0,,
95,ACTION,255,0,0,0,0,0,0,0,0,0,0,0,0,0,0,0,0,0,0,0,0,,
96,ACTION,255,0,0,0,0,0,0,0,0,0,0,0,0,0,0,0,0,0,0,0,0,,
97,ACTION,255,0,0,0,0,0,0,0,0,0,0,0,0,0,0,0,0,0,0,0,0,,
98,ACTION,255,0,0,0,0,0,0,0,0,0,0,0,0,0,0,0,0,0,0,0,0,,
99,ACTION,255,0,0,0,0,0,0,0,0,0,0,0,0,0,0,0,0,0,0,0,0,,
100,ACTION,0,0,0,0,0,0,0,0,0,0,0,0,0,0,0,0,0,0,0,0,0,,
101,NO_CANCEL,255,10004,1000,0,0,0,0,0,0,0,0,0,0,0,0,0,0,0,0,0,0,,
102,NO_CANCEL,255,10005,500,0,0,0,0,0,0,0,0,0,0,0,0,0,0,0,0,0,0,,
103,NO_CANCEL,255,2,1200,0,0,0,0,0,5000001,4051,0,0,0,0,0,0,0,0,0,0,0,,
104,ACTION,255,0,0,0,0,0,0,0,0,0,0,0,0,0,0,0,0,0,0,0,0,,
105,ACTION,255,0,0,0,0,0,0,0,0,0,0,0,0,0,0,0,0,0,0,0,0,,
106,ACTION,255,0,0,0,0,0,0,0,0,0,0,0,0,0,0,0,0,0,0,0,0,,
107,ACTION,255,0,0,0,0,0,0,0,0,0,0,0,0,0,0,0,0,0,0,0,0,,
108,ACTION,255,0,0,0,0,0,0,0,0,0,0,0,0,0,0,0,0,0,0,0,0,,
109,ACTION,255,0,0,0,0,0,0,0,0,0,0,0,0,0,0,0,0,0,0,0,0,,
110,ACTION,0,0,0,0,0,0,0,0,0,0,0,0,0,0,0,0,0,0,0,0,0,,
111,NO_CANCEL,255,10004,1000,0,0,0,0,0,0,0,0,0,0,0,0,0,0,0,0,0,0,,
112,NO_CANCEL,255,10005,500,0,0,0,0,0,0,0,0,0,0,0,0,0,0,0,0,0,0,,
113,NO_CANCEL,255,2,1200,0,0,0,0,0,5000001,4052,0,0,0,0,0,0,0,0,0,0,0,,
114,ACTION,255,0,0,0,0,0,0,0,0,0,0,0,0,0,0,0,0,0,0,0,0,,
115,ACTION,255,0,0,0,0,0,0,0,0,0,0,0,0,0,0,0,0,0,0,0,0,,
116,ACTION,255,0,0,0,0,0,0,0,0,0,0,0,0,0,0,0,0,0,0,0,0,,
117,ACTION,255,0,0,0,0,0,0,0,0,0,0,0,0,0,0,0,0,0,0,0,0,,
118,ACTION,255,0,0,0,0,0,0,0,0,0,0,0,0,0,0,0,0,0,0,0,0,,
119,ACTION,255,0,0,0,0,0,0,0,0,0,0,0,0,0,0,0,0,0,0,0,0,,
120,ACTION,0,0,0,0,0,0,0,0,0,0,0,0,0,0,0,0,0,0,0,0,0,,
121,NO_CANCEL,255,10004,1000,0,0,0,0,0,0,0,0,0,0,0,0,0,0,0,0,0,0,,
122,NO_CANCEL,255,10005,500,0,0,0,0,0,0,0,0,0,0,0,0,0,0,0,0,0,0,,
123,NO_CANCEL,255,2,1200,0,0,0,0,0,5000001,4053,0,0,0,0,0,0,0,0,0,0,0,,
124,ACTION,255,0,0,0,0,0,0,0,0,0,0,0,0,0,0,0,0,0,0,0,0,,
125,ACTION,255,0,0,0,0,0,0,0,0,0,0,0,0,0,0,0,0,0,0,0,0,,
126,ACTION,255,0,0,0,0,0,0,0,0,0,0,0,0,0,0,0,0,0,0,0,0,,
127,ACTION,255,0,0,0,0,0,0,0,0,0,0,0,0,0,0,0,0,0,0,0,0,,
128,ACTION,255,0,0,0,0,0,0,0,0,0,0,0,0,0,0,0,0,0,0,0,0,,
129,ACTION,255,0,0,0,0,0,0,0,0,0,0,0,0,0,0,0,0,0,0,0,0,,
130,ACTION,0,0,0,0,0,0,0,0,0,0,0,0,0,0,0,0,0,0,0,0,0,,
131,NO_CANCEL,255,10004,1000,0,0,0,0,0,0,0,0,0,0,0,0,0,0,0,0,0,0,,
132,NO_CANCEL,255,10005,500,0,0,0,0,0,0,0,0,0,0,0,0,0,0,0,0,0,0,,
133,NO_CANCEL,255,2,1200,0,0,0,0,0,5000001,4054,0,0,0,0,0,0,0,0,0,0,0,,
134,ACTION,255,0,0,0,0,0,0,0,0,0,0,0,0,0,0,0,0,0,0,0,0,,
135,ACTION,255,0,0,0,0,0,0,0,0,0,0,0,0,0,0,0,0,0,0,0,0,,
136,ACTION,255,0,0,0,0,0,0,0,0,0,0,0,0,0,0,0,0,0,0,0,0,,
137,ACTION,255,0,0,0,0,0,0,0,0,0,0,0,0,0,0,0,0,0,0,0,0,,
138,ACTION,255,0,0,0,0,0,0,0,0,0,0,0,0,0,0,0,0,0,0,0,0,,
139,ACTION,255,0,0,0,0,0,0,0,0,0,0,0,0,0,0,0,0,0,0,0,0,,
140,ACTION,0,0,0,0,0,0,0,0,0,0,0,0,0,0,0,0,0,0,0,0,0,,
141,NO_CANCEL,255,10004,1000,0,0,0,0,0,0,0,0,0,0,0,0,0,0,0,0,0,0,,
142,NO_CANCEL,255,10005,500,0,0,0,0,0,0,0,0,0,0,0,0,0,0,0,0,0,0,,
143,NO_CANCEL,255,2,1200,0,0,0,0,0,5000001,4055,0,0,0,0,0,0,0,0,0,0,0,,
144,ACTION,255,0,0,0,0,0,0,0,0,0,0,0,0,0,0,0,0,0,0,0,0,,
145,ACTION,255,0,0,0,0,0,0,0,0,0,0,0,0,0,0,0,0,0,0,0,0,,
146,ACTION,255,0,0,0,0,0,0,0,0,0,0,0,0,0,0,0,0,0,0,0,0,,
147,ACTION,255,0,0,0,0,0,0,0,0,0,0,0,0,0,0,0,0,0,0,0,0,,
148,ACTION,255,0,0,0,0,0,0,0,0,0,0,0,0,0,0,0,0,0,0,0,0,,
149,ACTION,255,0,0,0,0,0,0,0,0,0,0,0,0,0,0,0,0,0,0,0,0,,
,,,,,,,,,,,,,,,,,,,,,,,,
,,,,,,,,,,,,,,,,,,,,,,,,
LevelIndex,SPCostLevelUp,PCLevel,Grade,ChoiceLimit,MaxOption,OptionIndex,OptionCode,OptionValue,MaxRequire,ReqIndex,Index,Level,CastTick,CoolTick,StartComboIndex,EndComboIndex,ResourceHP,ResourceMP,ResourceItemCode,ResourceItemCount,,,,
0,-,-,-,-,0,-,-,-,0,-,-,-,0,0,0,0,0,0,0,0,,,,
-,-,-,-,-,-,-,-,-,-,-,-,-,0,0,0,0,0,0,0,0,,,,
-,-,-,-,-,-,-,-,-,-,-,-,-,0,0,0,0,0,0,0,0,,,,
-,-,-,-,-,-,-,-,-,-,-,-,-,0,0,0,0,0,0,0,0,,,,
-,-,-,-,-,-,-,-,-,-,-,-,-,0,0,0,0,0,0,0,0,,,,
-,-,-,-,-,-,-,-,-,-,-,-,-,0,0,0,0,0,0,0,0,,,,
1,0,10,-,-,0,-,-,-,1,0,1441,1,0,30000,1,3,0,40,0,0,,,,
-,-,-,-,-,-,-,-,-,-,-,-,-,0,0,0,0,0,0,0,0,,,,
-,-,-,-,-,-,-,-,-,-,-,-,-,0,0,0,0,0,0,0,0,,,,
-,-,-,-,-,-,-,-,-,-,-,-,-,0,0,0,0,0,0,0,0,,,,
-,-,-,-,-,-,-,-,-,-,-,-,-,0,0,0,0,0,0,0,0,,,,
-,-,-,-,-,-,-,-,-,-,-,-,-,0,0,0,0,0,0,0,0,,,,
2,1,16,-,-,0,-,-,-,1,0,1441,1,0,30000,11,13,0,64,0,0,,,,
-,-,-,-,-,-,-,-,-,-,-,-,-,0,0,0,0,0,0,0,0,,,,
-,-,-,-,-,-,-,-,-,-,-,-,-,0,0,0,0,0,0,0,0,,,,
-,-,-,-,-,-,-,-,-,-,-,-,-,0,0,0,0,0,0,0,0,,,,
-,-,-,-,-,-,-,-,-,-,-,-,-,0,0,0,0,0,0,0,0,,,,
-,-,-,-,-,-,-,-,-,-,-,-,-,0,0,0,0,0,0,0,0,,,,
3,1,22,-,-,0,-,-,-,1,0,1441,1,0,30000,21,23,0,87,0,0,,,,
-,-,-,-,-,-,-,-,-,-,-,-,-,0,0,0,0,0,0,0,0,,,,
-,-,-,-,-,-,-,-,-,-,-,-,-,0,0,0,0,0,0,0,0,,,,
-,-,-,-,-,-,-,-,-,-,-,-,-,0,0,0,0,0,0,0,0,,,,
-,-,-,-,-,-,-,-,-,-,-,-,-,0,0,0,0,0,0,0,0,,,,
-,-,-,-,-,-,-,-,-,-,-,-,-,0,0,0,0,0,0,0,0,,,,
4,1,28,-,-,0,-,-,-,1,0,1441,1,0,30000,31,33,0,110,0,0,,,,
-,-,-,-,-,-,-,-,-,-,-,-,-,0,0,0,0,0,0,0,0,,,,
-,-,-,-,-,-,-,-,-,-,-,-,-,0,0,0,0,0,0,0,0,,,,
-,-,-,-,-,-,-,-,-,-,-,-,-,0,0,0,0,0,0,0,0,,,,
-,-,-,-,-,-,-,-,-,-,-,-,-,0,0,0,0,0,0,0,0,,,,
-,-,-,-,-,-,-,-,-,-,-,-,-,0,0,0,0,0,0,0,0,,,,
5,1,34,-,-,0,-,-,-,1,0,1441,1,0,30000,41,43,0,133,0,0,,,,
-,-,-,-,-,-,-,-,-,-,-,-,-,0,0,0,0,0,0,0,0,,,,
-,-,-,-,-,-,-,-,-,-,-,-,-,0,0,0,0,0,0,0,0,,,,
-,-,-,-,-,-,-,-,-,-,-,-,-,0,0,0,0,0,0,0,0,,,,
-,-,-,-,-,-,-,-,-,-,-,-,-,0,0,0,0,0,0,0,0,,,,
-,-,-,-,-,-,-,-,-,-,-,-,-,0,0,0,0,0,0,0,0,,,,
6,1,40,-,-,0,-,-,-,1,0,1441,1,0,30000,51,53,0,157,0,0,,,,
-,-,-,-,-,-,-,-,-,-,-,-,-,0,0,0,0,0,0,0,0,,,,
-,-,-,-,-,-,-,-,-,-,-,-,-,0,0,0,0,0,0,0,0,,,,
-,-,-,-,-,-,-,-,-,-,-,-,-,0,0,0,0,0,0,0,0,,,,
-,-,-,-,-,-,-,-,-,-,-,-,-,0,0,0,0,0,0,0,0,,,,
-,-,-,-,-,-,-,-,-,-,-,-,-,0,0,0,0,0,0,0,0,,,,
7,1,46,-,-,0,-,-,-,1,0,1441,1,0,30000,61,63,0,180,0,0,,,,
-,-,-,-,-,-,-,-,-,-,-,-,-,0,0,0,0,0,0,0,0,,,,
-,-,-,-,-,-,-,-,-,-,-,-,-,0,0,0,0,0,0,0,0,,,,
-,-,-,-,-,-,-,-,-,-,-,-,-,0,0,0,0,0,0,0,0,,,,
-,-,-,-,-,-,-,-,-,-,-,-,-,0,0,0,0,0,0,0,0,,,,
-,-,-,-,-,-,-,-,-,-,-,-,-,0,0,0,0,0,0,0,0,,,,
8,1,52,-,-,0,-,-,-,1,0,1441,1,0,30000,71,73,0,203,0,0,,,,
-,-,-,-,-,-,-,-,-,-,-,-,-,0,0,0,0,0,0,0,0,,,,
-,-,-,-,-,-,-,-,-,-,-,-,-,0,0,0,0,0,0,0,0,,,,
-,-,-,-,-,-,-,-,-,-,-,-,-,0,0,0,0,0,0,0,0,,,,
-,-,-,-,-,-,-,-,-,-,-,-,-,0,0,0,0,0,0,0,0,,,,
-,-,-,-,-,-,-,-,-,-,-,-,-,0,0,0,0,0,0,0,0,,,,
9,1,58,-,-,0,-,-,-,1,0,1441,1,0,30000,81,83,0,226,0,0,,,,
-,-,-,-,-,-,-,-,-,-,-,-,-,0,0,0,0,0,0,0,0,,,,
-,-,-,-,-,-,-,-,-,-,-,-,-,0,0,0,0,0,0,0,0,,,,
-,-,-,-,-,-,-,-,-,-,-,-,-,0,0,0,0,0,0,0,0,,,,
-,-,-,-,-,-,-,-,-,-,-,-,-,0,0,0,0,0,0,0,0,,,,
-,-,-,-,-,-,-,-,-,-,-,-,-,0,0,0,0,0,0,0,0,,,,
10,1,64,-,-,0,-,-,-,1,0,1441,1,0,30000,91,93,0,250,0,0,,,,
-,-,-,-,-,-,-,-,-,-,-,-,-,0,0,0,0,0,0,0,0,,,,
-,-,-,-,-,-,-,-,-,-,-,-,-,0,0,0,0,0,0,0,0,,,,
-,-,-,-,-,-,-,-,-,-,-,-,-,0,0,0,0,0,0,0,0,,,,
-,-,-,-,-,-,-,-,-,-,-,-,-,0,0,0,0,0,0,0,0,,,,
-,-,-,-,-,-,-,-,-,-,-,-,-,0,0,0,0,0,0,0,0,,,,
11,1,1,-,-,0,-,-,-,1,0,1441,1,0,0,101,103,0,0,0,0,,,,
-,-,-,-,-,-,-,-,-,-,-,-,-,0,0,0,0,0,0,0,0,,,,
-,-,-,-,-,-,-,-,-,-,-,-,-,0,0,0,0,0,0,0,0,,,,
-,-,-,-,-,-,-,-,-,-,-,-,-,0,0,0,0,0,0,0,0,,,,
-,-,-,-,-,-,-,-,-,-,-,-,-,0,0,0,0,0,0,0,0,,,,
-,-,-,-,-,-,-,-,-,-,-,-,-,0,0,0,0,0,0,0,0,,,,
12,1,1,-,-,0,-,-,-,1,0,1441,1,0,0,111,113,0,0,0,0,,,,
-,-,-,-,-,-,-,-,-,-,-,-,-,0,0,0,0,0,0,0,0,,,,
-,-,-,-,-,-,-,-,-,-,-,-,-,0,0,0,0,0,0,0,0,,,,
-,-,-,-,-,-,-,-,-,-,-,-,-,0,0,0,0,0,0,0,0,,,,
-,-,-,-,-,-,-,-,-,-,-,-,-,0,0,0,0,0,0,0,0,,,,
-,-,-,-,-,-,-,-,-,-,-,-,-,0,0,0,0,0,0,0,0,,,,
13,1,1,-,-,0,-,-,-,1,0,1441,1,0,0,121,123,0,0,0,0,,,,
-,-,-,-,-,-,-,-,-,-,-,-,-,0,0,0,0,0,0,0,0,,,,
-,-,-,-,-,-,-,-,-,-,-,-,-,0,0,0,0,0,0,0,0,,,,
-,-,-,-,-,-,-,-,-,-,-,-,-,0,0,0,0,0,0,0,0,,,,
-,-,-,-,-,-,-,-,-,-,-,-,-,0,0,0,0,0,0,0,0,,,,
-,-,-,-,-,-,-,-,-,-,-,-,-,0,0,0,0,0,0,0,0,,,,
14,1,1,-,-,0,-,-,-,1,0,1441,1,0,0,131,133,0,0,0,0,,,,
-,-,-,-,-,-,-,-,-,-,-,-,-,0,0,0,0,0,0,0,0,,,,
-,-,-,-,-,-,-,-,-,-,-,-,-,0,0,0,0,0,0,0,0,,,,
-,-,-,-,-,-,-,-,-,-,-,-,-,0,0,0,0,0,0,0,0,,,,
-,-,-,-,-,-,-,-,-,-,-,-,-,0,0,0,0,0,0,0,0,,,,
-,-,-,-,-,-,-,-,-,-,-,-,-,0,0,0,0,0,0,0,0,,,,
15,1,1,-,-,0,-,-,-,1,0,1441,1,0,0,141,143,0,0,0,0,,,,
-,-,-,-,-,-,-,-,-,-,-,-,-,0,0,0,0,0,0,0,0,,,,
-,-,-,-,-,-,-,-,-,-,-,-,-,0,0,0,0,0,0,0,0,,,,
-,-,-,-,-,-,-,-,-,-,-,-,-,0,0,0,0,0,0,0,0,,,,
-,-,-,-,-,-,-,-,-,-,-,-,-,0,0,0,0,0,0,0,0,,,,
-,-,-,-,-,-,-,-,-,-,-,-,-,0,0,0,0,0,0,0,0,,,,
