Creature,MONSTER,,,,,,,,,,,,,
Index,1718,,,,,,,,,,,,,
Skeleton,Monster\Peccare.skel,,,,,,,,,,,,,
,,,,,,,,,,,,,,
Style,Action,Index,Animation,Start_Inter,End_Inter,TimeLength,Swing,Strike,Timing,Split,Timing2,Freeze,Effect,CancelTime
0,STAND,0,Monster\Peccare\Peccare_stand.anim,4,1,5.3,0,0,0,0,0,0,0,0
0,STAND,1,Monster\Peccare\Peccare_cstand.anim,4,1,1.2,0,0,0,0,0,0,0,0
0,REVIVE,0,,0,1,0,0,0,0,0,0,0,0,0
0,MOVE,0,Monster\Peccare\Peccare_walk.anim,4,1,1,0,0,0,0,0,0,0,0
0,MOVE,1,Monster\Peccare\Peccare_walk.anim,4,1,1,0,0,0,0,0,0,0,0
0,ATTACK,0,Monster\Peccare\Peccare_att1.anim,4,1,1.3,0,0,0.6,0,1,0,0,0
0,ATTACK,1,Monster\Peccare\Peccare_att1.anim,4,1,1.3,0,0,0.6,0,1,0,0,0
0,ATTACK,2,Monster\Peccare\Peccare_att1.anim,4,1,1.3,0,0,0.6,0,1,0,0,0
0,BLOCKING,0,Monster\Peccare\Peccare_blocking.anim,10,1,0.5,0,0,0,0,0,0,0,0
0,BLOCKED,0,Monster\Peccare\Peccare_blocked.anim,10,1,1,0,0,0,0,0,0,0,0
0,BLOCKED,1,Monster\Peccare\Peccare_blocked.anim,10,1,1,0,0,0,0,0,0,0,0
0,BLOCKED,2,Monster\Peccare\Peccare_blocked.anim,10,1,1,0,0,0,0,0,0,0,0
0,BLOCKED,3,Monster\Peccare\Peccare_blocked.anim,10,1,1,0,0,0,0,0,0,0,0
0,BLOCKED,4,Monster\Peccare\Peccare_blocked.anim,10,1,1,0,0,0,0,0,0,0,0
0,BLOCKED,5,Monster\Peccare\Peccare_blocked.anim,10,1,1,0,0,0,0,0,0,0,0
0,BLOCKED,6,Monster\Peccare\Peccare_blocked.anim,10,1,1,0,0,0,0,0,0,0,0
0,BLOCKED,7,Monster\Peccare\Peccare_blocked.anim,10,1,1,0,0,0,0,0,0,0,0
0,DEFEAT,0,Monster\Peccare\Peccare_p1.anim,10,1,0.5,0,0,0,0,0,0,0,0
0,DEFEAT,1,Monster\Peccare\Peccare_p2.anim,10,1,0.5,0,0,0,0,0,0,0,0
0,DEFEAT,2,Monster\Peccare\Peccare_p3.anim,10,1,0.5,0,0,0,0,0,0,0,0
0,DEFEAT,3,Monster\Peccare\Peccare_p4.anim,10,1,0.5,0,0,0,0,0,0,0,0
0,DEAD,0,Monster\Peccare\Peccare_die.anim,4,1,1.9,0,0,0.1,1,0,0,0,0
0,GUARDING,0,Monster\Peccare\Peccare_guard1.anim,10,1,0.4,0,0,0,0,0,0,0,0
0,GUARDING,1,Monster\Peccare\Peccare_guard2.anim,10,1,0.4,0,0,0,0,0,0,0,0
0,GUARDING,2,Monster\Peccare\Peccare_guard3.anim,10,1,0.4,0,0,0,0,0,0,0,0
