Creature,MONSTER,,,,,,,,,,,,,
Index,1935,,,,,,,,,,,,,
Skeleton,Monster\rockpressure.skel,,,,,,,,,,,,,
,,,,,,,,,,,,,,
Style,Action,Index,Animation,Start_Inter,End_Inter,TimeLength,Swing,Strike,Timing,Split,Timing2,Freeze,Effect,CancelTime
0,STAND,0,Monster\rockpressure\rockpressure_stand.anim,4,1,7.3,0,0,0,0,0,0,0,0
0,STAND,1,Monster\rockpressure\rockpressure_cstand.anim,4,1,1.3,0,0,0,0,0,0,0,0
0,REVIVE,0,,0,1,0,0,0,0,0,0,0,0,0
0,MOVE,0,Monster\rockpressure\rockpressure_walk.anim,4,1,1,0,0,0,0,0,0,0,0
0,MOVE,1,Monster\rockpressure\rockpressure_crun.anim,4,1,1,0,0,0,0,0,0,0,0
0,ATTACK,0,Monster\rockpressure\rockpressure_att01.anim,4,1,1.319508,0,0,0.55,0,1,0,0,0
0,ATTACK,1,Monster\rockpressure\rockpressure_att02.anim,4,1,1.075467,0,0,0.55,0,1,0,0,0
0,ATTACK,2,Monster\rockpressure\rockpressure_att02.anim,4,1,1.075467,0,0,0.5,0,1,0,0,0
0,BLOCKING,0,Monster\rockpressure\rockpressure_blocking.anim,10,1,1,0,0,0,0,0,0,0,0
0,BLOCKED,0,Monster\rockpressure\rockpressure_blocked.anim,10,1,1,0,0,0,0,0,0,0,0
0,BLOCKED,1,Monster\rockpressure\rockpressure_blocked.anim,10,1,1,0,0,0,0,0,0,0,0
0,BLOCKED,2,Monster\rockpressure\rockpressure_blocked.anim,10,1,1,0,0,0,0,0,0,0,0
0,BLOCKED,3,Monster\rockpressure\rockpressure_blocked.anim,10,1,1,0,0,0,0,0,0,0,0
0,BLOCKED,4,Monster\rockpressure\rockpressure_blocked.anim,10,1,1,0,0,0,0,0,0,0,0
0,BLOCKED,5,Monster\rockpressure\rockpressure_blocked.anim,10,1,1,0,0,0,0,0,0,0,0
0,BLOCKED,6,Monster\rockpressure\rockpressure_blocked.anim,10,1,1,0,0,0,0,0,0,0,0
0,BLOCKED,7,Monster\rockpressure\rockpressure_blocked.anim,10,1,1,0,0,0,0,0,0,0,0
0,DEFEAT,0,Monster\rockpressure\rockpressure_p1.anim,10,1,0.5,0,0,0,0,0,0,0,0
0,DEFEAT,1,Monster\rockpressure\rockpressure_p2.anim,10,1,0.5,0,0,0,0,0,0,0,0
0,DEFEAT,2,Monster\rockpressure\rockpressure_p3.anim,10,1,0.5,0,0,0,0,0,0,0,0
0,DEFEAT,3,Monster\rockpressure\rockpressure_p4.anim,10,1,0.5,0,0,0,0,0,0,0,0
0,DEAD,0,Monster\rockpressure\rockpressure_die.anim,4,1,1.7,0,0,0.1,1,0,0,0,0
0,GUARDING,0,Monster\rockpressure\rockpressure_guard1.anim,10,1,1,0,0,0,0,0,0,0,0
0,GUARDING,1,Monster\rockpressure\rockpressure_guard2.anim,10,1,1,0,0,0,0,0,0,0,0
0,GUARDING,2,Monster\rockpressure\rockpressure_guard3.anim,10,1,1,0,0,0,0,0,0,0,0
