Creature,MONSTER,,,,,,,,,,,,,
Index,2225,,,,,,,,,,,,,
Skeleton,Monster\rudolpooh.skel,,,,,,,,,,,,,
,,,,,,,,,,,,,,
Style,Action,Index,Animation,Start_Inter,End_Inter,TimeLength,Swing,Strike,Timing,Split,Timing2,Freeze,Effect,CancelTime
0,STAND,0,Monster\rudolpooh\rudolpooh_stand.anim,1,1,7.2,0,0,0,0,0,0,0,0
0,STAND,1,Monster\rudolpooh\rudolpooh_cstand.anim,1,1,1,0,0,0,0,0,0,0,0
0,REVIVE,0,,0,1,0,0,0,0,0,0,0,0,0
0,MOVE,0,Monster\rudolpooh\rudolpooh_walk.anim,1,1,1,0,0,0,0,0,0,0,0
0,MOVE,1,Monster\rudolpooh\rudolpooh_crun.anim,1,1,1,0,0,0,0,0,0,0,0
0,ATTACK,4,Monster\rudolpooh\rudolpooh_att01.anim,4,1,1.6,0,0,0.5,0,1,0,0,0
0,BLOCKING,0,monster\rudolpooh\rudolpooh_blocking.anim,10,1,0.5,0,0,0,0,0,0,0,0
0,BLOCKED,0,monster\rudolpooh\rudolpooh_blocking.anim,10,1,0.5,0,0,0,0,0,0,0,0
0,BLOCKED,1,monster\rudolpooh\rudolpooh_blocking.anim,10,1,0.5,0,0,0,0,0,0,0,0
0,BLOCKED,2,monster\rudolpooh\rudolpooh_blocking.anim,10,1,0.5,0,0,0,0,0,0,0,0
0,BLOCKED,3,monster\rudolpooh\rudolpooh_blocking.anim,10,1,0.5,0,0,0,0,0,0,0,0
0,BLOCKED,4,monster\rudolpooh\rudolpooh_blocking.anim,10,1,0.5,0,0,0,0,0,0,0,0
0,BLOCKED,5,monster\rudolpooh\rudolpooh_blocking.anim,10,1,0.5,0,0,0,0,0,0,0,0
0,BLOCKED,6,monster\rudolpooh\rudolpooh_blocking.anim,10,1,0.5,0,0,0,0,0,0,0,0
0,BLOCKED,7,monster\rudolpooh\rudolpooh_blocking.anim,10,1,0.5,0,0,0,0,0,0,0,0
0,DEFEAT,0,Monster\rudolpooh\rudolpooh_p4.anim,5,1,0.5,0,0,0,0,0,0,0,0
0,DEFEAT,1,Monster\rudolpooh\rudolpooh_p4.anim,5,1,0.5,0,0,0,0,0,0,0,0
0,DEFEAT,2,Monster\rudolpooh\rudolpooh_p4.anim,5,1,0.5,0,0,0,0,0,0,0,0
0,DEFEAT,3,Monster\rudolpooh\rudolpooh_p4.anim,5,1,0.5,0,0,0,0,0,0,0,0
0,DEAD,0,Monster\rudolpooh\rudolpooh_die.anim,4,1,4,0,0,0.1,1,0,0,1526,0
0,GUARDING,0,monster\rudolpooh\rudolpooh_guard03.anim,10,1,0.5,0,0,0,0,0,0,0,0
0,GUARDING,1,monster\rudolpooh\rudolpooh_guard03.anim,10,1,0.5,0,0,0,0,0,0,0,0
0,GUARDING,2,monster\rudolpooh\rudolpooh_guard03.anim,10,1,0.5,0,0,0,0,0,0,0,0
