Creature,MONSTER,,,,,,,,,,,,,
Index,2232,,,,,,,,,,,,,
Skeleton,Monster\Gummy_worm.skel,,,,,,,,,,,,,
,,,,,,,,,,,,,,
Style,Action,Index,Animation,Start_Inter,End_Inter,TimeLength,Swing,Strike,Timing,Split,Timing2,Freeze,Effect,CancelTime
0,STAND,0,Monster\Gummy_worm\Gummy_worm_stand.anim,1,1,2,0,0,0,0,0,0,0,0
0,STAND,1,Monster\Gummy_worm\Gummy_worm_cstand.anim,1,1,1,0,0,0,0,0,0,0,0
0,REVIVE,0,,0,1,0,0,0,0,0,0,0,0,0
0,MOVE,0,Monster\Gummy_worm\Gummy_worm_walk.anim,1,1,1,0,0,0,0,0,0,0,0
0,MOVE,1,Monster\Gummy_worm\Gummy_worm_crun.anim,1,1,0.8,0,0,0,0,0,0,0,0
0,ATTACK,4,Monster\Gummy_worm\Gummy_worm_att.anim,4,1,1.5,0,0,0.62,0,1,0,1522,0
0,BLOCKING,0,monster\Gummy_worm\Gummy_worm_guard.anim,10,1,0.5,0,0,0,0,0,0,0,0
0,BLOCKED,0,monster\Gummy_worm\Gummy_worm_guard.anim,10,1,0.5,0,0,0,0,0,0,0,0
0,BLOCKED,1,monster\Gummy_worm\Gummy_worm_guard.anim,10,1,0.5,0,0,0,0,0,0,0,0
0,BLOCKED,2,monster\Gummy_worm\Gummy_worm_guard.anim,10,1,0.5,0,0,0,0,0,0,0,0
0,BLOCKED,3,monster\Gummy_worm\Gummy_worm_guard.anim,10,1,0.5,0,0,0,0,0,0,0,0
0,BLOCKED,4,monster\Gummy_worm\Gummy_worm_guard.anim,10,1,0.5,0,0,0,0,0,0,0,0
0,BLOCKED,5,monster\Gummy_worm\Gummy_worm_guard.anim,10,1,0.5,0,0,0,0,0,0,0,0
0,BLOCKED,6,monster\Gummy_worm\Gummy_worm_guard.anim,10,1,0.5,0,0,0,0,0,0,0,0
0,BLOCKED,7,monster\Gummy_worm\Gummy_worm_guard.anim,10,1,0.5,0,0,0,0,0,0,0,0
0,DEFEAT,0,Monster\Gummy_worm\Gummy_worm_p.anim,5,1,0.5,0,0,0,0,0,0,0,0
0,DEFEAT,1,Monster\Gummy_worm\Gummy_worm_p.anim,5,1,0.5,0,0,0,0,0,0,0,0
0,DEFEAT,2,Monster\Gummy_worm\Gummy_worm_p.anim,5,1,0.5,0,0,0,0,0,0,0,0
0,DEFEAT,3,Monster\Gummy_worm\Gummy_worm_p.anim,5,1,0.5,0,0,0,0,0,0,0,0
0,DEAD,0,Monster\Gummy_worm\Gummy_worm_die.anim,4,1,1.8,0,0,0.1,1,0,0,1523,0
0,GUARDING,0,monster\Gummy_worm\Gummy_worm_guard.anim,10,1,0.5,0,0,0,0,0,0,0,0
0,GUARDING,1,monster\Gummy_worm\Gummy_worm_guard.anim,10,1,0.5,0,0,0,0,0,0,0,0
0,GUARDING,2,monster\Gummy_worm\Gummy_worm_guard.anim,10,1,0.5,0,0,0,0,0,0,0,0
