Creature,MONSTER,,,,,,,,,,,,,
Index,2237,,,,,,,,,,,,,
Skeleton,Monster\Karon_Santa.skel,,,,,,,,,,,,,
,,,,,,,,,,,,,,
Style,Action,Index,Animation,Start_Inter,End_Inter,TimeLength,Swing,Strike,Timing,Split,Timing2,Freeze,Effect,CancelTime
0,STAND,0,Monster\Karon_Santa\Karon_Santa_stand.anim,1,1,8,0,0,0,0,0,0,0,0
0,STAND,1,Monster\Karon_Santa\Karon_Santa_cstand.anim,1,1,1,0,0,0,0,0,0,0,0
0,REVIVE,0,,0,1,0,0,0,0,0,0,0,0,0
0,MOVE,0,Monster\Karon_Santa\Karon_Santa_walk.anim,1,1,1,0,0,0,0,0,0,0,0
0,MOVE,1,Monster\Karon_Santa\Karon_Santa_crun.anim,1,1,0.9,0,0,0,0,0,0,0,0
0,ATTACK,0,Monster\Karon_Santa\Karon_Santa_att1.anim,4,1,1.8,0,0,0.53,0,1,0,1528,0
0,BLOCKING,0,Monster\Karon_Santa\Karon_Santa_blocking.anim,10,1,1,0,0,0,0,0,0,0,0
0,BLOCKED,0,Monster\Karon_Santa\Karon_Santa_blocked.anim,10,1,0.5,0,0,0,0,0,0,0,0
0,BLOCKED,1,Monster\Karon_Santa\Karon_Santa_blocked.anim,10,1,0.5,0,0,0,0,0,0,0,0
0,BLOCKED,2,Monster\Karon_Santa\Karon_Santa_blocked.anim,10,1,0.5,0,0,0,0,0,0,0,0
0,BLOCKED,3,Monster\Karon_Santa\Karon_Santa_blocked.anim,10,1,0.5,0,0,0,0,0,0,0,0
0,BLOCKED,4,Monster\Karon_Santa\Karon_Santa_blocked.anim,10,1,0.5,0,0,0,0,0,0,0,0
0,BLOCKED,5,Monster\Karon_Santa\Karon_Santa_blocked.anim,10,1,0.5,0,0,0,0,0,0,0,0
0,BLOCKED,6,Monster\Karon_Santa\Karon_Santa_blocked.anim,10,1,0.5,0,0,0,0,0,0,0,0
0,BLOCKED,7,Monster\Karon_Santa\Karon_Santa_blocked.anim,10,1,0.5,0,0,0,0,0,0,0,0
0,DEFEAT,0,Monster\Karon_Santa\Karon_Santa_p4.anim,5,1,0.5,0,0,0,0,0,0,0,0
0,DEFEAT,1,Monster\Karon_Santa\Karon_Santa_p4.anim,5,1,0.5,0,0,0,0,0,0,0,0
0,DEFEAT,2,Monster\Karon_Santa\Karon_Santa_p4.anim,5,1,0.5,0,0,0,0,0,0,0,0
0,DEFEAT,3,Monster\Karon_Santa\Karon_Santa_p4.anim,5,1,0.5,0,0,0,0,0,0,0,0
0,DEAD,0,Monster\Karon_Santa\Karon_Santa_die.anim,4,1,2,0,0,0.1,1,0,0,1529,0
0,GUARDING,0,monster\Karon_Santa\Karon_Santa_guard3.anim,10,1,0.5,0,0,0,0,0,0,0,0
0,GUARDING,1,monster\Karon_Santa\Karon_Santa_guard3.anim,10,1,0.5,0,0,0,0,0,0,0,0
0,GUARDING,2,monster\Karon_Santa\Karon_Santa_guard3.anim,10,1,0.5,0,0,0,0,0,0,0,0
