Creature,MONSTER,,,,,,,,,,,,,,,,
Index,3738,,,,,,,,,,,,,,,,
Skeleton,Monster\ilias.skel,,,,,,,,,,,,,,,,
,,,,,,,,,,,,,,,,,
Style,Action,Index,Animation,Start_Inter,End_Inter,TimeLength,Swing,Strike,Timing,Split,Timing2,Freeze,Effect,CancelTime,Default,Intersect,Through
0,STAND,0,Monster\ilias\ilias_stand.anim,1,1,6.4,0,0,0,0,0,0,0,0,0,0,0
0,STAND,1,Monster\ilias\ilias_cstand.anim,1,1,1,0,0,0,0,0,0,0,0,0,0,0
0,REVIVE,0,,0,1,0,0,0,0,0,0,0,0,0,0,0,0
0,MOVE,0,Monster\ilias\ilias_walk.anim,1,1,1.2,0,0,0,0,0,0,0,0,0,0,0
0,MOVE,1,Monster\ilias\ilias_crun.anim,1,1,1.2,0,0,0,0,0,0,0,0,0,0,0
0,ATTACK,10,Monster\ilias\ilias_att01.anim,4,1,3.5,0,0,0.5,0,1,0,1034,0,0,0,0
0,ATTACK,11,Monster\ilias\ilias_att02.anim,4,1,4,0,0,0.7,0,1,0,1035,0,0,0,0
0,ATTACK,12,Monster\ilias\ilias_att03.anim,4,1,3,0,0,0.6,0,1,0,1036,0,0,0,0
0,BLOCKING,0,Monster\ilias\ilias_blocking.anim,10,1,0.7,0,0,0,0,0,0,0,0,0,0,0
0,BLOCKED,0,Monster\ilias\ilias_blocking.anim,10,1,0.7,0,0,0,0,0,0,0,0,0,0,0
0,BLOCKED,1,Monster\ilias\ilias_blocking.anim,10,1,0.7,0,0,0,0,0,0,0,0,0,0,0
0,BLOCKED,2,Monster\ilias\ilias_blocking.anim,10,1,0.7,0,0,0,0,0,0,0,0,0,0,0
0,BLOCKED,3,Monster\ilias\ilias_blocking.anim,10,1,0.7,0,0,0,0,0,0,0,0,0,0,0
0,BLOCKED,4,Monster\ilias\ilias_blocking.anim,10,1,0.7,0,0,0,0,0,0,0,0,0,0,0
0,BLOCKED,5,Monster\ilias\ilias_blocking.anim,10,1,0.7,0,0,0,0,0,0,0,0,0,0,0
0,BLOCKED,6,Monster\ilias\ilias_blocking.anim,10,1,0.7,0,0,0,0,0,0,0,0,0,0,0
0,BLOCKED,7,Monster\ilias\ilias_blocking.anim,10,1,0.7,0,0,0,0,0,0,0,0,0,0,0
0,DEFEAT,0,Monster\ilias\ilias_p4.anim,5,1,0.7,0,0,0,0,0,0,0,0,0,0,0
0,DEFEAT,1,Monster\ilias\ilias_p4.anim,5,1,0.7,0,0,0,0,0,0,0,0,0,0,0
0,DEFEAT,2,Monster\ilias\ilias_p4.anim,5,1,0.7,0,0,0,0,0,0,0,0,0,0,0
0,DEFEAT,3,Monster\ilias\ilias_p4.anim,5,1,0.7,0,0,0,0,0,0,0,0,0,0,0
0,DEAD,0,Monster\ilias\ilias_die.anim,5,1,5,0,0,0.1,1,0,0,1033,0,0,0,0
0,GUARDING,0,Monster\ilias\ilias_guard03.anim,0.7,1,0.7,0,0,0,0,0,0,0,0,0,0,0
0,GUARDING,1,Monster\ilias\ilias_guard03.anim,0.7,1,0.7,0,0,0,0,0,0,0,0,0,0,0
0,GUARDING,2,Monster\ilias\ilias_guard03.anim,0.7,1,0.7,0,0,0,0,0,0,0,0,0,0,0
