Creature,MONSTER,,,,,,,,,,,,,
Index,4213,,,,,,,,,,,,,
Skeleton,Monster\Meredeo.skel,,,,,,,,,,,,,
,,,,,,,,,,,,,,
Style,Action,Index,Animation,Start_Inter,End_Inter,TimeLength,Swing,Strike,Timing,Split,Timing2,Freeze,Effect,CancelTime
0,STAND,0,Monster\Meredeo\Meredeo_stand.anim,4,1,6,0,0,0,0,0,0,0,0
0,STAND,1,Monster\Meredeo\Meredeo_cstand.anim,4,1,2,0,0,0,0,0,0,0,0
0,REVIVE,0,Monster\Meredeo\Meredeo_att01.anim,4,1,2,0,0,0.58,0,1,0,692,0
0,MOVE,0,Monster\Meredeo\Meredeo_walk.anim,4,1,2,0,0,0,0,0,0,0,0
0,MOVE,1,Monster\Meredeo\Meredeo_run.anim,4,1,2,0,0,0,0,0,0,0,0
0,ATTACK,4,Monster\Meredeo\Meredeo_att01.anim,4,1,2,0,0,0.58,0,1,0,692,0
0,ATTACK,5,Monster\Meredeo\Meredeo_att02.anim,4,1,2.1,0,0,0.71,0,1,0,693,0
0,ATTACK,6,Monster\Meredeo\Meredeo_att01.anim,4,1,2,0,0,0.58,0,1,0,692,0
0,BLOCKING,0,Monster\Meredeo\Meredeo_blocking.anim,10,1,0.6,0,0,0,0,0,0,0,0
0,DEFEAT,0,Monster\Meredeo\Meredeo_p1.anim,10,1,0.5,0,0,0,0,0,0,0,0
0,DEFEAT,1,Monster\Meredeo\Meredeo_p1.anim,10,1,0.5,0,0,0,0,0,0,0,0
0,DEFEAT,2,Monster\Meredeo\Meredeo_p1.anim,10,1,0.5,0,0,0,0,0,0,0,0
0,DEFEAT,3,Monster\Meredeo\Meredeo_p1.anim,10,1,0.5,0,0,0,0,0,0,0,0
0,DEAD,0,Monster\Meredeo\Meredeo_die.anim,4,1,2.7,0,0,0.1,1,0,0,691,0
0,GUARDING,0,Monster\Meredeo\Meredeo_guard1.anim,10,1,0.5,0,0,0,0,0,0,0,0
0,GUARDING,1,Monster\Meredeo\Meredeo_guard2.anim,10,1,0.5,0,0,0,0,0,0,0,0
0,GUARDING,2,Monster\Meredeo\Meredeo_guard3.anim,10,1,0.5,0,0,0,0,0,0,0,0
