Creature,MONSTER,,,,,,,,,,,,,
Index,5097,,,,,,,,,,,,,
Skeleton,Monster\LAMINA.skel,,,,,,,,,,,,,
,,,,,,,,,,,,,,
Style,Action,Index,Animation,Start_Inter,End_Inter,TimeLength,Swing,Strike,Timing,Split,Timing2,Freeze,Effect,CancelTime
0,STAND,0,Monster\marto\marto_stand.anim,1,1,1.5,0,0,0,0,0,0,0,0
0,STAND,1,Monster\marto\marto_cstand.anim,1,1,1.5,0,0,0,0,0,0,0,0
0,MOVE,0,Monster\marto\marto_walk.anim,1,1,1,0,0,0,0,0,0,0,0
0,MOVE,1,Monster\marto\marto_crun.anim,1,1,0.8,0,0,0,0,0,0,0,0
0,ATTACK,0,Monster\marto\marto_att1.anim,4,1,2.6,0,0,0.55,0,1,0,730,0
0,ATTACK,1,Monster\marto\marto_att2.anim,4,1,2.5,0,0,0.7,0,1,0,731,0
0,ATTACK,2,Monster\marto\marto_att1.anim,4,1,2.6,0,0,0.55,0,1,0,730,0
0,BLOCKING,0,Monster\marto\marto_blocking.anim,10,1,0.5,0,0,0,0,0,0,0,0
0,BLOCKED,0,Monster\marto\marto_blocked.anim,10,1,1,0,0,0,0,0,0,0,0
0,BLOCKED,1,Monster\marto\marto_blocked.anim,10,1,1,0,0,0,0,0,0,0,0
0,BLOCKED,2,Monster\marto\marto_blocked.anim,10,1,1,0,0,0,0,0,0,0,0
0,BLOCKED,3,Monster\marto\marto_blocked.anim,10,1,1,0,0,0,0,0,0,0,0
0,BLOCKED,4,Monster\marto\marto_blocked.anim,10,1,1,0,0,0,0,0,0,0,0
0,BLOCKED,5,Monster\marto\marto_blocked.anim,10,1,1,0,0,0,0,0,0,0,0
0,BLOCKED,6,Monster\marto\marto_blocked.anim,10,1,1,0,0,0,0,0,0,0,0
0,BLOCKED,7,Monster\marto\marto_blocked.anim,10,1,1,0,0,0,0,0,0,0,0
0,DEFEAT,0,Monster\marto\marto_p1.anim,5,1,0.5,0,0,0,0,0,0,0,0
0,DEFEAT,1,Monster\marto\marto_p1.anim,5,1,0.5,0,0,0,0,0,0,0,0
0,DEFEAT,2,Monster\marto\marto_p1.anim,5,1,0.5,0,0,0,0,0,0,0,0
0,DEFEAT,3,Monster\marto\marto_p1.anim,5,1,0.5,0,0,0,0,0,0,0,0
0,DEAD,0,Monster\marto\marto_die.anim,4,1,3,0,0,0.1,1,0,0,729,0
0,GUARDING,0,monster\marto\marto_guard3.anim,10,1,0.5,0,0,0,0,0,0,0,0
0,GUARDING,1,monster\marto\marto_guard3.anim,10,1,0.5,0,0,0,0,0,0,0,0
0,GUARDING,2,monster\marto\marto_guard3.anim,10,1,0.5,0,0,0,0,0,0,0,0
