Creature,MONSTER,,,,,,,,,,,,,
Index,5098,,,,,,,,,,,,,
Skeleton,Monster\Morieta.skel,,,,,,,,,,,,,
,,,,,,,,,,,,,,
Style,Action,Index,Animation,Start_Inter,End_Inter,TimeLength,Swing,Strike,Timing,Split,Timing2,Freeze,Effect,CancelTime
0,STAND,0,Monster\mornie\mornie_stand.anim,1,1,5,0,0,0,0,0,0,0,0
0,STAND,1,Monster\mornie\mornie_cstand.anim,1,1,2,0,0,0,0,0,0,0,0
0,MOVE,0,Monster\mornie\mornie_walk.anim,1,1,1,0,0,0,0,0,0,0,0
0,MOVE,1,Monster\mornie\mornie_crun.anim,1,1,0.8,0,0,0,0,0,0,0,0
0,ATTACK,4,Monster\mornie\mornie_att1.anim,4,1,2.7,0,0,0.5,0,1,0,742,0
0,ATTACK,5,Monster\mornie\mornie_att2.anim,4,1,2.2,0,0,0.59,0,1,0,743,0
0,ATTACK,6,Monster\mornie\mornie_att1.anim,4,1,2.7,0,0,0.5,0,1,0,742,0
0,BLOCKING,0,Monster\mornie\mornie_blocking.anim,10,1,0.5,0,0,0,0,0,0,0,0
0,BLOCKED,0,Monster\mornie\mornie_blocked.anim,10,1,0.5,0,0,0,0,0,0,0,0
0,BLOCKED,1,Monster\mornie\mornie_blocked.anim,10,1,0.5,0,0,0,0,0,0,0,0
0,BLOCKED,2,Monster\mornie\mornie_blocked.anim,10,1,0.5,0,0,0,0,0,0,0,0
0,BLOCKED,3,Monster\mornie\mornie_blocked.anim,10,1,0.5,0,0,0,0,0,0,0,0
0,BLOCKED,4,Monster\mornie\mornie_blocked.anim,10,1,0.5,0,0,0,0,0,0,0,0
0,BLOCKED,5,Monster\mornie\mornie_blocked.anim,10,1,0.5,0,0,0,0,0,0,0,0
0,BLOCKED,6,Monster\mornie\mornie_blocked.anim,10,1,0.5,0,0,0,0,0,0,0,0
0,BLOCKED,7,Monster\mornie\mornie_blocked.anim,10,1,0.5,0,0,0,0,0,0,0,0
0,DEFEAT,0,Monster\mornie\mornie_p4.anim,5,1,0.53,0,0,0,0,0,0,0,0
0,DEFEAT,1,Monster\mornie\mornie_p4.anim,5,1,0.53,0,0,0,0,0,0,0,0
0,DEFEAT,2,Monster\mornie\mornie_p4.anim,5,1,0.53,0,0,0,0,0,0,0,0
0,DEFEAT,3,Monster\mornie\mornie_p4.anim,5,1,0.53,0,0,0,0,0,0,0,0
0,DEAD,0,Monster\mornie\mornie_die.anim,4,1,3,0,0,0.1,1,0,0,741,0
0,GUARDING,0,monster\mornie\mornie_guard3.anim,10,1,0.5,0,0,0,0,0,0,0,0
0,GUARDING,1,monster\mornie\mornie_guard3.anim,10,1,0.5,0,0,0,0,0,0,0,0
0,GUARDING,2,monster\mornie\mornie_guard3.anim,10,1,0.5,0,0,0,0,0,0,0,0
