Creature,MONSTER,,,,,,,,,,,,,
Index,5230,,,,,,,,,,,,,
Skeleton,Monster\dl_bigcrystal.skel,,,,,,,,,,,,,

Style,Action,Index,Animation,Start_Inter,End_Inter,TimeLength,Swing,Strike,Timing,Split,Timing2,Freeze,Effect,CancelTime
0,STAND,0,Monster\dl_bigcrystal\dl_bigcrystal_stand.anim,1,1,2,0,0,0,0,0,0,975,0
0,STAND,1,Monster\dl_bigcrystal\dl_bigcrystal_stand.anim,1,1,2,0,0,0,0,0,0,0,0
0,REVIVE,0,,0,1,0,0,0,0,0,0,0,0,0
0,MOVE,0,Monster\dl_bigcrystal\dl_bigcrystal_stand.anim,1,1,2,0,0,0,0,0,0,0,0
0,MOVE,1,Monster\dl_bigcrystal\dl_bigcrystal_stand.anim,1,1,2,0,0,0,0,0,0,0,0
0,ATTACK,0,Monster\dl_bigcrystal\dl_bigcrystal_stand.anim,4,1,2,0,0,0.63,0,1,0,0,0
0,ATTACK,1,Monster\dl_bigcrystal\dl_bigcrystal_stand.anim,4,1,2,0,0,0.5,0,1,0,0,0
0,BLOCKING,0,Monster\dl_bigcrystal\dl_bigcrystal_p.anim,10,1,0.5,0,0,0,0,0,0,0,0
0,BLOCKED,0,Monster\dl_bigcrystal\dl_bigcrystal_p.anim,10,1,0.5,0,0,0,0,0,0,0,0
0,BLOCKED,1,Monster\dl_bigcrystal\dl_bigcrystal_p.anim,10,1,0.5,0,0,0,0,0,0,0,0
0,BLOCKED,2,Monster\dl_bigcrystal\dl_bigcrystal_p.anim,10,1,0.5,0,0,0,0,0,0,0,0
0,BLOCKED,3,Monster\dl_bigcrystal\dl_bigcrystal_p.anim,10,1,0.5,0,0,0,0,0,0,0,0
0,BLOCKED,4,Monster\dl_bigcrystal\dl_bigcrystal_p.anim,10,1,0.5,0,0,0,0,0,0,0,0
0,BLOCKED,5,Monster\dl_bigcrystal\dl_bigcrystal_p.anim,10,1,0.5,0,0,0,0,0,0,0,0
0,BLOCKED,6,Monster\dl_bigcrystal\dl_bigcrystal_p.anim,10,1,0.5,0,0,0,0,0,0,0,0
0,BLOCKED,7,Monster\dl_bigcrystal\dl_bigcrystal_p.anim,10,1,0.5,0,0,0,0,0,0,0,0
0,DEFEAT,0,Monster\dl_bigcrystal\dl_bigcrystal_p.anim,5,1,0.5,0,0,0,0,0,0,0,0
0,DEFEAT,1,Monster\dl_bigcrystal\dl_bigcrystal_p.anim,5,1,0.5,0,0,0,0,0,0,0,0
0,DEFEAT,2,Monster\dl_bigcrystal\dl_bigcrystal_p.anim,5,1,0.5,0,0,0,0,0,0,0,0
0,DEFEAT,3,Monster\dl_bigcrystal\dl_bigcrystal_p.anim,5,1,0.5,0,0,0,0,0,0,0,0
0,DEAD,0,Monster\dl_bigcrystal\dl_bigcrystal_die.anim,4,1,1.5,0,0,0.1,1,0,0,976,0
0,GUARDING,0,Monster\dl_bigcrystal\dl_bigcrystal_p.anim,10,1,0.5,0,0,0,0,0,0,0,0
0,GUARDING,1,Monster\dl_bigcrystal\dl_bigcrystal_p.anim,10,1,0.5,0,0,0,0,0,0,0,0
0,GUARDING,2,Monster\dl_bigcrystal\dl_bigcrystal_p.anim,10,1,0.5,0,0,0,0,0,0,0,0
