Creature,MONSTER,,,,,,,,,,,,,
Index,5330,,,,,,,,,,,,,
Skeleton,Monster\Atypidae.skel,,,,,,,,,,,,,

Style,Action,Index,Animation,Start_Inter,End_Inter,TimeLength,Swing,Strike,Timing,Split,Timing2,Freeze,Effect,CancelTime
0,STAND,0,Monster\Atypidae\Atypidae_stand.anim,1,1,4,0,0,0,0,0,0,957,0
0,STAND,1,Monster\Atypidae\Atypidae_cstand.anim,1,1,4,0,0,0,0,0,0,0,0
0,MOVE,0,Monster\Atypidae\Atypidae_walk.anim,1,1,1.5,0,0,0,0,0,0,0,0
0,MOVE,1,Monster\Atypidae\Atypidae_crun.anim,1,1,1.5,0,0,0,0,0,0,0,0
0,ATTACK,10,Monster\Atypidae\Atypidae_att1.anim,4,1,1.5,0,0,0.4,0,1,0,958,0
0,ATTACK,11,Monster\Atypidae\Atypidae_att2.anim,4,1,1.5,0,0,0.55,0,1,0,959,0
0,ATTACK,12,Monster\Atypidae\Atypidae_att3.anim,4,1,1.5,0,0,0.55,0,1,0,960,0
0,ATTACK,1,Monster\Atypidae\Atypidae_att4.anim,4,1,2.5,0,0,0.55,0,1,0,961,0
0,ATTACK,2,Monster\Atypidae\Atypidae_att5.anim,4,1,10,0,0,0.2,0,1,0,962,0
0,ATTACK,9,Monster\Atypidae\Atypidae_att1.anim,4,1,1.5,0,0,0.4,0,1,0,958,0
0,BLOCKING,0,Monster\Atypidae\Atypidae_blocking.anim,10,1,0.5,0,0,0,0,0,0,0,0
0,BLOCKED,0,Monster\Atypidae\Atypidae_blocked.anim,10,1,1,0,0,0,0,0,0,0,0
0,BLOCKED,1,Monster\Atypidae\Atypidae_blocked.anim,10,1,1,0,0,0,0,0,0,0,0
0,BLOCKED,2,Monster\Atypidae\Atypidae_blocked.anim,10,1,1,0,0,0,0,0,0,0,0
0,BLOCKED,3,Monster\Atypidae\Atypidae_blocked.anim,10,1,1,0,0,0,0,0,0,0,0
0,BLOCKED,4,Monster\Atypidae\Atypidae_blocked.anim,10,1,1,0,0,0,0,0,0,0,0
0,BLOCKED,5,Monster\Atypidae\Atypidae_blocked.anim,10,1,1,0,0,0,0,0,0,0,0
0,BLOCKED,6,Monster\Atypidae\Atypidae_blocked.anim,10,1,1,0,0,0,0,0,0,0,0
0,BLOCKED,7,Monster\Atypidae\Atypidae_blocked.anim,10,1,1,0,0,0,0,0,0,0,0
0,DEFEAT,0,Monster\Atypidae\Atypidae_p3.anim,5,1,0.66,0,0,0,0,0,0,0,0
0,DEFEAT,1,Monster\Atypidae\Atypidae_p3.anim,5,1,0.66,0,0,0,0,0,0,0,0
0,DEFEAT,2,Monster\Atypidae\Atypidae_p3.anim,5,1,0.66,0,0,0,0,0,0,0,0
0,DEFEAT,3,Monster\Atypidae\Atypidae_p3.anim,5,1,0.66,0,0,0,0,0,0,0,0
0,DEAD,0,Monster\Atypidae\Atypidae_die.anim,4,1,4,0,0,0.1,1,0,0,963,0
0,GUARDING,0,Monster\Atypidae\Atypidae_guard3.anim,10,1,0.66,0,0,0,0,0,0,0,0
0,GUARDING,1,Monster\Atypidae\Atypidae_guard3.anim,10,1,0.66,0,0,0,0,0,0,0,0
0,GUARDING,2,Monster\Atypidae\Atypidae_guard3.anim,10,1,0.66,0,0,0,0,0,0,0,0
