Creature,MONSTER,,,,,,,,,,,,,
Index,5334,,,,,,,,,,,,,
Skeleton,Monster\Hostrat.skel,,,,,,,,,,,,,

Style,Action,Index,Animation,Start_Inter,End_Inter,TimeLength,Swing,Strike,Timing,Split,Timing2,Freeze,Effect,CancelTime
0,STAND,0,Monster\Hostrat\Hostrat_stand.anim,1,1,2,0,0,0,0,0,0,897,0
0,STAND,1,Monster\Hostrat\Hostrat_cstand.anim,1,1,1.5,0,0,0,0,0,0,0,0
0,MOVE,0,Monster\Hostrat\Hostrat_walk.anim,1,1,1.3,0,0,0,0,0,0,0,0
0,MOVE,1,Monster\Hostrat\Hostrat_run.anim,1,1,0.4,0,0,0,0,0,0,0,0
0,ATTACK,0,Monster\Hostrat\Hostrat_att01.anim,4,1,1.5,0,0,0.44,0,1,0,898,0
0,BLOCKING,0,Monster\Hostrat\Hostrat_blocking.anim,10,1,0.5,0,0,0,0,0,0,0,0
0,BLOCKED,0,Monster\Hostrat\Hostrat_blocked.anim,10,1,1,0,0,0,0,0,0,0,0
0,BLOCKED,1,Monster\Hostrat\Hostrat_blocked.anim,10,1,1,0,0,0,0,0,0,0,0
0,BLOCKED,2,Monster\Hostrat\Hostrat_blocked.anim,10,1,1,0,0,0,0,0,0,0,0
0,BLOCKED,3,Monster\Hostrat\Hostrat_blocked.anim,10,1,1,0,0,0,0,0,0,0,0
0,BLOCKED,4,Monster\Hostrat\Hostrat_blocked.anim,10,1,1,0,0,0,0,0,0,0,0
0,BLOCKED,5,Monster\Hostrat\Hostrat_blocked.anim,10,1,1,0,0,0,0,0,0,0,0
0,BLOCKED,6,Monster\Hostrat\Hostrat_blocked.anim,10,1,1,0,0,0,0,0,0,0,0
0,BLOCKED,7,Monster\Hostrat\Hostrat_blocked.anim,10,1,1,0,0,0,0,0,0,0,0
0,DEFEAT,0,Monster\Hostrat\Hostrat_p1.anim,5,1,0.5,0,0,0,0,0,0,0,0
0,DEFEAT,1,Monster\Hostrat\Hostrat_p2.anim,5,1,0.5,0,0,0,0,0,0,0,0
0,DEFEAT,2,Monster\Hostrat\Hostrat_p3.anim,5,1,0.5,0,0,0,0,0,0,0,0
0,DEAD,0,Monster\Hostrat\Hostrat_die.anim,4,1,1.5,0,0,0.1,1,0,0,0,0
0,GUARDING,0,Monster\Hostrat\Hostrat_guard1.anim,10,1,0.5,0,0,0,0,0,0,0,0
0,GUARDING,1,Monster\Hostrat\Hostrat_guard2.anim,10,1,0.5,0,0,0,0,0,0,0,0
0,GUARDING,2,Monster\Hostrat\Hostrat_guard3.anim,10,1,0.5,0,0,0,0,0,0,0,0
0,GUARDING,3,Monster\Hostrat\Hostrat_guard4.anim,10,1,0.5,0,0,0,0,0,0,0,0
