Creature,MONSTER,,,,,,,,,,,,,,,,
Index,5500,,,,,,,,,,,,,,,,
Skeleton,Monster\Yogshield.skel,,,,,,,,,,,,,,,,
,,,,,,,,,,,,,,,,,
Style,Action,Index,Animation,Start_Inter,End_Inter,TimeLength,Swing,Strike,Timing,Split,Timing2,Freeze,Effect,CancelTime,Default,Intersect,Through
0,STAND,0,Monster\Yogshield\Yogshield_stand.anim,1,1,2,0,0,0,0,0,0,0,0,0,0,0
0,STAND,1,Monster\Yogshield\Yogshield_cstand.anim,1,1,1.5,0,0,0,0,0,0,0,0,0,0,0
0,REVIVE,0,,0,1,0,0,0,0,0,0,0,0,0,0,0,0
0,MOVE,0,Monster\Yogshield\Yogshield_walk.anim,1,1,1.5,0,0,0,0,0,0,0,0,0,0,0
0,MOVE,1,Monster\Yogshield\Yogshield_crun.anim,1,1,1,0,0,0,0,0,0,0,0,0,0,0
0,ATTACK,10,Monster\Yogshield\Yogshield_att1.anim,4,1,1.5,0,0,0.55,0,1,0,986,0,0,0,0
0,ATTACK,11,Monster\Yogshield\Yogshield_att2.anim,4,1,2,0,0,0.5,0,1,0,987,0,0,0,0
0,ATTACK,1,Monster\Yogshield\Yogshield_att3.anim,4,1,5.5,0,0,0.11,0,1,0,988,0,0,0,1
0,ATTACK,2,Monster\Yogshield\Yogshield_att5.anim,4,1,2.8,0,0,0.65,0,1,0,990,0,0,0,0
0,BLOCKING,0,Monster\Yogshield\Yogshield_blocking.anim,10,1,0.5,0,0,0,0,0,0,0,0,0,0,0
0,BLOCKED,0,Monster\Yogshield\Yogshield_blocking.anim,10,1,0.5,0,0,0,0,0,0,0,0,0,0,0
0,BLOCKED,1,Monster\Yogshield\Yogshield_blocking.anim,10,1,0.5,0,0,0,0,0,0,0,0,0,0,0
0,BLOCKED,2,Monster\Yogshield\Yogshield_blocking.anim,10,1,0.5,0,0,0,0,0,0,0,0,0,0,0
0,BLOCKED,3,Monster\Yogshield\Yogshield_blocking.anim,10,1,0.5,0,0,0,0,0,0,0,0,0,0,0
0,BLOCKED,4,Monster\Yogshield\Yogshield_blocking.anim,10,1,0.5,0,0,0,0,0,0,0,0,0,0,0
0,BLOCKED,5,Monster\Yogshield\Yogshield_blocking.anim,10,1,0.5,0,0,0,0,0,0,0,0,0,0,0
0,BLOCKED,6,Monster\Yogshield\Yogshield_blocking.anim,10,1,0.5,0,0,0,0,0,0,0,0,0,0,0
0,BLOCKED,7,Monster\Yogshield\Yogshield_blocking.anim,10,1,0.5,0,0,0,0,0,0,0,0,0,0,0
0,DEFEAT,0,Monster\Yogshield\Yogshield_p3.anim,5,1,0.66,0,0,0,0,0,0,0,0,0,0,0
0,DEFEAT,1,Monster\Yogshield\Yogshield_p3.anim,5,1,0.66,0,0,0,0,0,0,0,0,0,0,0
0,DEFEAT,2,Monster\Yogshield\Yogshield_p3.anim,5,1,0.66,0,0,0,0,0,0,0,0,0,0,0
0,DEFEAT,3,Monster\Yogshield\Yogshield_p3.anim,5,1,0.66,0,0,0,0,0,0,0,0,0,0,0
0,DEAD,0,Monster\Yogshield\Yogshield_die.anim,4,1,4.5,0,0,0.1,1,0,0,985,0,0,0,0
0,GUARDING,0,Monster\Yogshield\Yogshield_guard3.anim,10,1,0.66,0,0,0,0,0,0,0,0,0,0,0
0,GUARDING,1,Monster\Yogshield\Yogshield_guard3.anim,10,1,0.66,0,0,0,0,0,0,0,0,0,0,0
0,GUARDING,2,Monster\Yogshield\Yogshield_guard3.anim,10,1,0.66,0,0,0,0,0,0,0,0,0,0,0
