Creature,MONSTER,,,,,,,,,,,,,
Index,5503,,,,,,,,,,,,,
Skeleton,Monster\demogorgon.skel,,,,,,,,,,,,,
,,,,,,,,,,,,,,
Style,Action,Index,Animation,Start_Inter,End_Inter,TimeLength,Swing,Strike,Timing,Split,Timing2,Freeze,Effect,CancelTime
0,STAND,0,Monster\demogorgon\demogorgon_stand.anim,1,1,2,0,0,0,0,0,0,0,0
0,STAND,1,Monster\demogorgon\demogorgon_stand.anim,1,1,2,0,0,0,0,0,0,0,0
0,REVIVE,0,,0,1,0,0,0,0,0,0,0,0,0
0,MOVE,0,Monster\demogorgon\demogorgon_walk.anim,1,1,1,0,0,0,0,0,0,0,0
0,MOVE,1,Monster\demogorgon\demogorgon_run.anim,1,1,1,0,0,0,0,0,0,0,0
0,ATTACK,10,Monster\demogorgon\demogorgon_att01.anim,4,1,2,0,0,0.48,0,1,0,1001,0
0,ATTACK,11,Monster\demogorgon\demogorgon_att02.anim,4,1,2,0,0,0.6,0,1,0,1002,0
0,ATTACK,12,Monster\demogorgon\demogorgon_att03.anim,4,1,2,0,0,0.48,0,1,0,1003,0
0,ATTACK,1,Monster\demogorgon\demogorgon_att04.anim,4,1,1.3,0,0,0.6,0,1,0,1004,0
0,ATTACK,2,Monster\demogorgon\demogorgon_att05.anim,4,1,3.6,0,0,0.2,0,1,0,1005,0
0,BLOCKING,0,Monster\demogorgon\demogorgon_blocking.anim,10,1,0.5,0,0,0,0,0,0,0,0
0,BLOCKED,0,Monster\demogorgon\demogorgon_blocked.anim,10,1,1,0,0,0,0,0,0,0,0
0,BLOCKED,1,Monster\demogorgon\demogorgon_blocked.anim,10,1,1,0,0,0,0,0,0,0,0
0,BLOCKED,2,Monster\demogorgon\demogorgon_blocked.anim,10,1,1,0,0,0,0,0,0,0,0
0,BLOCKED,3,Monster\demogorgon\demogorgon_blocked.anim,10,1,1,0,0,0,0,0,0,0,0
0,BLOCKED,4,Monster\demogorgon\demogorgon_blocked.anim,10,1,1,0,0,0,0,0,0,0,0
0,BLOCKED,5,Monster\demogorgon\demogorgon_blocked.anim,10,1,1,0,0,0,0,0,0,0,0
0,BLOCKED,6,Monster\demogorgon\demogorgon_blocked.anim,10,1,1,0,0,0,0,0,0,0,0
0,BLOCKED,7,Monster\demogorgon\demogorgon_blocked.anim,10,1,1,0,0,0,0,0,0,0,0
0,DEFEAT,0,Monster\demogorgon\demogorgon_p4.anim,5,1,0.5,0,0,0,0,0,0,0,0
0,DEFEAT,1,Monster\demogorgon\demogorgon_p4.anim,5,1,0.5,0,0,0,0,0,0,0,0
0,DEFEAT,2,Monster\demogorgon\demogorgon_p4.anim,5,1,0.5,0,0,0,0,0,0,0,0
0,DEFEAT,3,Monster\demogorgon\demogorgon_p4.anim,5,1,0.5,0,0,0,0,0,0,0,0
0,DEAD,0,Monster\demogorgon\demogorgon_die.anim,5,1,2.3,0,0,0.1,1,0,0,1000,0
0,GUARDING,0,Monster\demogorgon\demogorgon_guard03.anim,0.7,1,0.5,0,0,0,0,0,0,0,0
0,GUARDING,1,Monster\demogorgon\demogorgon_guard03.anim,0.7,1,0.5,0,0,0,0,0,0,0,0
0,GUARDING,2,Monster\demogorgon\demogorgon_guard03.anim,0.7,1,0.5,0,0,0,0,0,0,0,0
