Creature,MONSTER,,,,,,,,,,,
Index,5530,,,,,,,,,,,
Skeleton,Monster\kunda.skel,,,,,,,,,,,
,,,,,,,,,,,,
Style,Action,Index,Animation,Start_Inter,End_Inter,TimeLength,Swing,Strike,Timing,Split,Timing2,Freeze
0,STAND,0,Monster\kunda\kunda_stand.anim,1,1,3,0,0,0,0,0,0
0,STAND,1,Monster\kunda\kunda_cstand.anim,1,1,1,0,0,0,0,0,0
0,REVIVE,0,,0,1,0,0,0,0,0,0,0
0,MOVE,0,Monster\kunda\kunda_walk.anim,1,1,1,0,0,0,0,0,0
0,MOVE,1,Monster\kunda\kunda_crun.anim,1,1,1,0,0,0,0,0,0
0,ATTACK,0,Monster\kunda\kunda_att1.anim,4,1,1.075467,0,0,0.55,0,1,0
0,ATTACK,1,Monster\kunda\kunda_att1.anim,4,1,1.075467,0,0,0.55,0,1,0
0,ATTACK,2,Monster\kunda\kunda_att1.anim,4,1,1.075467,0,0,0.55,0,1,0
0,BLOCKING,0,Monster\kunda\kunda_blocking.anim,10,1,1,0,0,0,0,0,0
0,BLOCKED,0,Monster\kunda\kunda_blocked.anim,10,1,1,0,0,0,0,0,0
0,BLOCKED,1,Monster\kunda\kunda_blocked.anim,10,1,1,0,0,0,0,0,0
0,BLOCKED,2,Monster\kunda\kunda_blocked.anim,10,1,1,0,0,0,0,0,0
0,BLOCKED,3,Monster\kunda\kunda_blocked.anim,10,1,1,0,0,0,0,0,0
0,BLOCKED,4,Monster\kunda\kunda_blocked.anim,10,1,1,0,0,0,0,0,0
0,BLOCKED,5,Monster\kunda\kunda_blocked.anim,10,1,1,0,0,0,0,0,0
0,BLOCKED,6,Monster\kunda\kunda_blocked.anim,10,1,1,0,0,0,0,0,0
0,BLOCKED,7,Monster\kunda\kunda_blocked.anim,10,1,1,0,0,0,0,0,0
0,DEFEAT,0,Monster\kunda\kunda_p1.anim,5,1,0.5,0,0,0,0,0,0
0,DEFEAT,1,Monster\kunda\kunda_p2.anim,5,1,0.5,0,0,0,0,0,0
0,DEFEAT,2,Monster\kunda\kunda_p3.anim,5,1,0.5,0,0,0,0,0,0
0,DEFEAT,3,Monster\kunda\kunda_p4.anim,5,1,0.5,0,0,0,0,0,0
0,DEAD,0,Monster\kunda\kunda_die.anim,4,1,2,0,0,0.1,1,0,0
0,GUARDING,0,monster\kunda\kunda_guard1.anim,10,1,1,0,0,0,0,0,0
0,GUARDING,1,monster\kunda\kunda_guard2.anim,10,1,1,0,0,0,0,0,0
0,GUARDING,2,monster\kunda\kunda_guard3.anim,10,1,1,0,0,0,0,0,0
