Creature,MONSTER,,,,,,,,,,,,,,,,
Index,5534,,,,,,,,,,,,,,,,
Skeleton,Monster\Khagacell_Big.skel,,,,,,,,,,,,,,,,
,,,,,,,,,,,,,,,,,
Style,Action,Index,Animation,Start_Inter,End_Inter,TimeLength,Swing,Strike,Timing,Split,Timing2,Freeze,Effect,CancelTime,Default,Intersect,Through
0,STAND,0,Monster\Khagacell_Big\Khagacell_Big_stand.anim,1,1,7.7,0,0,0,0,0,0,0,0,0,0,0
0,STAND,1,Monster\Khagacell_Big\Khagacell_Big_cstand.anim,1,1,1.3,0,0,0,0,0,0,0,0,0,0,0
0,REVIVE,0,,0,1,0,0,0,0,0,0,0,0,0,0,0,0
0,MOVE,0,Monster\Khagacell_Big\Khagacell_Big_walk.anim,1,1,1.7,0,0,0,0,0,0,0,0,0,0,0
0,MOVE,1,Monster\Khagacell_Big\Khagacell_Big_crun.anim,1,1,1,0,0,0,0,0,0,0,0,0,0,0
0,ATTACK,4,Monster\Khagacell_Big\Khagacell_Big_att02.anim,4,1,2.3,0,0,0.5,0,1,0,1011,0,0,0,0
0,ATTACK,5,Monster\Khagacell_Big\Khagacell_Big_att03.anim,4,1,2.5,0,0,0.65,0,1,0,1012,0,0,0,0
0,ATTACK,6,Monster\Khagacell_Big\Khagacell_Big_power01.anim,4,1,2.7,0,0,0.45,0,1,0,1013,0,0,0,0
0,BLOCKING,0,Monster\Khagacell_Big\Khagacell_Big_blocking.anim,10,1,0.5,0,0,0,0,0,0,0,0,0,0,0
0,BLOCKED,0,Monster\Khagacell_Big\Khagacell_Big_blocked.anim,10,1,1,0,0,0,0,0,0,0,0,0,0,0
0,BLOCKED,1,Monster\Khagacell_Big\Khagacell_Big_blocked.anim,10,1,1,0,0,0,0,0,0,0,0,0,0,0
0,BLOCKED,2,Monster\Khagacell_Big\Khagacell_Big_blocked.anim,10,1,1,0,0,0,0,0,0,0,0,0,0,0
0,BLOCKED,3,Monster\Khagacell_Big\Khagacell_Big_blocked.anim,10,1,1,0,0,0,0,0,0,0,0,0,0,0
0,BLOCKED,4,Monster\Khagacell_Big\Khagacell_Big_blocked.anim,10,1,1,0,0,0,0,0,0,0,0,0,0,0
0,BLOCKED,5,Monster\Khagacell_Big\Khagacell_Big_blocked.anim,10,1,1,0,0,0,0,0,0,0,0,0,0,0
0,BLOCKED,6,Monster\Khagacell_Big\Khagacell_Big_blocked.anim,10,1,1,0,0,0,0,0,0,0,0,0,0,0
0,BLOCKED,7,Monster\Khagacell_Big\Khagacell_Big_blocked.anim,10,1,1,0,0,0,0,0,0,0,0,0,0,0
0,DEFEAT,0,Monster\Khagacell_Big\Khagacell_Big_p4.anim,5,1,0.7,0,0,0,0,0,0,0,0,0,0,0
0,DEFEAT,1,Monster\Khagacell_Big\Khagacell_Big_p4.anim,5,1,0.7,0,0,0,0,0,0,0,0,0,0,0
0,DEFEAT,2,Monster\Khagacell_Big\Khagacell_Big_p4.anim,5,1,0.7,0,0,0,0,0,0,0,0,0,0,0
0,DEFEAT,3,Monster\Khagacell_Big\Khagacell_Big_p4.anim,5,1,0.7,0,0,0,0,0,0,0,0,0,0,0
0,DEAD,0,Monster\Khagacell_Big\Khagacell_Big_die.anim,4,1,4,0,0,0.1,1,0,0,1009,0,0,0,0
0,GUARDING,0,Monster\Khagacell_Big\Khagacell_Big_guard3.anim,10,1,0.7,0,0,0,0,0,0,0,0,0,0,0
0,GUARDING,1,Monster\Khagacell_Big\Khagacell_Big_guard3.anim,10,1,0.7,0,0,0,0,0,0,0,0,0,0,0
0,GUARDING,2,Monster\Khagacell_Big\Khagacell_Big_guard3.anim,10,1,0.7,0,0,0,0,0,0,0,0,0,0,0
