Creature,MONSTER,,,,,,,,,,,,,
Index,5563,,,,,,,,,,,,,
Skeleton,npc_human_size.skel,,,,,,,,,,,,,
,,,,,,,,,,,,,,
Style,Action,Index,,Start_Inter,End_Inter,TimeLength,Swing,Strike,Timing,Split,Timing2,Freeze,Effect,CancelTime
0,STAND,0,,1,1,6,0,0,0,0,0,0,0,0
0,STAND,1,,1,1,6,0,0,0,0,0,0,0,0
0,REVIVE,0,,0,1,0,0,0,0,0,0,0,0,0
0,MOVE,0,,1,1,1,0,0,0,0,0,0,0,0
0,MOVE,1,,1,1,1,0,0,0,0,0,0,0,0
0,ATTACK,0,,4,1,1,0,0,0.5,0,1,0,0,0
0,BLOCKING,0,,10,1,1,0,0,0,0,0,0,0,0
0,BLOCKED,0,,10,1,1,0,0,0,0,0,0,0,0
0,BLOCKED,1,,10,1,1,0,0,0,0,0,0,0,0
0,BLOCKED,2,,10,1,1,0,0,0,0,0,0,0,0
0,BLOCKED,3,,10,1,1,0,0,0,0,0,0,0,0
0,BLOCKED,4,,10,1,1,0,0,0,0,0,0,0,0
0,BLOCKED,5,,10,1,1,0,0,0,0,0,0,0,0
0,BLOCKED,6,,10,1,1,0,0,0,0,0,0,0,0
0,BLOCKED,7,,10,1,1,0,0,0,0,0,0,0,0
0,DEFEAT,0,,5,1,1,0,0,0,0,0,0,0,0
0,DEFEAT,1,,5,1,1,0,0,0,0,0,0,0,0
0,DEFEAT,2,,5,1,1,0,0,0,0,0,0,0,0
0,DEFEAT,3,,5,1,1,0,0,0,0,0,0,0,0
0,DEAD,0,,4,1,3,0,0,0.1,1,0,0,0,0
0,GUARDING,0,,10,1,1,0,0,0,0,0,0,0,0
0,GUARDING,1,,10,1,1,0,0,0,0,0,0,0,0
0,GUARDING,2,,10,1,1,0,0,0,0,0,0,0,0
