Creature,MONSTER,,,,,,,,,,,,,
Index,5755,,,,,,,,,,,,,
Skeleton,Monster\Ekatl_big.skel,,,,,,,,,,,,,
,,,,,,,,,,,,,,
Style,Action,Index,Animation,Start_Inter,End_Inter,TimeLength,Swing,Strike,Timing,Split,Timing2,Freeze,Effect,CancelTime
0,STAND,0,Monster\Ekatl_big\Ekatl_big_stand.anim,1,1,2,0,0,0,0,0,0,0,0
0,STAND,1,Monster\Ekatl_big\Ekatl_big_cstand.anim,1,1,1,0,0,0,0,0,0,0,0
0,REVIVE,0,,0,1,0,0,0,0,0,0,0,0,0
0,MOVE,0,Monster\Ekatl_big\Ekatl_big_walk.anim,1,1,1,0,0,0,0,0,0,0,0
0,MOVE,1,Monster\Ekatl_big\Ekatl_big_crun.anim,1,1,1,0,0,0,0,0,0,0,0
0,ATTACK,10,Monster\Ekatl_big\Ekatl_big_att01.anim,4,1,1.5,0,0,0.51,0,1,0,1067,0
0,ATTACK,11,Monster\Ekatl_big\Ekatl_big_att02.anim,4,1,1.5,0,0,0.44,0,1,0,1068,0
0,BLOCKING,0,Monster\Ekatl_big\Ekatl_big_blocking.anim,10,1,0.5,0,0,0,0,0,0,0,0
0,BLOCKED,0,Monster\Ekatl_big\Ekatl_big_blocked.anim,10,1,1,0,0,0,0,0,0,0,0
0,BLOCKED,1,Monster\Ekatl_big\Ekatl_big_blocked.anim,10,1,1,0,0,0,0,0,0,0,0
0,BLOCKED,2,Monster\Ekatl_big\Ekatl_big_blocked.anim,10,1,1,0,0,0,0,0,0,0,0
0,BLOCKED,3,Monster\Ekatl_big\Ekatl_big_blocked.anim,10,1,1,0,0,0,0,0,0,0,0
0,BLOCKED,4,Monster\Ekatl_big\Ekatl_big_blocked.anim,10,1,1,0,0,0,0,0,0,0,0
0,BLOCKED,5,Monster\Ekatl_big\Ekatl_big_blocked.anim,10,1,1,0,0,0,0,0,0,0,0
0,BLOCKED,6,Monster\Ekatl_big\Ekatl_big_blocked.anim,10,1,1,0,0,0,0,0,0,0,0
0,BLOCKED,7,Monster\Ekatl_big\Ekatl_big_blocked.anim,10,1,1,0,0,0,0,0,0,0,0
0,DEFEAT,0,Monster\Ekatl_big\Ekatl_big_p1.anim,5,1,0.5,0,0,0,0,0,0,0,0
0,DEFEAT,1,Monster\Ekatl_big\Ekatl_big_p2.anim,5,1,0.5,0,0,0,0,0,0,0,0
0,DEFEAT,2,Monster\Ekatl_big\Ekatl_big_p3.anim,5,1,0.5,0,0,0,0,0,0,0,0
0,DEFEAT,3,Monster\Ekatl_big\Ekatl_big_p4.anim,5,1,0.5,0,0,0,0,0,0,0,0
0,DEAD,0,Monster\Ekatl_big\Ekatl_big_die.anim,4,1,3,0,0,0.1,1,0,0,1066,0
0,GUARDING,0,monster\Ekatl_big\Ekatl_big_guard1.anim,10,1,0.5,0,0,0,0,0,0,0,0
0,GUARDING,1,monster\Ekatl_big\Ekatl_big_guard2.anim,10,1,0.5,0,0,0,0,0,0,0,0
0,GUARDING,2,monster\Ekatl_big\Ekatl_big_guard3.anim,10,1,0.5,0,0,0,0,0,0,0,0
