Creature,MONSTER,,,,,,,,,,,,,
Index,5811,,,,,,,,,,,,,
Skeleton,Monster\kamat.skel,,,,,,,,,,,,,
,,,,,,,,,,,,,,
Style,Action,Index,Animation,Start_Inter,End_Inter,TimeLength,Swing,Strike,Timing,Split,Timing2,Freeze,Effect,CancelTime
0,STAND,0,Monster\kamat\kamat_stand.anim,1,1,6.7,0,0,0,0,0,0,0,0
0,STAND,1,Monster\kamat\kamat_cstand.anim,1,1,1,0,0,0,0,0,0,0,0
0,REVIVE,0,Monster\kamat\kamat_stand.anim,1,1,0.1,0,0,0,0,0,0,0,0
0,MOVE,0,Monster\kamat\kamat_walk.anim,1,1,1.1,0,0,0,0,0,0,0,0
0,MOVE,1,Monster\kamat\kamat_crun.anim,4,1,0.9,0,0,0,0,0,0,0,0
0,ATTACK,0,Monster\kamat\kamat_att01.anim,4,1,2.3,0,0,0.5,0,0,0,918,0
0,ATTACK,1,Monster\kamat\kamat_att02.anim,4,1,2.8,0,0,0.6,0,0,0,919,0
0,ATTACK,2,Monster\kamat\kamat_att03.anim,4,1,3,0,0,0.55,0,0,0,920,0
0,BLOCKING,0,Monster\kamat\kamat_blocking.anim,10,1,0.7,0,0,0,0,0,0,0,0
0,BLOCKED,0,Monster\kamat\kamat_blocked.anim,10,1,1.3,0,0,0,0,0,0,0,0
0,BLOCKED,1,Monster\kamat\kamat_blocked.anim,10,1,1.3,0,0,0,0,0,0,0,0
0,BLOCKED,2,Monster\kamat\kamat_blocked.anim,10,1,1.3,0,0,0,0,0,0,0,0
0,BLOCKED,3,Monster\kamat\kamat_blocked.anim,10,1,1.3,0,0,0,0,0,0,0,0
0,BLOCKED,4,Monster\kamat\kamat_blocked.anim,10,1,1.3,0,0,0,0,0,0,0,0
0,BLOCKED,5,Monster\kamat\kamat_blocked.anim,10,1,1.3,0,0,0,0,0,0,0,0
0,BLOCKED,6,Monster\kamat\kamat_blocked.anim,10,1,1.3,0,0,0,0,0,0,0,0
0,BLOCKED,7,Monster\kamat\kamat_blocked.anim,10,1,1.3,0,0,0,0,0,0,0,0
0,DEFEAT,0,Monster\kamat\kamat_p4.anim,5,1,0.7,0,0,0,0,0,0,0,0
0,DEFEAT,1,Monster\kamat\kamat_p4.anim,5,1,0.7,0,0,0,0,0,0,0,0
0,DEFEAT,2,Monster\kamat\kamat_p4.anim,5,1,0.7,0,0,0,0,0,0,0,0
0,DEFEAT,3,Monster\kamat\kamat_p4.anim,5,1,0.7,0,0,0,0,0,0,0,0
0,DEAD,0,Monster\kamat\kamat_die.anim,4,1,3,0,0,0,0,0,0,917,0
0,GUARDING,0,Monster\kamat\kamat_guard03.anim,10,1,0.7,0,0,0,0,0,0,0,0
0,GUARDING,1,Monster\kamat\kamat_guard03.anim,10,1,0.7,0,0,0,0,0,0,0,0
0,GUARDING,2,Monster\kamat\kamat_guard03.anim,10,1,0.7,0,0,0,0,0,0,0,0
