Creature,MONSTER,,,,,,,,,,,,,,,,
Index,5907,,,,,,,,,,,,,,,,
Skeleton,Monster\Gramen.skel,,,,,,,,,,,,,,,,
,,,,,,,,,,,,,,,,,
Style,Action,Index,Animation,Start_Inter,End_Inter,TimeLength,Swing,Strike,Timing,Split,Timing2,Freeze,Effect,CancelTime,Default,Intersect,Through
0,STAND,0,Monster\Gramen\Gramen_stand.anim,4,1,2.5,0,0,0,0,0,0,0,0,0,0,0
0,STAND,1,Monster\Gramen\Gramen_cstand.anim,4,1,1,0,0,0,0,0,0,0,0,0,0,0
0,REVIVE,0,,0,1,0,0,0,0,0,0,0,0,0,0,0,0
0,MOVE,0,Monster\Gramen\Gramen_walk.anim,4,1,2,0,0,0,0,0,0,0,0,0,0,0
0,MOVE,1,Monster\Gramen\Gramen_crun.anim,4,1,1,0,0,0,0,0,0,0,0,0,0,0
0,ATTACK,0,Monster\Gramen\Gramen_att1.anim,4,1,2,0,0,0.47,0,1,0,1147,0,0,0,0
0,ATTACK,1,Monster\Gramen\Gramen_att2.anim,4,1,4,0,0,0.34,0,1,0,1148,0,0,0,0
0,BLOCKING,0,Monster\Gramen\Gramen_blocking.anim,10,1,0.5,0,0,0,0,0,0,0,0,0,0,0
0,BLOCKED,0,Monster\Gramen\Gramen_blocked.anim,10,1,1,0,0,0,0,0,0,0,0,0,0,0
0,BLOCKED,1,Monster\Gramen\Gramen_blocked.anim,10,1,1,0,0,0,0,0,0,0,0,0,0,0
0,BLOCKED,2,Monster\Gramen\Gramen_blocked.anim,10,1,1,0,0,0,0,0,0,0,0,0,0,0
0,BLOCKED,3,Monster\Gramen\Gramen_blocked.anim,10,1,1,0,0,0,0,0,0,0,0,0,0,0
0,BLOCKED,4,Monster\Gramen\Gramen_blocked.anim,10,1,1,0,0,0,0,0,0,0,0,0,0,0
0,BLOCKED,5,Monster\Gramen\Gramen_blocked.anim,10,1,1,0,0,0,0,0,0,0,0,0,0,0
0,BLOCKED,6,Monster\Gramen\Gramen_blocked.anim,10,1,1,0,0,0,0,0,0,0,0,0,0,0
0,BLOCKED,7,Monster\Gramen\Gramen_blocked.anim,10,1,1,0,0,0,0,0,0,0,0,0,0,0
0,DEFEAT,0,Monster\Gramen\Gramen_p1.anim,10,1,0.5,0,0,0,0,0,0,0,0,0,0,0
0,DEFEAT,1,Monster\Gramen\Gramen_p2.anim,10,1,0.5,0,0,0,0,0,0,0,0,0,0,0
0,DEFEAT,2,Monster\Gramen\Gramen_p3.anim,10,1,0.5,0,0,0,0,0,0,0,0,0,0,0
0,DEFEAT,3,Monster\Gramen\Gramen_p4.anim,10,1,0.5,0,0,0,0,0,0,0,0,0,0,0
0,DEAD,0,Monster\Gramen\Gramen_die.anim,4,1,3,0,0,0.1,1,0,0,1149,0,0,0,0
0,GUARDING,0,Monster\Gramen\Gramen_guard1.anim,10,1,0.5,0,0,0,0,0,0,0,0,0,0,0
0,GUARDING,1,Monster\Gramen\Gramen_guard2.anim,10,1,0.5,0,0,0,0,0,0,0,0,0,0,0
0,GUARDING,2,Monster\Gramen\Gramen_guard3.anim,10,1,0.5,0,0,0,0,0,0,0,0,0,0,0
