Creature,MONSTER,,,,,,,,,,,,,,,,
Index,5908,,,,,,,,,,,,,,,,
Skeleton,Monster\Mag_Creeper.skel,,,,,,,,,,,,,,,,
,,,,,,,,,,,,,,,,,
Style,Action,Index,Animation,Start_Inter,End_Inter,TimeLength,Swing,Strike,Timing,Split,Timing2,Freeze,Effect,CancelTime,Default,Intersect,Through
0,STAND,0,Monster\Mag_Creeper\Mag_Creeper_stand.anim,4,1,2.5,0,0,0,0,0,0,0,0,0,0,0
0,STAND,1,Monster\Mag_Creeper\Mag_Creeper_cstand.anim,4,1,2,0,0,0,0,0,0,0,0,0,0,0
0,REVIVE,0,,0,1,0,0,0,0,0,0,0,0,0,0,0,0
0,MOVE,0,Monster\Mag_Creeper\Mag_Creeper_walk.anim,4,1,2,0,0,0,0,0,0,0,0,0,0,0
0,MOVE,1,Monster\Mag_Creeper\Mag_Creeper_crun.anim,4,1,1.5,0,0,0,0,0,0,0,0,0,0,0
0,ATTACK,0,Monster\Mag_Creeper\Mag_Creeper_att1.anim,4,1,5,0,0,0.2,0,1,0,1134,0,0,0,0
0,ATTACK,1,Monster\Mag_Creeper\Mag_Creeper_att2.anim,4,1,2,0,0,0.7,0,1,0,1135,0,0,0,0
0,ATTACK,2,Monster\Mag_Creeper\Mag_Creeper_att2.anim,4,1,2,0,0,0.7,0,1,0,1135,0,0,0,0
0,BLOCKING,0,Monster\Mag_Creeper\Mag_Creeper_blocking.anim,10,1,0.66,0,0,0,0,0,0,0,0,0,0,0
0,BLOCKED,0,Monster\Mag_Creeper\Mag_Creeper_blocking.anim,10,1,0.66,0,0,0,0,0,0,0,0,0,0,0
0,BLOCKED,1,Monster\Mag_Creeper\Mag_Creeper_blocking.anim,10,1,0.66,0,0,0,0,0,0,0,0,0,0,0
0,BLOCKED,2,Monster\Mag_Creeper\Mag_Creeper_blocking.anim,10,1,0.66,0,0,0,0,0,0,0,0,0,0,0
0,BLOCKED,3,Monster\Mag_Creeper\Mag_Creeper_blocking.anim,10,1,0.66,0,0,0,0,0,0,0,0,0,0,0
0,BLOCKED,4,Monster\Mag_Creeper\Mag_Creeper_blocking.anim,10,1,0.66,0,0,0,0,0,0,0,0,0,0,0
0,BLOCKED,5,Monster\Mag_Creeper\Mag_Creeper_blocking.anim,10,1,0.66,0,0,0,0,0,0,0,0,0,0,0
0,BLOCKED,6,Monster\Mag_Creeper\Mag_Creeper_blocking.anim,10,1,0.66,0,0,0,0,0,0,0,0,0,0,0
0,BLOCKED,7,Monster\Mag_Creeper\Mag_Creeper_blocking.anim,10,1,0.66,0,0,0,0,0,0,0,0,0,0,0
0,DEFEAT,0,Monster\Mag_Creeper\Mag_Creeper_p3.anim,10,1,0.66,0,0,0,0,0,0,0,0,0,0,0
0,DEFEAT,1,Monster\Mag_Creeper\Mag_Creeper_p3.anim,10,1,0.66,0,0,0,0,0,0,0,0,0,0,0
0,DEFEAT,2,Monster\Mag_Creeper\Mag_Creeper_p3.anim,10,1,0.66,0,0,0,0,0,0,0,0,0,0,0
0,DEFEAT,3,Monster\Mag_Creeper\Mag_Creeper_p3.anim,10,1,0.66,0,0,0,0,0,0,0,0,0,0,0
0,DEAD,0,Monster\Mag_Creeper\Mag_Creeper_die.anim,4,1,4.5,0,0,0.1,1,0,0,1136,0,0,0,0
0,GUARDING,0,Monster\Mag_Creeper\Mag_Creeper_guard3.anim,10,1,0.66,0,0,0,0,0,0,0,0,0,0,0
0,GUARDING,1,Monster\Mag_Creeper\Mag_Creeper_guard3.anim,10,1,0.66,0,0,0,0,0,0,0,0,0,0,0
0,GUARDING,2,Monster\Mag_Creeper\Mag_Creeper_guard3.anim,10,1,0.66,0,0,0,0,0,0,0,0,0,0,0
