Creature,MONSTER,,,,,,,,,,,,,,,,
Index,60006,,,,,,,,,,,,,,,,
Skeleton,Monster\cusill.skel,,,,,,,,,,,,,,,,
,,,,,,,,,,,,,,,,,
Style,Action,Index,Animation,Start_Inter,End_Inter,TimeLength,Swing,Strike,Timing,Split,Timing2,Freeze,Effect,CancelTime,Default,Intersect,Through
0,STAND,0,Monster\cusill\cusill_stand.anim,1,1,2,0,0,0,0,0,0,0,0,0,0,0
0,STAND,1,Monster\cusill\cusill_cstand.anim,1,1,1,0,0,0,0,0,0,0,0,0,0,0
0,MOVE,0,Monster\cusill\cusill_walk.anim,1,1,1.333,0,0,0,0,0,0,0,0,0,0,0
0,MOVE,1,Monster\cusill\cusill_run.anim,1,1,1.333,0,0,0,0,0,0,0,0,0,0,0
0,ATTACK,0,Monster\cusill\cusill_att02.anim,4,1,3,0,0,0.1,0,1,0,1298,0,0,0,0
0,ATTACK,1,Monster\cusill\cusill_att03.anim,4,1,2,0,0,0.43,0,1,0,1299,0,0,0,0
0,ATTACK,2,Monster\cusill\cusill_att04.anim,4,1,4,0,0,0.642,0,1,0,1300,0,0,0,0
0,BLOCKING,0,Monster\cusill\cusill_blocking.anim,10,1,0.5,0,0,0,0,0,0,0,0,0,0,0
0,BLOCKED,0,Monster\cusill\cusill_blocked.anim,10,1,1,0,0,0,0,0,0,0,0,0,0,0
0,BLOCKED,1,Monster\cusill\cusill_blocked.anim,10,1,1,0,0,0,0,0,0,0,0,0,0,0
0,BLOCKED,2,Monster\cusill\cusill_blocked.anim,10,1,1,0,0,0,0,0,0,0,0,0,0,0
0,BLOCKED,3,Monster\cusill\cusill_blocked.anim,10,1,1,0,0,0,0,0,0,0,0,0,0,0
0,BLOCKED,4,Monster\cusill\cusill_blocked.anim,10,1,1,0,0,0,0,0,0,0,0,0,0,0
0,BLOCKED,5,Monster\cusill\cusill_blocked.anim,10,1,1,0,0,0,0,0,0,0,0,0,0,0
0,BLOCKED,6,Monster\cusill\cusill_blocked.anim,10,1,1,0,0,0,0,0,0,0,0,0,0,0
0,BLOCKED,7,Monster\cusill\cusill_blocked.anim,10,1,1,0,0,0,0,0,0,0,0,0,0,0
0,DEFEAT,0,Monster\cusill\cusill_p.anim,5,1,0.5,0,0,0,0,0,0,0,0,0,0,0
0,DEFEAT,1,Monster\cusill\cusill_p.anim,5,1,0.5,0,0,0,0,0,0,0,0,0,0,0
0,DEFEAT,2,Monster\cusill\cusill_p.anim,5,1,0.5,0,0,0,0,0,0,0,0,0,0,0
0,DEFEAT,3,Monster\cusill\cusill_p.anim,5,1,0.5,0,0,0,0,0,0,0,0,0,0,0
0,DEAD,0,Monster\cusill\cusill_die.anim,4,1,2,0,0,0.1,1,0,0,1301,0,0,0,0
0,GUARDING,0,monster\cusill\cusill_guard.anim,10,1,0.5,0,0,0,0,0,0,0,0,0,0,0
0,GUARDING,1,monster\cusill\cusill_guard.anim,10,1,0.5,0,0,0,0,0,0,0,0,0,0,0
0,GUARDING,2,monster\cusill\cusill_guard.anim,10,1,0.5,0,0,0,0,0,0,0,0,0,0,0
