Creature,MONSTER,,,,,,,,,,,,,,,,
Index,60011,,,,,,,,,,,,,,,,
Skeleton,Monster\Karke.skel,,,,,,,,,,,,,,,,
,,,,,,,,,,,,,,,,,
Style,Action,Index,Animation,Start_Inter,End_Inter,TimeLength,Swing,Strike,Timing,Split,Timing2,Freeze,Effect,CancelTime,Default,Intersect,Through
0,STAND,0,Monster\Karke\Karke_stand.anim,1,1,4,0,0,0,0,0,0,0,0,0,0,0
0,STAND,1,Monster\Karke\Karke_cstand.anim,1,1,2.2,0,0,0,0,0,0,0,0,0,0,0
0,MOVE,0,Monster\Karke\Karke_walk.anim,1,1,2,0,0,0,0,0,0,0,0,0,0,0
0,MOVE,1,Monster\Karke\Karke_crun.anim,1,1,1.5,0,0,0,0,0,0,0,0,0,0,0
0,ATTACK,0,Monster\Karke\Karke_att3.anim,4,1,4,0,0,0.1,0,1,0,1292,0,0,0,0
0,ATTACK,1,Monster\Karke\Karke_att2.anim,4,1,2,0,0,0.6,0,1,0,1291,0,0,0,0
0,ATTACK,2,Monster\Karke\Karke_att5.anim,4,1,4,0,0,0.33,0,1,0,1294,0,0,0,1
0,BLOCKING,0,Monster\Karke\Karke_blocking.anim,10,1,0.5,0,0,0,0,0,0,0,0,0,0,0
0,BLOCKED,0,Monster\Karke\Karke_blocked.anim,10,1,1,0,0,0,0,0,0,0,0,0,0,0
0,BLOCKED,1,Monster\Karke\Karke_blocked.anim,10,1,1,0,0,0,0,0,0,0,0,0,0,0
0,BLOCKED,2,Monster\Karke\Karke_blocked.anim,10,1,1,0,0,0,0,0,0,0,0,0,0,0
0,BLOCKED,3,Monster\Karke\Karke_blocked.anim,10,1,1,0,0,0,0,0,0,0,0,0,0,0
0,BLOCKED,4,Monster\Karke\Karke_blocked.anim,10,1,1,0,0,0,0,0,0,0,0,0,0,0
0,BLOCKED,5,Monster\Karke\Karke_blocked.anim,10,1,1,0,0,0,0,0,0,0,0,0,0,0
0,BLOCKED,6,Monster\Karke\Karke_blocked.anim,10,1,1,0,0,0,0,0,0,0,0,0,0,0
0,BLOCKED,7,Monster\Karke\Karke_blocked.anim,10,1,1,0,0,0,0,0,0,0,0,0,0,0
0,DEFEAT,0,Monster\Karke\Karke_p4.anim,5,1,0.7,0,0,0,0,0,0,0,0,0,0,0
0,DEFEAT,1,Monster\Karke\Karke_p4.anim,5,1,0.7,0,0,0,0,0,0,0,0,0,0,0
0,DEFEAT,2,Monster\Karke\Karke_p4.anim,5,1,0.7,0,0,0,0,0,0,0,0,0,0,0
0,DEFEAT,3,Monster\Karke\Karke_p4.anim,5,1,0.7,0,0,0,0,0,0,0,0,0,0,0
0,DEAD,0,Monster\Karke\Karke_die.anim,4,1,5.5,0,0,0.1,1,0,0,1295,0,0,0,0
0,GUARDING,0,monster\Karke\Karke_guard3.anim,10,1,0.7,0,0,0,0,0,0,0,0,0,0,0
0,GUARDING,1,monster\Karke\Karke_guard3.anim,10,1,0.7,0,0,0,0,0,0,0,0,0,0,0
0,GUARDING,2,monster\Karke\Karke_guard3.anim,10,1,0.7,0,0,0,0,0,0,0,0,0,0,0
