Creature,MONSTER,,,,,,,,,,,,,,,,
Index,6004,,,,,,,,,,,,,,,,
Skeleton,Monster\Drabiss_Warriorboss.skel,,,,,,,,,,,,,,,,
,,,,,,,,,,,,,,,,,
Style,Action,Index,Animation,Start_Inter,End_Inter,TimeLength,Swing,Strike,Timing,Split,Timing2,Freeze,Effect,CancelTime,Default,Intersect,Through
0,STAND,0,Monster\Drabiss_Warriorboss\Drabiss_Warriorboss_stand.anim,4,1,3,0,0,0,0,0,0,0,0,0,0,0
0,STAND,1,Monster\Drabiss_Warriorboss\Drabiss_Warriorboss_cstand.anim,4,1,1.5,0,0,0,0,0,0,0,0,0,0,0
0,REVIVE,0,,0,1,0,0,0,0,0,0,0,0,0,0,0,0
0,MOVE,0,Monster\Drabiss_Warriorboss\Drabiss_Warriorboss_walk.anim,4,1,1.3,0,0,0,0,0,0,0,0,0,0,0
0,MOVE,1,Monster\Drabiss_Warriorboss\Drabiss_Warriorboss_crun.anim,4,1,0.8,0,0,0,0,0,0,0,0,0,0,0
0,ATTACK,0,Monster\Drabiss_Warriorboss\Drabiss_Warriorboss_att1.anim,4,1,2.2,0,0,0.35,0,1,0,1151,0,0,0,0
0,ATTACK,9,Monster\Drabiss_Warriorboss\Drabiss_Warriorboss_att6.anim,4,1,3,0,0,0.5,0,1,0,1156,0,0,0,0
0,ATTACK,1,Monster\Drabiss_Warriorboss\Drabiss_Warriorboss_att2.anim,4,1,3,0,0,0.6,0,1,0,1152,0,0,0,0
0,ATTACK,2,Monster\Drabiss_Warriorboss\Drabiss_Warriorboss_att3.anim,4,1,2,0,0,0.6,0,1,0,1153,0,0,0,0
0,BLOCKING,0,Monster\Drabiss_Warriorboss\Drabiss_Warriorboss_blocking.anim,10,1,0.5,0,0,0,0,0,0,0,0,0,0,0
0,BLOCKED,0,Monster\Drabiss_Warriorboss\Drabiss_Warriorboss_blocked.anim,10,1,1,0,0,0,0,0,0,0,0,0,0,0
0,BLOCKED,1,Monster\Drabiss_Warriorboss\Drabiss_Warriorboss_blocked.anim,10,1,1,0,0,0,0,0,0,0,0,0,0,0
0,BLOCKED,2,Monster\Drabiss_Warriorboss\Drabiss_Warriorboss_blocked.anim,10,1,1,0,0,0,0,0,0,0,0,0,0,0
0,BLOCKED,3,Monster\Drabiss_Warriorboss\Drabiss_Warriorboss_blocked.anim,10,1,1,0,0,0,0,0,0,0,0,0,0,0
0,BLOCKED,4,Monster\Drabiss_Warriorboss\Drabiss_Warriorboss_blocked.anim,10,1,1,0,0,0,0,0,0,0,0,0,0,0
0,BLOCKED,5,Monster\Drabiss_Warriorboss\Drabiss_Warriorboss_blocked.anim,10,1,1,0,0,0,0,0,0,0,0,0,0,0
0,BLOCKED,6,Monster\Drabiss_Warriorboss\Drabiss_Warriorboss_blocked.anim,10,1,1,0,0,0,0,0,0,0,0,0,0,0
0,BLOCKED,7,Monster\Drabiss_Warriorboss\Drabiss_Warriorboss_blocked.anim,10,1,1,0,0,0,0,0,0,0,0,0,0,0
0,DEFEAT,0,Monster\Drabiss_Warriorboss\Drabiss_Warriorboss_p1.anim,10,1,0.5,0,0,0,0,0,0,0,0,0,0,0
0,DEFEAT,1,Monster\Drabiss_Warriorboss\Drabiss_Warriorboss_p2.anim,10,1,0.5,0,0,0,0,0,0,0,0,0,0,0
0,DEFEAT,2,Monster\Drabiss_Warriorboss\Drabiss_Warriorboss_p3.anim,10,1,0.5,0,0,0,0,0,0,0,0,0,0,0
0,DEFEAT,3,Monster\Drabiss_Warriorboss\Drabiss_Warriorboss_p4.anim,10,1,0.5,0,0,0,0,0,0,0,0,0,0,0
0,DEAD,0,Monster\Drabiss_Warriorboss\Drabiss_Warriorboss_die.anim,4,1,4.5,0,0,0.1,1,0,0,1157,0,0,0,0
0,GUARDING,0,Monster\Drabiss_Warriorboss\Drabiss_Warriorboss_guard1.anim,10,1,0.5,0,0,0,0,0,0,0,0,0,0,0
0,GUARDING,1,Monster\Drabiss_Warriorboss\Drabiss_Warriorboss_guard2.anim,10,1,0.5,0,0,0,0,0,0,0,0,0,0,0
0,GUARDING,2,Monster\Drabiss_Warriorboss\Drabiss_Warriorboss_guard3.anim,10,1,0.5,0,0,0,0,0,0,0,0,0,0,0
