Creature,MONSTER,,,,,,,,,,,,,,,,
Index,6006,,,,,,,,,,,,,,,,
Skeleton,Monster\Drabiss_Acher.skel,,,,,,,,,,,,,,,,
,,,,,,,,,,,,,,,,,
Style,Action,Index,Animation,Start_Inter,End_Inter,TimeLength,Swing,Strike,Timing,Split,Timing2,Freeze,Effect,CancelTime,Default,Intersect,Through
0,STAND,0,Monster\Drabiss_Acher\Drabiss_Acher_stand.anim,4,1,5,0,0,0,0,0,0,0,0,0,0,0
0,STAND,1,Monster\Drabiss_Acher\Drabiss_Acher_cstand.anim,4,1,1,0,0,0,0,0,0,0,0,0,0,0
0,REVIVE,0,,0,1,0,0,0,0,0,0,0,0,0,0,0,0
0,MOVE,0,Monster\Drabiss_Acher\Drabiss_Acher_walk.anim,4,1,1,0,0,0,0,0,0,0,0,0,0,0
0,MOVE,1,Monster\Drabiss_Acher\Drabiss_Acher_crun.anim,4,1,0.8,0,0,0,0,0,0,0,0,0,0,0
0,ATTACK,4,Monster\Drabiss_Acher\Drabiss_Acher_att01.anim,4,1,2.3,0,0,0.75,0,1,0,1197,0,0,0,0
0,ATTACK,5,Monster\Drabiss_Acher\Drabiss_Acher_att02.anim,4,1,2.7,0,0,0.8,0,1,0,1198,0,0,0,0
0,BLOCKING,0,Monster\Drabiss_Acher\Drabiss_Acher_blocking.anim,10,1,0.5,0,0,0,0,0,0,0,0,0,0,0
0,BLOCKED,0,Monster\Drabiss_Acher\Drabiss_Acher_blocked.anim,10,1,1,0,0,0,0,0,0,0,0,0,0,0
0,BLOCKED,1,Monster\Drabiss_Acher\Drabiss_Acher_blocked.anim,10,1,1,0,0,0,0,0,0,0,0,0,0,0
0,BLOCKED,2,Monster\Drabiss_Acher\Drabiss_Acher_blocked.anim,10,1,1,0,0,0,0,0,0,0,0,0,0,0
0,BLOCKED,3,Monster\Drabiss_Acher\Drabiss_Acher_blocked.anim,10,1,1,0,0,0,0,0,0,0,0,0,0,0
0,BLOCKED,4,Monster\Drabiss_Acher\Drabiss_Acher_blocked.anim,10,1,1,0,0,0,0,0,0,0,0,0,0,0
0,BLOCKED,5,Monster\Drabiss_Acher\Drabiss_Acher_blocked.anim,10,1,1,0,0,0,0,0,0,0,0,0,0,0
0,BLOCKED,6,Monster\Drabiss_Acher\Drabiss_Acher_blocked.anim,10,1,1,0,0,0,0,0,0,0,0,0,0,0
0,BLOCKED,7,Monster\Drabiss_Acher\Drabiss_Acher_blocked.anim,10,1,1,0,0,0,0,0,0,0,0,0,0,0
0,DEFEAT,0,Monster\Drabiss_Acher\Drabiss_Acher_p1.anim,10,1,0.5,0,0,0,0,0,0,0,0,0,0,0
0,DEFEAT,1,Monster\Drabiss_Acher\Drabiss_Acher_p2.anim,10,1,0.5,0,0,0,0,0,0,0,0,0,0,0
0,DEFEAT,2,Monster\Drabiss_Acher\Drabiss_Acher_p3.anim,10,1,0.5,0,0,0,0,0,0,0,0,0,0,0
0,DEFEAT,3,Monster\Drabiss_Acher\Drabiss_Acher_p4.anim,10,1,0.5,0,0,0,0,0,0,0,0,0,0,0
0,DEAD,0,Monster\Drabiss_Acher\Drabiss_Acher_die.anim,4,1,3.3,0,0,0.1,1,0,0,1199,0,0,0,0
0,GUARDING,0,Monster\Drabiss_Acher\Drabiss_Acher_guard01.anim,10,1,0.5,0,0,0,0,0,0,0,0,0,0,0
0,GUARDING,1,Monster\Drabiss_Acher\Drabiss_Acher_guard02.anim,10,1,0.5,0,0,0,0,0,0,0,0,0,0,0
0,GUARDING,2,Monster\Drabiss_Acher\Drabiss_Acher_guard03.anim,10,1,0.5,0,0,0,0,0,0,0,0,0,0,0
