Creature,MONSTER,,,,,,,,,,,,,,,,
Index,6118,,,,,,,,,,,,,,,,
Skeleton,Monster\Drabiss_volk.skel,,,,,,,,,,,,,,,,
,,,,,,,,,,,,,,,,,
Style,Action,Index,Animation,Start_Inter,End_Inter,TimeLength,Swing,Strike,Timing,Split,Timing2,Freeze,Effect,CancelTime,Default,Intersect,Through
0,STAND,0,Monster\Drabiss_volk\Drabiss_volk_pray.anim,4,1,1,0,0,0,0,0,0,0,0,0,0,0
0,STAND,1,Monster\Drabiss_volk\Drabiss_volk_cstand.anim,4,1,1.3,0,0,0,0,0,0,0,0,0,0,0
0,REVIVE,0,,0,1,0,0,0,0,0,0,0,0,0,0,0,0
0,MOVE,0,,4,1,0,0,0,0,0,0,0,0,0,0,0,0
0,MOVE,1,Monster\Drabiss_volk\Drabiss_volk_crun.anim,4,1,1,0,0,0,0,0,0,0,0,0,0,0
0,ATTACK,0,Monster\Drabiss_volk\Drabiss_volk_att1.anim,4,1,1.5,0,0,0.5,0,1,0,0,0,0,0,0
0,BLOCKING,0,Monster\Drabiss_volk\Drabiss_volk_blocking.anim,10,1,0.5,0,0,0,0,0,0,0,0,0,0,0
0,BLOCKED,0,Monster\Drabiss_volk\Drabiss_volk_blocked.anim,10,1,0.5,0,0,0,0,0,0,0,0,0,0,0
0,BLOCKED,1,Monster\Drabiss_volk\Drabiss_volk_blocked.anim,10,1,1,0,0,0,0,0,0,0,0,0,0,0
0,BLOCKED,2,Monster\Drabiss_volk\Drabiss_volk_blocked.anim,10,1,1,0,0,0,0,0,0,0,0,0,0,0
0,BLOCKED,3,Monster\Drabiss_volk\Drabiss_volk_blocked.anim,10,1,1,0,0,0,0,0,0,0,0,0,0,0
0,BLOCKED,4,Monster\Drabiss_volk\Drabiss_volk_blocked.anim,10,1,1,0,0,0,0,0,0,0,0,0,0,0
0,BLOCKED,5,Monster\Drabiss_volk\Drabiss_volk_blocked.anim,10,1,1,0,0,0,0,0,0,0,0,0,0,0
0,BLOCKED,6,Monster\Drabiss_volk\Drabiss_volk_blocked.anim,10,1,1,0,0,0,0,0,0,0,0,0,0,0
0,BLOCKED,7,Monster\Drabiss_volk\Drabiss_volk_blocked.anim,10,1,1,0,0,0,0,0,0,0,0,0,0,0
0,DEFEAT,0,Monster\Drabiss_volk\Drabiss_volk_p1.anim,10,1,0.5,0,0,0,0,0,0,0,0,0,0,0
0,DEFEAT,1,Monster\Drabiss_volk\Drabiss_volk_p2.anim,10,1,0.5,0,0,0,0,0,0,0,0,0,0,0
0,DEFEAT,2,Monster\Drabiss_volk\Drabiss_volk_p3.anim,10,1,0.5,0,0,0,0,0,0,0,0,0,0,0
0,DEFEAT,3,Monster\Drabiss_volk\Drabiss_volk_p4.anim,10,1,0.5,0,0,0,0,0,0,0,0,0,0,0
0,DEAD,0,Monster\Drabiss_volk\Drabiss_volk_die.anim,4,1,2.7,0,0,0.1,1,0,0,0,0,0,0,0
0,GUARDING,0,Monster\Drabiss_volk\Drabiss_volk_guard1.anim,10,1,0.5,0,0,0,0,0,0,0,0,0,0,0
0,GUARDING,1,Monster\Drabiss_volk\Drabiss_volk_guard2.anim,10,1,0.5,0,0,0,0,0,0,0,0,0,0,0
0,GUARDING,2,Monster\Drabiss_volk\Drabiss_volk_guard3.anim,10,1,0.5,0,0,0,0,0,0,0,0,0,0,0
