Creature,MONSTER,,,,,,,,,,,,,
Index,6710,,,,,,,,,,,,,
Skeleton,Monster\wild_fenril_minor.skel,,,,,,,,,,,,,
,,,,,,,,,,,,,,
Style,Action,Index,Animation,Start_Inter,End_Inter,TimeLength,Swing,Strike,Timing,Split,Timing2,Freeze,Effect,CancelTime
0,STAND,0,Monster\wild_fenril_minor\wild_fenril_minor_stand.anim,1,1,2,0,0,0,0,0,0,0,0
0,STAND,1,Monster\wild_fenril_minor\wild_fenril_minor_cstand.anim,1,1,1,0,0,0,0,0,0,0,0
0,MOVE,0,Monster\wild_fenril_minor\wild_fenril_minor_walk.anim,1,1,1,0,0,0,0,0,0,0,0
0,MOVE,1,Monster\wild_fenril_minor\wild_fenril_minor_run.anim,1,1,1,0,0,0,0,0,0,0,0
0,ATTACK,0,Monster\wild_fenril_minor\wild_fenril_minor_att01.anim,4,1,1.5,0,0,0.42,0,1,0,1274,0
0,ATTACK,1,Monster\wild_fenril_minor\wild_fenril_minor_att01.anim,4,1,1.5,0,0,0.42,0,1,0,1274,0
0,BLOCKING,0,Monster\wild_fenril_minor\wild_fenril_minor_blocking.anim,10,1,0.5,0,0,0,0,0,0,0,0
0,BLOCKED,0,Monster\wild_fenril_minor\wild_fenril_minor_blocked.anim,10,1,1,0,0,0,0,0,0,0,0
0,BLOCKED,1,Monster\wild_fenril_minor\wild_fenril_minor_blocked.anim,10,1,1,0,0,0,0,0,0,0,0
0,BLOCKED,2,Monster\wild_fenril_minor\wild_fenril_minor_blocked.anim,10,1,1,0,0,0,0,0,0,0,0
0,BLOCKED,3,Monster\wild_fenril_minor\wild_fenril_minor_blocked.anim,10,1,1,0,0,0,0,0,0,0,0
0,BLOCKED,4,Monster\wild_fenril_minor\wild_fenril_minor_blocked.anim,10,1,1,0,0,0,0,0,0,0,0
0,BLOCKED,5,Monster\wild_fenril_minor\wild_fenril_minor_blocked.anim,10,1,1,0,0,0,0,0,0,0,0
0,BLOCKED,6,Monster\wild_fenril_minor\wild_fenril_minor_blocked.anim,10,1,1,0,0,0,0,0,0,0,0
0,BLOCKED,7,Monster\wild_fenril_minor\wild_fenril_minor_blocked.anim,10,1,1,0,0,0,0,0,0,0,0
0,DEFEAT,0,Monster\wild_fenril_minor\wild_fenril_minor_p1.anim,5,1,0.5,0,0,0,0,0,0,0,0
0,DEFEAT,1,Monster\wild_fenril_minor\wild_fenril_minor_p2.anim,5,1,0.5,0,0,0,0,0,0,0,0
0,DEFEAT,2,Monster\wild_fenril_minor\wild_fenril_minor_p3.anim,5,1,0.5,0,0,0,0,0,0,0,0
0,DEFEAT,3,Monster\wild_fenril_minor\wild_fenril_minor_p4.anim,5,1,0.5,0,0,0,0,0,0,0,0
0,DEAD,0,Monster\wild_fenril_minor\wild_fenril_minor_die.anim,4,1,1.5,0,0,0.1,1,0,0,0,0
0,GUARDING,0,monster\wild_fenril_minor\wild_fenril_minor_guard1.anim,10,1,0.5,0,0,0,0,0,0,0,0
0,GUARDING,1,monster\wild_fenril_minor\wild_fenril_minor_guard2.anim,10,1,0.5,0,0,0,0,0,0,0,0
0,GUARDING,2,monster\wild_fenril_minor\wild_fenril_minor_guard3.anim,10,1,0.5,0,0,0,0,0,0,0,0
