Creature,MONSTER,,,,,,,,,,,,,
Index,6951,,,,,,,,,,,,,
Skeleton,Monster\wild_fenril.skel,,,,,,,,,,,,,
,,,,,,,,,,,,,,
Style,Action,Index,Animation,Start_Inter,End_Inter,TimeLength,Swing,Strike,Timing,Split,Timing2,Freeze,Effect,CancelTime
0,STAND,0,Monster\wild_fenril\wild_fenril_stand.anim,1,1,2,0,0,0,0,0,0,0,0
0,STAND,1,Monster\wild_fenril\wild_fenril_cstand.anim,1,1,1,0,0,0,0,0,0,0,0
0,MOVE,0,Monster\wild_fenril\wild_fenril_walk.anim,1,1,1,0,0,0,0,0,0,0,0
0,MOVE,1,Monster\wild_fenril\wild_fenril_run.anim,1,1,1,0,0,0,0,0,0,0,0
0,ATTACK,0,Monster\wild_fenril\wild_fenril_att01.anim,4,1,1.5,0,0,0.42,0,1,0,1286,0
0,ATTACK,1,Monster\wild_fenril\wild_fenril_att01.anim,4,1,1.5,0,0,0.42,0,1,0,1286,0
0,BLOCKING,0,Monster\wild_fenril\wild_fenril_blocking.anim,10,1,0.5,0,0,0,0,0,0,0,0
0,BLOCKED,0,Monster\wild_fenril\wild_fenril_blocked.anim,10,1,1,0,0,0,0,0,0,0,0
0,BLOCKED,1,Monster\wild_fenril\wild_fenril_blocked.anim,10,1,1,0,0,0,0,0,0,0,0
0,BLOCKED,2,Monster\wild_fenril\wild_fenril_blocked.anim,10,1,1,0,0,0,0,0,0,0,0
0,BLOCKED,3,Monster\wild_fenril\wild_fenril_blocked.anim,10,1,1,0,0,0,0,0,0,0,0
0,BLOCKED,4,Monster\wild_fenril\wild_fenril_blocked.anim,10,1,1,0,0,0,0,0,0,0,0
0,BLOCKED,5,Monster\wild_fenril\wild_fenril_blocked.anim,10,1,1,0,0,0,0,0,0,0,0
0,BLOCKED,6,Monster\wild_fenril\wild_fenril_blocked.anim,10,1,1,0,0,0,0,0,0,0,0
0,BLOCKED,7,Monster\wild_fenril\wild_fenril_blocked.anim,10,1,1,0,0,0,0,0,0,0,0
0,DEFEAT,0,Monster\wild_fenril\wild_fenril_p1.anim,5,1,0.5,0,0,0,0,0,0,0,0
0,DEFEAT,1,Monster\wild_fenril\wild_fenril_p2.anim,5,1,0.5,0,0,0,0,0,0,0,0
0,DEFEAT,2,Monster\wild_fenril\wild_fenril_p3.anim,5,1,0.5,0,0,0,0,0,0,0,0
0,DEFEAT,3,Monster\wild_fenril\wild_fenril_p4.anim,5,1,0.5,0,0,0,0,0,0,0,0
0,DEAD,0,Monster\wild_fenril\wild_fenril_die.anim,4,1,1.5,0,0,0.1,1,0,0,0,0
0,GUARDING,0,monster\wild_fenril\wild_fenril_guard1.anim,10,1,0.5,0,0,0,0,0,0,0,0
0,GUARDING,1,monster\wild_fenril\wild_fenril_guard2.anim,10,1,0.5,0,0,0,0,0,0,0,0
0,GUARDING,2,monster\wild_fenril\wild_fenril_guard3.anim,10,1,0.5,0,0,0,0,0,0,0,0
