Creature,MONSTER,,,,,,,,,,,,,
Index,7042,,,,,,,,,,,,,
Skeleton,Monster\Gaiant_Fenril.skel,,,,,,,,,,,,,
,,,,,,,,,,,,,,
Style,Action,Index,Animation,Start_Inter,End_Inter,TimeLength,Swing,Strike,Timing,Split,Timing2,Freeze,Effect,CancelTime
0,STAND,0,Monster\Gaiant_Fenril\Gaiant_Fenril_stand.anim,1,1,3.5,0,0,0,0,0,0,0,0
0,STAND,1,Monster\Gaiant_Fenril\Gaiant_Fenril_cstand.anim,1,1,1.6,0,0,0,0,0,0,0,0
0,MOVE,0,Monster\Gaiant_Fenril\Gaiant_Fenril_walk.anim,1,1,1.5,0,0,0,0,0,0,0,0
0,MOVE,1,Monster\Gaiant_Fenril\Gaiant_Fenril_crun.anim,1,1,1,0,0,0,0,0,0,0,0
0,ATTACK,0,Monster\Gaiant_Fenril\Gaiant_Fenril_att1.anim,4,1,1.7,0,0,0.6,0,1,0,1282,0
0,ATTACK,1,Monster\Gaiant_Fenril\Gaiant_Fenril_att2.anim,4,1,2.7,0,0,0.4,0,1,0,1283,0
0,BLOCKING,0,Monster\Gaiant_Fenril\Gaiant_Fenril_blocking.anim,10,1,0.5,0,0,0,0,0,0,0,0
0,BLOCKED,0,Monster\Gaiant_Fenril\Gaiant_Fenril_blocked.anim,10,1,1,0,0,0,0,0,0,0,0
0,BLOCKED,1,Monster\Gaiant_Fenril\Gaiant_Fenril_blocked.anim,10,1,1,0,0,0,0,0,0,0,0
0,BLOCKED,2,Monster\Gaiant_Fenril\Gaiant_Fenril_blocked.anim,10,1,1,0,0,0,0,0,0,0,0
0,BLOCKED,3,Monster\Gaiant_Fenril\Gaiant_Fenril_blocked.anim,10,1,1,0,0,0,0,0,0,0,0
0,BLOCKED,4,Monster\Gaiant_Fenril\Gaiant_Fenril_blocked.anim,10,1,1,0,0,0,0,0,0,0,0
0,BLOCKED,5,Monster\Gaiant_Fenril\Gaiant_Fenril_blocked.anim,10,1,1,0,0,0,0,0,0,0,0
0,BLOCKED,6,Monster\Gaiant_Fenril\Gaiant_Fenril_blocked.anim,10,1,1,0,0,0,0,0,0,0,0
0,BLOCKED,7,Monster\Gaiant_Fenril\Gaiant_Fenril_blocked.anim,10,1,1,0,0,0,0,0,0,0,0
0,DEFEAT,0,Monster\Gaiant_Fenril\Gaiant_Fenril_p3.anim,5,1,0.5,0,0,0,0,0,0,0,0
0,DEFEAT,1,Monster\Gaiant_Fenril\Gaiant_Fenril_p3.anim,5,1,0.5,0,0,0,0,0,0,0,0
0,DEFEAT,2,Monster\Gaiant_Fenril\Gaiant_Fenril_p3.anim,5,1,0.5,0,0,0,0,0,0,0,0
0,DEFEAT,3,Monster\Gaiant_Fenril\Gaiant_Fenril_p3.anim,5,1,0.5,0,0,0,0,0,0,0,0
0,DEAD,0,Monster\Gaiant_Fenril\Gaiant_Fenril_die.anim,4,1,2.5,0,0,0.1,1,0,0,1284,0
0,GUARDING,0,monster\Gaiant_Fenril\Gaiant_Fenril_guard3.anim,10,1,0.5,0,0,0,0,0,0,0,0
0,GUARDING,1,monster\Gaiant_Fenril\Gaiant_Fenril_guard3.anim,10,1,0.5,0,0,0,0,0,0,0,0
0,GUARDING,2,monster\Gaiant_Fenril\Gaiant_Fenril_guard3.anim,10,1,0.5,0,0,0,0,0,0,0,0
