Creature,MONSTER,,,,,,,,,,,,,
Index,7044,,,,,,,,,,,,,
Skeleton,Monster\Fanatic.skel,,,,,,,,,,,,,
,,,,,,,,,,,,,,
Style,Action,Index,Animation,Start_Inter,End_Inter,TimeLength,Swing,Strike,Timing,Split,Timing2,Freeze,Effect,CancelTime
0,STAND,0,Monster\Fanatic\Fanatic_stand.anim,1,1,3.5,0,0,0,0,0,0,927,0
0,STAND,1,Monster\Fanatic\Fanatic_cstand.anim,1,1,3.5,0,0,0,0,0,0,0,0
0,MOVE,0,Monster\Fanatic\Fanatic_walk.anim,1,1,1.8,0,0,0,0,0,0,0,0
0,MOVE,1,Monster\Fanatic\Fanatic_crun.anim,1,1,1.2,0,0,0,0,0,0,0,0
0,ATTACK,4,Monster\Fanatic\Fanatic_att3.anim,4,1,2.5,0,0,0.65,0,1,0,1305,0
0,ATTACK,5,Monster\Fanatic\Fanatic_att3.anim,4,1,2.5,0,0,0.65,0,1,0,1305,0
0,ATTACK,6,Monster\Fanatic\Fanatic_att3.anim,4,1,2.5,0,0,0.65,0,1,0,1305,0
0,BLOCKING,0,Monster\Fanatic\Fanatic_blocking.anim,10,1,0.5,0,0,0,0,0,0,0,0
0,BLOCKED,0,Monster\Fanatic\Fanatic_blocked.anim,10,1,1,0,0,0,0,0,0,0,0
0,BLOCKED,1,Monster\Fanatic\Fanatic_blocked.anim,10,1,1,0,0,0,0,0,0,0,0
0,BLOCKED,2,Monster\Fanatic\Fanatic_blocked.anim,10,1,1,0,0,0,0,0,0,0,0
0,BLOCKED,3,Monster\Fanatic\Fanatic_blocked.anim,10,1,1,0,0,0,0,0,0,0,0
0,BLOCKED,4,Monster\Fanatic\Fanatic_blocked.anim,10,1,1,0,0,0,0,0,0,0,0
0,BLOCKED,5,Monster\Fanatic\Fanatic_blocked.anim,10,1,1,0,0,0,0,0,0,0,0
0,BLOCKED,6,Monster\Fanatic\Fanatic_blocked.anim,10,1,1,0,0,0,0,0,0,0,0
0,BLOCKED,7,Monster\Fanatic\Fanatic_blocked.anim,10,1,1,0,0,0,0,0,0,0,0
0,DEFEAT,0,Monster\Fanatic\Fanatic_p3.anim,5,1,0.66,0,0,0,0,0,0,0,0
0,DEFEAT,1,Monster\Fanatic\Fanatic_p3.anim,5,1,0.66,0,0,0,0,0,0,0,0
0,DEFEAT,2,Monster\Fanatic\Fanatic_p3.anim,5,1,0.66,0,0,0,0,0,0,0,0
0,DEAD,0,Monster\Fanatic\Fanatic_die.anim,4,1,3.5,0,0,0.1,1,0,0,1304,0
0,GUARDING,0,Monster\Fanatic\Fanatic_guard3.anim,10,1,0.66,0,0,0,0,0,0,0,0
0,GUARDING,1,Monster\Fanatic\Fanatic_guard3.anim,10,1,0.66,0,0,0,0,0,0,0,0
0,GUARDING,2,Monster\Fanatic\Fanatic_guard3.anim,10,1,0.66,0,0,0,0,0,0,0,0
0,GUARDING,3,Monster\Fanatic\Fanatic_guard3.anim,10,1,0.66,0,0,0,0,0,0,0,0
