Creature,MONSTER,,,,,,,,,,,,,,,,
Index,7115,,,,,,,,,,,,,,,,
Skeleton,Monster\Arill.skel,,,,,,,,,,,,,,,,
,,,,,,,,,,,,,,,,,
Style,Action,Index,Animation,Start_Inter,End_Inter,TimeLength,Swing,Strike,Timing,Split,Timing2,Freeze,Effect,CancelTime,Default,Intersect,Through
0,STAND,0,Monster\Arill\Arill_stand.anim,1,1,3.5,0,0,0,0,0,0,0,0,0,0,0
0,STAND,1,Monster\Arill\Arill_cstand.anim,1,1,2,0,0,0,0,0,0,0,0,0,0,0
0,MOVE,0,Monster\Arill\Arill_walk.anim,1,1,1,0,0,0,0,0,0,0,0,0,0,0
0,MOVE,1,Monster\Arill\Arill_crun.anim,1,1,0.8,0,0,0,0,0,0,0,0,0,0,0
0,ATTACK,0,Monster\Arill\Arill_att2.anim,4,1,3,0,0,0.1,0,1,0,1277,0,0,0,0
0,ATTACK,1,Monster\Arill\Arill_att3.anim,4,1,2.5,0,0,0.2,0,1,0,1278,0,0,0,0
0,ATTACK,2,Monster\Arill\Arill_att4.anim,4,1,3.5,0,0,0.45,0,1,0,1279,0,0,0,1
0,BLOCKING,0,Monster\Arill\Arill_blocking.anim,10,1,0.5,0,0,0,0,0,0,0,0,0,0,0
0,BLOCKED,0,Monster\Arill\Arill_blocked.anim,10,1,1,0,0,0,0,0,0,0,0,0,0,0
0,BLOCKED,1,Monster\Arill\Arill_blocked.anim,10,1,1,0,0,0,0,0,0,0,0,0,0,0
0,BLOCKED,2,Monster\Arill\Arill_blocked.anim,10,1,1,0,0,0,0,0,0,0,0,0,0,0
0,BLOCKED,3,Monster\Arill\Arill_blocked.anim,10,1,1,0,0,0,0,0,0,0,0,0,0,0
0,BLOCKED,4,Monster\Arill\Arill_blocked.anim,10,1,1,0,0,0,0,0,0,0,0,0,0,0
0,BLOCKED,5,Monster\Arill\Arill_blocked.anim,10,1,1,0,0,0,0,0,0,0,0,0,0,0
0,BLOCKED,6,Monster\Arill\Arill_blocked.anim,10,1,1,0,0,0,0,0,0,0,0,0,0,0
0,BLOCKED,7,Monster\Arill\Arill_blocked.anim,10,1,1,0,0,0,0,0,0,0,0,0,0,0
0,DEFEAT,0,Monster\Arill\Arill_p3.anim,5,1,0.5,0,0,0,0,0,0,0,0,0,0,0
0,DEFEAT,1,Monster\Arill\Arill_p3.anim,5,1,0.5,0,0,0,0,0,0,0,0,0,0,0
0,DEFEAT,2,Monster\Arill\Arill_p3.anim,5,1,0.5,0,0,0,0,0,0,0,0,0,0,0
0,DEFEAT,3,Monster\Arill\Arill_p3.anim,5,1,0.5,0,0,0,0,0,0,0,0,0,0,0
0,DEAD,0,Monster\Arill\Arill_die.anim,4,1,4,0,0,0.1,1,0,0,1280,0,0,0,0
0,GUARDING,0,monster\Arill\Arill_guard3.anim,10,1,0.5,0,0,0,0,0,0,0,0,0,0,0
0,GUARDING,1,monster\Arill\Arill_guard3.anim,10,1,0.5,0,0,0,0,0,0,0,0,0,0,0
0,GUARDING,2,monster\Arill\Arill_guard3.anim,10,1,0.5,0,0,0,0,0,0,0,0,0,0,0
