Creature,MONSTER,,,,,,,,,,,,,
Index,7157,,,,,,,,,,,,,
Skeleton,Monster\Ekatl.skel,,,,,,,,,,,,,
,,,,,,,,,,,,,,
Style,Action,Index,Animation,Start_Inter,End_Inter,TimeLength,Swing,Strike,Timing,Split,Timing2,Freeze,Effect,CancelTime
0,STAND,0,Monster\Ekatl\Ekatl_stand.anim,1,1,2,0,0,0,0,0,0,0,0
0,STAND,1,Monster\Ekatl\Ekatl_stand.anim,1,1,1,0,0,0,0,0,0,0,0
0,REVIVE,0,,0,1,0,0,0,0,0,0,0,0,0
0,MOVE,0,Monster\Ekatl\Ekatl_walk.anim,1,1,1,0,0,0,0,0,0,0,0
0,MOVE,1,Monster\Ekatl\Ekatl_walk.anim,1,1,1,0,0,0,0,0,0,0,0
0,ATTACK,0,Monster\Ekatl\Ekatl_walk.anim,1,1,1,0,0,0,0,0,0,0,0
0,ATTACK,1,Monster\Ekatl\Ekatl_walk.anim,1,1,1,0,0,0,0,0,0,0,0
0,BLOCKING,0,Monster\Ekatl\Ekatl_walk.anim,1,1,1,0,0,0,0,0,0,0,0
0,BLOCKED,0,Monster\Ekatl\Ekatl_walk.anim,1,1,1,0,0,0,0,0,0,0,0
0,BLOCKED,1,Monster\Ekatl\Ekatl_walk.anim,1,1,1,0,0,0,0,0,0,0,0
0,BLOCKED,2,Monster\Ekatl\Ekatl_walk.anim,1,1,1,0,0,0,0,0,0,0,0
0,BLOCKED,3,Monster\Ekatl\Ekatl_walk.anim,1,1,1,0,0,0,0,0,0,0,0
0,BLOCKED,4,Monster\Ekatl\Ekatl_walk.anim,1,1,1,0,0,0,0,0,0,0,0
0,BLOCKED,5,Monster\Ekatl\Ekatl_walk.anim,1,1,1,0,0,0,0,0,0,0,0
0,BLOCKED,6,Monster\Ekatl\Ekatl_walk.anim,1,1,1,0,0,0,0,0,0,0,0
0,BLOCKED,7,Monster\Ekatl\Ekatl_walk.anim,1,1,1,0,0,0,0,0,0,0,0
0,DEFEAT,0,Monster\Ekatl\Ekatl_walk.anim,1,1,1,0,0,0,0,0,0,0,0
0,DEFEAT,1,Monster\Ekatl\Ekatl_walk.anim,1,1,1,0,0,0,0,0,0,0,0
0,DEFEAT,2,Monster\Ekatl\Ekatl_walk.anim,1,1,1,0,0,0,0,0,0,0,0
0,DEFEAT,3,Monster\Ekatl\Ekatl_walk.anim,1,1,1,0,0,0,0,0,0,0,0
0,DEAD,0,Monster\Ekatl\Ekatl_die.anim,4,1,3,0,0,0.1,1,0,0,343,0
0,GUARDING,0,Monster\Ekatl\Ekatl_walk.anim,1,1,1,0,0,0,0,0,0,0,0
0,GUARDING,1,Monster\Ekatl\Ekatl_walk.anim,1,1,1,0,0,0,0,0,0,0,0
0,GUARDING,2,Monster\Ekatl\Ekatl_walk.anim,1,1,1,0,0,0,0,0,0,0,0
