Creature,MONSTER,,,,,,,,,,,,,
Index,7249,,,,,,,,,,,,,
Skeleton,Monster\frostwolf.skel,,,,,,,,,,,,,
,,,,,,,,,,,,,,
Style,Action,Index,Animation,Start_Inter,End_Inter,TimeLength,Swing,Strike,Timing,Split,Timing2,Freeze,Effect,CancelTime
0,STAND,0,Monster\frostwolf\frostwolf_stand.anim,1,1,2,0,0,0,0,0,0,0,0
0,STAND,1,Monster\frostwolf\frostwolf_cstand.anim,1,1,1,0,0,0,0,0,0,0,0
0,REVIVE,0,,0,1,0,0,0,0,0,0,0,0,0
0,MOVE,0,Monster\frostwolf\frostwolf_walk.anim,1,1,1,0,0,0,0,0,0,0,0
0,MOVE,1,Monster\frostwolf\frostwolf_run.anim,1,1,1,0,0,0,0,0,0,0,0
0,ATTACK,0,Monster\frostwolf\frostwolf_att01.anim,4,1,1.5,0,0,0.57,0,1,0,1273,0
0,ATTACK,1,Monster\frostwolf\frostwolf_att01.anim,4,1,1.5,0,0,0.57,0,1,0,1273,0
0,ATTACK,2,Monster\frostwolf\frostwolf_att01.anim,4,1,1.5,0,0,0.57,0,1,0,1273,0
0,BLOCKING,0,Monster\frostwolf\frostwolf_blocking.anim,10,1,0.5,0,0,0,0,0,0,0,0
0,BLOCKED,0,Monster\frostwolf\frostwolf_blocked.anim,10,1,1,0,0,0,0,0,0,0,0
0,BLOCKED,1,Monster\frostwolf\frostwolf_blocked.anim,10,1,1,0,0,0,0,0,0,0,0
0,BLOCKED,2,Monster\frostwolf\frostwolf_blocked.anim,10,1,1,0,0,0,0,0,0,0,0
0,BLOCKED,3,Monster\frostwolf\frostwolf_blocked.anim,10,1,1,0,0,0,0,0,0,0,0
0,BLOCKED,4,Monster\frostwolf\frostwolf_blocked.anim,10,1,1,0,0,0,0,0,0,0,0
0,BLOCKED,5,Monster\frostwolf\frostwolf_blocked.anim,10,1,1,0,0,0,0,0,0,0,0
0,BLOCKED,6,Monster\frostwolf\frostwolf_blocked.anim,10,1,1,0,0,0,0,0,0,0,0
0,BLOCKED,7,Monster\frostwolf\frostwolf_blocked.anim,10,1,1,0,0,0,0,0,0,0,0
0,DEFEAT,0,Monster\frostwolf\frostwolf_p1.anim,5,1,0.5,0,0,0,0,0,0,0,0
0,DEFEAT,1,Monster\frostwolf\frostwolf_p2.anim,5,1,0.5,0,0,0,0,0,0,0,0
0,DEFEAT,2,Monster\frostwolf\frostwolf_p3.anim,5,1,0.5,0,0,0,0,0,0,0,0
0,DEFEAT,3,Monster\frostwolf\frostwolf_p4.anim,5,1,0.5,0,0,0,0,0,0,0,0
0,DEAD,0,Monster\frostwolf\frostwolf_die.anim,4,1,1.5,0,0,0.1,1,0,0,0,0
0,GUARDING,0,monster\frostwolf\frostwolf_guard1.anim,10,1,0.5,0,0,0,0,0,0,0,0
0,GUARDING,1,monster\frostwolf\frostwolf_guard2.anim,10,1,0.5,0,0,0,0,0,0,0,0
0,GUARDING,2,monster\frostwolf\frostwolf_guard3.anim,10,1,0.5,0,0,0,0,0,0,0,0
