Creature,MONSTER,,,,,,,,,,,,,
Index,7261,,,,,,,,,,,,,
Skeleton,Monster\coriger.skel,,,,,,,,,,,,,
,,,,,,,,,,,,,,
Style,Action,Index,Animation,Start_Inter,End_Inter,TimeLength,Swing,Strike,Timing,Split,Timing2,Freeze,Effect,CancelTime
0,STAND,0,Monster\coriger\coriger_stand.anim,4,1,4,0,0,0,0,0,0,0,0
0,STAND,1,Monster\coriger\coriger_stand.anim,4,1,4,0,0,0,0,0,0,0,0
0,REVIVE,0,,0,1,0,0,0,0,0,0,0,0,0
0,MOVE,0,Monster\coriger\coriger_walk.anim,4,1,1.47,0,0,0,0,0,0,0,0
0,MOVE,1,Monster\coriger\coriger_walk.anim,4,1,1.47,0,0,0,0,0,0,0,0
0,ATTACK,0,Monster\coriger\coriger_walk.anim,4,1,1.47,0,0,0,0,0,0,0,0
0,ATTACK,1,Monster\coriger\coriger_walk.anim,4,1,1.47,0,0,0,0,0,0,0,0
0,ATTACK,2,Monster\coriger\coriger_walk.anim,4,1,1.47,0,0,0,0,0,0,0,0
0,BLOCKING,0,Monster\coriger\coriger_walk.anim,4,1,1.47,0,0,0,0,0,0,0,0
0,BLOCKED,0,Monster\coriger\coriger_walk.anim,4,1,1.47,0,0,0,0,0,0,0,0
0,BLOCKED,1,Monster\coriger\coriger_walk.anim,4,1,1.47,0,0,0,0,0,0,0,0
0,BLOCKED,2,Monster\coriger\coriger_walk.anim,4,1,1.47,0,0,0,0,0,0,0,0
0,BLOCKED,3,Monster\coriger\coriger_walk.anim,4,1,1.47,0,0,0,0,0,0,0,0
0,BLOCKED,4,Monster\coriger\coriger_walk.anim,4,1,1.47,0,0,0,0,0,0,0,0
0,BLOCKED,5,Monster\coriger\coriger_walk.anim,4,1,1.47,0,0,0,0,0,0,0,0
0,BLOCKED,6,Monster\coriger\coriger_walk.anim,4,1,1.47,0,0,0,0,0,0,0,0
0,BLOCKED,7,Monster\coriger\coriger_walk.anim,4,1,1.47,0,0,0,0,0,0,0,0
0,DEFEAT,0,Monster\coriger\coriger_walk.anim,4,1,1.47,0,0,0,0,0,0,0,0
0,DEFEAT,1,Monster\coriger\coriger_walk.anim,4,1,1.47,0,0,0,0,0,0,0,0
0,DEFEAT,2,Monster\coriger\coriger_walk.anim,4,1,1.47,0,0,0,0,0,0,0,0
0,DEFEAT,3,Monster\coriger\coriger_walk.anim,4,1,1.47,0,0,0,0,0,0,0,0
0,DEAD,0,Monster\coriger\coriger_die.anim,4,1,2.4,0,0,0.1,1,0,0,67,10000
0,GUARDING,0,Monster\coriger\coriger_walk.anim,4,1,1.47,0,0,0,0,0,0,0,0
0,GUARDING,1,Monster\coriger\coriger_walk.anim,4,1,1.47,0,0,0,0,0,0,0,0
0,GUARDING,2,Monster\coriger\coriger_walk.anim,4,1,1.47,0,0,0,0,0,0,0,0
