Creature,MONSTER,,,,,,,,,,,,,,,,
Index,7407,,,,,,,,,,,,,,,,
Skeleton,Monster\dv_ironball1.skel,,,,,,,,,,,,,,,,
,,,,,,,,,,,,,,,,,
Style,Action,Index,Animation,Start_Inter,End_Inter,TimeLength,Swing,Strike,Timing,Split,Timing2,Freeze,Effect,CancelTime,Default,Intersect,Through
0,STAND,0,Monster\dv_ironball1\dv_ironball1_run.anim,4,1,5,0,0,0,0,0,0,0,0,0,0,0
0,STAND,1,Monster\dv_ironball1\dv_ironball1_run.anim,4,1,5,0,0,0,0,0,0,0,0,0,0,0
0,REVIVE,0,,0,1,0,0,0,0,0,0,0,0,0,0,0,0
0,MOVE,0,Monster\dv_ironball1\dv_ironball1_run.anim,4,1,5,0,0,0,0,0,0,0,0,0,0,0
0,MOVE,1,Monster\dv_ironball1\dv_ironball1_run.anim,4,1,5,0,0,0,0,0,0,0,0,0,0,0
0,ATTACK,0,Monster\dv_ironball1\dv_ironball1_att1.anim,4,1,0.1,0,0,1,0,1,0,0,0,0,0,0
0,BLOCKING,0,Monster\dv_ironball1\dv_ironball1_run.anim,10,1,0.5,0,0,0,0,0,0,0,0,0,0,0
0,BLOCKED,0,Monster\dv_ironball1\dv_ironball1_run.anim,10,1,0.5,0,0,0,0,0,0,0,0,0,0,0
0,BLOCKED,1,Monster\dv_ironball1\dv_ironball1_run.anim,10,1,0.5,0,0,0,0,0,0,0,0,0,0,0
0,BLOCKED,2,Monster\dv_ironball1\dv_ironball1_run.anim,10,1,0.5,0,0,0,0,0,0,0,0,0,0,0
0,BLOCKED,3,Monster\dv_ironball1\dv_ironball1_run.anim,10,1,0.5,0,0,0,0,0,0,0,0,0,0,0
0,BLOCKED,4,Monster\dv_ironball1\dv_ironball1_run.anim,10,1,0.5,0,0,0,0,0,0,0,0,0,0,0
0,BLOCKED,5,Monster\dv_ironball1\dv_ironball1_run.anim,10,1,0.5,0,0,0,0,0,0,0,0,0,0,0
0,BLOCKED,6,Monster\dv_ironball1\dv_ironball1_run.anim,10,1,0.5,0,0,0,0,0,0,0,0,0,0,0
0,BLOCKED,7,Monster\dv_ironball1\dv_ironball1_run.anim,10,1,0.5,0,0,0,0,0,0,0,0,0,0,0
0,DEFEAT,0,Monster\dv_ironball1\dv_ironball1_run.anim,10,1,0.5,0,0,0,0,0,0,0,0,0,0,0
0,DEFEAT,1,Monster\dv_ironball1\dv_ironball1_run.anim,10,1,0.5,0,0,0,0,0,0,0,0,0,0,0
0,DEFEAT,2,Monster\dv_ironball1\dv_ironball1_run.anim,10,1,0.5,0,0,0,0,0,0,0,0,0,0,0
0,DEFEAT,3,Monster\dv_ironball1\dv_ironball1_run.anim,10,1,0.5,0,0,0,0,0,0,0,0,0,0,0
0,DEAD,0,Monster\dv_ironball1\dv_ironball1_die.anim,4,1,2,0,0,0.1,1,0,0,1404,0,0,0,0
0,GUARDING,0,Monster\dv_ironball1\dv_ironball1_run.anim,10,1,0.5,0,0,0,0,0,0,0,0,0,0,0
0,GUARDING,1,Monster\dv_ironball1\dv_ironball1_run.anim,10,1,0.5,0,0,0,0,0,0,0,0,0,0,0
0,GUARDING,2,Monster\dv_ironball1\dv_ironball1_run.anim,10,1,0.5,0,0,0,0,0,0,0,0,0,0,0
