Creature,MONSTER,,,,,,,,,,,,,,,,
Index,7408,,,,,,,,,,,,,,,,
Skeleton,Monster\Drabiss_Dialysis.skel,,,,,,,,,,,,,,,,
,,,,,,,,,,,,,,,,,
Style,Action,Index,Animation,Start_Inter,End_Inter,TimeLength,Swing,Strike,Timing,Split,Timing2,Freeze,Effect,CancelTime,Default,Intersect,Through
0,STAND,0,Monster\Drabiss_Dialysis\Drabiss_Dialysis_stand.anim,1,1,2,0,0,0,0,0,0,0,0,0,0,0
0,STAND,1,Monster\Drabiss_Dialysis\Drabiss_Dialysis_cstand.anim,1,1,2,0,0,0,0,0,0,0,0,0,0,0
0,MOVE,0,Monster\Drabiss_Dialysis\Drabiss_Dialysis_walk.anim,1,1,1,0,0,0,0,0,0,0,0,0,0,0
0,MOVE,1,Monster\Drabiss_Dialysis\Drabiss_Dialysis_crun.anim,1,1,0.9,0,0,0,0,0,0,0,0,0,0,0
0,ATTACK,0,Monster\Drabiss_Dialysis\Drabiss_Dialysis_att1.anim,4,1,1.5,0,0,0.47,0,1,0,1399,0,0,0,0
0,ATTACK,1,Monster\Drabiss_Dialysis\Drabiss_Dialysis_att2.anim,4,1,2.5,0,0,0.55,0,1,0,1400,0,0,0,0
0,BLOCKING,0,Monster\Drabiss_Dialysis\Drabiss_Dialysis_blocking.anim,10,1,0.5,0,0,0,0,0,0,0,0,0,0,0
0,BLOCKED,0,Monster\Drabiss_Dialysis\Drabiss_Dialysis_blocked.anim,10,1,1,0,0,0,0,0,0,0,0,0,0,0
0,BLOCKED,1,Monster\Drabiss_Dialysis\Drabiss_Dialysis_blocked.anim,10,1,1,0,0,0,0,0,0,0,0,0,0,0
0,BLOCKED,2,Monster\Drabiss_Dialysis\Drabiss_Dialysis_blocked.anim,10,1,1,0,0,0,0,0,0,0,0,0,0,0
0,BLOCKED,3,Monster\Drabiss_Dialysis\Drabiss_Dialysis_blocked.anim,10,1,1,0,0,0,0,0,0,0,0,0,0,0
0,BLOCKED,4,Monster\Drabiss_Dialysis\Drabiss_Dialysis_blocked.anim,10,1,1,0,0,0,0,0,0,0,0,0,0,0
0,BLOCKED,5,Monster\Drabiss_Dialysis\Drabiss_Dialysis_blocked.anim,10,1,1,0,0,0,0,0,0,0,0,0,0,0
0,BLOCKED,6,Monster\Drabiss_Dialysis\Drabiss_Dialysis_blocked.anim,10,1,1,0,0,0,0,0,0,0,0,0,0,0
0,BLOCKED,7,Monster\Drabiss_Dialysis\Drabiss_Dialysis_blocked.anim,10,1,1,0,0,0,0,0,0,0,0,0,0,0
0,DEFEAT,0,Monster\Drabiss_Dialysis\Drabiss_Dialysis_p1.anim,5,1,0.5,0,0,0,0,0,0,0,0,0,0,0
0,DEFEAT,1,Monster\Drabiss_Dialysis\Drabiss_Dialysis_p2.anim,5,1,0.5,0,0,0,0,0,0,0,0,0,0,0
0,DEFEAT,2,Monster\Drabiss_Dialysis\Drabiss_Dialysis_p3.anim,5,1,0.5,0,0,0,0,0,0,0,0,0,0,0
0,DEFEAT,3,Monster\Drabiss_Dialysis\Drabiss_Dialysis_p4.anim,5,1,0.5,0,0,0,0,0,0,0,0,0,0,0
0,DEAD,0,Monster\Drabiss_Dialysis\Drabiss_Dialysis_die.anim,4,1,3.5,0,0,0.1,1,0,0,1403,0,0,0,0
0,GUARDING,0,monster\Drabiss_Dialysis\Drabiss_Dialysis_guard1.anim,10,1,0.5,0,0,0,0,0,0,0,0,0,0,0
0,GUARDING,1,monster\Drabiss_Dialysis\Drabiss_Dialysis_guard2.anim,10,1,0.5,0,0,0,0,0,0,0,0,0,0,0
0,GUARDING,2,monster\Drabiss_Dialysis\Drabiss_Dialysis_guard3.anim,10,1,0.5,0,0,0,0,0,0,0,0,0,0,0
