Creature,MONSTER,,,,,,,,,,,,,
Index,7478,,,,,,,,,,,,,
Skeleton,Monster\Karvis_Sentinel.skel,,,,,,,,,,,,,
,,,,,,,,,,,,,,
Style,Action,Index,Animation,Start_Inter,End_Inter,TimeLength,Swing,Strike,Timing,Split,Timing2,Freeze,Effect,CancelTime
0,STAND,0,Monster\Karvis_Sentinel\Karvis_Sentinel_stand.anim,1,1,4.1,0,0,0,0,0,0,0,0
0,STAND,1,Monster\Karvis_Sentinel\Karvis_Sentinel_cstand.anim,1,1,2.2,0,0,0,0,0,0,0,0
0,REVIVE,0,,0,1,0,0,0,0,0,0,0,0,0
0,MOVE,0,Monster\Karvis_Sentinel\Karvis_Sentinel_walk.anim,1,1,1,0,0,0,0,0,0,0,0
0,MOVE,1,Monster\Karvis_Sentinel\Karvis_Sentinel_crun.anim,1,1,0.9,0,0,0,0,0,0,0,0
0,ATTACK,0,Monster\Karvis_Sentinel\Karvis_Sentinel_att1.anim,4,1,1.8,0,0,0.3,0,1,0,1466,0
0,ATTACK,1,Monster\Karvis_Sentinel\Karvis_Sentinel_att2.anim,4,1,1.7,0,0,0.4,0,1,0,1467,0
0,BLOCKING,0,Monster\Karvis_Sentinel\Karvis_Sentinel_blocking.anim,10,1,0.5,0,0,0,0,0,0,0,0
0,BLOCKED,0,Monster\Karvis_Sentinel\Karvis_Sentinel_blocked.anim,10,1,1,0,0,0,0,0,0,0,0
0,BLOCKED,1,Monster\Karvis_Sentinel\Karvis_Sentinel_blocked.anim,10,1,1,0,0,0,0,0,0,0,0
0,BLOCKED,2,Monster\Karvis_Sentinel\Karvis_Sentinel_blocked.anim,10,1,1,0,0,0,0,0,0,0,0
0,BLOCKED,3,Monster\Karvis_Sentinel\Karvis_Sentinel_blocked.anim,10,1,1,0,0,0,0,0,0,0,0
0,BLOCKED,4,Monster\Karvis_Sentinel\Karvis_Sentinel_blocked.anim,10,1,1,0,0,0,0,0,0,0,0
0,BLOCKED,5,Monster\Karvis_Sentinel\Karvis_Sentinel_blocked.anim,10,1,1,0,0,0,0,0,0,0,0
0,BLOCKED,6,Monster\Karvis_Sentinel\Karvis_Sentinel_blocked.anim,10,1,1,0,0,0,0,0,0,0,0
0,BLOCKED,7,Monster\Karvis_Sentinel\Karvis_Sentinel_blocked.anim,10,1,1,0,0,0,0,0,0,0,0
0,DEFEAT,0,Monster\Karvis_Sentinel\Karvis_Sentinel_p1.anim,5,1,0.5,0,0,0,0,0,0,0,0
0,DEFEAT,1,Monster\Karvis_Sentinel\Karvis_Sentinel_p2.anim,5,1,0.5,0,0,0,0,0,0,0,0
0,DEFEAT,2,Monster\Karvis_Sentinel\Karvis_Sentinel_p3.anim,5,1,0.5,0,0,0,0,0,0,0,0
0,DEFEAT,3,Monster\Karvis_Sentinel\Karvis_Sentinel_p4.anim,5,1,0.5,0,0,0,0,0,0,0,0
0,DEAD,0,Monster\Karvis_Sentinel\Karvis_Sentinel_die.anim,4,1,2,0,0,0.1,1,0,0,0,0
0,GUARDING,0,monster\Karvis_Sentinel\Karvis_Sentinel_guard1.anim,10,1,0.5,0,0,0,0,0,0,0,0
0,GUARDING,1,monster\Karvis_Sentinel\Karvis_Sentinel_guard2.anim,10,1,0.5,0,0,0,0,0,0,0,0
0,GUARDING,2,monster\Karvis_Sentinel\Karvis_Sentinel_guard3.anim,10,1,0.5,0,0,0,0,0,0,0,0
