Creature,MONSTER,,,,,,,,,,,,,,,,
Index,7482,,,,,,,,,,,,,,,,
Skeleton,Monster\Karvis_Elite_sentinel.skel,,,,,,,,,,,,,,,,
,,,,,,,,,,,,,,,,,
Style,Action,Index,Animation,Start_Inter,End_Inter,TimeLength,Swing,Strike,Timing,Split,Timing2,Freeze,Effect,CancelTime,Default,Intersect,Through
0,STAND,0,Monster\Karvis_Elite_sentinel\Karvis_Elite_sentinel_stand.anim,4,1,4.1,0,0,0,0,0,0,0,0,0,0,0
0,STAND,1,Monster\Karvis_Elite_sentinel\Karvis_Elite_sentinel_cstand.anim,4,1,2.2,0,0,0,0,0,0,0,0,0,0,0
0,REVIVE,0,,0,1,0,0,0,0,0,0,0,0,0,0,0,0
0,MOVE,0,Monster\Karvis_Elite_sentinel\Karvis_Elite_sentinel_walk.anim,4,1,1,0,0,0,0,0,0,0,0,0,0,0
0,MOVE,1,Monster\Karvis_Elite_sentinel\Karvis_Elite_sentinel_crun.anim,4,1,0.9,0,0,0,0,0,0,0,0,0,0,0
0,ATTACK,0,Monster\Karvis_Elite_sentinel\Karvis_Elite_sentinel_att1.anim,4,1,2,0,0,0.35,0,1,0,1482,0,0,0,0
0,ATTACK,1,Monster\Karvis_Elite_sentinel\Karvis_Elite_sentinel_att2.anim,4,1,2.3,0,0,0.2,0,1,0,1483,0,0,0,0
0,ATTACK,2,Monster\Karvis_Elite_sentinel\Karvis_Elite_sentinel_att3.anim,4,1,3,0,0,0.6,0,1,0,1484,0,0,0,0
0,BLOCKING,0,Monster\Karvis_Elite_sentinel\Karvis_Elite_sentinel_blocking.anim,10,1,0.5,0,0,0,0,0,0,0,0,0,0,0
0,BLOCKED,0,Monster\Karvis_Elite_sentinel\Karvis_Elite_sentinel_blocked.anim,10,1,1,0,0,0,0,0,0,0,0,0,0,0
0,BLOCKED,1,Monster\Karvis_Elite_sentinel\Karvis_Elite_sentinel_blocked.anim,10,1,1,0,0,0,0,0,0,0,0,0,0,0
0,BLOCKED,2,Monster\Karvis_Elite_sentinel\Karvis_Elite_sentinel_blocked.anim,10,1,1,0,0,0,0,0,0,0,0,0,0,0
0,BLOCKED,3,Monster\Karvis_Elite_sentinel\Karvis_Elite_sentinel_blocked.anim,10,1,1,0,0,0,0,0,0,0,0,0,0,0
0,BLOCKED,4,Monster\Karvis_Elite_sentinel\Karvis_Elite_sentinel_blocked.anim,10,1,1,0,0,0,0,0,0,0,0,0,0,0
0,BLOCKED,5,Monster\Karvis_Elite_sentinel\Karvis_Elite_sentinel_blocked.anim,10,1,1,0,0,0,0,0,0,0,0,0,0,0
0,BLOCKED,6,Monster\Karvis_Elite_sentinel\Karvis_Elite_sentinel_blocked.anim,10,1,1,0,0,0,0,0,0,0,0,0,0,0
0,BLOCKED,7,Monster\Karvis_Elite_sentinel\Karvis_Elite_sentinel_blocked.anim,10,1,1,0,0,0,0,0,0,0,0,0,0,0
0,DEFEAT,0,Monster\Karvis_Elite_sentinel\Karvis_Elite_sentinel_p1.anim,10,1,0.5,0,0,0,0,0,0,0,0,0,0,0
0,DEFEAT,1,Monster\Karvis_Elite_sentinel\Karvis_Elite_sentinel_p2.anim,10,1,0.5,0,0,0,0,0,0,0,0,0,0,0
0,DEFEAT,2,Monster\Karvis_Elite_sentinel\Karvis_Elite_sentinel_p3.anim,10,1,0.5,0,0,0,0,0,0,0,0,0,0,0
0,DEFEAT,3,Monster\Karvis_Elite_sentinel\Karvis_Elite_sentinel_p4.anim,10,1,0.5,0,0,0,0,0,0,0,0,0,0,0
0,DEAD,0,Monster\Karvis_Elite_sentinel\Karvis_Elite_sentinel_die.anim,4,1,3.5,0,0,0.1,1,0,0,0,0,0,0,0
0,GUARDING,0,Monster\Karvis_Elite_sentinel\Karvis_Elite_sentinel_guard1.anim,10,1,0.5,0,0,0,0,0,0,0,0,0,0,0
0,GUARDING,1,Monster\Karvis_Elite_sentinel\Karvis_Elite_sentinel_guard2.anim,10,1,0.5,0,0,0,0,0,0,0,0,0,0,0
0,GUARDING,2,Monster\Karvis_Elite_sentinel\Karvis_Elite_sentinel_guard3.anim,10,1,0.5,0,0,0,0,0,0,0,0,0,0,0
