Creature,MONSTER,,,,,,,,,,,,,
Index,7552,,,,,,,,,,,,,
Skeleton,Monster\Marpos.skel,,,,,,,,,,,,,
,,,,,,,,,,,,,,
Style,Action,Index,Animation,Start_Inter,End_Inter,TimeLength,Swing,Strike,Timing,Split,Timing2,Freeze,Effect,CancelTime
0,STAND,0,Monster\Marpos\Marpos_stand.anim,4,1,2.8,0,0,0,0,0,0,0,0
0,STAND,1,Monster\Marpos\Marpos_cstand.anim,4,1,1,0,0,0,0,0,0,0,0
0,REVIVE,0,Monster\Marpos\Marpos_att2.anim,4,1,2,0,0,0.37,0,1,0,644,0
0,MOVE,0,Monster\Marpos\Marpos_walk.anim,4,1,1.5,0,0,0,0,0,0,0,0
0,MOVE,1,Monster\Marpos\Marpos_crun.anim,4,1,1,0,0,0,0,0,0,0,0
0,ATTACK,0,Monster\Marpos\Marpos_att1.anim,4,1,1.7,0,0,0.46,0,1,0,643,0
0,ATTACK,1,Monster\Marpos\Marpos_att2.anim,4,1,2,0,0,0.3,0,1,0,644,0
0,ATTACK,2,Monster\Marpos\Marpos_att2.anim,4,1,2,0,0,0.3,0,1,0,644,0
0,BLOCKING,0,Monster\Marpos\Marpos_blocking.anim,10,1,0.5,0,0,0,0,0,0,0,0
0,BLOCKED,0,Monster\Marpos\Marpos_blocked.anim,10,1,1,0,0,0,0,0,0,0,0
0,BLOCKED,1,Monster\Marpos\Marpos_blocked.anim,10,1,1,0,0,0,0,0,0,0,0
0,BLOCKED,2,Monster\Marpos\Marpos_blocked.anim,10,1,1,0,0,0,0,0,0,0,0
0,BLOCKED,3,Monster\Marpos\Marpos_blocked.anim,10,1,1,0,0,0,0,0,0,0,0
0,BLOCKED,4,Monster\Marpos\Marpos_blocked.anim,10,1,1,0,0,0,0,0,0,0,0
0,BLOCKED,5,Monster\Marpos\Marpos_blocked.anim,10,1,1,0,0,0,0,0,0,0,0
0,BLOCKED,6,Monster\Marpos\Marpos_blocked.anim,10,1,1,0,0,0,0,0,0,0,0
0,BLOCKED,7,Monster\Marpos\Marpos_blocked.anim,10,1,1,0,0,0,0,0,0,0,0
0,DEFEAT,0,Monster\Marpos\Marpos_p1.anim,10,1,0.5,0,0,0,0,0,0,0,0
0,DEFEAT,1,Monster\Marpos\Marpos_p2.anim,10,1,0.5,0,0,0,0,0,0,0,0
0,DEFEAT,2,Monster\Marpos\Marpos_p3.anim,10,1,0.5,0,0,0,0,0,0,0,0
0,DEFEAT,3,Monster\Marpos\Marpos_p4.anim,10,1,0.5,0,0,0,0,0,0,0,0
0,DEAD,0,Monster\Marpos\Marpos_die.anim,4,1,3.5,0,0,0.1,1,0,0,1539,0
0,GUARDING,0,Monster\Marpos\Marpos_guard1.anim,10,1,0.5,0,0,0,0,0,0,0,0
0,GUARDING,1,Monster\Marpos\Marpos_guard2.anim,10,1,0.5,0,0,0,0,0,0,0,0
0,GUARDING,2,Monster\Marpos\Marpos_guard3.anim,10,1,0.5,0,0,0,0,0,0,0,0
