Creature,MONSTER,,,,,,,,,,,,,
Index,7587,,,,,,,,,,,,,
Skeleton,Monster\8th_gourd.skel,,,,,,,,,,,,,
,,,,,,,,,,,,,,
Style,Action,Index,Animation,Start_Inter,End_Inter,TimeLength,Swing,Strike,Timing,Split,Timing2,Freeze,Effect,CancelTime
0,STAND,0,Monster\8th_gourd\8th_gourd_die_stand.anim,1,1,2,0,0,0,0,0,0,1554,0
0,STAND,1,Monster\8th_gourd\8th_gourd_die_stand.anim,1,1,2,0,0,0,0,0,0,1554,0
0,REVIVE,0,,0,1,2,0,0,0,0,0,0,0,0
0,MOVE,0,,1,1,1,0,0,0,0,0,0,0,0
0,MOVE,1,,1,1,1,0,0,0,0,0,0,0,0
0,ATTACK,0,,4,1,0,0,0,0,0,0,0,0,0
0,DEFEAT,0,,5,1,0,0,0,0,0,0,0,0,0
0,DEAD,0,Monster\suho\suho.anim,4,1,2,0,0,0.1,1,0,0,0,0
