Creature,MONSTER,,,,,,,,,,,,,
Index,7601,,,,,,,,,,,,,
Skeleton,Monster\NeoDeuxMarble.skel,,,,,,,,,,,,,
,,,,,,,,,,,,,,
Style,Action,Index,Animation,Start_Inter,End_Inter,TimeLength,Swing,Strike,Timing,Split,Timing2,Freeze,Effect,CancelTime
0,STAND,0,Monster\NeoDeuxMarble\NeoDeuxMarble_stand.anim,1,1,4,0,0,0,0,0,0,904,0
0,STAND,1,Monster\NeoDeuxMarble\NeoDeuxMarble_cstand.anim,1,1,4,0,0,0,0,0,0,0,0
0,MOVE,0,Monster\NeoDeuxMarble\NeoDeuxMarble_walk.anim,1,1,1.6,0,0,0,0,0,0,0,0
0,MOVE,1,Monster\NeoDeuxMarble\NeoDeuxMarble_crun.anim,1,1,1.3,0,0,0,0,0,0,0,0
0,ATTACK,10,Monster\NeoDeuxMarble\NeoDeuxMarble_att1.anim,4,1,2,0,0,0.7,0,1,0,905,0
0,ATTACK,11,Monster\NeoDeuxMarble\NeoDeuxMarble_att2.anim,4,1,2,0,0,0.7,0,1,0,906,0
0,ATTACK,12,Monster\NeoDeuxMarble\NeoDeuxMarble_att3.anim,4,1,2,0,0,0.8,0,1,0,907,0
0,ATTACK,13,Monster\NeoDeuxMarble\NeoDeuxMarble_att4.anim,4,1,3,0,0,0.4,0,1,0,908,0
0,ATTACK,1,Monster\NeoDeuxMarble\NeoDeuxMarble_att6.anim,4,1,3,0,0,0.5,0,1,0,977,0
0,ATTACK,2,Monster\NeoDeuxMarble\NeoDeuxMarble_att5.anim,4,1,3.5,0,0,0.2,0,1,0,909,0
0,BLOCKING,0,Monster\NeoDeuxMarble\NeoDeuxMarble_blocking.anim,10,1,0.5,0,0,0,0,0,0,0,0
0,BLOCKED,0,Monster\NeoDeuxMarble\NeoDeuxMarble_blocked.anim,10,1,0.5,0,0,0,0,0,0,0,0
0,BLOCKED,1,Monster\NeoDeuxMarble\NeoDeuxMarble_blocked.anim,10,1,0.5,0,0,0,0,0,0,0,0
0,BLOCKED,2,Monster\NeoDeuxMarble\NeoDeuxMarble_blocked.anim,10,1,0.5,0,0,0,0,0,0,0,0
0,BLOCKED,3,Monster\NeoDeuxMarble\NeoDeuxMarble_blocked.anim,10,1,0.5,0,0,0,0,0,0,0,0
0,BLOCKED,4,Monster\NeoDeuxMarble\NeoDeuxMarble_blocked.anim,10,1,0.5,0,0,0,0,0,0,0,0
0,BLOCKED,5,Monster\NeoDeuxMarble\NeoDeuxMarble_blocked.anim,10,1,0.5,0,0,0,0,0,0,0,0
0,BLOCKED,6,Monster\NeoDeuxMarble\NeoDeuxMarble_blocked.anim,10,1,0.5,0,0,0,0,0,0,0,0
0,BLOCKED,7,Monster\NeoDeuxMarble\NeoDeuxMarble_blocked.anim,10,1,0.5,0,0,0,0,0,0,0,0
0,DEFEAT,0,Monster\NeoDeuxMarble\NeoDeuxMarble_p3.anim,5,1,0.66,0,0,0,0,0,0,0,0
0,DEFEAT,1,Monster\NeoDeuxMarble\NeoDeuxMarble_p3.anim,5,1,0.66,0,0,0,0,0,0,0,0
0,DEFEAT,2,Monster\NeoDeuxMarble\NeoDeuxMarble_p3.anim,5,1,0.66,0,0,0,0,0,0,0,0
0,DEFEAT,3,Monster\NeoDeuxMarble\NeoDeuxMarble_p3.anim,5,1,0.66,0,0,0,0,0,0,0,0
0,DEAD,0,Monster\NeoDeuxMarble\NeoDeuxMarble_die.anim,4,1,4.5,0,0,0.1,1,0,0,910,0
0,GUARDING,0,Monster\NeoDeuxMarble\NeoDeuxMarble_guard3.anim,10,1,0.66,0,0,0,0,0,0,0,0
0,GUARDING,1,Monster\NeoDeuxMarble\NeoDeuxMarble_guard3.anim,10,1,0.66,0,0,0,0,0,0,0,0
0,GUARDING,2,Monster\NeoDeuxMarble\NeoDeuxMarble_guard3.anim,10,1,0.66,0,0,0,0,0,0,0,0
