Creature,MONSTER,,,,,,,,,,,,,,,,
Index,7628,,,,,,,,,,,,,,,,
Skeleton,Monster\Guardian_Hider.skel,,,,,,,,,,,,,,,,
,,,,,,,,,,,,,,,,,
Style,Action,Index,Animation,Start_Inter,End_Inter,TimeLength,Swing,Strike,Timing,Split,Timing2,Freeze,Effect,CancelTime,Default,Intersect,Through
0,STAND,0,Monster\Guardian_Hider\Guardian_stand.anim,4,1,6.7,0,0,0,0,0,0,0,0,0,0,0
0,STAND,1,Monster\Guardian_Hider\Guardian_cstand.anim,4,1,1,0,0,0,0,0,0,0,0,0,0,0
0,REVIVE,0,,0,1,0,0,0,0,0,0,0,0,0,0,0,0
0,MOVE,0,Monster\Guardian_Hider\Guardian_walk.anim,4,1,1.3,0,0,0,0,0,0,0,0,0,0,0
0,MOVE,1,Monster\Guardian_Hider\Guardian_crun.anim,4,1,1,0,0,0,0,0,0,0,0,0,0,0
0,ATTACK,10,Monster\Guardian_Hider\Guardian_att01.anim,4,1,2.5,0,0,0.5,0,1,0,1247,0,0,0,0
0,ATTACK,11,Monster\Guardian_Hider\Guardian_att02.anim,4,1,3.5,0,0,0.5,0,1,0,1248,0,0,0,0
0,ATTACK,12,Monster\Guardian_Hider\Guardian_att03.anim,4,1,4,0,0,0.55,0,1,0,1249,0,0,0,0
0,ATTACK,1,Monster\Guardian_Hider\Guardian_att04.anim,4,1,2.3,0,0,0.5,0,1,0,1250,0,0,0,0
0,ATTACK,2,Monster\Guardian_Hider\Guardian_att05.anim,4,1,7.7,0,0,0.2,0,1,0,1251,0,0,0,0
0,BLOCKING,0,Monster\Guardian_Hider\Guardian_blocking.anim,10,1,0.5,0,0,0,0,0,0,0,0,0,0,0
0,BLOCKED,0,Monster\Guardian_Hider\Guardian_blocked.anim,10,1,1,0,0,0,0,0,0,0,0,0,0,0
0,BLOCKED,1,Monster\Guardian_Hider\Guardian_blocked.anim,10,1,1,0,0,0,0,0,0,0,0,0,0,0
0,BLOCKED,2,Monster\Guardian_Hider\Guardian_blocked.anim,10,1,1,0,0,0,0,0,0,0,0,0,0,0
0,BLOCKED,3,Monster\Guardian_Hider\Guardian_blocked.anim,10,1,1,0,0,0,0,0,0,0,0,0,0,0
0,BLOCKED,4,Monster\Guardian_Hider\Guardian_blocked.anim,10,1,1,0,0,0,0,0,0,0,0,0,0,0
0,BLOCKED,5,Monster\Guardian_Hider\Guardian_blocked.anim,10,1,1,0,0,0,0,0,0,0,0,0,0,0
0,BLOCKED,6,Monster\Guardian_Hider\Guardian_blocked.anim,10,1,1,0,0,0,0,0,0,0,0,0,0,0
0,BLOCKED,7,Monster\Guardian_Hider\Guardian_blocked.anim,10,1,1,0,0,0,0,0,0,0,0,0,0,0
0,DEFEAT,0,Monster\Guardian_Hider\Guardian_p4.anim,10,1,0.5,0,0,0,0,0,0,0,0,0,0,0
0,DEFEAT,1,Monster\Guardian_Hider\Guardian_p4.anim,10,1,0.5,0,0,0,0,0,0,0,0,0,0,0
0,DEFEAT,2,Monster\Guardian_Hider\Guardian_p4.anim,10,1,0.5,0,0,0,0,0,0,0,0,0,0,0
0,DEFEAT,3,Monster\Guardian_Hider\Guardian_p4.anim,10,1,0.5,0,0,0,0,0,0,0,0,0,0,0
0,DEAD,0,Monster\Guardian_Hider\Guardian_die.anim,4,1,4,0,0,0.1,1,0,0,1252,0,0,0,0
0,GUARDING,0,Monster\Guardian_Hider\Guardian_guard03.anim,10,1,0.5,0,0,0,0,0,0,0,0,0,0,0
0,GUARDING,1,Monster\Guardian_Hider\Guardian_guard03.anim,10,1,0.5,0,0,0,0,0,0,0,0,0,0,0
0,GUARDING,2,Monster\Guardian_Hider\Guardian_guard03.anim,10,1,0.5,0,0,0,0,0,0,0,0,0,0,0
