Creature,MONSTER,,,,,,,,,,,,,
Index,7656,,,,,,,,,,,,,
Skeleton,Monster\mob_Chuseok.skel,,,,,,,,,,,,,
,,,,,,,,,,,,,,
Style,Action,Index,Animation,Start_Inter,End_Inter,TimeLength,Swing,Strike,Timing,Split,Timing2,Freeze,Effect,CancelTime
0,STAND,0,Monster\mob_Chuseok\mob_Chuseok_stand.anim,1,1,1,0,0,0,0,0,0,0,0
0,STAND,1,Monster\mob_Chuseok\mob_Chuseok_stand.anim,1,1,1,0,0,0,0,0,0,0,0
0,REVIVE,0,,0,1,0,0,0,0,0,0,0,0,0
0,MOVE,0,Monster\mob_Chuseok\mob_Chuseok_walk.anim,1,1,1,0,0,0,0,0,0,0,0
0,MOVE,1,Monster\mob_Chuseok\mob_Chuseok_run.anim,1,1,0.5,0,0,0,0,0,0,0,0
0,ATTACK,0,Monster\mob_Chuseok\mob_Chuseok_att.anim,4,1,1,3,0,0.64,0,1,0,1571,0
0,BLOCKING,0,Monster\mob_Chuseok\mob_Chuseok_blocking.anim,10,1,0.5,0,0,0,0,0,0,0,0
0,BLOCKED,0,Monster\mob_Chuseok\mob_Chuseok_blocked.anim,10,1,1,0,0,0,0,0,0,0,0
0,BLOCKED,1,Monster\mob_Chuseok\mob_Chuseok_blocked.anim,10,1,1,0,0,0,0,0,0,0,0
0,BLOCKED,2,Monster\mob_Chuseok\mob_Chuseok_blocked.anim,10,1,1,0,0,0,0,0,0,0,0
0,BLOCKED,3,Monster\mob_Chuseok\mob_Chuseok_blocked.anim,10,1,1,0,0,0,0,0,0,0,0
0,BLOCKED,4,Monster\mob_Chuseok\mob_Chuseok_blocked.anim,10,1,1,0,0,0,0,0,0,0,0
0,BLOCKED,5,Monster\mob_Chuseok\mob_Chuseok_blocked.anim,10,1,1,0,0,0,0,0,0,0,0
0,BLOCKED,6,Monster\mob_Chuseok\mob_Chuseok_blocked.anim,10,1,1,0,0,0,0,0,0,0,0
0,BLOCKED,7,Monster\mob_Chuseok\mob_Chuseok_blocked.anim,10,1,1,0,0,0,0,0,0,0,0
0,DEFEAT,0,Monster\mob_Chuseok\mob_Chuseok_p.anim,5,1,0.5,0,0,0,0,0,0,0,0
0,DEFEAT,1,Monster\mob_Chuseok\mob_Chuseok_p.anim,5,1,0.5,0,0,0,0,0,0,0,0
0,DEFEAT,2,Monster\mob_Chuseok\mob_Chuseok_p.anim,5,1,0.5,0,0,0,0,0,0,0,0
0,DEFEAT,3,Monster\mob_Chuseok\mob_Chuseok_p.anim,5,1,0.5,0,0,0,0,0,0,0,0
0,DEAD,0,Monster\mob_Chuseok\mob_Chuseok_die.anim,4,1,1.5,0,0,0.1,1,0,0,0,0
0,GUARDING,0,Monster\mob_Chuseok\mob_Chuseok_p.anim,10,1,0.5,0,0,0,0,0,0,0,0
0,GUARDING,1,Monster\mob_Chuseok\mob_Chuseok_p.anim,10,1,0.5,0,0,0,0,0,0,0,0
0,GUARDING,2,Monster\mob_Chuseok\mob_Chuseok_p.anim,10,1,0.5,0,0,0,0,0,0,0,0
0,GUARDING,1,monster\fafnir\fafnir_guard3.anim,10,1,0.5,0,0,0,0,0,0,0,0
0,GUARDING,2,monster\fafnir\fafnir_guard3.anim,10,1,0.5,0,0,0,0,0,0,0,0
