Creature,MONSTER,,,,,,,,,,,,,
Index,7668,,,,,,,,,,,,,
Skeleton,Monster\meldun.skel,,,,,,,,,,,,,
,,,,,,,,,,,,,,
Style,Action,Index,Animation,Start_Inter,End_Inter,TimeLength,Swing,Strike,Timing,Split,Timing2,Freeze,Effect,CancelTime
0,STAND,0,Monster\meldun\meldun_stand.anim,1,1,6,0,0,0,0,0,0,0,0
0,STAND,1,Monster\meldun\meldun_cstand.anim,1,1,1,0,0,0,0,0,0,0,0
0,REVIVE,0,,0,1,0,0,0,0,0,0,0,0,0
0,MOVE,0,Monster\meldun\meldun_walk.anim,1,1,1,0,0,0,0,0,0,0,0
0,MOVE,1,Monster\meldun\meldun_crun.anim,1,1,1,0,0,0,0,0,0,0,0
0,ATTACK,10,Monster\meldun\meldun_att01.anim,4,1,2,0,0,0.5,0,1,0,1084,0
0,ATTACK,11,Monster\meldun\meldun_att02.anim,4,1,3,0,0,0.55,0,1,0,1085,0
0,ATTACK,2,Monster\meldun\meldun_att03.anim,4,1,3.5,0,0,0.5,0,1,0,1086,0
0,BLOCKING,0,Monster\meldun\meldun_blocking.anim,10,1,0.5,0,0,0,0,0,0,0,0
0,BLOCKED,0,Monster\meldun\meldun_blocked.anim,10,1,1,0,0,0,0,0,0,0,0
0,BLOCKED,1,Monster\meldun\meldun_blocked.anim,10,1,1,0,0,0,0,0,0,0,0
0,BLOCKED,2,Monster\meldun\meldun_blocked.anim,10,1,1,0,0,0,0,0,0,0,0
0,BLOCKED,3,Monster\meldun\meldun_blocked.anim,10,1,1,0,0,0,0,0,0,0,0
0,BLOCKED,4,Monster\meldun\meldun_blocked.anim,10,1,1,0,0,0,0,0,0,0,0
0,BLOCKED,5,Monster\meldun\meldun_blocked.anim,10,1,1,0,0,0,0,0,0,0,0
0,BLOCKED,6,Monster\meldun\meldun_blocked.anim,10,1,1,0,0,0,0,0,0,0,0
0,BLOCKED,7,Monster\meldun\meldun_blocked.anim,10,1,1,0,0,0,0,0,0,0,0
0,DEFEAT,0,Monster\meldun\meldun_p4.anim,5,1,0.5,0,0,0,0,0,0,0,0
0,DEFEAT,1,Monster\meldun\meldun_p4.anim,5,1,0.5,0,0,0,0,0,0,0,0
0,DEFEAT,2,Monster\meldun\meldun_p4.anim,5,1,0.5,0,0,0,0,0,0,0,0
0,DEFEAT,3,Monster\meldun\meldun_p4.anim,5,1,0.5,0,0,0,0,0,0,0,0
0,DEAD,0,Monster\meldun\meldun_die.anim,4,1,6,0,0,0.1,1,0,0,1083,0
0,GUARDING,0,monster\meldun\meldun_guard3.anim,10,1,0.5,0,0,0,0,0,0,0,0
0,GUARDING,1,monster\meldun\meldun_guard3.anim,10,1,0.5,0,0,0,0,0,0,0,0
0,GUARDING,2,monster\meldun\meldun_guard3.anim,10,1,0.5,0,0,0,0,0,0,0,0
