Creature,MONSTER,,,,,,,,,,,,,,,,
Index,7673,,,,,,,,,,,,,,,,
Skeleton,Monster\grandis.skel,,,,,,,,,,,,,,,,
,,,,,,,,,,,,,,,,,
Style,Action,Index,Animation,Start_Inter,End_Inter,TimeLength,Swing,Strike,Timing,Split,Timing2,Freeze,Effect,CancelTime,Default,Intersect,Through
0,STAND,0,Monster\grandis\grandis_stand.anim,4,1,2,0,0,0,0,0,0,0,0,0,0,0
0,STAND,1,Monster\grandis\grandis_cstand.anim,4,1,1,0,0,0,0,0,0,0,0,0,0,0
0,REVIVE,0,,0,1,0,0,0,0,0,0,0,0,0,0,0,0
0,MOVE,0,Monster\grandis\grandis_walk.anim,4,1,1,0,0,0,0,0,0,0,0,0,0,0
0,MOVE,1,Monster\grandis\grandis_run.anim,4,1,1,0,0,0,0,0,0,0,0,0,0,0
0,ATTACK,0,Monster\grandis\grandis_att01.anim,4,1,1.5,0,0,0.53,0,1,0,1438,0,0,0,0
0,ATTACK,1,Monster\grandis\grandis_att02.anim,4,1,3,0,0,0.65,0,1,0,1439,0,0,0,0
0,ATTACK,2,Monster\grandis\grandis_att03.anim,4,1,5,0,0,0.39,0,1,0,1440,0,0,0,0
0,BLOCKING,0,Monster\grandis\grandis_blocking.anim,10,1,0.5,0,0,0,0,0,0,0,0,0,0,0
0,BLOCKED,0,Monster\grandis\grandis_blocking.anim,10,1,0.5,0,0,0,0,0,0,0,0,0,0,0
0,BLOCKED,1,Monster\grandis\grandis_blocking.anim,10,1,0.5,0,0,0,0,0,0,0,0,0,0,0
0,BLOCKED,2,Monster\grandis\grandis_blocking.anim,10,1,0.5,0,0,0,0,0,0,0,0,0,0,0
0,BLOCKED,3,Monster\grandis\grandis_blocking.anim,10,1,0.5,0,0,0,0,0,0,0,0,0,0,0
0,BLOCKED,4,Monster\grandis\grandis_blocking.anim,10,1,0.5,0,0,0,0,0,0,0,0,0,0,0
0,BLOCKED,5,Monster\grandis\grandis_blocking.anim,10,1,0.5,0,0,0,0,0,0,0,0,0,0,0
0,BLOCKED,6,Monster\grandis\grandis_blocking.anim,10,1,0.5,0,0,0,0,0,0,0,0,0,0,0
0,BLOCKED,7,Monster\grandis\grandis_blocking.anim,10,1,0.5,0,0,0,0,0,0,0,0,0,0,0
0,DEFEAT,0,Monster\grandis\grandis_p.anim,10,1,0.5,0,0,0,0,0,0,0,0,0,0,0
0,DEFEAT,1,Monster\grandis\grandis_p.anim,10,1,0.5,0,0,0,0,0,0,0,0,0,0,0
0,DEFEAT,2,Monster\grandis\grandis_p.anim,10,1,0.5,0,0,0,0,0,0,0,0,0,0,0
0,DEFEAT,3,Monster\grandis\grandis_p.anim,10,1,0.5,0,0,0,0,0,0,0,0,0,0,0
0,DEAD,0,Monster\grandis\grandis_die.anim,4,1,2,0,0,0.1,1,0,0,1441,0,0,0,0
0,GUARDING,0,Monster\grandis\grandis_guard.anim,10,1,0.5,0,0,0,0,0,0,0,0,0,0,0
0,GUARDING,1,Monster\grandis\grandis_guard.anim,10,1,0.5,0,0,0,0,0,0,0,0,0,0,0
0,GUARDING,2,Monster\grandis\grandis_guard.anim,10,1,0.5,0,0,0,0,0,0,0,0,0,0,0
