Creature,MONSTER,,,,,,,,,,,,,,,,
Index,7722,,,,,,,,,,,,,,,,
Skeleton,Monster\Dragon_Knight.skel,,,,,,,,,,,,,,,,
,,,,,,,,,,,,,,,,,
Style,Action,Index,Animation,Start_Inter,End_Inter,TimeLength,Swing,Strike,Timing,Split,Timing2,Freeze,Effect,CancelTime,Default,Intersect,Through
0,STAND,0,Monster\Dragon_Knight\Dragon_Knight_stand.anim,4,1,4,0,0,0,0,0,0,0,0,0,0,0
0,STAND,1,Monster\Dragon_Knight\Dragon_Knight_cstand.anim,4,1,1,0,0,0,0,0,0,0,0,0,0,0
0,REVIVE,0,,0,1,0,0,0,0,0,0,0,0,0,0,0,0
0,MOVE,0,Monster\Dragon_Knight\Dragon_Knight_walk.anim,4,1,1,0,0,0,0,0,0,0,0,0,0,0
0,MOVE,1,Monster\Dragon_Knight\Dragon_Knight_crun.anim,4,1,0.9,0,0,0,0,0,0,0,0,0,0,0
0,ATTACK,0,Monster\Dragon_Knight\Dragon_Knight_att1.anim,4,1,1.4,0,0,0.52,0,1,0,1604,0,0,0,0
0,ATTACK,1,Monster\Dragon_Knight\Dragon_Knight_att3.anim,4,1,1.6,0,0,0.44,0,1,0,1606,0,0,0,0
0,BLOCKING,0,Monster\Dragon_Knight\Dragon_Knight_blocking.anim,10,1,0.5,0,0,0,0,0,0,0,0,0,0,0
0,BLOCKED,0,Monster\Dragon_Knight\Dragon_Knight_blocked.anim,10,1,1,0,0,0,0,0,0,0,0,0,0,0
0,BLOCKED,1,Monster\Dragon_Knight\Dragon_Knight_blocked.anim,10,1,1,0,0,0,0,0,0,0,0,0,0,0
0,BLOCKED,2,Monster\Dragon_Knight\Dragon_Knight_blocked.anim,10,1,1,0,0,0,0,0,0,0,0,0,0,0
0,BLOCKED,3,Monster\Dragon_Knight\Dragon_Knight_blocked.anim,10,1,1,0,0,0,0,0,0,0,0,0,0,0
0,BLOCKED,4,Monster\Dragon_Knight\Dragon_Knight_blocked.anim,10,1,1,0,0,0,0,0,0,0,0,0,0,0
0,BLOCKED,5,Monster\Dragon_Knight\Dragon_Knight_blocked.anim,10,1,1,0,0,0,0,0,0,0,0,0,0,0
0,BLOCKED,6,Monster\Dragon_Knight\Dragon_Knight_blocked.anim,10,1,1,0,0,0,0,0,0,0,0,0,0,0
0,BLOCKED,7,Monster\Dragon_Knight\Dragon_Knight_blocked.anim,10,1,1,0,0,0,0,0,0,0,0,0,0,0
0,DEFEAT,0,Monster\Dragon_Knight\Dragon_Knight_p1.anim,10,1,0.5,0,0,0,0,0,0,0,0,0,0,0
0,DEFEAT,1,Monster\Dragon_Knight\Dragon_Knight_p2.anim,10,1,0.5,0,0,0,0,0,0,0,0,0,0,0
0,DEFEAT,2,Monster\Dragon_Knight\Dragon_Knight_p3.anim,10,1,0.5,0,0,0,0,0,0,0,0,0,0,0
0,DEFEAT,3,Monster\Dragon_Knight\Dragon_Knight_p4.anim,10,1,0.5,0,0,0,0,0,0,0,0,0,0,0
0,DEAD,0,Monster\Dragon_Knight\Dragon_Knight_die.anim,4,1,3,0,0,0.1,1,0,0,1607,0,0,0,0
0,GUARDING,0,Monster\Dragon_Knight\Dragon_Knight_guard1.anim,10,1,0.4,0,0,0,0,0,0,0,0,0,0,0
0,GUARDING,1,Monster\Dragon_Knight\Dragon_Knight_guard2.anim,10,1,0.4,0,0,0,0,0,0,0,0,0,0,0
0,GUARDING,2,Monster\Dragon_Knight\Dragon_Knight_guard3.anim,10,1,0.4,0,0,0,0,0,0,0,0,0,0,0
