Creature,MONSTER,,,,,,,,,,,,,,,,
Index,7812,,,,,,,,,,,,,,,,
Skeleton,Monster\Wombit.skel,,,,,,,,,,,,,,,,
,,,,,,,,,,,,,,,,,
Style,Action,Index,Animation,Start_Inter,End_Inter,TimeLength,Swing,Strike,Timing,Split,Timing2,Freeze,Effect,CancelTime,Default,Intersect,Through
0,STAND,0,Monster\Wombit\Wombit_stand.anim,1,1,2,0,0,0,0,0,0,0,0,0,0,0
0,STAND,1,Monster\Wombit\Wombit_cstand.anim,1,1,0.5,0,0,0,0,0,0,0,0,0,0,0
0,SM_STAND,0,Monster\Wombit\Wombit_stand.anim,1,1,2,0,0,0,0,0,0,0,0,0,0,0
0,SM_STAND,1,Monster\Wombit\Wombit_cstand.anim,1,1,0.5,0,0,0,0,0,0,0,0,0,0,0
0,MOVE,0,Monster\Wombit\Wombit_walk.anim,1,1,1,0,0,0,0,0,0,0,0,0,0,0
0,MOVE,1,Monster\Wombit\Wombit_run.anim,1,1,0.6,0,0,0,0,0,0,0,0,0,0,0
0,SM_MOVE,0,Monster\Wombit\Wombit_walk.anim,1,1,1,0,0,0,0,0,0,0,0,0,0,0
0,SM_MOVE,1,Monster\Wombit\Wombit_run.anim,1,1,0.6,0,0,0,0,0,0,0,0,0,0,0
0,ATTACK,0,Monster\Wombit\Wombit_att01.anim,4,1,1,0,0,0.51,0,1,0,1449,0,0,0,0
0,ATTACK,1,Monster\Wombit\Wombit_att02.anim,4,1,1.2,0,0,0.55,0,1,0,1450,0,0,0,0
0,BLOCKING,0,Monster\Wombit\Wombit_blocking.anim,10,1,0.5,0,0,0,0,0,0,0,0,0,0,0
0,BLOCKED,0,Monster\Wombit\Wombit_blocked.anim,10,1,1,0,0,0,0,0,0,0,0,0,0,0
0,BLOCKED,1,Monster\Wombit\Wombit_blocked.anim,10,1,1,0,0,0,0,0,0,0,0,0,0,0
0,BLOCKED,2,Monster\Wombit\Wombit_blocked.anim,10,1,1,0,0,0,0,0,0,0,0,0,0,0
0,BLOCKED,3,Monster\Wombit\Wombit_blocked.anim,10,1,1,0,0,0,0,0,0,0,0,0,0,0
0,BLOCKED,4,Monster\Wombit\Wombit_blocked.anim,10,1,1,0,0,0,0,0,0,0,0,0,0,0
0,BLOCKED,5,Monster\Wombit\Wombit_blocked.anim,10,1,1,0,0,0,0,0,0,0,0,0,0,0
0,BLOCKED,6,Monster\Wombit\Wombit_blocked.anim,10,1,1,0,0,0,0,0,0,0,0,0,0,0
0,BLOCKED,7,Monster\Wombit\Wombit_blocked.anim,10,1,1,0,0,0,0,0,0,0,0,0,0,0
0,DEFEAT,0,Monster\Wombit\Wombit_p1.anim,5,1,0.5,0,0,0,0,0,0,0,0,0,0,0
0,DEFEAT,1,Monster\Wombit\Wombit_p2.anim,5,1,0.5,0,0,0,0,0,0,0,0,0,0,0
0,DEFEAT,2,Monster\Wombit\Wombit_p3.anim,5,1,0.5,0,0,0,0,0,0,0,0,0,0,0
0,DEFEAT,3,Monster\Wombit\Wombit_p4.anim,5,1,0.5,0,0,0,0,0,0,0,0,0,0,0
0,DEAD,0,Monster\Wombit\Wombit_die.anim,4,1,2,0,0,0.1,1,0,0,0,0,0,0,0
0,SM_DEAD,0,Monster\Wombit\Wombit_die.anim,4,1,2,0,0,0.1,1,0,0,0,0,0,0,0
0,GUARDING,0,monster\Wombit\Wombit_guard1.anim,10,1,0.5,0,0,0,0,0,0,0,0,0,0,0
0,GUARDING,1,monster\Wombit\Wombit_guard2.anim,10,1,0.5,0,0,0,0,0,0,0,0,0,0,0
0,GUARDING,2,monster\Wombit\Wombit_guard3.anim,10,1,0.5,0,0,0,0,0,0,0,0,0,0,0
