Creature,MONSTER,,,,,,,,,,,,,
Index,7863,,,,,,,,,,,,,
Skeleton,Monster\Lady_Kwira.skel,,,,,,,,,,,,,
,,,,,,,,,,,,,,
Style,Action,Index,Animation,Start_Inter,End_Inter,TimeLength,Swing,Strike,Timing,Split,Timing2,Freeze,Effect,CancelTime
0,STAND,0,Monster\Lady_Kwira\Lady_Kwira_stand.anim,1,1,2,0,0,0,0,0,0,0,0
0,STAND,1,Monster\Lady_Kwira\Lady_Kwira_cstand.anim,1,1,1,0,0,0,0,0,0,0,0
0,REVIVE,0,,0,1,0,0,0,0,0,0,0,0,0
0,MOVE,0,Monster\Lady_Kwira\Lady_Kwira_walk.anim,1,1,1,0,0,0,0,0,0,0,0
0,MOVE,1,Monster\Lady_Kwira\Lady_Kwira_crun.anim,1,1,0.9,0,0,0,0,0,0,0,0
0,ATTACK,0,Monster\Lady_Kwira\Lady_Kwira_att1.anim,4,1,2,0,0,0.42,0,1,0,1714,0
0,ATTACK,1,Monster\Lady_Kwira\Lady_Kwira_att2.anim,4,1,2,0,0,0.45,0,1,0,1715,0
0,ATTACK,2,Monster\Lady_Kwira\Lady_Kwira_att3.anim,4,1,3,0,0,0.4,0,1,0,1716,0
0,BLOCKING,0,Monster\Lady_Kwira\Lady_Kwira_blocking.anim,10,1,0.5,0,0,0,0,0,0,0,0
0,BLOCKED,0,Monster\Lady_Kwira\Lady_Kwira_blocking.anim,10,1,0.5,0,0,0,0,0,0,0,0
0,BLOCKED,1,Monster\Lady_Kwira\Lady_Kwira_blocking.anim,10,1,0.5,0,0,0,0,0,0,0,0
0,BLOCKED,2,Monster\Lady_Kwira\Lady_Kwira_blocking.anim,10,1,0.5,0,0,0,0,0,0,0,0
0,BLOCKED,3,Monster\Lady_Kwira\Lady_Kwira_blocking.anim,10,1,0.5,0,0,0,0,0,0,0,0
0,BLOCKED,4,Monster\Lady_Kwira\Lady_Kwira_blocking.anim,10,1,0.5,0,0,0,0,0,0,0,0
0,BLOCKED,5,Monster\Lady_Kwira\Lady_Kwira_blocking.anim,10,1,0.5,0,0,0,0,0,0,0,0
0,BLOCKED,6,Monster\Lady_Kwira\Lady_Kwira_blocking.anim,10,1,0.5,0,0,0,0,0,0,0,0
0,BLOCKED,7,Monster\Lady_Kwira\Lady_Kwira_blocking.anim,10,1,0.5,0,0,0,0,0,0,0,0
0,DEFEAT,0,Monster\Lady_Kwira\Lady_Kwira_p3.anim,5,1,0.5,0,0,0,0,0,0,0,0
0,DEFEAT,1,Monster\Lady_Kwira\Lady_Kwira_p3.anim,5,1,0.5,0,0,0,0,0,0,0,0
0,DEFEAT,2,Monster\Lady_Kwira\Lady_Kwira_p3.anim,5,1,0.5,0,0,0,0,0,0,0,0
0,DEFEAT,3,Monster\Lady_Kwira\Lady_Kwira_p3.anim,5,1,0.5,0,0,0,0,0,0,0,0
0,DEAD,0,Monster\Lady_Kwira\Lady_Kwira_die.anim,4,1,4,0,0,0.1,1,0,0,1717,0
0,GUARDING,0,monster\Lady_Kwira\Lady_Kwira_guard3.anim,10,1,0.5,0,0,0,0,0,0,0,0
0,GUARDING,1,monster\Lady_Kwira\Lady_Kwira_guard3.anim,10,1,0.5,0,0,0,0,0,0,0,0
0,GUARDING,2,monster\Lady_Kwira\Lady_Kwira_guard3.anim,10,1,0.5,0,0,0,0,0,0,0,0
