Creature,MONSTER,,,,,,,,,,,,,
Index,7891,,,,,,,,,,,,,
Skeleton,Monster\war_wolf.skel,,,,,,,,,,,,,
,,,,,,,,,,,,,,
Style,Action,Index,Animation,Start_Inter,End_Inter,TimeLength,Swing,Strike,Timing,Split,Timing2,Freeze,Effect,CancelTime
0,STAND,0,Monster\war_wolf\war_wolf_stand.anim,4,1,2,0,0,0,0,0,0,0,0
0,STAND,1,Monster\war_wolf\war_wolf_cstand.anim,4,1,1,0,0,0,0,0,0,0,0
0,REVIVE,0,,0,1,0,0,0,0,0,0,0,0,0
0,MOVE,0,Monster\war_wolf\war_wolf_walk.anim,4,1,1,0,0,0,0,0,0,0,0
0,MOVE,1,Monster\war_wolf\war_wolf_crun.anim,4,1,0.8,0,0,0,0,0,0,0,0
0,ATTACK,0,Monster\war_wolf\war_wolf_att1.anim,4,1,1.5,0,0,0.38,0,1,0,0,0
0,BLOCKED,0,Monster\war_wolf\war_wolf_blocked.anim,10,1,1,0,0,0,0,0,0,0,0
0,BLOCKING,0,Monster\war_wolf\war_wolf_blocking.anim,10,1,0.5,0,0,0,0,0,0,0,0
0,DEFEAT,0,Monster\war_wolf\war_wolf_p1.anim,10,1,0.5,0,0,0,0,0,0,0,0
0,DEFEAT,1,Monster\war_wolf\war_wolf_p2.anim,10,1,0.5,0,0,0,0,0,0,0,0
0,DEFEAT,2,Monster\war_wolf\war_wolf_p3.anim,10,1,0.5,0,0,0,0,0,0,0,0
0,DEFEAT,3,Monster\war_wolf\war_wolf_p4.anim,10,1,0.5,0,0,0,0,0,0,0,0
0,DEAD,0,Monster\war_wolf\war_wolf_die.anim,4,1,4,0,0,0.1,1,0,0,0,0
0,GUARDING,0,Monster\war_wolf\war_wolf_guard1.anim,10,1,0.5,0,0,0,0,0,0,0,0
0,GUARDING,1,Monster\war_wolf\war_wolf_guard2.anim,10,1,0.5,0,0,0,0,0,0,0,0
0,GUARDING,2,Monster\war_wolf\war_wolf_guard3.anim,10,1,0.5,0,0,0,0,0,0,0,0
