Creature,MONSTER,,,,,,,,,,,,,
Index,7912,,,,,,,,,,,,,
Skeleton,Monster\Chepesyu.skel,,,,,,,,,,,,,
,,,,,,,,,,,,,,
Style,Action,Index,Animation,Start_Inter,End_Inter,TimeLength,Swing,Strike,Timing,Split,Timing2,Freeze,Effect,CancelTime
0,STAND,0,Monster\Chepesyu\Chepesyu_stand.anim,1,1,2,0,0,0,0,0,0,0,0
0,STAND,1,Monster\Chepesyu\Chepesyu_cstand.anim,1,1,1,0,0,0,0,0,0,0,0
0,REVIVE,0,,0,1,0,0,0,0,0,0,0,0,0
0,MOVE,0,Monster\Chepesyu\Chepesyu_walk.anim,1,1,1,0,0,0,0,0,0,0,0
0,MOVE,1,Monster\Chepesyu\Chepesyu_crun.anim,1,1,0.8,0,0,0,0,0,0,0,0
0,ATTACK,0,Monster\Chepesyu\Chepesyu_att1.anim,4,1,1.5,0,0,0.36,0,1,0,1725,0
0,ATTACK,1,Monster\Chepesyu\Chepesyu_att3.anim,4,1,2,0,0,0.7,0,1,0,1726,0
0,BLOCKING,0,Monster\Chepesyu\Chepesyu_blocking.anim,10,1,0.5,0,0,0,0,0,0,0,0
0,BLOCKED,0,Monster\Chepesyu\Chepesyu_blocked.anim,10,1,1,0,0,0,0,0,0,0,0
0,BLOCKED,1,Monster\Chepesyu\Chepesyu_blocked.anim,10,1,1,0,0,0,0,0,0,0,0
0,BLOCKED,2,Monster\Chepesyu\Chepesyu_blocked.anim,10,1,1,0,0,0,0,0,0,0,0
0,BLOCKED,3,Monster\Chepesyu\Chepesyu_blocked.anim,10,1,1,0,0,0,0,0,0,0,0
0,BLOCKED,4,Monster\Chepesyu\Chepesyu_blocked.anim,10,1,1,0,0,0,0,0,0,0,0
0,BLOCKED,5,Monster\Chepesyu\Chepesyu_blocked.anim,10,1,1,0,0,0,0,0,0,0,0
0,BLOCKED,6,Monster\Chepesyu\Chepesyu_blocked.anim,10,1,1,0,0,0,0,0,0,0,0
0,BLOCKED,7,Monster\Chepesyu\Chepesyu_blocked.anim,10,1,1,0,0,0,0,0,0,0,0
0,DEFEAT,0,Monster\Chepesyu\Chepesyu_p.anim,5,1,0.5,0,0,0,0,0,0,0,0
0,DEFEAT,1,Monster\Chepesyu\Chepesyu_p.anim,5,1,0.5,0,0,0,0,0,0,0,0
0,DEFEAT,2,Monster\Chepesyu\Chepesyu_p.anim,5,1,0.5,0,0,0,0,0,0,0,0
0,DEFEAT,3,Monster\Chepesyu\Chepesyu_p.anim,5,1,0.5,0,0,0,0,0,0,0,0
0,DEAD,0,Monster\Chepesyu\Chepesyu_die.anim,4,1,2.5,0,0,0.1,1,0,0,1730,0
0,GUARDING,0,monster\Chepesyu\Chepesyu_guard.anim,10,1,0.5,0,0,0,0,0,0,0,0
0,GUARDING,1,monster\Chepesyu\Chepesyu_guard.anim,10,1,0.5,0,0,0,0,0,0,0,0
0,GUARDING,2,monster\Chepesyu\Chepesyu_guard.anim,10,1,0.5,0,0,0,0,0,0,0,0
