Creature,MONSTER,,,,,,,,,,,,,
Index,7929,,,,,,,,,,,,,
Skeleton,Monster\Devil.skel,,,,,,,,,,,,,
,,,,,,,,,,,,,,
Style,Action,Index,Animation,Start_Inter,End_Inter,TimeLength,Swing,Strike,Timing,Split,Timing2,Freeze,Effect,CancelTime
0,STAND,0,Monster\Devil\Devil_stand.anim,4,1,1,0,0,0,0,0,0,0,0
0,STAND,1,Monster\Devil\Devil_cstand.anim,4,1,1,0,0,0,0,0,0,0,0
0,REVIVE,0,,0,1,0,0,0,0,0,0,0,0,0
0,MOVE,0,Monster\Devil\Devil_walk.anim,4,1,1,0,0,0,0,0,0,0,0
0,MOVE,1,Monster\Devil\Devil_run.anim,4,1,0.9,0,0,0,0,0,0,0,0
0,ATTACK,4,Monster\Devil\Devil_att.anim,4,1,1,0,0,0.444,0,1,0,1706,0
0,BLOCKING,0,Monster\Devil\Devil_blocking.anim,10,1,0.5,0,0,0,0,0,0,0,0
0,DEFEAT,0,Monster\Devil\Devil_p.anim,10,1,0.5,0,0,0,0,0,0,0,0
0,DEFEAT,1,Monster\Devil\Devil_p.anim,10,1,0.5,0,0,0,0,0,0,0,0
0,DEFEAT,2,Monster\Devil\Devil_p.anim,10,1,0.5,0,0,0,0,0,0,0,0
0,DEFEAT,3,Monster\Devil\Devil_p.anim,10,1,0.5,0,0,0,0,0,0,0,0
0,DEAD,0,Monster\Devil\Devil_die.anim,4,1,1.5,0,0,0.1,1,0,0,1709,0
0,GUARDING,0,Monster\Devil\Devil_guard.anim,10,1,0.5,0,0,0,0,0,0,0,0
0,GUARDING,1,Monster\Devil\Devil_guard.anim,10,1,0.5,0,0,0,0,0,0,0,0
0,GUARDING,2,Monster\Devil\Devil_guard.anim,10,1,0.5,0,0,0,0,0,0,0,0
