Creature,MONSTER,,,,,,,,,,,,,
Index,7941,,,,,,,,,,,,,
Skeleton,Monster\Requion.skel,,,,,,,,,,,,,
,,,,,,,,,,,,,,
Style,Action,Index,Animation,Start_Inter,End_Inter,TimeLength,Swing,Strike,Timing,Split,Timing2,Freeze,Effect,CancelTime
0,STAND,0,Monster\Requion\Requion_stand.anim,4,1,2,0,0,0,0,0,0,0,0
0,STAND,1,Monster\Requion\Requion_cstand.anim,4,1,1,0,0,0,0,0,0,0,0
0,REVIVE,0,,0,1,0,0,0,0,0,0,0,0,0
0,MOVE,0,Monster\Requion\Requion_walk.anim,4,1,1,0,0,0,0,0,0,0,0
0,MOVE,1,Monster\Requion\Requion_run.anim,4,1,0.9,0,0,0,0,0,0,0,0
0,ATTACK,0,Monster\Requion\Requion_att01.anim,4,1,1.5,0,0,0.49,0,1,0,1732,0
0,ATTACK,1,Monster\Requion\Requion_att02.anim,4,1,2,0,0,0.58,0,1,0,1733,0
0,ATTACK,2,Monster\Requion\Requion_att03.anim,4,1,2,0,0,0.37,0,1,0,1734,0
0,BLOCKING,0,Monster\Requion\Requion_blocking.anim,10,1,0.5,0,0,0,0,0,0,0,0
0,BLOCKED,0,Monster\Requion\Requion_blocked.anim,10,1,1,0,0,0,0,0,0,0,0
0,BLOCKED,1,Monster\Requion\Requion_blocked.anim,10,1,1,0,0,0,0,0,0,0,0
0,BLOCKED,2,Monster\Requion\Requion_blocked.anim,10,1,1,0,0,0,0,0,0,0,0
0,BLOCKED,3,Monster\Requion\Requion_blocked.anim,10,1,1,0,0,0,0,0,0,0,0
0,BLOCKED,4,Monster\Requion\Requion_blocked.anim,10,1,1,0,0,0,0,0,0,0,0
0,BLOCKED,5,Monster\Requion\Requion_blocked.anim,10,1,1,0,0,0,0,0,0,0,0
0,BLOCKED,6,Monster\Requion\Requion_blocked.anim,10,1,1,0,0,0,0,0,0,0,0
0,BLOCKED,7,Monster\Requion\Requion_blocked.anim,10,1,1,0,0,0,0,0,0,0,0
0,DEFEAT,0,Monster\Requion\Requion_p.anim,10,1,0.5,0,0,0,0,0,0,0,0
0,DEFEAT,1,Monster\Requion\Requion_p.anim,10,1,0.5,0,0,0,0,0,0,0,0
0,DEFEAT,2,Monster\Requion\Requion_p.anim,10,1,0.5,0,0,0,0,0,0,0,0
0,DEFEAT,3,Monster\Requion\Requion_p.anim,10,1,0.5,0,0,0,0,0,0,0,0
0,DEAD,0,Monster\Requion\Requion_die.anim,4,1,2,0,0,0.1,1,0,0,1735,0
0,GUARDING,0,Monster\Requion\Requion_guard.anim,10,1,0.5,0,0,0,0,0,0,0,0
0,GUARDING,1,Monster\Requion\Requion_guard.anim,10,1,0.5,0,0,0,0,0,0,0,0
0,GUARDING,2,Monster\Requion\Requion_guard.anim,10,1,0.5,0,0,0,0,0,0,0,0
