Creature,MONSTER,,,,,,,,,,,,,
Index,7960,,,,,,,,,,,,,
Skeleton,monster\lemon_dragon.skel,,,,,,,,,,,,,
,,,,,,,,,,,,,,
Style,Action,Index,Animation,Start_Inter,End_Inter,TimeLength,Swing,Strike,Timing,Split,Timing2,Freeze,Effect,CancelTime
0,STAND,0,Monster\lemon_dragon\lemon_dragon_stand.anim,1,1,4,0,0,0,0,0,0,0,0
0,STAND,1,Monster\lemon_dragon\lemon_dragon_cstand.anim,1,1,1,0,0,0,0,0,0,0,0
0,REVIVE,0,,0,1,0,0,0,0,0,0,0,0,0
0,MOVE,0,Monster\lemon_dragon\lemon_dragon_walk.anim,1,1,1,0,0,0,0,0,0,0,0
0,MOVE,1,Monster\lemon_dragon\lemon_dragon_crun.anim,1,1,0.8,0,0,0,0,0,0,0,0
0,ATTACK,0,Monster\lemon_dragon\lemon_dragon_att1.anim,4,1,2,0,0,0.42,0,1,0,1741,0
0,BLOCKING,0,Monster\lemon_dragon\lemon_dragon_blocking.anim,10,1,0.5,0,0,0,0,0,0,0,0
0,BLOCKED,0,Monster\lemon_dragon\lemon_dragon_blocked.anim,10,1,1,0,0,0,0,0,0,0,0
0,BLOCKED,1,Monster\lemon_dragon\lemon_dragon_blocked.anim,10,1,1,0,0,0,0,0,0,0,0
0,BLOCKED,2,Monster\lemon_dragon\lemon_dragon_blocked.anim,10,1,1,0,0,0,0,0,0,0,0
0,BLOCKED,3,Monster\lemon_dragon\lemon_dragon_blocked.anim,10,1,1,0,0,0,0,0,0,0,0
0,BLOCKED,4,Monster\lemon_dragon\lemon_dragon_blocked.anim,10,1,1,0,0,0,0,0,0,0,0
0,BLOCKED,5,Monster\lemon_dragon\lemon_dragon_blocked.anim,10,1,1,0,0,0,0,0,0,0,0
0,BLOCKED,6,Monster\lemon_dragon\lemon_dragon_blocked.anim,10,1,1,0,0,0,0,0,0,0,0
0,BLOCKED,7,Monster\lemon_dragon\lemon_dragon_blocked.anim,10,1,1,0,0,0,0,0,0,0,0
0,DEFEAT,0,Monster\lemon_dragon\lemon_dragon_p.anim,5,1,0.5,0,0,0,0,0,0,0,0
0,DEFEAT,1,Monster\lemon_dragon\lemon_dragon_p.anim,5,1,0.5,0,0,0,0,0,0,0,0
0,DEFEAT,2,Monster\lemon_dragon\lemon_dragon_p.anim,5,1,0.5,0,0,0,0,0,0,0,0
0,DEFEAT,3,Monster\lemon_dragon\lemon_dragon_p.anim,5,1,0.5,0,0,0,0,0,0,0,0
0,DEAD,0,Monster\lemon_dragon\lemon_dragon_die.anim,4,1,2.5,0,0,0.1,1,0,0,1742,0
0,GUARDING,0,monster\lemon_dragon\lemon_dragon_guard.anim,10,1,0.5,0,0,0,0,0,0,0,0
0,GUARDING,1,monster\lemon_dragon\lemon_dragon_guard.anim,10,1,0.5,0,0,0,0,0,0,0,0
0,GUARDING,2,monster\lemon_dragon\lemon_dragon_guard.anim,10,1,0.5,0,0,0,0,0,0,0,0
