Creature,MONSTER,,,,,,,,,,,,,,,,
Index,7988,,,,,,,,,,,,,,,,
Skeleton,Monster\Mitera_Tairique.skel,,,,,,,,,,,,,,,,
,,,,,,,,,,,,,,,,,
Style,Action,Index,Animation,Start_Inter,End_Inter,TimeLength,Swing,Strike,Timing,Split,Timing2,Freeze,Effect,CancelTime,Default,Intersect,Through
0,STAND,0,Monster\Tairique\Tairique_stand.anim,4,1,3,0,0,0,0,0,0,0,0,0,0,0
0,STAND,1,Monster\Tairique\Tairique_Cstand.anim,4,1,1,0,0,0,0,0,0,0,0,0,0,0
0,REVIVE,0,,0,1,0,0,0,0,0,0,0,0,0,0,0,0
0,MOVE,0,Monster\Tairique\Tairique_Walk.anim,4,1,1.3,0,0,0,0,0,0,0,0,0,0,0
0,MOVE,1,Monster\Tairique\Tairique_Run.anim,4,1,1.2,0,0,0,0,0,0,0,0,0,0,0
0,ATTACK,0,Monster\Tairique\Tairique_att_01.anim,4,1,2.3,0,0,0.5,0,1,0,1656,0,0,0,0
0,ATTACK,1,Monster\Tairique\Tairique_att_02.anim,4,1,3.5,0,0,0.47,0,1,0,1657,0,0,0,0
0,ATTACK,2,Monster\Tairique\Tairique_att_03.anim,4,1,5.3,0,0,0.65,0,1,0,1658,0,0,0,0
0,BLOCKING,0,Monster\Tairique\Tairique_p1.anim,10,1,0.5,0,0,0,0,0,0,0,0,0,0,0
0,BLOCKED,0,Monster\Tairique\Tairique_p1.anim,10,1,0.5,0,0,0,0,0,0,0,0,0,0,0
0,BLOCKED,1,Monster\Tairique\Tairique_p1.anim,10,1,0.5,0,0,0,0,0,0,0,0,0,0,0
0,BLOCKED,2,Monster\Tairique\Tairique_p1.anim,10,1,0.5,0,0,0,0,0,0,0,0,0,0,0
0,BLOCKED,3,Monster\Tairique\Tairique_p1.anim,10,1,0.5,0,0,0,0,0,0,0,0,0,0,0
0,BLOCKED,4,Monster\Tairique\Tairique_p1.anim,10,1,0.5,0,0,0,0,0,0,0,0,0,0,0
0,BLOCKED,5,Monster\Tairique\Tairique_p1.anim,10,1,0.5,0,0,0,0,0,0,0,0,0,0,0
0,BLOCKED,6,Monster\Tairique\Tairique_p1.anim,10,1,0.5,0,0,0,0,0,0,0,0,0,0,0
0,BLOCKED,7,Monster\Tairique\Tairique_p1.anim,10,1,0.5,0,0,0,0,0,0,0,0,0,0,0
0,DEFEAT,0,Monster\Tairique\Tairique_p1.anim,10,1,0.5,0,0,0,0,0,0,0,0,0,0,0
0,DEFEAT,1,Monster\Tairique\Tairique_p1.anim,10,1,0.5,0,0,0,0,0,0,0,0,0,0,0
0,DEFEAT,2,Monster\Tairique\Tairique_p1.anim,10,1,0.5,0,0,0,0,0,0,0,0,0,0,0
0,DEFEAT,3,Monster\Tairique\Tairique_p1.anim,10,1,0.5,0,0,0,0,0,0,0,0,0,0,0
0,DEAD,0,Monster\Tairique\Tairique_die.anim,4,1,5.6,0,0,0.1,1,0,0,1659,0,0,0,0
0,GUARDING,0,Monster\Tairique\Tairique_p1.anim,10,1,0.5,0,0,0,0,0,0,0,0,0,0,0
0,GUARDING,1,Monster\Tairique\Tairique_p1.anim,10,1,0.5,0,0,0,0,0,0,0,0,0,0,0
0,GUARDING,2,Monster\Tairique\Tairique_p1.anim,10,1,0.5,0,0,0,0,0,0,0,0,0,0,0
