Creature,MONSTER,,,,,,,,,,,,,
Index,8059,,,,,,,,,,,,,
Skeleton,Monster\Seleana.skel,,,,,,,,,,,,,
,,,,,,,,,,,,,,
Style,Action,Index,Animation,Start_Inter,End_Inter,TimeLength,Swing,Strike,Timing,Split,Timing2,Freeze,Effect,CancelTime
0,STAND,0,Monster\Seleana\Seleana_stand.anim,1,1,1.4,0,0,0,0,0,0,0,0
0,STAND,1,Monster\Seleana\Seleana_cstand.anim,1,1,1.2,0,0,0,0,0,0,0,0
0,MOVE,0,Monster\Seleana\Seleana_walk.anim,1,1,1.4,0,0,0,0,0,0,0,0
0,MOVE,1,Monster\Seleana\Seleana_crun.anim,1,1,1.2,0,0,0,0,0,0,0,0
0,ATTACK,10,Monster\Seleana\Seleana_att01.anim,4,1,2.3,0,0,0.34,0,1,0,1101,0
0,ATTACK,11,Monster\Seleana\Seleana_att02.anim,4,1,2.5,0,0,0.5,0,1,0,1102,0
0,ATTACK,12,Monster\Seleana\Seleana_att03.anim,4,1,1.7,0,0,0.49,0,1,0,1103,0
0,ATTACK,2,Monster\Seleana\Seleana_att04.anim,4,1,12,0,0,0.62,0,1,0,1104,0
0,BLOCKING,0,Monster\Seleana\Seleana_blocking.anim,10,1,0.5,0,0,0,0,0,0,0,0
0,BLOCKED,0,Monster\Seleana\Seleana_blocked.anim,10,1,1,0,0,0,0,0,0,0,0
0,BLOCKED,1,Monster\Seleana\Seleana_blocked.anim,10,1,1,0,0,0,0,0,0,0,0
0,BLOCKED,2,Monster\Seleana\Seleana_blocked.anim,10,1,1,0,0,0,0,0,0,0,0
0,BLOCKED,3,Monster\Seleana\Seleana_blocked.anim,10,1,1,0,0,0,0,0,0,0,0
0,BLOCKED,4,Monster\Seleana\Seleana_blocked.anim,10,1,1,0,0,0,0,0,0,0,0
0,BLOCKED,5,Monster\Seleana\Seleana_blocked.anim,10,1,1,0,0,0,0,0,0,0,0
0,BLOCKED,6,Monster\Seleana\Seleana_blocked.anim,10,1,1,0,0,0,0,0,0,0,0
0,BLOCKED,7,Monster\Seleana\Seleana_blocked.anim,10,1,1,0,0,0,0,0,0,0,0
0,DEFEAT,0,Monster\Seleana\Seleana_p3.anim,5,1,0.5,0,0,0,0,0,0,0,0
0,DEFEAT,1,Monster\Seleana\Seleana_p3.anim,5,1,0.5,0,0,0,0,0,0,0,0
0,DEFEAT,2,Monster\Seleana\Seleana_p3.anim,5,1,0.5,0,0,0,0,0,0,0,0
0,DEFEAT,3,Monster\Seleana\Seleana_p3.anim,5,1,0.5,0,0,0,0,0,0,0,0
0,DEAD,0,Monster\Seleana\Seleana_die.anim,4,1,3,0,0,0.1,1,0,0,1100,0
0,GUARDING,0,monster\Seleana\Seleana_guard3.anim,10,1,0.5,0,0,0,0,0,0,0,0
0,GUARDING,1,monster\Seleana\Seleana_guard3.anim,10,1,0.5,0,0,0,0,0,0,0,0
0,GUARDING,2,monster\Seleana\Seleana_guard3.anim,10,1,0.5,0,0,0,0,0,0,0,0
