Creature,MONSTER,,,,,,,,,,,,,,,,
Index,8514,,,,,,,,,,,,,,,,
Skeleton,Monster\Dragon_Knight_Sword.skel,,,,,,,,,,,,,,,,
,,,,,,,,,,,,,,,,,
Style,Action,Index,Animation,Start_Inter,End_Inter,TimeLength,Swing,Strike,Timing,Split,Timing2,Freeze,Effect,CancelTime,Default,Intersect,Through
0,STAND,0,Monster\Dragon_Knight_Sword\Dragon_Knight_Sword_stand.anim,4,1,4,0,0,0,0,0,0,0,0,0,0,0
0,STAND,1,Monster\Dragon_Knight_Sword\Dragon_Knight_Sword_cstand.anim,4,1,1,0,0,0,0,0,0,0,0,0,0,0
0,REVIVE,0,,0,1,0,0,0,0,0,0,0,0,0,0,0,0
0,MOVE,0,Monster\Dragon_Knight_Sword\Dragon_Knight_Sword_walk.anim,4,1,1,0,0,0,0,0,0,0,0,0,0,0
0,MOVE,1,Monster\Dragon_Knight_Sword\Dragon_Knight_Sword_crun.anim,4,1,0.9,0,0,0,0,0,0,0,0,0,0,0
0,ATTACK,0,Monster\Dragon_Knight_Sword\Dragon_Knight_Sword_att1.anim,4,1,1.4,0,0,0.48,0,1,0,1609,0,0,0,0
0,ATTACK,1,Monster\Dragon_Knight_Sword\Dragon_Knight_Sword_att2.anim,4,1,1.5,0,0,0.3,0,1,0,1610,0,0,0,0
0,BLOCKING,0,Monster\Dragon_Knight_Sword\Dragon_Knight_Sword_blocking.anim,10,1,0.5,0,0,0,0,0,0,0,0,0,0,0
0,BLOCKED,0,Monster\Dragon_Knight_Sword\Dragon_Knight_Sword_blocked.anim,10,1,1,0,0,0,0,0,0,0,0,0,0,0
0,BLOCKED,1,Monster\Dragon_Knight_Sword\Dragon_Knight_Sword_blocked.anim,10,1,1,0,0,0,0,0,0,0,0,0,0,0
0,BLOCKED,2,Monster\Dragon_Knight_Sword\Dragon_Knight_Sword_blocked.anim,10,1,1,0,0,0,0,0,0,0,0,0,0,0
0,BLOCKED,3,Monster\Dragon_Knight_Sword\Dragon_Knight_Sword_blocked.anim,10,1,1,0,0,0,0,0,0,0,0,0,0,0
0,BLOCKED,4,Monster\Dragon_Knight_Sword\Dragon_Knight_Sword_blocked.anim,10,1,1,0,0,0,0,0,0,0,0,0,0,0
0,BLOCKED,5,Monster\Dragon_Knight_Sword\Dragon_Knight_Sword_blocked.anim,10,1,1,0,0,0,0,0,0,0,0,0,0,0
0,BLOCKED,6,Monster\Dragon_Knight_Sword\Dragon_Knight_Sword_blocked.anim,10,1,1,0,0,0,0,0,0,0,0,0,0,0
0,BLOCKED,7,Monster\Dragon_Knight_Sword\Dragon_Knight_Sword_blocked.anim,10,1,1,0,0,0,0,0,0,0,0,0,0,0
0,DEFEAT,0,Monster\Dragon_Knight_Sword\Dragon_Knight_Sword_p1.anim,10,1,0.5,0,0,0,0,0,0,0,0,0,0,0
0,DEFEAT,1,Monster\Dragon_Knight_Sword\Dragon_Knight_Sword_p2.anim,10,1,0.5,0,0,0,0,0,0,0,0,0,0,0
0,DEFEAT,2,Monster\Dragon_Knight_Sword\Dragon_Knight_Sword_p3.anim,10,1,0.5,0,0,0,0,0,0,0,0,0,0,0
0,DEFEAT,3,Monster\Dragon_Knight_Sword\Dragon_Knight_Sword_p4.anim,10,1,0.5,0,0,0,0,0,0,0,0,0,0,0
0,DEAD,0,Monster\Dragon_Knight_Sword\Dragon_Knight_Sword_die.anim,4,1,3,0,0,0.1,1,0,0,1612,0,0,0,0
0,GUARDING,0,Monster\Dragon_Knight_Sword\Dragon_Knight_Sword_guard1.anim,10,1,0.4,0,0,0,0,0,0,0,0,0,0,0
0,GUARDING,1,Monster\Dragon_Knight_Sword\Dragon_Knight_Sword_guard2.anim,10,1,0.4,0,0,0,0,0,0,0,0,0,0,0
0,GUARDING,2,Monster\Dragon_Knight_Sword\Dragon_Knight_Sword_guard3.anim,10,1,0.4,0,0,0,0,0,0,0,0,0,0,0
