Creature,MONSTER,,,,,,,,,,,,,
Index,5090,,,,,,,,,,,,,
Skeleton,Monster\Laurelin.skel,,,,,,,,,,,,,
,,,,,,,,,,,,,,
Style,Action,Index,Animation,Start_Inter,End_Inter,TimeLength,Swing,Strike,Timing,Split,Timing2,Freeze,Effect,CancelTime
0,STAND,0,Monster\Laurelin\Laurelin_cstand.anim,4,1,2,0,0,0,0,0,0,0,0
0,STAND,1,Monster\Laurelin\Laurelin_stand.anim,4,1,1,0,0,0,0,0,0,0,0
0,REVIVE,0,Monster\Laurelin\Laurelin_att2.anim,4,1,2,0,0,0.6,0,1,0,771,0
0,MOVE,0,Monster\Laurelin\Laurelin_walk.anim,4,1,1.1,0,0,0,0,0,0,0,0
0,MOVE,1,Monster\Laurelin\Laurelin_crun.anim,4,1,1,0,0,0,0,0,0,0,0
0,ATTACK,0,Monster\Laurelin\Laurelin_att1.anim,4,1,2,0,0,0.43,0,1,0,770,0
0,ATTACK,1,Monster\Laurelin\Laurelin_att2.anim,4,1,2,0,0,0.01,0,1,0,771,0
0,ATTACK,2,Monster\Laurelin\Laurelin_att3.anim,4,1,2.5,0,0,0.51,0,1,0,772,0
0,BLOCKING,0,Monster\Laurelin\Laurelin_blocking.anim,10,1,0.5,0,0,0,0,0,0,0,0
0,BLOCKED,0,Monster\Laurelin\Laurelin_blocked.anim,10,1,1,0,0,0,0,0,0,0,0
0,BLOCKED,1,Monster\Laurelin\Laurelin_blocked.anim,10,1,1,0,0,0,0,0,0,0,0
0,BLOCKED,2,Monster\Laurelin\Laurelin_blocked.anim,10,1,1,0,0,0,0,0,0,0,0
0,BLOCKED,3,Monster\Laurelin\Laurelin_blocked.anim,10,1,1,0,0,0,0,0,0,0,0
0,BLOCKED,4,Monster\Laurelin\Laurelin_blocked.anim,10,1,1,0,0,0,0,0,0,0,0
0,BLOCKED,5,Monster\Laurelin\Laurelin_blocked.anim,10,1,1,0,0,0,0,0,0,0,0
0,BLOCKED,6,Monster\Laurelin\Laurelin_blocked.anim,10,1,1,0,0,0,0,0,0,0,0
0,BLOCKED,7,Monster\Laurelin\Laurelin_blocked.anim,10,1,1,0,0,0,0,0,0,0,0
0,DEFEAT,0,Monster\Laurelin\Laurelin_p4.anim,10,1,0.5,0,0,0,0,0,0,0,0
0,DEFEAT,1,Monster\Laurelin\Laurelin_p4.anim,10,1,0.5,0,0,0,0,0,0,0,0
0,DEFEAT,2,Monster\Laurelin\Laurelin_p4.anim,10,1,0.5,0,0,0,0,0,0,0,0
0,DEFEAT,3,Monster\Laurelin\Laurelin_p4.anim,10,1,0.5,0,0,0,0,0,0,0,0
0,DEAD,0,Monster\Laurelin\Laurelin_die.anim,4,1,4,0,0,0.1,1,0,0,798,0
0,GUARDING,0,Monster\Laurelin\Laurelin_guard3.anim,10,1,0.5,0,0,0,0,0,0,0,0
0,GUARDING,1,Monster\Laurelin\Laurelin_guard3.anim,10,1,0.5,0,0,0,0,0,0,0,0
0,GUARDING,2,Monster\Laurelin\Laurelin_guard3.anim,10,1,0.5,0,0,0,0,0,0,0,0
