Creature,MONSTER,,,,,,,,,,,,,
Index,5091,,,,,,,,,,,,,
Skeleton,Monster\ungoliant.skel,,,,,,,,,,,,,
,,,,,,,,,,,,,,
Style,Action,Index,Animation,Start_Inter,End_Inter,TimeLength,Swing,Strike,Timing,Split,Timing2,Freeze,Effect,CancelTime
0,STAND,0,Monster\ungoliant\ungoliant_stand.anim,4,1,6.8,0,0,0,0,0,0,0,0
0,STAND,1,Monster\ungoliant\ungoliant_cstand.anim,4,1,1.3,0,0,0,0,0,0,0,0
0,REVIVE,0,Monster\ungoliant\ungoliant_att02.anim,4,1,2.2,0,0,0.6,0,1,0,782,0
0,MOVE,0,Monster\ungoliant\ungoliant_walk.anim,4,1,1.2,0,0,0,0,0,0,0,0
0,MOVE,1,Monster\ungoliant\ungoliant_crun.anim,4,1,1,0,0,0,0,0,0,0,0
0,ATTACK,0,Monster\ungoliant\ungoliant_att01.anim,4,1,1.3,0,0,0.5,0,1,0,781,0
0,ATTACK,1,Monster\ungoliant\ungoliant_att02.anim,4,1,2.2,0,0,0.6,0,1,0,782,0
0,ATTACK,2,Monster\ungoliant\ungoliant_att03.anim,4,1,3,0,0,0.65,0,1,0,783,0
0,BLOCKING,0,Monster\ungoliant\ungoliant_blocking.anim,10,1,0.5,0,0,0,0,0,0,0,0
0,BLOCKED,0,Monster\ungoliant\ungoliant_blocked.anim,10,1,1,0,0,0,0,0,0,0,0
0,BLOCKED,1,Monster\ungoliant\ungoliant_blocked.anim,10,1,1,0,0,0,0,0,0,0,0
0,BLOCKED,2,Monster\ungoliant\ungoliant_blocked.anim,10,1,1,0,0,0,0,0,0,0,0
0,BLOCKED,3,Monster\ungoliant\ungoliant_blocked.anim,10,1,1,0,0,0,0,0,0,0,0
0,BLOCKED,4,Monster\ungoliant\ungoliant_blocked.anim,10,1,1,0,0,0,0,0,0,0,0
0,BLOCKED,5,Monster\ungoliant\ungoliant_blocked.anim,10,1,1,0,0,0,0,0,0,0,0
0,BLOCKED,6,Monster\ungoliant\ungoliant_blocked.anim,10,1,1,0,0,0,0,0,0,0,0
0,BLOCKED,7,Monster\ungoliant\ungoliant_blocked.anim,10,1,1,0,0,0,0,0,0,0,0
0,DEFEAT,0,Monster\ungoliant\ungoliant_p4.anim,10,1,0.5,0,0,0,0,0,0,0,0
0,DEFEAT,1,Monster\ungoliant\ungoliant_p4.anim,10,1,0.5,0,0,0,0,0,0,0,0
0,DEFEAT,2,Monster\ungoliant\ungoliant_p4.anim,10,1,0.5,0,0,0,0,0,0,0,0
0,DEFEAT,3,Monster\ungoliant\ungoliant_p4.anim,10,1,0.5,0,0,0,0,0,0,0,0
0,DEAD,0,Monster\ungoliant\ungoliant_die.anim,4,1,3.5,0,0,0.1,1,0,0,796,0
0,GUARDING,0,Monster\ungoliant\ungoliant_guard3.anim,10,1,0.5,0,0,0,0,0,0,0,0
0,GUARDING,1,Monster\ungoliant\ungoliant_guard3.anim,10,1,0.5,0,0,0,0,0,0,0,0
0,GUARDING,2,Monster\ungoliant\ungoliant_guard3.anim,10,1,0.5,0,0,0,0,0,0,0,0
