Creature,MONSTER,,,,,,,,,,,,,
Index,5093,,,,,,,,,,,,,
Skeleton,Monster\frostmane_yeti.skel,,,,,,,,,,,,,
,,,,,,,,,,,,,,
Style,Action,Index,Animation,Start_Inter,End_Inter,TimeLength,Swing,Strike,Timing,Split,Timing2,Freeze,Effect,CancelTime
0,STAND,0,Monster\frostmane_yeti\frostmane_yeti_stand.anim,4,1,4,0,0,0,0,0,0,0,0
0,STAND,1,Monster\frostmane_yeti\frostmane_yeti_stand.anim,4,1,1.3,0,0,0,0,0,0,0,0
0,REVIVE,0,Monster\frostmane_yeti\frostmane_yeti_att02.anim,4,1,1.6,0,0,0.25,0,1,0,0,0
0,MOVE,0,Monster\frostmane_yeti\frostmane_yeti_walk.anim,4,1,1,0,0,0,0,0,0,0,0
0,MOVE,1,Monster\frostmane_yeti\frostmane_yeti_run.anim,4,1,0.8,0,0,0,0,0,0,0,0
0,ATTACK,0,Monster\frostmane_yeti\frostmane_yeti_att01.anim,4,1,1.8,0,0,0.4,0,1,0,792,0
0,ATTACK,1,Monster\frostmane_yeti\frostmane_yeti_att02.anim,4,1,2.3,0,0,0.33,0,1,0,793,0
0,BLOCKING,0,Monster\frostmane_yeti\frostmane_yeti_blocking.anim,10,1,0.5,0,0,0,0,0,0,0,0
0,BLOCKED,0,Monster\frostmane_yeti\frostmane_yeti_blocked.anim,10,1,1,0,0,0,0,0,0,0,0
0,BLOCKED,1,Monster\frostmane_yeti\frostmane_yeti_blocked.anim,10,1,1,0,0,0,0,0,0,0,0
0,BLOCKED,2,Monster\frostmane_yeti\frostmane_yeti_blocked.anim,10,1,1,0,0,0,0,0,0,0,0
0,BLOCKED,3,Monster\frostmane_yeti\frostmane_yeti_blocked.anim,10,1,1,0,0,0,0,0,0,0,0
0,BLOCKED,4,Monster\frostmane_yeti\frostmane_yeti_blocked.anim,10,1,1,0,0,0,0,0,0,0,0
0,BLOCKED,5,Monster\frostmane_yeti\frostmane_yeti_blocked.anim,10,1,1,0,0,0,0,0,0,0,0
0,BLOCKED,6,Monster\frostmane_yeti\frostmane_yeti_blocked.anim,10,1,1,0,0,0,0,0,0,0,0
0,BLOCKED,7,Monster\frostmane_yeti\frostmane_yeti_blocked.anim,10,1,1,0,0,0,0,0,0,0,0
0,DEFEAT,0,Monster\frostmane_yeti\frostmane_yeti_p4.anim,10,1,0.5,0,0,0,0,0,0,0,0
0,DEFEAT,1,Monster\frostmane_yeti\frostmane_yeti_p4.anim,10,1,0.5,0,0,0,0,0,0,0,0
0,DEFEAT,2,Monster\frostmane_yeti\frostmane_yeti_p4.anim,10,1,0.5,0,0,0,0,0,0,0,0
0,DEFEAT,3,Monster\frostmane_yeti\frostmane_yeti_p4.anim,10,1,0.5,0,0,0,0,0,0,0,0
0,DEAD,0,Monster\frostmane_yeti\frostmane_yeti_die.anim,4,1,2,0,0,1,0,0,0,0,0
0,GUARDING,0,Monster\frostmane_yeti\frostmane_yeti_guard3.anim,10,1,0.5,0,0,0,0,0,0,0,0
0,GUARDING,1,Monster\frostmane_yeti\frostmane_yeti_guard3.anim,10,1,0.5,0,0,0,0,0,0,0,0
0,GUARDING,2,Monster\frostmane_yeti\frostmane_yeti_guard3.anim,10,1,0.5,0,0,0,0,0,0,0,0
