Creature,MONSTER,,,,,,,,,,,,,
Index,8473,,,,,,,,,,,,,
Skeleton,Monster\Eris_Monkey.skel,,,,,,,,,,,,,
,,,,,,,,,,,,,,
Style,Action,Index,Animation,Start_Inter,End_Inter,TimeLength,Swing,Strike,Timing,Split,Timing2,Freeze,Effect,CancelTime
0,STAND,0,Monster\Eris_Monkey\Eris_Monkey_stand.anim,1,1,4,0,0,0,0,0,0,0,0
0,STAND,1,Monster\Eris_Monkey\Eris_Monkey_stand.anim,1,1,1.2,0,0,0,0,0,0,0,0
0,REVIVE,0,,0,1,0,0,0,0,0,0,0,0,0
0,MOVE,0,Monster\Eris_Monkey\Eris_Monkey_walk.anim,1,1,1.5,0,0,0,0,0,0,0,0
0,MOVE,1,Monster\Eris_Monkey\Eris_Monkey_crun.anim,1,1,0.9,0,0,0,0,0,0,0,0
0,ATTACK,0,Monster\Eris_Monkey\Eris_Monkey_att1.anim,4,1,1.3,0,0,0.7,0,1,0,90,0
0,ATTACK,2,Monster\Eris_Monkey\Eris_Monkey_att2.anim,4,1,1.5,0,0,0.55,0,1,0,90,0
0,BLOCKING,0,Monster\Eris_Monkey\Eris_Monkey_blocking.anim,10,1,0.5,0,0,0,0,0,0,0,0
0,BLOCKED,0,Monster\Eris_Monkey\Eris_Monkey_blocked.anim,10,1,1,0,0,0,0,0,0,0,0
0,BLOCKED,1,Monster\Eris_Monkey\Eris_Monkey_blocked.anim,10,1,1,0,0,0,0,0,0,0,0
0,BLOCKED,2,Monster\Eris_Monkey\Eris_Monkey_blocked.anim,10,1,1,0,0,0,0,0,0,0,0
0,BLOCKED,3,Monster\Eris_Monkey\Eris_Monkey_blocked.anim,10,1,1,0,0,0,0,0,0,0,0
0,BLOCKED,4,Monster\Eris_Monkey\Eris_Monkey_blocked.anim,10,1,1,0,0,0,0,0,0,0,0
0,BLOCKED,5,Monster\Eris_Monkey\Eris_Monkey_blocked.anim,10,1,1,0,0,0,0,0,0,0,0
0,BLOCKED,6,Monster\Eris_Monkey\Eris_Monkey_blocked.anim,10,1,1,0,0,0,0,0,0,0,0
0,BLOCKED,7,Monster\Eris_Monkey\Eris_Monkey_blocked.anim,10,1,1,0,0,0,0,0,0,0,0
0,DEFEAT,0,Monster\Eris_Monkey\Eris_Monkey_p.anim,5,1,0.5,0,0,0,0,0,0,0,0
0,DEFEAT,1,Monster\Eris_Monkey\Eris_Monkey_p.anim,5,1,0.5,0,0,0,0,0,0,0,0
0,DEFEAT,2,Monster\Eris_Monkey\Eris_Monkey_p.anim,5,1,0.5,0,0,0,0,0,0,0,0
0,DEFEAT,3,Monster\Eris_Monkey\Eris_Monkey_p.anim,5,1,0.5,0,0,0,0,0,0,0,0
0,DEAD,0,Monster\Eris_Monkey\Eris_Monkey_die.anim,4,1,2,0,0,0.1,1,0,0,0,0
0,GUARDING,0,Monster\Eris_Monkey\Eris_Monkey_guard.anim,10,1,0.5,0,0,0,0,0,0,0,0
0,GUARDING,1,Monster\Eris_Monkey\Eris_Monkey_guard.anim,10,1,0.5,0,0,0,0,0,0,0,0
0,GUARDING,2,Monster\Eris_Monkey\Eris_Monkey_guard.anim,10,1,0.5,0,0,0,0,0,0,0,0
