Creature,MONSTER,,,,,,,,,,,,,
Index,7802,,,,,,,,,,,,,
Skeleton,Monster\gold_pot.skel,,,,,,,,,,,,,
,,,,,,,,,,,,,,
Style,Action,Index,Animation,Start_Inter,End_Inter,TimeLength,Swing,Strike,Timing,Split,Timing2,Freeze,Effect,CancelTime
0,STAND,0,Monster\gold_pot\gold_pot_stand.anim,1,1,2,0,0,0,0,0,0,0,0
0,STAND,1,Monster\gold_pot\gold_pot_stand.anim,1,1,2,0,0,0,0,0,0,0,0
0,MOVE,0,Monster\gold_pot\gold_pot_walk.anim,1,1,1,0,0,0,0,0,0,0,0
0,MOVE,1,Monster\gold_pot\gold_pot_run.anim,1,1,1,0,0,0,0,0,0,0,0
0,DEAD,0,Monster\gold_pot\gold_pot_die.anim,4,1,2,0,0,0.1,1,0,0,1693,0
