Creature,MONSTER,,,,,,,,,,,,,
Index,2762,,,,,,,,,,,,,
Skeleton,Monster\demon_fafnir.skel,,,,,,,,,,,,,

Style,Action,Index,Animation,Start_Inter,End_Inter,TimeLength,Swing,Strike,Timing,Split,Timing2,Freeze,Effect,CancelTime
0,STAND,0,Monster\demon_fafnir\demon_fafnir_stand.anim,1,1,2,0,0,0,0,0,0,0,0
0,STAND,1,Monster\demon_fafnir\demon_fafnir_cstand.anim,1,1,1,0,0,0,0,0,0,0,0
0,REVIVE,0,,0,1,0,0,0,0,0,0,0,0,0
0,MOVE,0,Monster\fafnir\fafnir_walk.anim,1,1,1,0,0,0,0,0,0,0,0
0,MOVE,1,Monster\fafnir\fafnir_crun.anim,1,1,1,0,0,0,0,0,0,0,0
0,ATTACK,12,Monster\fafnir\fafnir_att07.anim,4,1,1.3,0,0,0.5,0,1,0,851,0
0,ATTACK,11,Monster\fafnir\fafnir_att04.anim,4,1,1.3,0,0,0.43,0,1,0,848,0
0,ATTACK,10,Monster\fafnir\fafnir_att05.anim,4,1,1.3,0,0,0.43,0,1,0,849,0
0,ATTACK,1,Monster\fafnir\fafnir_att06.anim,4,1,1.6,0,0,0.4,0,1,0,850,0
0,ATTACK,2,Monster\demon_fafnir\demon_fafnir_att03.anim,4,1,4,0,0,0.41,0,1,0,140,0
0,BLOCKING,0,Monster\demon_fafnir\demon_fafnir_blocking.anim,10,1,0.5,0,0,0,0,0,0,0,0
0,BLOCKED,0,Monster\demon_fafnir\demon_fafnir_blocking.anim,10,1,1,0,0,0,0,0,0,0,0
0,BLOCKED,1,Monster\demon_fafnir\demon_fafnir_blocking.anim,10,1,1,0,0,0,0,0,0,0,0
0,BLOCKED,2,Monster\demon_fafnir\demon_fafnir_blocking.anim,10,1,1,0,0,0,0,0,0,0,0
0,BLOCKED,3,Monster\demon_fafnir\demon_fafnir_blocking.anim,10,1,1,0,0,0,0,0,0,0,0
0,BLOCKED,4,Monster\demon_fafnir\demon_fafnir_blocking.anim,10,1,1,0,0,0,0,0,0,0,0
0,BLOCKED,5,Monster\demon_fafnir\demon_fafnir_blocking.anim,10,1,1,0,0,0,0,0,0,0,0
0,BLOCKED,6,Monster\demon_fafnir\demon_fafnir_blocking.anim,10,1,1,0,0,0,0,0,0,0,0
0,BLOCKED,7,Monster\demon_fafnir\demon_fafnir_blocking.anim,10,1,1,0,0,0,0,0,0,0,0
0,DEFEAT,0,Monster\demon_fafnir\demon_fafnir_p4.anim,5,1,0.5,0,0,0,0,0,0,0,0
0,DEFEAT,1,Monster\demon_fafnir\demon_fafnir_p4.anim,5,1,0.5,0,0,0,0,0,0,0,0
0,DEFEAT,2,Monster\demon_fafnir\demon_fafnir_p4.anim,5,1,0.5,0,0,0,0,0,0,0,0
0,DEFEAT,3,Monster\demon_fafnir\demon_fafnir_p4.anim,5,1,0.5,0,0,0,0,0,0,0,0
0,DEAD,0,Monster\demon_fafnir\demon_fafnir_die.anim,4,1,2.6,0,0,0.1,1,0,0,141,0
0,GUARDING,0,monster\demon_fafnir\demon_fafnir_guard3.anim,10,1,0.5,0,0,0,0,0,0,0,0
0,GUARDING,1,monster\demon_fafnir\demon_fafnir_guard3.anim,10,1,0.5,0,0,0,0,0,0,0,0
0,GUARDING,2,monster\demon_fafnir\demon_fafnir_guard3.anim,10,1,0.5,0,0,0,0,0,0,0,0
