Creature,MONSTER,,,,,,,,,,,,,
Index,2761,,,,,,,,,,,,,
Skeleton,Monster\elifea.skel,,,,,,,,,,,,,
,,,,,,,,,,,,,,
Style,Action,Index,Animation,Start_Inter,End_Inter,TimeLength,Swing,Strike,Timing,Split,Timing2,Freeze,Effect,CancelTime
0,STAND,0,Monster\elifea\elifea_stand.anim,4,1,3,0,0,0,0,0,0,0,0
0,STAND,1,Monster\elifea\elifea_stand.anim,4,1,1.33,0,0,0,0,0,0,0,0
0,REVIVE,0,,0,1,0,0,0,0,0,0,0,0,0
0,MOVE,0,Monster\elifea\elifea_walk.anim,4,1,1,0,0,0,0,0,0,0,0
0,MOVE,1,Monster\elifea\elifea_run.anim,4,1,1,0,0,0,0,0,0,0,0
0,ATTACK,10,Monster\elifea\elifea_att01.anim,4,1,1.5,0,0,0.6,0,1,0,159,0
0,ATTACK,1,Monster\elifea\elifea_att02.anim,4,1,3.3,0,0,0.72,0,1,0,160,0
0,ATTACK,2,Monster\elifea\elifea_att03.anim,4,1,4,0,0,0.5,0,1,0,161,0
0,ATTACK,8,Monster\elifea\elifea_att04.anim,4,1,1.5,0,0,0.7,0,1,0,809,0
0,BLOCKED,0,Monster\elifea\elifea_blocked.anim,10,1,1,0,0,0,0,0,0,0,0
0,BLOCKING,0,Monster\elifea\elifea_blocking.anim,10,1,0.5,0,0,0,0,0,0,0,0
0,DEFEAT,0,Monster\elifea\elifea_p4.anim,10,1,0.5,0,0,0,0,0,0,0,0
0,DEFEAT,1,Monster\elifea\elifea_p4.anim,10,1,0.5,0,0,0,0,0,0,0,0
0,DEFEAT,2,Monster\elifea\elifea_p4.anim,10,1,0.5,0,0,0,0,0,0,0,0
0,DEFEAT,3,Monster\elifea\elifea_p4.anim,10,1,0.5,0,0,0,0,0,0,0,0
0,DEAD,0,Monster\elifea\elifea_die.anim,4,1,3,0,0,0.1,1,0,0,46,0
0,GUARDING,0,Monster\elifea\elifea_guard3.anim,10,1,0.5,0,0,0,0,0,0,0,0
0,GUARDING,1,Monster\elifea\elifea_guard3.anim,10,1,0.5,0,0,0,0,0,0,0,0
0,GUARDING,2,Monster\elifea\elifea_guard3.anim,10,1,0.5,0,0,0,0,0,0,0,0
