Creature,MONSTER,,,,,,,,,,,,,
Index,5215,,,,,,,,,,,,,
Skeleton,Monster\Niniell.skel,,,,,,,,,,,,,

Style,Action,Index,Animation,Start_Inter,End_Inter,TimeLength,Swing,Strike,Timing,Split,Timing2,Freeze,Effect,CancelTime
0,STAND,0,Monster\Niniell\Niniell_stand.anim,1,1,2,0,0,0,0,0,0,0,0
0,STAND,1,Monster\Niniell\Niniell_cstand.anim,1,1,2,0,0,0,0,0,0,0,0
0,MOVE,0,Monster\Niniell\Niniell_walk.anim,1,1,2,0,0,0,0,0,0,0,0
0,MOVE,1,Monster\Niniell\Niniell_crun.anim,1,1,1.5,0,0,0,0,0,0,0,0
0,ATTACK,10,Monster\Niniell\Niniell_att1.anim,4,1,2,0,0,0.45,0,1,0,923,0
0,ATTACK,11,Monster\Niniell\Niniell_att2.anim,4,1,2,0,0,0.6,0,1,0,924,0
0,ATTACK,1,Monster\Niniell\Niniell_att3.anim,4,1,4,0,0,0.55,0,1,0,925,0
0,ATTACK,2,Monster\Niniell\Niniell_att4.anim,4,1,2.5,0,0,0.4,0,1,0,926,0
0,BLOCKING,0,Monster\Niniell\Niniell_blocking.anim,10,1,0.5,0,0,0,0,0,0,0,0
0,BLOCKED,0,Monster\Niniell\Niniell_blocked.anim,10,1,1,0,0,0,0,0,0,0,0
0,BLOCKED,1,Monster\Niniell\Niniell_blocked.anim,10,1,1,0,0,0,0,0,0,0,0
0,BLOCKED,2,Monster\Niniell\Niniell_blocked.anim,10,1,1,0,0,0,0,0,0,0,0
0,BLOCKED,3,Monster\Niniell\Niniell_blocked.anim,10,1,1,0,0,0,0,0,0,0,0
0,BLOCKED,4,Monster\Niniell\Niniell_blocked.anim,10,1,1,0,0,0,0,0,0,0,0
0,BLOCKED,5,Monster\Niniell\Niniell_blocked.anim,10,1,1,0,0,0,0,0,0,0,0
0,BLOCKED,6,Monster\Niniell\Niniell_blocked.anim,10,1,1,0,0,0,0,0,0,0,0
0,BLOCKED,7,Monster\Niniell\Niniell_blocked.anim,10,1,1,0,0,0,0,0,0,0,0
0,DEFEAT,0,Monster\Niniell\Niniell_p4.anim,5,1,0.66,0,0,0,0,0,0,0,0
0,DEFEAT,1,Monster\Niniell\Niniell_p4.anim,5,1,0.66,0,0,0,0,0,0,0,0
0,DEFEAT,2,Monster\Niniell\Niniell_p4.anim,5,1,0.66,0,0,0,0,0,0,0,0
0,DEFEAT,3,Monster\Niniell\Niniell_p4.anim,5,1,0.66,0,0,0,0,0,0,0,0
0,DEAD,0,Monster\Niniell\Niniell_die.anim,4,1,5,0,0,0.1,1,0,0,922,0
0,GUARDING,0,Monster\Niniell\Niniell_guard3.anim,10,1,0.66,0,0,0,0,0,0,0,0
0,GUARDING,1,Monster\Niniell\Niniell_guard3.anim,10,1,0.66,0,0,0,0,0,0,0,0
0,GUARDING,2,Monster\Niniell\Niniell_guard3.anim,10,1,0.66,0,0,0,0,0,0,0,0
