NpcIndex,1226,1227,1228,1229,1230,1231,1232,1233,1234,1235,1236,1225,1237,1238,1243,1244
Direction,216,219,195,137,318,291,198,282,201,278,357,211,300,156,218,171
Location_X,301.025,298.156,404.049,196.012,117.011,244.668,243.065,331.257,269.015,208.654,177.081,96.676,138.445,138.551,294.904,119.757
Location_Y,340.207,397.517,375.017,320.902,314.343,362.973,156.707,150.228,130.104,104.736,196.919,113.05,166.494,176.507,385.784,301.412
Description,,,,,,,,,,,,,,,,
