BrickUID,BrickIndex,Revival,RegenCycle,Direction,Location_X,Location_Y,IsCreate
100,36699,0,0,270,134.446,172.152,1
101,36700,0,0,270,394.095,251.386,1
102,36683,0,0,136,122.325,157.817,0
103,36684,0,0,209,106.771,157.933,0
104,36685,0,0,314,106.091,182.272,0
105,36686,0,0,29,121.719,184.436,0
106,36687,0,0,92,119.725,170.266,0
107,36688,0,0,92,119.725,170.266,0
108,36689,0,0,92,119.725,170.266,0
109,36690,0,0,136,122.325,157.817,0
110,36691,0,0,209,106.771,157.933,0
111,36692,0,0,314,106.091,182.272,0
112,36693,0,0,29,121.719,184.436,0
113,36694,0,0,136,122.325,157.817,0
114,36695,0,0,92,105.384,157.935,0
115,36696,0,0,314,106.091,182.272,0
116,36697,0,0,29,121.719,184.436,0
117,36698,0,0,92,119.725,170.266,0
118,36701,0,0,0,97.453,134.83,1
