3717,30,430,142
3717,30,429,139
3717,30,391,138
3717,30,388,139
3717,30,439,156
3717,30,438,153
3717,30,372,165
3717,30,374,167
3717,30,414,173
3717,30,416,175
3716,30,428,142
3716,30,390,142
3716,30,418,154
3716,30,414,177
3716,30,372,170
3716,30,440,154
3717,30,420,157
3717,30,416,155
3716,30,478,125
3716,30,475,123
3716,30,462,140
3716,30,460,136
3716,30,491,136
3716,30,470,171
3716,30,487,166
3716,30,486,169
3716,30,480,183
3716,30,445,206
3716,30,438,186
3716,30,432,205
3717,30,476,126
3717,30,492,140
3717,30,463,137
3717,30,471,169
3717,30,489,169
3717,30,483,184
3717,30,438,188
3717,30,443,204
3717,30,429,203
3716,30,418,201
3717,30,418,199
3715,30,481,276
3715,30,469,288
3715,30,453,288
3715,30,440,268
3716,30,481,273
3716,30,470,290
3716,30,453,292
3716,30,437,269
3717,30,440,271
3717,30,455,290
3717,30,471,287
3717,30,479,274
3715,30,463,267
3716,30,463,270
3717,30,465,268
3715,30,493,138
3715,30,468,169
3715,30,482,186
3715,30,446,204
3715,30,436,187
3715,30,431,202
3715,30,415,201
3715,30,453,249
3716,30,454,252
3717,30,456,249
3704,30,106,48
3704,30,98,27
3704,30,76,79
3704,30,92,104
3704,30,112,75
3704,30,63,49
3704,30,56,29
3705,30,98,23
3705,30,107,44
3705,30,108,75
3705,30,77,83
3705,30,89,102
3705,30,66,48
3705,30,56,27
3706,30,92,100
3706,30,74,82
3706,30,109,48
3706,30,109,71
3706,30,101,25
3706,30,53,27
3706,30,65,52
3706,30,113,157
3705,30,114,154
3705,30,117,159
3705,30,122,180
3705,30,124,185
3705,30,146,152
3705,30,145,155
3706,30,121,183
3706,30,147,154
3704,30,124,183
3704,30,143,151
3704,30,115,160
3706,30,150,182
3704,30,150,178
3705,30,152,180
3705,30,152,175
3704,30,82,29
3705,30,80,31
3706,30,80,28
3715,30,474,253
3716,30,476,251
3717,30,476,254
3715,30,419,220
3716,30,418,222
3717,30,417,220
3716,30,474,150
3715,30,477,150
3717,30,475,147
3716,30,431,171
3717,30,432,168
3717,30,429,167
3717,30,400,182
3717,30,400,178
3716,30,402,179
3716,30,482,108
3717,30,480,107
3715,30,480,109
3717,30,379,153
3717,30,382,154
3716,30,380,156
3707,30,165,222
3708,30,155,245
3708,30,149,222
3708,30,175,239
3714,30,156,248
3714,30,148,224
3714,30,167,223
3714,30,177,241
3713,30,147,222
3713,30,179,238
3713,30,146,265
3707,30,146,267
3714,30,148,266
3709,30,165,225
3709,30,158,245
3714,30,114,270
3714,30,112,235
3714,30,91,234
3712,30,114,238
3712,30,93,237
3712,30,101,258
3712,30,112,268
3713,30,112,239
3713,30,95,234
3713,30,102,254
3713,30,115,267
3714,30,99,256
3714,30,73,282
3714,30,54,264
3714,30,54,290
3712,30,58,290
3712,30,70,279
3712,30,55,267
3713,30,51,267
3713,30,55,288
3713,30,70,283
3712,30,43,452
3712,30,73,445
3712,30,84,432
3712,30,85,453
3713,30,44,454
3713,30,74,446
3713,30,85,434
3713,30,87,454
3710,30,87,452
3711,30,45,453
3711,30,74,444
3711,30,86,433
3710,30,64,461
3713,30,63,463
3712,30,65,462
3711,30,35,462
3712,30,34,462
3713,30,28,443
3712,30,27,445
3713,30,35,464
3710,30,26,443
3712,30,124,443
3712,30,127,465
3712,30,142,466
3710,30,123,442
3710,30,127,467
3710,30,144,467
3711,30,124,440
3711,30,128,466
3711,30,143,464
3711,30,141,433
3711,30,160,455
3710,30,140,430
3710,30,159,453
3712,30,140,432
3712,30,161,452
3704,30,35,27
3705,30,34,30
3706,30,37,29
3710,30,62,428
3713,30,63,430
3712,30,65,428
3710,30,43,430
3712,30,45,433
3713,30,41,433
3713,30,126,441
3713,30,145,465
3713,30,125,466
3710,30,107,456
3711,30,111,454
3713,30,108,454
3712,30,110,457
3713,30,143,431
3713,30,162,454
3707,30,177,267
3708,30,197,272
3714,30,176,265
3714,30,195,273
3713,30,179,265
3713,30,197,276
3714,30,89,270
3712,30,90,272
3713,30,91,270
3713,30,73,255
3712,30,71,255
3714,30,72,258
3714,30,40,285
3712,30,42,288
3713,30,38,288
3706,30,85,53
3705,30,89,53
3704,30,87,49
3704,30,130,82
3705,30,132,80
3706,30,129,80
3706,30,38,52
3705,30,41,50
3704,30,38,49
3704,30,47,66
3705,30,48,70
3706,30,45,70
3706,30,121,29
3704,30,117,28
3705,30,121,26
3705,30,111,118
3705,30,90,131
3704,30,109,121
3704,30,88,129
3706,30,86,131
3706,30,112,120
3712,30,183,463
3712,30,183,460
3712,30,201,474
3712,30,200,471
3712,30,204,451
3712,30,206,448
3712,30,224,463
3712,30,226,462
3712,30,182,426
3712,30,182,431
3712,30,205,424
3712,30,206,426
3712,30,225,417
3712,30,226,420
3712,30,243,399
3712,30,245,401
3710,30,182,462
3710,30,202,472
3710,30,204,448
3710,30,225,459
3710,30,228,417
3710,30,243,401
3710,30,207,423
3710,30,182,428
3711,30,181,460
3711,30,199,472
3711,30,223,462
3711,30,209,449
3711,30,207,425
3711,30,228,421
3711,30,244,403
3711,30,183,426
3713,30,181,463
3713,30,199,474
3713,30,224,461
3713,30,207,452
3713,30,224,419
3713,30,242,402
3713,30,208,424
3713,30,184,428
3735,30,407,402
3735,30,429,384
3735,30,426,415
3735,30,448,410
3735,30,419,453
3735,30,441,437
3735,30,463,434
3735,30,473,466
3735,30,450,466
3735,30,427,480
3736,30,428,385
3736,30,406,402
3736,30,425,415
3736,30,447,410
3736,30,442,438
3736,30,418,454
3736,30,463,432
3736,30,426,479
3736,30,449,465
3736,30,475,465
3737,30,406,403
3737,30,429,383
3737,30,425,414
3737,30,447,409
3737,30,442,436
3737,30,419,454
3737,30,450,467
3737,30,426,478
3737,30,462,434
3737,30,474,467
3737,30,488,430
3736,30,488,432
3735,30,488,430
3733,30,340,36
3733,30,324,60
3733,30,304,35
3733,30,340,83
3733,30,320,104
3733,30,304,83
3733,30,288,59
3733,30,269,84
3733,30,272,32
3733,30,287,124
3733,30,247,60
3733,30,248,102
3733,30,224,83
3733,30,203,67
3733,30,204,105
3733,30,182,85
3733,30,177,118
3733,30,223,39
3733,30,242,23
3734,30,340,82
3734,30,323,58
3734,30,340,34
3734,30,302,35
3734,30,304,84
3734,30,287,124
3734,30,321,106
3734,30,268,83
3734,30,288,59
3734,30,271,32
3734,30,241,23
3734,30,248,107
3734,30,247,61
3734,30,224,84
3734,30,224,37
3734,30,205,106
3734,30,203,65
3734,30,181,86
3734,30,177,120
3733,30,178,120
3733,30,182,86
3733,30,204,64
3733,30,205,106
3733,30,225,83
3733,30,224,38
3733,30,240,23
3733,30,246,61
3733,30,249,105
3734,30,269,85
3734,30,271,33
3734,30,305,32
3734,30,289,59
3734,30,304,85
3734,30,285,123
3734,30,321,105
3734,30,341,83
3734,30,341,34
3734,30,323,57
3706,30,322,83
3706,30,322,34
3706,30,287,121
3706,30,287,85
3706,30,286,34
3706,30,224,52
3706,30,248,83
3706,30,247,127
3706,30,203,83
