Mode,Rank,FightTime(Sec),ActiveScore,StartPCCount,MaxPCCount,ConquestTime(Sec),CoolTime(Sec),Buff,BuffTime(Sec)
0,1,1800,50,4,42,180,30,11009,180
0,2,1800,70,4,42,180,30,11009,180
0,3,1800,100,4,42,180,30,11009,180
0,4,1800,300,4,42,180,30,11009,180
0,5,1800,500,4,42,180,30,11009,180
0,6,1800,700,4,42,180,30,11009,180
