Magic,,,,,,,,,,,,,,,,,,,,,,,,,,,,,,,,,,,,,,,,
셀을 추가하거나 삭제하지 말것!,,,,,,,,,,,,,,,,,,,,,,,,,,,,,,,,,,,,,,,,
,,,,,,,,,,,,,,,,,,,,,,,,,,,,,,,,,,,,,,,,
,,Magic Wand,,Magic MIN,Magic MAX,,,,Noble Wand,,Noble MIN,Noble MAX,,,,Divine Noble Wand,,Divine Noble MIN,Divine Noble MAX,,,,Magic Staff,,Magic MIN,Magic MAX,,,,Noble Staff,,Noble MIN,Noble MAX,,,,Divine Noble Staff,,Divine Noble MIN,Divine Noble MAX
4033,,1,1,,,,4073,,1,1,,,,4113,,1,1,,,,4153,,1,2,,,,4193,,1,2,,,,4233,,1,2,,
50331,35,DAMAGE_MINMAGICAL_ADD,Magic ATK Bonus,2,3,,50731,35,DAMAGE_MINMAGICAL_ADD,Magic ATK Bonus,2,3,,51131,35,DAMAGE_MINMAGICAL_ADD,Magic ATK Bonus,2,3,,51531,35,DAMAGE_MINMAGICAL_ADD,Magic ATK Bonus,2,3,,51931,35,DAMAGE_MINMAGICAL_ADD,Magic ATK Bonus,2,3,,52331,35,DAMAGE_MINMAGICAL_ADD,Magic ATK Bonus,2,3
50332,35,DAMAGE_MINMAGICAL_ADD,Magic ATK Bonus,2,3,,50732,35,DAMAGE_MINMAGICAL_ADD,Magic ATK Bonus,2,3,,51132,35,DAMAGE_MINMAGICAL_ADD,Magic ATK Bonus,2,3,,51532,35,DAMAGE_MINMAGICAL_ADD,Magic ATK Bonus,2,3,,51932,35,DAMAGE_MINMAGICAL_ADD,Magic ATK Bonus,2,3,,52332,35,DAMAGE_MINMAGICAL_ADD,Magic ATK Bonus,2,3
50333,35,DAMAGE_MINMAGICAL_ADD,Magic ATK Bonus,2,3,,50733,35,DAMAGE_MINMAGICAL_ADD,Magic ATK Bonus,2,3,,51133,35,DAMAGE_MINMAGICAL_ADD,Magic ATK Bonus,2,3,,51533,35,DAMAGE_MINMAGICAL_ADD,Magic ATK Bonus,2,3,,51933,35,DAMAGE_MINMAGICAL_ADD,Magic ATK Bonus,2,3,,52333,35,DAMAGE_MINMAGICAL_ADD,Magic ATK Bonus,2,3
50334,35,DAMAGE_MINMAGICAL_ADD,Magic ATK Bonus,2,3,,50734,35,DAMAGE_MINMAGICAL_ADD,Magic ATK Bonus,2,3,,51134,35,DAMAGE_MINMAGICAL_ADD,Magic ATK Bonus,2,3,,51534,35,DAMAGE_MINMAGICAL_ADD,Magic ATK Bonus,2,3,,51934,35,DAMAGE_MINMAGICAL_ADD,Magic ATK Bonus,2,3,,52334,35,DAMAGE_MINMAGICAL_ADD,Magic ATK Bonus,2,3
50335,35,DAMAGE_MINMAGICAL_ADD,Magic ATK Bonus,2,3,,50735,35,DAMAGE_MINMAGICAL_ADD,Magic ATK Bonus,2,3,,51135,35,DAMAGE_MINMAGICAL_ADD,Magic ATK Bonus,2,3,,51535,35,DAMAGE_MINMAGICAL_ADD,Magic ATK Bonus,2,3,,51935,35,DAMAGE_MINMAGICAL_ADD,Magic ATK Bonus,2,3,,52335,35,DAMAGE_MINMAGICAL_ADD,Magic ATK Bonus,2,3
50336,35,DAMAGE_MINMAGICAL_ADD,Magic ATK Bonus,2,3,,50736,35,DAMAGE_MINMAGICAL_ADD,Magic ATK Bonus,2,3,,51136,35,DAMAGE_MINMAGICAL_ADD,Magic ATK Bonus,2,3,,51536,91,DAMAGEADD_POISON_ADD,Poison ATK Bonus,2,3,,51936,91,DAMAGEADD_POISON_ADD,Poison ATK Bonus,2,3,,52336,91,DAMAGEADD_POISON_ADD,Poison ATK Bonus,2,3
50337,88,DAMAGEADD_FIRE_ADD,Fire ATK Bonus,3,4,,50737,88,DAMAGEADD_FIRE_ADD,Fire ATK Bonus,3,4,,51137,88,DAMAGEADD_FIRE_ADD,Fire ATK Bonus,3,4,,51537,236,BALANCE_VITALITY_ADD,Vitality Bonus,1,2,,51937,236,BALANCE_VITALITY_ADD,Vitality Bonus,1,2,,52337,236,BALANCE_VITALITY_ADD,Vitality Bonus,1,2
50338,89,DAMAGEADD_ICE_ADD,Ice ATK Bonus,3,4,,50738,89,DAMAGEADD_ICE_ADD,Ice ATK Bonus,3,4,,51138,89,DAMAGEADD_ICE_ADD,Ice ATK Bonus,3,4,,51538,236,BALANCE_VITALITY_ADD,Vitality Bonus,1,2,,51938,236,BALANCE_VITALITY_ADD,Vitality Bonus,1,2,,52338,236,BALANCE_VITALITY_ADD,Vitality Bonus,1,2
50339,90,DAMAGEADD_LIGHTNING_ADD,Lightning ATK Bonus,3,4,,50739,90,DAMAGEADD_LIGHTNING_ADD,Lightning ATK Bonus,3,4,,51139,90,DAMAGEADD_LIGHTNING_ADD,Lightning ATK Bonus,3,4,,51539,236,BALANCE_VITALITY_ADD,Vitality Bonus,1,2,,51939,236,BALANCE_VITALITY_ADD,Vitality Bonus,1,2,,52339,236,BALANCE_VITALITY_ADD,Vitality Bonus,1,2
50340,233,BALANCE_DEATHBLOW_ADD,Critical Damage Bonus,1,2,,50740,233,BALANCE_DEATHBLOW_ADD,Critical Damage Bonus,2,2,,51140,233,BALANCE_DEATHBLOW_ADD,Critical Damage Bonus,2,2,,51540,233,BALANCE_DEATHBLOW_ADD,Critical Damage Bonus,2,2,,51940,233,BALANCE_DEATHBLOW_ADD,Critical Damage Bonus,2,3,,52340,233,BALANCE_DEATHBLOW_ADD,Critical Damage Bonus,3,3
4034,,2,7,,,,4074,,2,7,,,,4114,,2,7,,,,4154,,2,7,,,,4194,,2,7,,,,4234,,2,7,,
50341,35,DAMAGE_MINMAGICAL_ADD,Magic ATK Bonus,2,2,,50741,35,DAMAGE_MINMAGICAL_ADD,Magic ATK Bonus,2,2,,51141,35,DAMAGE_MINMAGICAL_ADD,Magic ATK Bonus,2,3,,51541,35,DAMAGE_MINMAGICAL_ADD,Magic ATK Bonus,2,2,,51941,35,DAMAGE_MINMAGICAL_ADD,Magic ATK Bonus,2,2,,52341,35,DAMAGE_MINMAGICAL_ADD,Magic ATK Bonus,2,3
50342,35,DAMAGE_MINMAGICAL_ADD,Magic ATK Bonus,2,2,,50742,35,DAMAGE_MINMAGICAL_ADD,Magic ATK Bonus,2,2,,51142,35,DAMAGE_MINMAGICAL_ADD,Magic ATK Bonus,2,3,,51542,35,DAMAGE_MINMAGICAL_ADD,Magic ATK Bonus,2,2,,51942,35,DAMAGE_MINMAGICAL_ADD,Magic ATK Bonus,2,2,,52342,35,DAMAGE_MINMAGICAL_ADD,Magic ATK Bonus,2,3
50343,35,DAMAGE_MINMAGICAL_ADD,Magic ATK Bonus,2,2,,50743,35,DAMAGE_MINMAGICAL_ADD,Magic ATK Bonus,2,2,,51143,35,DAMAGE_MINMAGICAL_ADD,Magic ATK Bonus,2,3,,51543,35,DAMAGE_MINMAGICAL_ADD,Magic ATK Bonus,2,2,,51943,35,DAMAGE_MINMAGICAL_ADD,Magic ATK Bonus,2,2,,52343,35,DAMAGE_MINMAGICAL_ADD,Magic ATK Bonus,2,3
50344,35,DAMAGE_MINMAGICAL_ADD,Magic ATK Bonus,2,2,,50744,35,DAMAGE_MINMAGICAL_ADD,Magic ATK Bonus,2,2,,51144,35,DAMAGE_MINMAGICAL_ADD,Magic ATK Bonus,2,3,,51544,35,DAMAGE_MINMAGICAL_ADD,Magic ATK Bonus,2,2,,51944,35,DAMAGE_MINMAGICAL_ADD,Magic ATK Bonus,2,2,,52344,35,DAMAGE_MINMAGICAL_ADD,Magic ATK Bonus,2,3
50345,35,DAMAGE_MINMAGICAL_ADD,Magic ATK Bonus,2,2,,50745,35,DAMAGE_MINMAGICAL_ADD,Magic ATK Bonus,2,2,,51145,35,DAMAGE_MINMAGICAL_ADD,Magic ATK Bonus,2,3,,51545,35,DAMAGE_MINMAGICAL_ADD,Magic ATK Bonus,2,2,,51945,35,DAMAGE_MINMAGICAL_ADD,Magic ATK Bonus,2,2,,52345,35,DAMAGE_MINMAGICAL_ADD,Magic ATK Bonus,2,3
50346,35,DAMAGE_MINMAGICAL_ADD,Magic ATK Bonus,2,2,,50746,35,DAMAGE_MINMAGICAL_ADD,Magic ATK Bonus,2,2,,51146,35,DAMAGE_MINMAGICAL_ADD,Magic ATK Bonus,2,3,,51546,91,DAMAGEADD_POISON_ADD,Poison ATK Bonus,2,2,,51946,91,DAMAGEADD_POISON_ADD,Poison ATK Bonus,2,3,,52346,91,DAMAGEADD_POISON_ADD,Poison ATK Bonus,3,3
50347,88,DAMAGEADD_FIRE_ADD,Fire ATK Bonus,2,2,,50747,88,DAMAGEADD_FIRE_ADD,Fire ATK Bonus,2,3,,51147,88,DAMAGEADD_FIRE_ADD,Fire ATK Bonus,3,3,,51547,236,BALANCE_VITALITY_ADD,Vitality Bonus,2,2,,51947,236,BALANCE_VITALITY_ADD,Vitality Bonus,2,3,,52347,236,BALANCE_VITALITY_ADD,Vitality Bonus,3,3
50348,89,DAMAGEADD_ICE_ADD,Ice ATK Bonus,2,2,,50748,89,DAMAGEADD_ICE_ADD,Ice ATK Bonus,2,3,,51148,89,DAMAGEADD_ICE_ADD,Ice ATK Bonus,3,3,,51548,236,BALANCE_VITALITY_ADD,Vitality Bonus,2,2,,51948,236,BALANCE_VITALITY_ADD,Vitality Bonus,2,3,,52348,236,BALANCE_VITALITY_ADD,Vitality Bonus,3,3
50349,90,DAMAGEADD_LIGHTNING_ADD,Lightning ATK Bonus,2,2,,50749,90,DAMAGEADD_LIGHTNING_ADD,Lightning ATK Bonus,2,3,,51149,90,DAMAGEADD_LIGHTNING_ADD,Lightning ATK Bonus,3,3,,51549,236,BALANCE_VITALITY_ADD,Vitality Bonus,2,2,,51949,236,BALANCE_VITALITY_ADD,Vitality Bonus,2,3,,52349,236,BALANCE_VITALITY_ADD,Vitality Bonus,3,3
50350,233,BALANCE_DEATHBLOW_ADD,Critical Damage Bonus,4,5,,50750,233,BALANCE_DEATHBLOW_ADD,Critical Damage Bonus,5,5,,51150,233,BALANCE_DEATHBLOW_ADD,Critical Damage Bonus,5,6,,51550,233,BALANCE_DEATHBLOW_ADD,Critical Damage Bonus,4,5,,51950,233,BALANCE_DEATHBLOW_ADD,Critical Damage Bonus,5,5,,52350,233,BALANCE_DEATHBLOW_ADD,Critical Damage Bonus,5,6
4035,,3,12,,,,4075,,3,12,,,,4115,,3,12,,,,4155,,3,12,,,,4195,,3,12,,,,4235,,3,12,,
50351,35,DAMAGE_MINMAGICAL_ADD,Magic ATK Bonus,3,4,,50751,35,DAMAGE_MINMAGICAL_ADD,Magic ATK Bonus,4,4,,51151,35,DAMAGE_MINMAGICAL_ADD,Magic ATK Bonus,4,5,,51551,35,DAMAGE_MINMAGICAL_ADD,Magic ATK Bonus,3,4,,51951,35,DAMAGE_MINMAGICAL_ADD,Magic ATK Bonus,4,4,,52351,35,DAMAGE_MINMAGICAL_ADD,Magic ATK Bonus,4,5
50352,35,DAMAGE_MINMAGICAL_ADD,Magic ATK Bonus,3,4,,50752,35,DAMAGE_MINMAGICAL_ADD,Magic ATK Bonus,4,4,,51152,35,DAMAGE_MINMAGICAL_ADD,Magic ATK Bonus,4,5,,51552,35,DAMAGE_MINMAGICAL_ADD,Magic ATK Bonus,3,4,,51952,35,DAMAGE_MINMAGICAL_ADD,Magic ATK Bonus,4,4,,52352,35,DAMAGE_MINMAGICAL_ADD,Magic ATK Bonus,4,5
50353,35,DAMAGE_MINMAGICAL_ADD,Magic ATK Bonus,3,4,,50753,35,DAMAGE_MINMAGICAL_ADD,Magic ATK Bonus,4,4,,51153,35,DAMAGE_MINMAGICAL_ADD,Magic ATK Bonus,4,5,,51553,35,DAMAGE_MINMAGICAL_ADD,Magic ATK Bonus,3,4,,51953,35,DAMAGE_MINMAGICAL_ADD,Magic ATK Bonus,4,4,,52353,35,DAMAGE_MINMAGICAL_ADD,Magic ATK Bonus,4,5
50354,35,DAMAGE_MINMAGICAL_ADD,Magic ATK Bonus,3,4,,50754,35,DAMAGE_MINMAGICAL_ADD,Magic ATK Bonus,4,4,,51154,35,DAMAGE_MINMAGICAL_ADD,Magic ATK Bonus,4,5,,51554,35,DAMAGE_MINMAGICAL_ADD,Magic ATK Bonus,3,4,,51954,35,DAMAGE_MINMAGICAL_ADD,Magic ATK Bonus,4,4,,52354,35,DAMAGE_MINMAGICAL_ADD,Magic ATK Bonus,4,5
50355,35,DAMAGE_MINMAGICAL_ADD,Magic ATK Bonus,3,4,,50755,35,DAMAGE_MINMAGICAL_ADD,Magic ATK Bonus,4,4,,51155,35,DAMAGE_MINMAGICAL_ADD,Magic ATK Bonus,4,5,,51555,35,DAMAGE_MINMAGICAL_ADD,Magic ATK Bonus,3,4,,51955,35,DAMAGE_MINMAGICAL_ADD,Magic ATK Bonus,4,4,,52355,35,DAMAGE_MINMAGICAL_ADD,Magic ATK Bonus,4,5
50356,35,DAMAGE_MINMAGICAL_ADD,Magic ATK Bonus,3,4,,50756,35,DAMAGE_MINMAGICAL_ADD,Magic ATK Bonus,4,4,,51156,35,DAMAGE_MINMAGICAL_ADD,Magic ATK Bonus,4,5,,51556,91,DAMAGEADD_POISON_ADD,Poison ATK Bonus,4,4,,51956,91,DAMAGEADD_POISON_ADD,Poison ATK Bonus,4,5,,52356,91,DAMAGEADD_POISON_ADD,Poison ATK Bonus,5,5
50357,88,DAMAGEADD_FIRE_ADD,Fire ATK Bonus,4,4,,50757,88,DAMAGEADD_FIRE_ADD,Fire ATK Bonus,4,5,,51157,88,DAMAGEADD_FIRE_ADD,Fire ATK Bonus,5,5,,51557,236,BALANCE_VITALITY_ADD,Vitality Bonus,4,4,,51957,236,BALANCE_VITALITY_ADD,Vitality Bonus,4,5,,52357,236,BALANCE_VITALITY_ADD,Vitality Bonus,5,5
50358,89,DAMAGEADD_ICE_ADD,Ice ATK Bonus,4,4,,50758,89,DAMAGEADD_ICE_ADD,Ice ATK Bonus,4,5,,51158,89,DAMAGEADD_ICE_ADD,Ice ATK Bonus,5,5,,51558,236,BALANCE_VITALITY_ADD,Vitality Bonus,4,4,,51958,236,BALANCE_VITALITY_ADD,Vitality Bonus,4,5,,52358,236,BALANCE_VITALITY_ADD,Vitality Bonus,5,5
50359,90,DAMAGEADD_LIGHTNING_ADD,Lightning ATK Bonus,4,4,,50759,90,DAMAGEADD_LIGHTNING_ADD,Lightning ATK Bonus,4,5,,51159,90,DAMAGEADD_LIGHTNING_ADD,Lightning ATK Bonus,5,5,,51559,236,BALANCE_VITALITY_ADD,Vitality Bonus,4,4,,51959,236,BALANCE_VITALITY_ADD,Vitality Bonus,4,5,,52359,236,BALANCE_VITALITY_ADD,Vitality Bonus,5,5
50360,233,BALANCE_DEATHBLOW_ADD,Critical Damage Bonus,6,7,,50760,233,BALANCE_DEATHBLOW_ADD,Critical Damage Bonus,7,8,,51160,233,BALANCE_DEATHBLOW_ADD,Critical Damage Bonus,8,9,,51560,233,BALANCE_DEATHBLOW_ADD,Critical Damage Bonus,6,7,,51960,233,BALANCE_DEATHBLOW_ADD,Critical Damage Bonus,7,8,,52360,233,BALANCE_DEATHBLOW_ADD,Critical Damage Bonus,8,9
4036,,4,18,,,,4076,,4,18,,,,4116,,4,18,,,,4156,,4,18,,,,4196,,4,18,,,,4236,,4,18,,
50361,35,DAMAGE_MINMAGICAL_ADD,Magic ATK Bonus,5,6,,50761,35,DAMAGE_MINMAGICAL_ADD,Magic ATK Bonus,6,7,,51161,35,DAMAGE_MINMAGICAL_ADD,Magic ATK Bonus,6,7,,51561,35,DAMAGE_MINMAGICAL_ADD,Magic ATK Bonus,5,6,,51961,35,DAMAGE_MINMAGICAL_ADD,Magic ATK Bonus,6,7,,52361,35,DAMAGE_MINMAGICAL_ADD,Magic ATK Bonus,6,7
50362,35,DAMAGE_MINMAGICAL_ADD,Magic ATK Bonus,5,6,,50762,35,DAMAGE_MINMAGICAL_ADD,Magic ATK Bonus,6,7,,51162,35,DAMAGE_MINMAGICAL_ADD,Magic ATK Bonus,6,7,,51562,35,DAMAGE_MINMAGICAL_ADD,Magic ATK Bonus,5,6,,51962,35,DAMAGE_MINMAGICAL_ADD,Magic ATK Bonus,6,7,,52362,35,DAMAGE_MINMAGICAL_ADD,Magic ATK Bonus,6,7
50363,35,DAMAGE_MINMAGICAL_ADD,Magic ATK Bonus,5,6,,50763,35,DAMAGE_MINMAGICAL_ADD,Magic ATK Bonus,6,7,,51163,35,DAMAGE_MINMAGICAL_ADD,Magic ATK Bonus,6,7,,51563,35,DAMAGE_MINMAGICAL_ADD,Magic ATK Bonus,5,6,,51963,35,DAMAGE_MINMAGICAL_ADD,Magic ATK Bonus,6,7,,52363,35,DAMAGE_MINMAGICAL_ADD,Magic ATK Bonus,6,7
50364,35,DAMAGE_MINMAGICAL_ADD,Magic ATK Bonus,5,6,,50764,35,DAMAGE_MINMAGICAL_ADD,Magic ATK Bonus,6,7,,51164,35,DAMAGE_MINMAGICAL_ADD,Magic ATK Bonus,6,7,,51564,35,DAMAGE_MINMAGICAL_ADD,Magic ATK Bonus,5,6,,51964,35,DAMAGE_MINMAGICAL_ADD,Magic ATK Bonus,6,7,,52364,35,DAMAGE_MINMAGICAL_ADD,Magic ATK Bonus,6,7
50365,35,DAMAGE_MINMAGICAL_ADD,Magic ATK Bonus,5,6,,50765,35,DAMAGE_MINMAGICAL_ADD,Magic ATK Bonus,6,7,,51165,35,DAMAGE_MINMAGICAL_ADD,Magic ATK Bonus,6,7,,51565,35,DAMAGE_MINMAGICAL_ADD,Magic ATK Bonus,5,6,,51965,35,DAMAGE_MINMAGICAL_ADD,Magic ATK Bonus,6,7,,52365,35,DAMAGE_MINMAGICAL_ADD,Magic ATK Bonus,6,7
50366,35,DAMAGE_MINMAGICAL_ADD,Magic ATK Bonus,5,6,,50766,35,DAMAGE_MINMAGICAL_ADD,Magic ATK Bonus,6,7,,51166,35,DAMAGE_MINMAGICAL_ADD,Magic ATK Bonus,6,7,,51566,91,DAMAGEADD_POISON_ADD,Poison ATK Bonus,6,7,,51966,91,DAMAGEADD_POISON_ADD,Poison ATK Bonus,7,7,,52366,91,DAMAGEADD_POISON_ADD,Poison ATK Bonus,7,8
50367,88,DAMAGEADD_FIRE_ADD,Fire ATK Bonus,6,7,,50767,88,DAMAGEADD_FIRE_ADD,Fire ATK Bonus,7,7,,51167,88,DAMAGEADD_FIRE_ADD,Fire ATK Bonus,7,8,,51567,236,BALANCE_VITALITY_ADD,Vitality Bonus,6,6,,51967,236,BALANCE_VITALITY_ADD,Vitality Bonus,6,7,,52367,236,BALANCE_VITALITY_ADD,Vitality Bonus,7,8
50368,89,DAMAGEADD_ICE_ADD,Ice ATK Bonus,6,7,,50768,89,DAMAGEADD_ICE_ADD,Ice ATK Bonus,7,7,,51168,89,DAMAGEADD_ICE_ADD,Ice ATK Bonus,7,8,,51568,236,BALANCE_VITALITY_ADD,Vitality Bonus,6,6,,51968,236,BALANCE_VITALITY_ADD,Vitality Bonus,6,7,,52368,236,BALANCE_VITALITY_ADD,Vitality Bonus,7,8
50369,90,DAMAGEADD_LIGHTNING_ADD,Lightning ATK Bonus,6,7,,50769,90,DAMAGEADD_LIGHTNING_ADD,Lightning ATK Bonus,7,7,,51169,90,DAMAGEADD_LIGHTNING_ADD,Lightning ATK Bonus,7,8,,51569,236,BALANCE_VITALITY_ADD,Vitality Bonus,6,6,,51969,236,BALANCE_VITALITY_ADD,Vitality Bonus,6,7,,52369,236,BALANCE_VITALITY_ADD,Vitality Bonus,7,8
50370,233,BALANCE_DEATHBLOW_ADD,Critical Damage Bonus,9,10,,50770,233,BALANCE_DEATHBLOW_ADD,Critical Damage Bonus,10,12,,51170,233,BALANCE_DEATHBLOW_ADD,Critical Damage Bonus,12,13,,51570,233,BALANCE_DEATHBLOW_ADD,Critical Damage Bonus,9,10,,51970,233,BALANCE_DEATHBLOW_ADD,Critical Damage Bonus,10,12,,52370,233,BALANCE_DEATHBLOW_ADD,Critical Damage Bonus,12,13
4037,,5,24,,,,4077,,5,24,,,,4117,,5,24,,,,4157,,5,24,,,,4197,,5,24,,,,4237,,5,24,,
50371,35,DAMAGE_MINMAGICAL_ADD,Magic ATK Bonus,7,8,,50771,35,DAMAGE_MINMAGICAL_ADD,Magic ATK Bonus,8,9,,51171,35,DAMAGE_MINMAGICAL_ADD,Magic ATK Bonus,9,10,,51571,35,DAMAGE_MINMAGICAL_ADD,Magic ATK Bonus,7,8,,51971,35,DAMAGE_MINMAGICAL_ADD,Magic ATK Bonus,8,9,,52371,35,DAMAGE_MINMAGICAL_ADD,Magic ATK Bonus,9,10
50372,35,DAMAGE_MINMAGICAL_ADD,Magic ATK Bonus,7,8,,50772,35,DAMAGE_MINMAGICAL_ADD,Magic ATK Bonus,8,9,,51172,35,DAMAGE_MINMAGICAL_ADD,Magic ATK Bonus,9,10,,51572,35,DAMAGE_MINMAGICAL_ADD,Magic ATK Bonus,7,8,,51972,35,DAMAGE_MINMAGICAL_ADD,Magic ATK Bonus,8,9,,52372,35,DAMAGE_MINMAGICAL_ADD,Magic ATK Bonus,9,10
50373,35,DAMAGE_MINMAGICAL_ADD,Magic ATK Bonus,7,8,,50773,35,DAMAGE_MINMAGICAL_ADD,Magic ATK Bonus,8,9,,51173,35,DAMAGE_MINMAGICAL_ADD,Magic ATK Bonus,9,10,,51573,35,DAMAGE_MINMAGICAL_ADD,Magic ATK Bonus,7,8,,51973,35,DAMAGE_MINMAGICAL_ADD,Magic ATK Bonus,8,9,,52373,35,DAMAGE_MINMAGICAL_ADD,Magic ATK Bonus,9,10
50374,35,DAMAGE_MINMAGICAL_ADD,Magic ATK Bonus,7,8,,50774,35,DAMAGE_MINMAGICAL_ADD,Magic ATK Bonus,8,9,,51174,35,DAMAGE_MINMAGICAL_ADD,Magic ATK Bonus,9,10,,51574,35,DAMAGE_MINMAGICAL_ADD,Magic ATK Bonus,7,8,,51974,35,DAMAGE_MINMAGICAL_ADD,Magic ATK Bonus,8,9,,52374,35,DAMAGE_MINMAGICAL_ADD,Magic ATK Bonus,9,10
50375,35,DAMAGE_MINMAGICAL_ADD,Magic ATK Bonus,7,8,,50775,35,DAMAGE_MINMAGICAL_ADD,Magic ATK Bonus,8,9,,51175,35,DAMAGE_MINMAGICAL_ADD,Magic ATK Bonus,9,10,,51575,35,DAMAGE_MINMAGICAL_ADD,Magic ATK Bonus,7,8,,51975,35,DAMAGE_MINMAGICAL_ADD,Magic ATK Bonus,8,9,,52375,35,DAMAGE_MINMAGICAL_ADD,Magic ATK Bonus,9,10
50376,35,DAMAGE_MINMAGICAL_ADD,Magic ATK Bonus,7,8,,50776,35,DAMAGE_MINMAGICAL_ADD,Magic ATK Bonus,8,9,,51176,35,DAMAGE_MINMAGICAL_ADD,Magic ATK Bonus,9,10,,51576,91,DAMAGEADD_POISON_ADD,Poison ATK Bonus,9,9,,51976,91,DAMAGEADD_POISON_ADD,Poison ATK Bonus,9,10,,52376,91,DAMAGEADD_POISON_ADD,Poison ATK Bonus,10,11
50377,88,DAMAGEADD_FIRE_ADD,Fire ATK Bonus,9,9,,50777,88,DAMAGEADD_FIRE_ADD,Fire ATK Bonus,9,10,,51177,88,DAMAGEADD_FIRE_ADD,Fire ATK Bonus,10,11,,51577,236,BALANCE_VITALITY_ADD,Vitality Bonus,8,9,,51977,236,BALANCE_VITALITY_ADD,Vitality Bonus,9,10,,52377,236,BALANCE_VITALITY_ADD,Vitality Bonus,10,11
50378,89,DAMAGEADD_ICE_ADD,Ice ATK Bonus,9,9,,50778,89,DAMAGEADD_ICE_ADD,Ice ATK Bonus,9,10,,51178,89,DAMAGEADD_ICE_ADD,Ice ATK Bonus,10,11,,51578,236,BALANCE_VITALITY_ADD,Vitality Bonus,8,9,,51978,236,BALANCE_VITALITY_ADD,Vitality Bonus,9,10,,52378,236,BALANCE_VITALITY_ADD,Vitality Bonus,10,11
50379,90,DAMAGEADD_LIGHTNING_ADD,Lightning ATK Bonus,9,9,,50779,90,DAMAGEADD_LIGHTNING_ADD,Lightning ATK Bonus,9,10,,51179,90,DAMAGEADD_LIGHTNING_ADD,Lightning ATK Bonus,10,11,,51579,236,BALANCE_VITALITY_ADD,Vitality Bonus,8,9,,51979,236,BALANCE_VITALITY_ADD,Vitality Bonus,9,10,,52379,236,BALANCE_VITALITY_ADD,Vitality Bonus,10,11
50380,233,BALANCE_DEATHBLOW_ADD,Critical Damage Bonus,11,13,,50780,233,BALANCE_DEATHBLOW_ADD,Critical Damage Bonus,13,15,,51180,233,BALANCE_DEATHBLOW_ADD,Critical Damage Bonus,15,17,,51580,233,BALANCE_DEATHBLOW_ADD,Critical Damage Bonus,11,13,,51980,233,BALANCE_DEATHBLOW_ADD,Critical Damage Bonus,13,15,,52380,233,BALANCE_DEATHBLOW_ADD,Critical Damage Bonus,15,17
4038,,6,30,,,,4078,,6,30,,,,4118,,6,30,,,,4158,,6,30,,,,4198,,6,30,,,,4238,,6,30,,
50381,35,DAMAGE_MINMAGICAL_ADD,Magic ATK Bonus,9,11,,50781,35,DAMAGE_MINMAGICAL_ADD,Magic ATK Bonus,10,12,,51181,35,DAMAGE_MINMAGICAL_ADD,Magic ATK Bonus,11,13,,51581,35,DAMAGE_MINMAGICAL_ADD,Magic ATK Bonus,9,11,,51981,35,DAMAGE_MINMAGICAL_ADD,Magic ATK Bonus,10,12,,52381,35,DAMAGE_MINMAGICAL_ADD,Magic ATK Bonus,11,13
50382,35,DAMAGE_MINMAGICAL_ADD,Magic ATK Bonus,9,11,,50782,35,DAMAGE_MINMAGICAL_ADD,Magic ATK Bonus,10,12,,51182,35,DAMAGE_MINMAGICAL_ADD,Magic ATK Bonus,11,13,,51582,35,DAMAGE_MINMAGICAL_ADD,Magic ATK Bonus,9,11,,51982,35,DAMAGE_MINMAGICAL_ADD,Magic ATK Bonus,10,12,,52382,35,DAMAGE_MINMAGICAL_ADD,Magic ATK Bonus,11,13
50383,35,DAMAGE_MINMAGICAL_ADD,Magic ATK Bonus,9,11,,50783,35,DAMAGE_MINMAGICAL_ADD,Magic ATK Bonus,10,12,,51183,35,DAMAGE_MINMAGICAL_ADD,Magic ATK Bonus,11,13,,51583,35,DAMAGE_MINMAGICAL_ADD,Magic ATK Bonus,9,11,,51983,35,DAMAGE_MINMAGICAL_ADD,Magic ATK Bonus,10,12,,52383,35,DAMAGE_MINMAGICAL_ADD,Magic ATK Bonus,11,13
50384,35,DAMAGE_MINMAGICAL_ADD,Magic ATK Bonus,9,11,,50784,35,DAMAGE_MINMAGICAL_ADD,Magic ATK Bonus,10,12,,51184,35,DAMAGE_MINMAGICAL_ADD,Magic ATK Bonus,11,13,,51584,35,DAMAGE_MINMAGICAL_ADD,Magic ATK Bonus,9,11,,51984,35,DAMAGE_MINMAGICAL_ADD,Magic ATK Bonus,10,12,,52384,35,DAMAGE_MINMAGICAL_ADD,Magic ATK Bonus,11,13
50385,35,DAMAGE_MINMAGICAL_ADD,Magic ATK Bonus,9,11,,50785,35,DAMAGE_MINMAGICAL_ADD,Magic ATK Bonus,10,12,,51185,35,DAMAGE_MINMAGICAL_ADD,Magic ATK Bonus,11,13,,51585,35,DAMAGE_MINMAGICAL_ADD,Magic ATK Bonus,9,11,,51985,35,DAMAGE_MINMAGICAL_ADD,Magic ATK Bonus,10,12,,52385,35,DAMAGE_MINMAGICAL_ADD,Magic ATK Bonus,11,13
50386,35,DAMAGE_MINMAGICAL_ADD,Magic ATK Bonus,9,11,,50786,35,DAMAGE_MINMAGICAL_ADD,Magic ATK Bonus,10,12,,51186,35,DAMAGE_MINMAGICAL_ADD,Magic ATK Bonus,11,13,,51586,91,DAMAGEADD_POISON_ADD,Poison ATK Bonus,11,12,,51986,91,DAMAGEADD_POISON_ADD,Poison ATK Bonus,12,13,,52386,91,DAMAGEADD_POISON_ADD,Poison ATK Bonus,13,14
50387,88,DAMAGEADD_FIRE_ADD,Fire ATK Bonus,11,12,,50787,88,DAMAGEADD_FIRE_ADD,Fire ATK Bonus,12,13,,51187,88,DAMAGEADD_FIRE_ADD,Fire ATK Bonus,13,14,,51587,236,BALANCE_VITALITY_ADD,Vitality Bonus,9,11,,51987,236,BALANCE_VITALITY_ADD,Vitality Bonus,11,12,,52387,236,BALANCE_VITALITY_ADD,Vitality Bonus,12,13
50388,89,DAMAGEADD_ICE_ADD,Ice ATK Bonus,11,12,,50788,89,DAMAGEADD_ICE_ADD,Ice ATK Bonus,12,13,,51188,89,DAMAGEADD_ICE_ADD,Ice ATK Bonus,13,14,,51588,236,BALANCE_VITALITY_ADD,Vitality Bonus,9,11,,51988,236,BALANCE_VITALITY_ADD,Vitality Bonus,11,12,,52388,236,BALANCE_VITALITY_ADD,Vitality Bonus,12,13
50389,90,DAMAGEADD_LIGHTNING_ADD,Lightning ATK Bonus,11,12,,50789,90,DAMAGEADD_LIGHTNING_ADD,Lightning ATK Bonus,12,13,,51189,90,DAMAGEADD_LIGHTNING_ADD,Lightning ATK Bonus,13,14,,51589,236,BALANCE_VITALITY_ADD,Vitality Bonus,9,11,,51989,236,BALANCE_VITALITY_ADD,Vitality Bonus,11,12,,52389,236,BALANCE_VITALITY_ADD,Vitality Bonus,12,13
50390,233,BALANCE_DEATHBLOW_ADD,Critical Damage Bonus,14,17,,50790,233,BALANCE_DEATHBLOW_ADD,Critical Damage Bonus,17,19,,51190,233,BALANCE_DEATHBLOW_ADD,Critical Damage Bonus,19,22,,51590,233,BALANCE_DEATHBLOW_ADD,Critical Damage Bonus,14,17,,51990,233,BALANCE_DEATHBLOW_ADD,Critical Damage Bonus,17,19,,52390,233,BALANCE_DEATHBLOW_ADD,Critical Damage Bonus,19,22
4039,,7,36,,,,4079,,7,36,,,,4119,,7,36,,,,4159,,7,36,,,,4199,,7,36,,,,4239,,7,36,,
50391,35,DAMAGE_MINMAGICAL_ADD,Magic ATK Bonus,12,13,,50791,35,DAMAGE_MINMAGICAL_ADD,Magic ATK Bonus,13,14,,51191,35,DAMAGE_MINMAGICAL_ADD,Magic ATK Bonus,14,16,,51591,35,DAMAGE_MINMAGICAL_ADD,Magic ATK Bonus,12,13,,51991,35,DAMAGE_MINMAGICAL_ADD,Magic ATK Bonus,13,14,,52391,35,DAMAGE_MINMAGICAL_ADD,Magic ATK Bonus,14,16
50392,35,DAMAGE_MINMAGICAL_ADD,Magic ATK Bonus,12,13,,50792,35,DAMAGE_MINMAGICAL_ADD,Magic ATK Bonus,13,14,,51192,35,DAMAGE_MINMAGICAL_ADD,Magic ATK Bonus,14,16,,51592,35,DAMAGE_MINMAGICAL_ADD,Magic ATK Bonus,12,13,,51992,35,DAMAGE_MINMAGICAL_ADD,Magic ATK Bonus,13,14,,52392,35,DAMAGE_MINMAGICAL_ADD,Magic ATK Bonus,14,16
50393,35,DAMAGE_MINMAGICAL_ADD,Magic ATK Bonus,12,13,,50793,35,DAMAGE_MINMAGICAL_ADD,Magic ATK Bonus,13,14,,51193,35,DAMAGE_MINMAGICAL_ADD,Magic ATK Bonus,14,16,,51593,35,DAMAGE_MINMAGICAL_ADD,Magic ATK Bonus,12,13,,51993,35,DAMAGE_MINMAGICAL_ADD,Magic ATK Bonus,13,14,,52393,35,DAMAGE_MINMAGICAL_ADD,Magic ATK Bonus,14,16
50394,35,DAMAGE_MINMAGICAL_ADD,Magic ATK Bonus,12,13,,50794,35,DAMAGE_MINMAGICAL_ADD,Magic ATK Bonus,13,14,,51194,35,DAMAGE_MINMAGICAL_ADD,Magic ATK Bonus,14,16,,51594,35,DAMAGE_MINMAGICAL_ADD,Magic ATK Bonus,12,13,,51994,35,DAMAGE_MINMAGICAL_ADD,Magic ATK Bonus,13,14,,52394,35,DAMAGE_MINMAGICAL_ADD,Magic ATK Bonus,14,16
50395,35,DAMAGE_MINMAGICAL_ADD,Magic ATK Bonus,12,13,,50795,35,DAMAGE_MINMAGICAL_ADD,Magic ATK Bonus,13,14,,51195,35,DAMAGE_MINMAGICAL_ADD,Magic ATK Bonus,14,16,,51595,35,DAMAGE_MINMAGICAL_ADD,Magic ATK Bonus,12,13,,51995,35,DAMAGE_MINMAGICAL_ADD,Magic ATK Bonus,13,14,,52395,35,DAMAGE_MINMAGICAL_ADD,Magic ATK Bonus,14,16
50396,35,DAMAGE_MINMAGICAL_ADD,Magic ATK Bonus,12,13,,50796,35,DAMAGE_MINMAGICAL_ADD,Magic ATK Bonus,13,14,,51196,35,DAMAGE_MINMAGICAL_ADD,Magic ATK Bonus,14,16,,51596,91,DAMAGEADD_POISON_ADD,Poison ATK Bonus,14,15,,51996,91,DAMAGEADD_POISON_ADD,Poison ATK Bonus,15,16,,52396,91,DAMAGEADD_POISON_ADD,Poison ATK Bonus,16,17
50397,88,DAMAGEADD_FIRE_ADD,Fire ATK Bonus,14,15,,50797,88,DAMAGEADD_FIRE_ADD,Fire ATK Bonus,15,16,,51197,88,DAMAGEADD_FIRE_ADD,Fire ATK Bonus,16,17,,51597,236,BALANCE_VITALITY_ADD,Vitality Bonus,12,13,,51997,236,BALANCE_VITALITY_ADD,Vitality Bonus,13,15,,52397,236,BALANCE_VITALITY_ADD,Vitality Bonus,15,16
50398,89,DAMAGEADD_ICE_ADD,Ice ATK Bonus,14,15,,50798,89,DAMAGEADD_ICE_ADD,Ice ATK Bonus,15,16,,51198,89,DAMAGEADD_ICE_ADD,Ice ATK Bonus,16,17,,51598,236,BALANCE_VITALITY_ADD,Vitality Bonus,12,13,,51998,236,BALANCE_VITALITY_ADD,Vitality Bonus,13,15,,52398,236,BALANCE_VITALITY_ADD,Vitality Bonus,15,16
50399,90,DAMAGEADD_LIGHTNING_ADD,Lightning ATK Bonus,14,15,,50799,90,DAMAGEADD_LIGHTNING_ADD,Lightning ATK Bonus,15,16,,51199,90,DAMAGEADD_LIGHTNING_ADD,Lightning ATK Bonus,16,17,,51599,236,BALANCE_VITALITY_ADD,Vitality Bonus,12,13,,51999,236,BALANCE_VITALITY_ADD,Vitality Bonus,13,15,,52399,236,BALANCE_VITALITY_ADD,Vitality Bonus,15,16
50400,233,BALANCE_DEATHBLOW_ADD,Critical Damage Bonus,17,20,,50800,233,BALANCE_DEATHBLOW_ADD,Critical Damage Bonus,20,23,,51200,233,BALANCE_DEATHBLOW_ADD,Critical Damage Bonus,23,26,,51600,233,BALANCE_DEATHBLOW_ADD,Critical Damage Bonus,17,20,,52000,233,BALANCE_DEATHBLOW_ADD,Critical Damage Bonus,20,23,,52400,233,BALANCE_DEATHBLOW_ADD,Critical Damage Bonus,23,26
4040,,8,42,,,,4080,,8,42,,,,4120,,8,42,,,,4160,,8,42,,,,4200,,8,42,,,,4240,,8,42,,
50401,35,DAMAGE_MINMAGICAL_ADD,Magic ATK Bonus,14,16,,50801,35,DAMAGE_MINMAGICAL_ADD,Magic ATK Bonus,15,17,,51201,35,DAMAGE_MINMAGICAL_ADD,Magic ATK Bonus,17,19,,51601,35,DAMAGE_MINMAGICAL_ADD,Magic ATK Bonus,14,16,,52001,35,DAMAGE_MINMAGICAL_ADD,Magic ATK Bonus,15,17,,52401,35,DAMAGE_MINMAGICAL_ADD,Magic ATK Bonus,17,19
50402,35,DAMAGE_MINMAGICAL_ADD,Magic ATK Bonus,14,16,,50802,35,DAMAGE_MINMAGICAL_ADD,Magic ATK Bonus,15,17,,51202,35,DAMAGE_MINMAGICAL_ADD,Magic ATK Bonus,17,19,,51602,35,DAMAGE_MINMAGICAL_ADD,Magic ATK Bonus,14,16,,52002,35,DAMAGE_MINMAGICAL_ADD,Magic ATK Bonus,15,17,,52402,35,DAMAGE_MINMAGICAL_ADD,Magic ATK Bonus,17,19
50403,35,DAMAGE_MINMAGICAL_ADD,Magic ATK Bonus,14,16,,50803,35,DAMAGE_MINMAGICAL_ADD,Magic ATK Bonus,15,17,,51203,35,DAMAGE_MINMAGICAL_ADD,Magic ATK Bonus,17,19,,51603,35,DAMAGE_MINMAGICAL_ADD,Magic ATK Bonus,14,16,,52003,35,DAMAGE_MINMAGICAL_ADD,Magic ATK Bonus,15,17,,52403,35,DAMAGE_MINMAGICAL_ADD,Magic ATK Bonus,17,19
50404,35,DAMAGE_MINMAGICAL_ADD,Magic ATK Bonus,14,16,,50804,35,DAMAGE_MINMAGICAL_ADD,Magic ATK Bonus,15,17,,51204,35,DAMAGE_MINMAGICAL_ADD,Magic ATK Bonus,17,19,,51604,35,DAMAGE_MINMAGICAL_ADD,Magic ATK Bonus,14,16,,52004,35,DAMAGE_MINMAGICAL_ADD,Magic ATK Bonus,15,17,,52404,35,DAMAGE_MINMAGICAL_ADD,Magic ATK Bonus,17,19
50405,35,DAMAGE_MINMAGICAL_ADD,Magic ATK Bonus,14,16,,50805,35,DAMAGE_MINMAGICAL_ADD,Magic ATK Bonus,15,17,,51205,35,DAMAGE_MINMAGICAL_ADD,Magic ATK Bonus,17,19,,51605,35,DAMAGE_MINMAGICAL_ADD,Magic ATK Bonus,14,16,,52005,35,DAMAGE_MINMAGICAL_ADD,Magic ATK Bonus,15,17,,52405,35,DAMAGE_MINMAGICAL_ADD,Magic ATK Bonus,17,19
50406,35,DAMAGE_MINMAGICAL_ADD,Magic ATK Bonus,14,16,,50806,35,DAMAGE_MINMAGICAL_ADD,Magic ATK Bonus,15,17,,51206,35,DAMAGE_MINMAGICAL_ADD,Magic ATK Bonus,17,19,,51606,91,DAMAGEADD_POISON_ADD,Poison ATK Bonus,17,18,,52006,91,DAMAGEADD_POISON_ADD,Poison ATK Bonus,18,19,,52406,91,DAMAGEADD_POISON_ADD,Poison ATK Bonus,19,21
50407,88,DAMAGEADD_FIRE_ADD,Fire ATK Bonus,17,18,,50807,88,DAMAGEADD_FIRE_ADD,Fire ATK Bonus,18,19,,51207,88,DAMAGEADD_FIRE_ADD,Fire ATK Bonus,19,21,,51607,236,BALANCE_VITALITY_ADD,Vitality Bonus,14,16,,52007,236,BALANCE_VITALITY_ADD,Vitality Bonus,16,17,,52407,236,BALANCE_VITALITY_ADD,Vitality Bonus,17,19
50408,89,DAMAGEADD_ICE_ADD,Ice ATK Bonus,17,18,,50808,89,DAMAGEADD_ICE_ADD,Ice ATK Bonus,18,19,,51208,89,DAMAGEADD_ICE_ADD,Ice ATK Bonus,19,21,,51608,236,BALANCE_VITALITY_ADD,Vitality Bonus,14,16,,52008,236,BALANCE_VITALITY_ADD,Vitality Bonus,16,17,,52408,236,BALANCE_VITALITY_ADD,Vitality Bonus,17,19
50409,90,DAMAGEADD_LIGHTNING_ADD,Lightning ATK Bonus,17,18,,50809,90,DAMAGEADD_LIGHTNING_ADD,Lightning ATK Bonus,18,19,,51209,90,DAMAGEADD_LIGHTNING_ADD,Lightning ATK Bonus,19,21,,51609,236,BALANCE_VITALITY_ADD,Vitality Bonus,14,16,,52009,236,BALANCE_VITALITY_ADD,Vitality Bonus,16,17,,52409,236,BALANCE_VITALITY_ADD,Vitality Bonus,17,19
50410,233,BALANCE_DEATHBLOW_ADD,Critical Damage Bonus,21,24,,50810,233,BALANCE_DEATHBLOW_ADD,Critical Damage Bonus,24,28,,51210,233,BALANCE_DEATHBLOW_ADD,Critical Damage Bonus,28,31,,51610,233,BALANCE_DEATHBLOW_ADD,Critical Damage Bonus,21,24,,52010,233,BALANCE_DEATHBLOW_ADD,Critical Damage Bonus,24,28,,52410,233,BALANCE_DEATHBLOW_ADD,Critical Damage Bonus,28,31
4041,,9,48,,,,4081,,9,48,,,,4121,,9,48,,,,4161,,9,48,,,,4201,,9,48,,,,4241,,9,48,,
50411,35,DAMAGE_MINMAGICAL_ADD,Magic ATK Bonus,16,19,,50811,35,DAMAGE_MINMAGICAL_ADD,Magic ATK Bonus,18,20,,51211,35,DAMAGE_MINMAGICAL_ADD,Magic ATK Bonus,20,22,,51611,35,DAMAGE_MINMAGICAL_ADD,Magic ATK Bonus,16,19,,52011,35,DAMAGE_MINMAGICAL_ADD,Magic ATK Bonus,18,20,,52411,35,DAMAGE_MINMAGICAL_ADD,Magic ATK Bonus,20,22
50412,35,DAMAGE_MINMAGICAL_ADD,Magic ATK Bonus,16,19,,50812,35,DAMAGE_MINMAGICAL_ADD,Magic ATK Bonus,18,20,,51212,35,DAMAGE_MINMAGICAL_ADD,Magic ATK Bonus,20,22,,51612,35,DAMAGE_MINMAGICAL_ADD,Magic ATK Bonus,16,19,,52012,35,DAMAGE_MINMAGICAL_ADD,Magic ATK Bonus,18,20,,52412,35,DAMAGE_MINMAGICAL_ADD,Magic ATK Bonus,20,22
50413,35,DAMAGE_MINMAGICAL_ADD,Magic ATK Bonus,16,19,,50813,35,DAMAGE_MINMAGICAL_ADD,Magic ATK Bonus,18,20,,51213,35,DAMAGE_MINMAGICAL_ADD,Magic ATK Bonus,20,22,,51613,35,DAMAGE_MINMAGICAL_ADD,Magic ATK Bonus,16,19,,52013,35,DAMAGE_MINMAGICAL_ADD,Magic ATK Bonus,18,20,,52413,35,DAMAGE_MINMAGICAL_ADD,Magic ATK Bonus,20,22
50414,35,DAMAGE_MINMAGICAL_ADD,Magic ATK Bonus,16,19,,50814,35,DAMAGE_MINMAGICAL_ADD,Magic ATK Bonus,18,20,,51214,35,DAMAGE_MINMAGICAL_ADD,Magic ATK Bonus,20,22,,51614,35,DAMAGE_MINMAGICAL_ADD,Magic ATK Bonus,16,19,,52014,35,DAMAGE_MINMAGICAL_ADD,Magic ATK Bonus,18,20,,52414,35,DAMAGE_MINMAGICAL_ADD,Magic ATK Bonus,20,22
50415,35,DAMAGE_MINMAGICAL_ADD,Magic ATK Bonus,16,19,,50815,35,DAMAGE_MINMAGICAL_ADD,Magic ATK Bonus,18,20,,51215,35,DAMAGE_MINMAGICAL_ADD,Magic ATK Bonus,20,22,,51615,35,DAMAGE_MINMAGICAL_ADD,Magic ATK Bonus,16,19,,52015,35,DAMAGE_MINMAGICAL_ADD,Magic ATK Bonus,18,20,,52415,35,DAMAGE_MINMAGICAL_ADD,Magic ATK Bonus,20,22
50416,35,DAMAGE_MINMAGICAL_ADD,Magic ATK Bonus,16,19,,50816,35,DAMAGE_MINMAGICAL_ADD,Magic ATK Bonus,18,20,,51216,35,DAMAGE_MINMAGICAL_ADD,Magic ATK Bonus,20,22,,51616,91,DAMAGEADD_POISON_ADD,Poison ATK Bonus,20,21,,52016,91,DAMAGEADD_POISON_ADD,Poison ATK Bonus,21,23,,52416,91,DAMAGEADD_POISON_ADD,Poison ATK Bonus,23,24
50417,88,DAMAGEADD_FIRE_ADD,Fire ATK Bonus,20,21,,50817,88,DAMAGEADD_FIRE_ADD,Fire ATK Bonus,21,23,,51217,88,DAMAGEADD_FIRE_ADD,Fire ATK Bonus,23,24,,51617,236,BALANCE_VITALITY_ADD,Vitality Bonus,16,18,,52017,236,BALANCE_VITALITY_ADD,Vitality Bonus,18,20,,52417,236,BALANCE_VITALITY_ADD,Vitality Bonus,20,22
50418,89,DAMAGEADD_ICE_ADD,Ice ATK Bonus,20,21,,50818,89,DAMAGEADD_ICE_ADD,Ice ATK Bonus,21,23,,51218,89,DAMAGEADD_ICE_ADD,Ice ATK Bonus,23,24,,51618,236,BALANCE_VITALITY_ADD,Vitality Bonus,16,18,,52018,236,BALANCE_VITALITY_ADD,Vitality Bonus,18,20,,52418,236,BALANCE_VITALITY_ADD,Vitality Bonus,20,22
50419,90,DAMAGEADD_LIGHTNING_ADD,Lightning ATK Bonus,20,21,,50819,90,DAMAGEADD_LIGHTNING_ADD,Lightning ATK Bonus,21,23,,51219,90,DAMAGEADD_LIGHTNING_ADD,Lightning ATK Bonus,23,24,,51619,236,BALANCE_VITALITY_ADD,Vitality Bonus,16,18,,52019,236,BALANCE_VITALITY_ADD,Vitality Bonus,18,20,,52419,236,BALANCE_VITALITY_ADD,Vitality Bonus,20,22
50420,233,BALANCE_DEATHBLOW_ADD,Critical Damage Bonus,24,28,,50820,233,BALANCE_DEATHBLOW_ADD,Critical Damage Bonus,28,32,,51220,233,BALANCE_DEATHBLOW_ADD,Critical Damage Bonus,32,36,,51620,233,BALANCE_DEATHBLOW_ADD,Critical Damage Bonus,24,28,,52020,233,BALANCE_DEATHBLOW_ADD,Critical Damage Bonus,28,32,,52420,233,BALANCE_DEATHBLOW_ADD,Critical Damage Bonus,32,36
4042,,10,54,,,,4082,,10,54,,,,4122,,10,54,,,,4162,,10,54,,,,4202,,10,54,,,,4242,,10,54,,
50421,35,DAMAGE_MINMAGICAL_ADD,Magic ATK Bonus,19,22,,50821,35,DAMAGE_MINMAGICAL_ADD,Magic ATK Bonus,21,24,,51221,35,DAMAGE_MINMAGICAL_ADD,Magic ATK Bonus,23,25,,51621,35,DAMAGE_MINMAGICAL_ADD,Magic ATK Bonus,19,22,,52021,35,DAMAGE_MINMAGICAL_ADD,Magic ATK Bonus,21,24,,52421,35,DAMAGE_MINMAGICAL_ADD,Magic ATK Bonus,23,25
50422,35,DAMAGE_MINMAGICAL_ADD,Magic ATK Bonus,19,22,,50822,35,DAMAGE_MINMAGICAL_ADD,Magic ATK Bonus,21,24,,51222,35,DAMAGE_MINMAGICAL_ADD,Magic ATK Bonus,23,25,,51622,35,DAMAGE_MINMAGICAL_ADD,Magic ATK Bonus,19,22,,52022,35,DAMAGE_MINMAGICAL_ADD,Magic ATK Bonus,21,24,,52422,35,DAMAGE_MINMAGICAL_ADD,Magic ATK Bonus,23,25
50423,35,DAMAGE_MINMAGICAL_ADD,Magic ATK Bonus,19,22,,50823,35,DAMAGE_MINMAGICAL_ADD,Magic ATK Bonus,21,24,,51223,35,DAMAGE_MINMAGICAL_ADD,Magic ATK Bonus,23,25,,51623,35,DAMAGE_MINMAGICAL_ADD,Magic ATK Bonus,19,22,,52023,35,DAMAGE_MINMAGICAL_ADD,Magic ATK Bonus,21,24,,52423,35,DAMAGE_MINMAGICAL_ADD,Magic ATK Bonus,23,25
50424,35,DAMAGE_MINMAGICAL_ADD,Magic ATK Bonus,19,22,,50824,35,DAMAGE_MINMAGICAL_ADD,Magic ATK Bonus,21,24,,51224,35,DAMAGE_MINMAGICAL_ADD,Magic ATK Bonus,23,25,,51624,35,DAMAGE_MINMAGICAL_ADD,Magic ATK Bonus,19,22,,52024,35,DAMAGE_MINMAGICAL_ADD,Magic ATK Bonus,21,24,,52424,35,DAMAGE_MINMAGICAL_ADD,Magic ATK Bonus,23,25
50425,35,DAMAGE_MINMAGICAL_ADD,Magic ATK Bonus,19,22,,50825,35,DAMAGE_MINMAGICAL_ADD,Magic ATK Bonus,21,24,,51225,35,DAMAGE_MINMAGICAL_ADD,Magic ATK Bonus,23,25,,51625,35,DAMAGE_MINMAGICAL_ADD,Magic ATK Bonus,19,22,,52025,35,DAMAGE_MINMAGICAL_ADD,Magic ATK Bonus,21,24,,52425,35,DAMAGE_MINMAGICAL_ADD,Magic ATK Bonus,23,25
50426,35,DAMAGE_MINMAGICAL_ADD,Magic ATK Bonus,19,22,,50826,35,DAMAGE_MINMAGICAL_ADD,Magic ATK Bonus,21,24,,51226,35,DAMAGE_MINMAGICAL_ADD,Magic ATK Bonus,23,25,,51626,91,DAMAGEADD_POISON_ADD,Poison ATK Bonus,23,25,,52026,91,DAMAGEADD_POISON_ADD,Poison ATK Bonus,25,26,,52426,91,DAMAGEADD_POISON_ADD,Poison ATK Bonus,26,28
50427,88,DAMAGEADD_FIRE_ADD,Fire ATK Bonus,23,25,,50827,88,DAMAGEADD_FIRE_ADD,Fire ATK Bonus,25,26,,51227,88,DAMAGEADD_FIRE_ADD,Fire ATK Bonus,26,28,,51627,236,BALANCE_VITALITY_ADD,Vitality Bonus,18,20,,52027,236,BALANCE_VITALITY_ADD,Vitality Bonus,20,23,,52427,236,BALANCE_VITALITY_ADD,Vitality Bonus,23,25
50428,89,DAMAGEADD_ICE_ADD,Ice ATK Bonus,23,25,,50828,89,DAMAGEADD_ICE_ADD,Ice ATK Bonus,25,26,,51228,89,DAMAGEADD_ICE_ADD,Ice ATK Bonus,26,28,,51628,236,BALANCE_VITALITY_ADD,Vitality Bonus,18,20,,52028,236,BALANCE_VITALITY_ADD,Vitality Bonus,20,23,,52428,236,BALANCE_VITALITY_ADD,Vitality Bonus,23,25
50429,90,DAMAGEADD_LIGHTNING_ADD,Lightning ATK Bonus,23,25,,50829,90,DAMAGEADD_LIGHTNING_ADD,Lightning ATK Bonus,25,26,,51229,90,DAMAGEADD_LIGHTNING_ADD,Lightning ATK Bonus,26,28,,51629,236,BALANCE_VITALITY_ADD,Vitality Bonus,18,20,,52029,236,BALANCE_VITALITY_ADD,Vitality Bonus,20,23,,52429,236,BALANCE_VITALITY_ADD,Vitality Bonus,23,25
50430,233,BALANCE_DEATHBLOW_ADD,Critical Damage Bonus,27,32,,50830,233,BALANCE_DEATHBLOW_ADD,Critical Damage Bonus,32,36,,51230,233,BALANCE_DEATHBLOW_ADD,Critical Damage Bonus,36,41,,51630,233,BALANCE_DEATHBLOW_ADD,Critical Damage Bonus,27,32,,52030,233,BALANCE_DEATHBLOW_ADD,Critical Damage Bonus,32,36,,52430,233,BALANCE_DEATHBLOW_ADD,Critical Damage Bonus,36,41
4043,,11,60,,,,4083,,11,60,,,,4123,,11,60,,,,4163,,11,60,,,,4203,,11,60,,,,4243,,11,60,,
50431,35,DAMAGE_MINMAGICAL_ADD,Magic ATK Bonus,22,25,,50831,35,DAMAGE_MINMAGICAL_ADD,Magic ATK Bonus,24,27,,51231,35,DAMAGE_MINMAGICAL_ADD,Magic ATK Bonus,26,29,,51631,35,DAMAGE_MINMAGICAL_ADD,Magic ATK Bonus,22,25,,52031,35,DAMAGE_MINMAGICAL_ADD,Magic ATK Bonus,24,27,,52431,35,DAMAGE_MINMAGICAL_ADD,Magic ATK Bonus,26,29
50432,35,DAMAGE_MINMAGICAL_ADD,Magic ATK Bonus,22,25,,50832,35,DAMAGE_MINMAGICAL_ADD,Magic ATK Bonus,24,27,,51232,35,DAMAGE_MINMAGICAL_ADD,Magic ATK Bonus,26,29,,51632,35,DAMAGE_MINMAGICAL_ADD,Magic ATK Bonus,22,25,,52032,35,DAMAGE_MINMAGICAL_ADD,Magic ATK Bonus,24,27,,52432,35,DAMAGE_MINMAGICAL_ADD,Magic ATK Bonus,26,29
50433,35,DAMAGE_MINMAGICAL_ADD,Magic ATK Bonus,22,25,,50833,35,DAMAGE_MINMAGICAL_ADD,Magic ATK Bonus,24,27,,51233,35,DAMAGE_MINMAGICAL_ADD,Magic ATK Bonus,26,29,,51633,35,DAMAGE_MINMAGICAL_ADD,Magic ATK Bonus,22,25,,52033,35,DAMAGE_MINMAGICAL_ADD,Magic ATK Bonus,24,27,,52433,35,DAMAGE_MINMAGICAL_ADD,Magic ATK Bonus,26,29
50434,35,DAMAGE_MINMAGICAL_ADD,Magic ATK Bonus,22,25,,50834,35,DAMAGE_MINMAGICAL_ADD,Magic ATK Bonus,24,27,,51234,35,DAMAGE_MINMAGICAL_ADD,Magic ATK Bonus,26,29,,51634,35,DAMAGE_MINMAGICAL_ADD,Magic ATK Bonus,22,25,,52034,35,DAMAGE_MINMAGICAL_ADD,Magic ATK Bonus,24,27,,52434,35,DAMAGE_MINMAGICAL_ADD,Magic ATK Bonus,26,29
50435,35,DAMAGE_MINMAGICAL_ADD,Magic ATK Bonus,22,25,,50835,35,DAMAGE_MINMAGICAL_ADD,Magic ATK Bonus,24,27,,51235,35,DAMAGE_MINMAGICAL_ADD,Magic ATK Bonus,26,29,,51635,35,DAMAGE_MINMAGICAL_ADD,Magic ATK Bonus,22,25,,52035,35,DAMAGE_MINMAGICAL_ADD,Magic ATK Bonus,24,27,,52435,35,DAMAGE_MINMAGICAL_ADD,Magic ATK Bonus,26,29
50436,35,DAMAGE_MINMAGICAL_ADD,Magic ATK Bonus,22,25,,50836,35,DAMAGE_MINMAGICAL_ADD,Magic ATK Bonus,24,27,,51236,35,DAMAGE_MINMAGICAL_ADD,Magic ATK Bonus,26,29,,51636,91,DAMAGEADD_POISON_ADD,Poison ATK Bonus,26,28,,52036,91,DAMAGEADD_POISON_ADD,Poison ATK Bonus,28,30,,52436,91,DAMAGEADD_POISON_ADD,Poison ATK Bonus,30,32
50437,88,DAMAGEADD_FIRE_ADD,Fire ATK Bonus,26,28,,50837,88,DAMAGEADD_FIRE_ADD,Fire ATK Bonus,28,30,,51237,88,DAMAGEADD_FIRE_ADD,Fire ATK Bonus,30,32,,51637,236,BALANCE_VITALITY_ADD,Vitality Bonus,20,23,,52037,236,BALANCE_VITALITY_ADD,Vitality Bonus,23,26,,52437,236,BALANCE_VITALITY_ADD,Vitality Bonus,26,28
50438,89,DAMAGEADD_ICE_ADD,Ice ATK Bonus,26,28,,50838,89,DAMAGEADD_ICE_ADD,Ice ATK Bonus,28,30,,51238,89,DAMAGEADD_ICE_ADD,Ice ATK Bonus,30,32,,51638,236,BALANCE_VITALITY_ADD,Vitality Bonus,20,23,,52038,236,BALANCE_VITALITY_ADD,Vitality Bonus,23,26,,52438,236,BALANCE_VITALITY_ADD,Vitality Bonus,26,28
50439,90,DAMAGEADD_LIGHTNING_ADD,Lightning ATK Bonus,26,28,,50839,90,DAMAGEADD_LIGHTNING_ADD,Lightning ATK Bonus,28,30,,51239,90,DAMAGEADD_LIGHTNING_ADD,Lightning ATK Bonus,30,32,,51639,236,BALANCE_VITALITY_ADD,Vitality Bonus,20,23,,52039,236,BALANCE_VITALITY_ADD,Vitality Bonus,23,26,,52439,236,BALANCE_VITALITY_ADD,Vitality Bonus,26,28
50440,233,BALANCE_DEATHBLOW_ADD,Critical Damage Bonus,31,36,,50840,233,BALANCE_DEATHBLOW_ADD,Critical Damage Bonus,36,41,,51240,233,BALANCE_DEATHBLOW_ADD,Critical Damage Bonus,41,46,,51640,233,BALANCE_DEATHBLOW_ADD,Critical Damage Bonus,31,36,,52040,233,BALANCE_DEATHBLOW_ADD,Critical Damage Bonus,36,41,,52440,233,BALANCE_DEATHBLOW_ADD,Critical Damage Bonus,41,46
4044,,12,66,,,,4084,,12,66,,,,4124,,12,66,,,,4164,,12,66,,,,4204,,12,66,,,,4244,,12,66,,
50441,35,DAMAGE_MINMAGICAL_ADD,Magic ATK Bonus,25,28,,50841,35,DAMAGE_MINMAGICAL_ADD,Magic ATK Bonus,27,31,,51241,35,DAMAGE_MINMAGICAL_ADD,Magic ATK Bonus,29,33,,51641,35,DAMAGE_MINMAGICAL_ADD,Magic ATK Bonus,25,28,,52041,35,DAMAGE_MINMAGICAL_ADD,Magic ATK Bonus,27,31,,52441,35,DAMAGE_MINMAGICAL_ADD,Magic ATK Bonus,29,33
50442,35,DAMAGE_MINMAGICAL_ADD,Magic ATK Bonus,25,28,,50842,35,DAMAGE_MINMAGICAL_ADD,Magic ATK Bonus,27,31,,51242,35,DAMAGE_MINMAGICAL_ADD,Magic ATK Bonus,29,33,,51642,35,DAMAGE_MINMAGICAL_ADD,Magic ATK Bonus,25,28,,52042,35,DAMAGE_MINMAGICAL_ADD,Magic ATK Bonus,27,31,,52442,35,DAMAGE_MINMAGICAL_ADD,Magic ATK Bonus,29,33
50443,35,DAMAGE_MINMAGICAL_ADD,Magic ATK Bonus,25,28,,50843,35,DAMAGE_MINMAGICAL_ADD,Magic ATK Bonus,27,31,,51243,35,DAMAGE_MINMAGICAL_ADD,Magic ATK Bonus,29,33,,51643,35,DAMAGE_MINMAGICAL_ADD,Magic ATK Bonus,25,28,,52043,35,DAMAGE_MINMAGICAL_ADD,Magic ATK Bonus,27,31,,52443,35,DAMAGE_MINMAGICAL_ADD,Magic ATK Bonus,29,33
50444,35,DAMAGE_MINMAGICAL_ADD,Magic ATK Bonus,25,28,,50844,35,DAMAGE_MINMAGICAL_ADD,Magic ATK Bonus,27,31,,51244,35,DAMAGE_MINMAGICAL_ADD,Magic ATK Bonus,29,33,,51644,35,DAMAGE_MINMAGICAL_ADD,Magic ATK Bonus,25,28,,52044,35,DAMAGE_MINMAGICAL_ADD,Magic ATK Bonus,27,31,,52444,35,DAMAGE_MINMAGICAL_ADD,Magic ATK Bonus,29,33
50445,35,DAMAGE_MINMAGICAL_ADD,Magic ATK Bonus,25,28,,50845,35,DAMAGE_MINMAGICAL_ADD,Magic ATK Bonus,27,31,,51245,35,DAMAGE_MINMAGICAL_ADD,Magic ATK Bonus,29,33,,51645,35,DAMAGE_MINMAGICAL_ADD,Magic ATK Bonus,25,28,,52045,35,DAMAGE_MINMAGICAL_ADD,Magic ATK Bonus,27,31,,52445,35,DAMAGE_MINMAGICAL_ADD,Magic ATK Bonus,29,33
50446,35,DAMAGE_MINMAGICAL_ADD,Magic ATK Bonus,25,28,,50846,35,DAMAGE_MINMAGICAL_ADD,Magic ATK Bonus,27,31,,51246,35,DAMAGE_MINMAGICAL_ADD,Magic ATK Bonus,29,33,,51646,91,DAMAGEADD_POISON_ADD,Poison ATK Bonus,29,32,,52046,91,DAMAGEADD_POISON_ADD,Poison ATK Bonus,32,34,,52446,91,DAMAGEADD_POISON_ADD,Poison ATK Bonus,34,37
50447,88,DAMAGEADD_FIRE_ADD,Fire ATK Bonus,29,32,,50847,88,DAMAGEADD_FIRE_ADD,Fire ATK Bonus,32,34,,51247,88,DAMAGEADD_FIRE_ADD,Fire ATK Bonus,34,37,,51647,236,BALANCE_VITALITY_ADD,Vitality Bonus,22,25,,52047,236,BALANCE_VITALITY_ADD,Vitality Bonus,25,28,,52447,236,BALANCE_VITALITY_ADD,Vitality Bonus,28,32
50448,89,DAMAGEADD_ICE_ADD,Ice ATK Bonus,29,32,,50848,89,DAMAGEADD_ICE_ADD,Ice ATK Bonus,32,34,,51248,89,DAMAGEADD_ICE_ADD,Ice ATK Bonus,34,37,,51648,236,BALANCE_VITALITY_ADD,Vitality Bonus,22,25,,52048,236,BALANCE_VITALITY_ADD,Vitality Bonus,25,28,,52448,236,BALANCE_VITALITY_ADD,Vitality Bonus,28,32
50449,90,DAMAGEADD_LIGHTNING_ADD,Lightning ATK Bonus,29,32,,50849,90,DAMAGEADD_LIGHTNING_ADD,Lightning ATK Bonus,32,34,,51249,90,DAMAGEADD_LIGHTNING_ADD,Lightning ATK Bonus,34,37,,51649,236,BALANCE_VITALITY_ADD,Vitality Bonus,22,25,,52049,236,BALANCE_VITALITY_ADD,Vitality Bonus,25,28,,52449,236,BALANCE_VITALITY_ADD,Vitality Bonus,28,32
50450,233,BALANCE_DEATHBLOW_ADD,Critical Damage Bonus,34,40,,50850,233,BALANCE_DEATHBLOW_ADD,Critical Damage Bonus,40,46,,51250,233,BALANCE_DEATHBLOW_ADD,Critical Damage Bonus,46,51,,51650,233,BALANCE_DEATHBLOW_ADD,Critical Damage Bonus,34,40,,52050,233,BALANCE_DEATHBLOW_ADD,Critical Damage Bonus,40,46,,52450,233,BALANCE_DEATHBLOW_ADD,Critical Damage Bonus,46,51
4045,,13,72,,,,4085,,13,72,,,,4125,,13,72,,,,4165,,13,72,,,,4205,,13,72,,,,4245,,13,72,,
50451,35,DAMAGE_MINMAGICAL_ADD,Magic ATK Bonus,28,32,,50851,35,DAMAGE_MINMAGICAL_ADD,Magic ATK Bonus,30,34,,51251,35,DAMAGE_MINMAGICAL_ADD,Magic ATK Bonus,33,37,,51651,35,DAMAGE_MINMAGICAL_ADD,Magic ATK Bonus,28,32,,52051,35,DAMAGE_MINMAGICAL_ADD,Magic ATK Bonus,30,34,,52451,35,DAMAGE_MINMAGICAL_ADD,Magic ATK Bonus,33,37
50452,35,DAMAGE_MINMAGICAL_ADD,Magic ATK Bonus,28,32,,50852,35,DAMAGE_MINMAGICAL_ADD,Magic ATK Bonus,30,34,,51252,35,DAMAGE_MINMAGICAL_ADD,Magic ATK Bonus,33,37,,51652,35,DAMAGE_MINMAGICAL_ADD,Magic ATK Bonus,28,32,,52052,35,DAMAGE_MINMAGICAL_ADD,Magic ATK Bonus,30,34,,52452,35,DAMAGE_MINMAGICAL_ADD,Magic ATK Bonus,33,37
50453,35,DAMAGE_MINMAGICAL_ADD,Magic ATK Bonus,28,32,,50853,35,DAMAGE_MINMAGICAL_ADD,Magic ATK Bonus,30,34,,51253,35,DAMAGE_MINMAGICAL_ADD,Magic ATK Bonus,33,37,,51653,35,DAMAGE_MINMAGICAL_ADD,Magic ATK Bonus,28,32,,52053,35,DAMAGE_MINMAGICAL_ADD,Magic ATK Bonus,30,34,,52453,35,DAMAGE_MINMAGICAL_ADD,Magic ATK Bonus,33,37
50454,35,DAMAGE_MINMAGICAL_ADD,Magic ATK Bonus,28,32,,50854,35,DAMAGE_MINMAGICAL_ADD,Magic ATK Bonus,30,34,,51254,35,DAMAGE_MINMAGICAL_ADD,Magic ATK Bonus,33,37,,51654,35,DAMAGE_MINMAGICAL_ADD,Magic ATK Bonus,28,32,,52054,35,DAMAGE_MINMAGICAL_ADD,Magic ATK Bonus,30,34,,52454,35,DAMAGE_MINMAGICAL_ADD,Magic ATK Bonus,33,37
50455,35,DAMAGE_MINMAGICAL_ADD,Magic ATK Bonus,28,32,,50855,35,DAMAGE_MINMAGICAL_ADD,Magic ATK Bonus,30,34,,51255,35,DAMAGE_MINMAGICAL_ADD,Magic ATK Bonus,33,37,,51655,35,DAMAGE_MINMAGICAL_ADD,Magic ATK Bonus,28,32,,52055,35,DAMAGE_MINMAGICAL_ADD,Magic ATK Bonus,30,34,,52455,35,DAMAGE_MINMAGICAL_ADD,Magic ATK Bonus,33,37
50456,35,DAMAGE_MINMAGICAL_ADD,Magic ATK Bonus,28,32,,50856,35,DAMAGE_MINMAGICAL_ADD,Magic ATK Bonus,30,34,,51256,35,DAMAGE_MINMAGICAL_ADD,Magic ATK Bonus,33,37,,51656,91,DAMAGEADD_POISON_ADD,Poison ATK Bonus,33,36,,52056,91,DAMAGEADD_POISON_ADD,Poison ATK Bonus,36,38,,52456,91,DAMAGEADD_POISON_ADD,Poison ATK Bonus,38,41
50457,88,DAMAGEADD_FIRE_ADD,Fire ATK Bonus,33,36,,50857,88,DAMAGEADD_FIRE_ADD,Fire ATK Bonus,36,38,,51257,88,DAMAGEADD_FIRE_ADD,Fire ATK Bonus,38,41,,51657,236,BALANCE_VITALITY_ADD,Vitality Bonus,25,28,,52057,236,BALANCE_VITALITY_ADD,Vitality Bonus,28,31,,52457,236,BALANCE_VITALITY_ADD,Vitality Bonus,31,35
50458,89,DAMAGEADD_ICE_ADD,Ice ATK Bonus,33,36,,50858,89,DAMAGEADD_ICE_ADD,Ice ATK Bonus,36,38,,51258,89,DAMAGEADD_ICE_ADD,Ice ATK Bonus,38,41,,51658,236,BALANCE_VITALITY_ADD,Vitality Bonus,25,28,,52058,236,BALANCE_VITALITY_ADD,Vitality Bonus,28,31,,52458,236,BALANCE_VITALITY_ADD,Vitality Bonus,31,35
50459,90,DAMAGEADD_LIGHTNING_ADD,Lightning ATK Bonus,33,36,,50859,90,DAMAGEADD_LIGHTNING_ADD,Lightning ATK Bonus,36,38,,51259,90,DAMAGEADD_LIGHTNING_ADD,Lightning ATK Bonus,38,41,,51659,236,BALANCE_VITALITY_ADD,Vitality Bonus,25,28,,52059,236,BALANCE_VITALITY_ADD,Vitality Bonus,28,31,,52459,236,BALANCE_VITALITY_ADD,Vitality Bonus,31,35
50460,233,BALANCE_DEATHBLOW_ADD,Critical Damage Bonus,38,44,,50860,233,BALANCE_DEATHBLOW_ADD,Critical Damage Bonus,44,51,,51260,233,BALANCE_DEATHBLOW_ADD,Critical Damage Bonus,51,57,,51660,233,BALANCE_DEATHBLOW_ADD,Critical Damage Bonus,38,44,,52060,233,BALANCE_DEATHBLOW_ADD,Critical Damage Bonus,44,51,,52460,233,BALANCE_DEATHBLOW_ADD,Critical Damage Bonus,51,57
4046,,14,78,,,,4086,,14,78,,,,4126,,14,78,,,,4166,,14,78,,,,4206,,14,78,,,,4246,,14,78,,
50461,35,DAMAGE_MINMAGICAL_ADD,Magic ATK Bonus,31,35,,50861,35,DAMAGE_MINMAGICAL_ADD,Magic ATK Bonus,34,38,,51261,35,DAMAGE_MINMAGICAL_ADD,Magic ATK Bonus,37,41,,51661,35,DAMAGE_MINMAGICAL_ADD,Magic ATK Bonus,31,35,,52061,35,DAMAGE_MINMAGICAL_ADD,Magic ATK Bonus,34,38,,52461,35,DAMAGE_MINMAGICAL_ADD,Magic ATK Bonus,37,41
50462,35,DAMAGE_MINMAGICAL_ADD,Magic ATK Bonus,31,35,,50862,35,DAMAGE_MINMAGICAL_ADD,Magic ATK Bonus,34,38,,51262,35,DAMAGE_MINMAGICAL_ADD,Magic ATK Bonus,37,41,,51662,35,DAMAGE_MINMAGICAL_ADD,Magic ATK Bonus,31,35,,52062,35,DAMAGE_MINMAGICAL_ADD,Magic ATK Bonus,34,38,,52462,35,DAMAGE_MINMAGICAL_ADD,Magic ATK Bonus,37,41
50463,35,DAMAGE_MINMAGICAL_ADD,Magic ATK Bonus,31,35,,50863,35,DAMAGE_MINMAGICAL_ADD,Magic ATK Bonus,34,38,,51263,35,DAMAGE_MINMAGICAL_ADD,Magic ATK Bonus,37,41,,51663,35,DAMAGE_MINMAGICAL_ADD,Magic ATK Bonus,31,35,,52063,35,DAMAGE_MINMAGICAL_ADD,Magic ATK Bonus,34,38,,52463,35,DAMAGE_MINMAGICAL_ADD,Magic ATK Bonus,37,41
50464,35,DAMAGE_MINMAGICAL_ADD,Magic ATK Bonus,31,35,,50864,35,DAMAGE_MINMAGICAL_ADD,Magic ATK Bonus,34,38,,51264,35,DAMAGE_MINMAGICAL_ADD,Magic ATK Bonus,37,41,,51664,35,DAMAGE_MINMAGICAL_ADD,Magic ATK Bonus,31,35,,52064,35,DAMAGE_MINMAGICAL_ADD,Magic ATK Bonus,34,38,,52464,35,DAMAGE_MINMAGICAL_ADD,Magic ATK Bonus,37,41
50465,35,DAMAGE_MINMAGICAL_ADD,Magic ATK Bonus,31,35,,50865,35,DAMAGE_MINMAGICAL_ADD,Magic ATK Bonus,34,38,,51265,35,DAMAGE_MINMAGICAL_ADD,Magic ATK Bonus,37,41,,51665,35,DAMAGE_MINMAGICAL_ADD,Magic ATK Bonus,31,35,,52065,35,DAMAGE_MINMAGICAL_ADD,Magic ATK Bonus,34,38,,52465,35,DAMAGE_MINMAGICAL_ADD,Magic ATK Bonus,37,41
50466,35,DAMAGE_MINMAGICAL_ADD,Magic ATK Bonus,31,35,,50866,35,DAMAGE_MINMAGICAL_ADD,Magic ATK Bonus,34,38,,51266,35,DAMAGE_MINMAGICAL_ADD,Magic ATK Bonus,37,41,,51666,91,DAMAGEADD_POISON_ADD,Poison ATK Bonus,37,40,,52066,91,DAMAGEADD_POISON_ADD,Poison ATK Bonus,40,43,,52466,91,DAMAGEADD_POISON_ADD,Poison ATK Bonus,43,46
50467,88,DAMAGEADD_FIRE_ADD,Fire ATK Bonus,37,40,,50867,88,DAMAGEADD_FIRE_ADD,Fire ATK Bonus,40,43,,51267,88,DAMAGEADD_FIRE_ADD,Fire ATK Bonus,43,46,,51667,236,BALANCE_VITALITY_ADD,Vitality Bonus,27,31,,52067,236,BALANCE_VITALITY_ADD,Vitality Bonus,31,34,,52467,236,BALANCE_VITALITY_ADD,Vitality Bonus,34,38
50468,89,DAMAGEADD_ICE_ADD,Ice ATK Bonus,37,40,,50868,89,DAMAGEADD_ICE_ADD,Ice ATK Bonus,40,43,,51268,89,DAMAGEADD_ICE_ADD,Ice ATK Bonus,43,46,,51668,236,BALANCE_VITALITY_ADD,Vitality Bonus,27,31,,52068,236,BALANCE_VITALITY_ADD,Vitality Bonus,31,34,,52468,236,BALANCE_VITALITY_ADD,Vitality Bonus,34,38
50469,90,DAMAGEADD_LIGHTNING_ADD,Lightning ATK Bonus,37,40,,50869,90,DAMAGEADD_LIGHTNING_ADD,Lightning ATK Bonus,40,43,,51269,90,DAMAGEADD_LIGHTNING_ADD,Lightning ATK Bonus,43,46,,51669,236,BALANCE_VITALITY_ADD,Vitality Bonus,27,31,,52069,236,BALANCE_VITALITY_ADD,Vitality Bonus,31,34,,52469,236,BALANCE_VITALITY_ADD,Vitality Bonus,34,38
50470,233,BALANCE_DEATHBLOW_ADD,Critical Damage Bonus,42,49,,50870,233,BALANCE_DEATHBLOW_ADD,Critical Damage Bonus,49,56,,51270,233,BALANCE_DEATHBLOW_ADD,Critical Damage Bonus,56,63,,51670,233,BALANCE_DEATHBLOW_ADD,Critical Damage Bonus,42,49,,52070,233,BALANCE_DEATHBLOW_ADD,Critical Damage Bonus,49,56,,52470,233,BALANCE_DEATHBLOW_ADD,Critical Damage Bonus,56,63
4047,,15,85,,,,4087,,15,85,,,,4127,,15,85,,,,4167,,15,85,,,,4207,,15,85,,,,4247,,15,85,,
50471,35,DAMAGE_MINMAGICAL_ADD,Magic ATK Bonus,34,39,,50871,35,DAMAGE_MINMAGICAL_ADD,Magic ATK Bonus,38,43,,51271,35,DAMAGE_MINMAGICAL_ADD,Magic ATK Bonus,41,46,,51671,35,DAMAGE_MINMAGICAL_ADD,Magic ATK Bonus,34,39,,52071,35,DAMAGE_MINMAGICAL_ADD,Magic ATK Bonus,38,43,,52471,35,DAMAGE_MINMAGICAL_ADD,Magic ATK Bonus,41,46
50472,35,DAMAGE_MINMAGICAL_ADD,Magic ATK Bonus,34,39,,50872,35,DAMAGE_MINMAGICAL_ADD,Magic ATK Bonus,38,43,,51272,35,DAMAGE_MINMAGICAL_ADD,Magic ATK Bonus,41,46,,51672,35,DAMAGE_MINMAGICAL_ADD,Magic ATK Bonus,34,39,,52072,35,DAMAGE_MINMAGICAL_ADD,Magic ATK Bonus,38,43,,52472,35,DAMAGE_MINMAGICAL_ADD,Magic ATK Bonus,41,46
50473,35,DAMAGE_MINMAGICAL_ADD,Magic ATK Bonus,34,39,,50873,35,DAMAGE_MINMAGICAL_ADD,Magic ATK Bonus,38,43,,51273,35,DAMAGE_MINMAGICAL_ADD,Magic ATK Bonus,41,46,,51673,35,DAMAGE_MINMAGICAL_ADD,Magic ATK Bonus,34,39,,52073,35,DAMAGE_MINMAGICAL_ADD,Magic ATK Bonus,38,43,,52473,35,DAMAGE_MINMAGICAL_ADD,Magic ATK Bonus,41,46
50474,35,DAMAGE_MINMAGICAL_ADD,Magic ATK Bonus,34,39,,50874,35,DAMAGE_MINMAGICAL_ADD,Magic ATK Bonus,38,43,,51274,35,DAMAGE_MINMAGICAL_ADD,Magic ATK Bonus,41,46,,51674,35,DAMAGE_MINMAGICAL_ADD,Magic ATK Bonus,34,39,,52074,35,DAMAGE_MINMAGICAL_ADD,Magic ATK Bonus,38,43,,52474,35,DAMAGE_MINMAGICAL_ADD,Magic ATK Bonus,41,46
50475,35,DAMAGE_MINMAGICAL_ADD,Magic ATK Bonus,34,39,,50875,35,DAMAGE_MINMAGICAL_ADD,Magic ATK Bonus,38,43,,51275,35,DAMAGE_MINMAGICAL_ADD,Magic ATK Bonus,41,46,,51675,35,DAMAGE_MINMAGICAL_ADD,Magic ATK Bonus,34,39,,52075,35,DAMAGE_MINMAGICAL_ADD,Magic ATK Bonus,38,43,,52475,35,DAMAGE_MINMAGICAL_ADD,Magic ATK Bonus,41,46
50476,35,DAMAGE_MINMAGICAL_ADD,Magic ATK Bonus,34,39,,50876,35,DAMAGE_MINMAGICAL_ADD,Magic ATK Bonus,38,43,,51276,35,DAMAGE_MINMAGICAL_ADD,Magic ATK Bonus,41,46,,51676,91,DAMAGEADD_POISON_ADD,Poison ATK Bonus,41,44,,52076,91,DAMAGEADD_POISON_ADD,Poison ATK Bonus,44,48,,52476,91,DAMAGEADD_POISON_ADD,Poison ATK Bonus,48,51
50477,88,DAMAGEADD_FIRE_ADD,Fire ATK Bonus,41,44,,50877,88,DAMAGEADD_FIRE_ADD,Fire ATK Bonus,44,48,,51277,88,DAMAGEADD_FIRE_ADD,Fire ATK Bonus,48,51,,51677,236,BALANCE_VITALITY_ADD,Vitality Bonus,30,34,,52077,236,BALANCE_VITALITY_ADD,Vitality Bonus,34,38,,52477,236,BALANCE_VITALITY_ADD,Vitality Bonus,38,42
50478,89,DAMAGEADD_ICE_ADD,Ice ATK Bonus,41,44,,50878,89,DAMAGEADD_ICE_ADD,Ice ATK Bonus,44,48,,51278,89,DAMAGEADD_ICE_ADD,Ice ATK Bonus,48,51,,51678,236,BALANCE_VITALITY_ADD,Vitality Bonus,30,34,,52078,236,BALANCE_VITALITY_ADD,Vitality Bonus,34,38,,52478,236,BALANCE_VITALITY_ADD,Vitality Bonus,38,42
50479,90,DAMAGEADD_LIGHTNING_ADD,Lightning ATK Bonus,41,44,,50879,90,DAMAGEADD_LIGHTNING_ADD,Lightning ATK Bonus,44,48,,51279,90,DAMAGEADD_LIGHTNING_ADD,Lightning ATK Bonus,48,51,,51679,236,BALANCE_VITALITY_ADD,Vitality Bonus,30,34,,52079,236,BALANCE_VITALITY_ADD,Vitality Bonus,34,38,,52479,236,BALANCE_VITALITY_ADD,Vitality Bonus,38,42
50480,233,BALANCE_DEATHBLOW_ADD,Critical Damage Bonus,46,54,,50880,233,BALANCE_DEATHBLOW_ADD,Critical Damage Bonus,54,62,,51280,233,BALANCE_DEATHBLOW_ADD,Critical Damage Bonus,62,70,,51680,233,BALANCE_DEATHBLOW_ADD,Critical Damage Bonus,46,54,,52080,233,BALANCE_DEATHBLOW_ADD,Critical Damage Bonus,54,62,,52480,233,BALANCE_DEATHBLOW_ADD,Critical Damage Bonus,62,70
4048,,16,95,,,,4088,,16,95,,,,4128,,16,95,,,,4168,,16,95,,,,4208,,16,95,,,,4248,,16,95,,
50481,35,DAMAGE_MINMAGICAL_ADD,Magic ATK Bonus,40,46,,50881,35,DAMAGE_MINMAGICAL_ADD,Magic ATK Bonus,44,50,,51281,35,DAMAGE_MINMAGICAL_ADD,Magic ATK Bonus,48,54,,51681,35,DAMAGE_MINMAGICAL_ADD,Magic ATK Bonus,40,46,,52081,35,DAMAGE_MINMAGICAL_ADD,Magic ATK Bonus,44,50,,52481,35,DAMAGE_MINMAGICAL_ADD,Magic ATK Bonus,48,54
50482,35,DAMAGE_MINMAGICAL_ADD,Magic ATK Bonus,40,46,,50882,35,DAMAGE_MINMAGICAL_ADD,Magic ATK Bonus,44,50,,51282,35,DAMAGE_MINMAGICAL_ADD,Magic ATK Bonus,48,54,,51682,35,DAMAGE_MINMAGICAL_ADD,Magic ATK Bonus,40,46,,52082,35,DAMAGE_MINMAGICAL_ADD,Magic ATK Bonus,44,50,,52482,35,DAMAGE_MINMAGICAL_ADD,Magic ATK Bonus,48,54
50483,35,DAMAGE_MINMAGICAL_ADD,Magic ATK Bonus,40,46,,50883,35,DAMAGE_MINMAGICAL_ADD,Magic ATK Bonus,44,50,,51283,35,DAMAGE_MINMAGICAL_ADD,Magic ATK Bonus,48,54,,51683,35,DAMAGE_MINMAGICAL_ADD,Magic ATK Bonus,40,46,,52083,35,DAMAGE_MINMAGICAL_ADD,Magic ATK Bonus,44,50,,52483,35,DAMAGE_MINMAGICAL_ADD,Magic ATK Bonus,48,54
50484,35,DAMAGE_MINMAGICAL_ADD,Magic ATK Bonus,40,46,,50884,35,DAMAGE_MINMAGICAL_ADD,Magic ATK Bonus,44,50,,51284,35,DAMAGE_MINMAGICAL_ADD,Magic ATK Bonus,48,54,,51684,35,DAMAGE_MINMAGICAL_ADD,Magic ATK Bonus,40,46,,52084,35,DAMAGE_MINMAGICAL_ADD,Magic ATK Bonus,44,50,,52484,35,DAMAGE_MINMAGICAL_ADD,Magic ATK Bonus,48,54
50485,35,DAMAGE_MINMAGICAL_ADD,Magic ATK Bonus,40,46,,50885,35,DAMAGE_MINMAGICAL_ADD,Magic ATK Bonus,44,50,,51285,35,DAMAGE_MINMAGICAL_ADD,Magic ATK Bonus,48,54,,51685,35,DAMAGE_MINMAGICAL_ADD,Magic ATK Bonus,40,46,,52085,35,DAMAGE_MINMAGICAL_ADD,Magic ATK Bonus,44,50,,52485,35,DAMAGE_MINMAGICAL_ADD,Magic ATK Bonus,48,54
50486,35,DAMAGE_MINMAGICAL_ADD,Magic ATK Bonus,40,46,,50886,35,DAMAGE_MINMAGICAL_ADD,Magic ATK Bonus,44,50,,51286,35,DAMAGE_MINMAGICAL_ADD,Magic ATK Bonus,48,54,,51686,91,DAMAGEADD_POISON_ADD,Poison ATK Bonus,48,52,,52086,91,DAMAGEADD_POISON_ADD,Poison ATK Bonus,52,56,,52486,91,DAMAGEADD_POISON_ADD,Poison ATK Bonus,56,60
50487,88,DAMAGEADD_FIRE_ADD,Fire ATK Bonus,48,52,,50887,88,DAMAGEADD_FIRE_ADD,Fire ATK Bonus,52,56,,51287,88,DAMAGEADD_FIRE_ADD,Fire ATK Bonus,56,60,,51687,236,BALANCE_VITALITY_ADD,Vitality Bonus,34,38,,52087,236,BALANCE_VITALITY_ADD,Vitality Bonus,38,43,,52487,236,BALANCE_VITALITY_ADD,Vitality Bonus,43,48
50488,89,DAMAGEADD_ICE_ADD,Ice ATK Bonus,48,52,,50888,89,DAMAGEADD_ICE_ADD,Ice ATK Bonus,52,56,,51288,89,DAMAGEADD_ICE_ADD,Ice ATK Bonus,56,60,,51688,236,BALANCE_VITALITY_ADD,Vitality Bonus,34,38,,52088,236,BALANCE_VITALITY_ADD,Vitality Bonus,38,43,,52488,236,BALANCE_VITALITY_ADD,Vitality Bonus,43,48
50489,90,DAMAGEADD_LIGHTNING_ADD,Lightning ATK Bonus,48,52,,50889,90,DAMAGEADD_LIGHTNING_ADD,Lightning ATK Bonus,52,56,,51289,90,DAMAGEADD_LIGHTNING_ADD,Lightning ATK Bonus,56,60,,51689,236,BALANCE_VITALITY_ADD,Vitality Bonus,34,38,,52089,236,BALANCE_VITALITY_ADD,Vitality Bonus,38,43,,52489,236,BALANCE_VITALITY_ADD,Vitality Bonus,43,48
50490,233,BALANCE_DEATHBLOW_ADD,Critical Damage Bonus,53,62,,50890,233,BALANCE_DEATHBLOW_ADD,Critical Damage Bonus,62,71,,51290,233,BALANCE_DEATHBLOW_ADD,Critical Damage Bonus,71,80,,51690,233,BALANCE_DEATHBLOW_ADD,Critical Damage Bonus,53,62,,52090,233,BALANCE_DEATHBLOW_ADD,Critical Damage Bonus,62,71,,52490,233,BALANCE_DEATHBLOW_ADD,Critical Damage Bonus,71,80
4049,,17,105,,,,4089,,17,105,,,,4129,,17,105,,,,4169,,17,105,,,,4209,,17,105,,,,4249,,17,105,,
50491,35,DAMAGE_MINMAGICAL_ADD,Magic ATK Bonus,46,53,,50891,35,DAMAGE_MINMAGICAL_ADD,Magic ATK Bonus,51,58,,51291,35,DAMAGE_MINMAGICAL_ADD,Magic ATK Bonus,55,62,,51691,35,DAMAGE_MINMAGICAL_ADD,Magic ATK Bonus,46,53,,52091,35,DAMAGE_MINMAGICAL_ADD,Magic ATK Bonus,51,58,,52491,35,DAMAGE_MINMAGICAL_ADD,Magic ATK Bonus,55,62
50492,35,DAMAGE_MINMAGICAL_ADD,Magic ATK Bonus,46,53,,50892,35,DAMAGE_MINMAGICAL_ADD,Magic ATK Bonus,51,58,,51292,35,DAMAGE_MINMAGICAL_ADD,Magic ATK Bonus,55,62,,51692,35,DAMAGE_MINMAGICAL_ADD,Magic ATK Bonus,46,53,,52092,35,DAMAGE_MINMAGICAL_ADD,Magic ATK Bonus,51,58,,52492,35,DAMAGE_MINMAGICAL_ADD,Magic ATK Bonus,55,62
50493,35,DAMAGE_MINMAGICAL_ADD,Magic ATK Bonus,46,53,,50893,35,DAMAGE_MINMAGICAL_ADD,Magic ATK Bonus,51,58,,51293,35,DAMAGE_MINMAGICAL_ADD,Magic ATK Bonus,55,62,,51693,35,DAMAGE_MINMAGICAL_ADD,Magic ATK Bonus,46,53,,52093,35,DAMAGE_MINMAGICAL_ADD,Magic ATK Bonus,51,58,,52493,35,DAMAGE_MINMAGICAL_ADD,Magic ATK Bonus,55,62
50494,35,DAMAGE_MINMAGICAL_ADD,Magic ATK Bonus,46,53,,50894,35,DAMAGE_MINMAGICAL_ADD,Magic ATK Bonus,51,58,,51294,35,DAMAGE_MINMAGICAL_ADD,Magic ATK Bonus,55,62,,51694,35,DAMAGE_MINMAGICAL_ADD,Magic ATK Bonus,46,53,,52094,35,DAMAGE_MINMAGICAL_ADD,Magic ATK Bonus,51,58,,52494,35,DAMAGE_MINMAGICAL_ADD,Magic ATK Bonus,55,62
50495,35,DAMAGE_MINMAGICAL_ADD,Magic ATK Bonus,46,53,,50895,35,DAMAGE_MINMAGICAL_ADD,Magic ATK Bonus,51,58,,51295,35,DAMAGE_MINMAGICAL_ADD,Magic ATK Bonus,55,62,,51695,35,DAMAGE_MINMAGICAL_ADD,Magic ATK Bonus,46,53,,52095,35,DAMAGE_MINMAGICAL_ADD,Magic ATK Bonus,51,58,,52495,35,DAMAGE_MINMAGICAL_ADD,Magic ATK Bonus,55,62
50496,35,DAMAGE_MINMAGICAL_ADD,Magic ATK Bonus,46,53,,50896,35,DAMAGE_MINMAGICAL_ADD,Magic ATK Bonus,51,58,,51296,35,DAMAGE_MINMAGICAL_ADD,Magic ATK Bonus,55,62,,51696,91,DAMAGEADD_POISON_ADD,Poison ATK Bonus,55,60,,52096,91,DAMAGEADD_POISON_ADD,Poison ATK Bonus,60,64,,52496,91,DAMAGEADD_POISON_ADD,Poison ATK Bonus,64,69
50497,88,DAMAGEADD_FIRE_ADD,Fire ATK Bonus,55,60,,50897,88,DAMAGEADD_FIRE_ADD,Fire ATK Bonus,60,64,,51297,88,DAMAGEADD_FIRE_ADD,Fire ATK Bonus,64,69,,51697,236,BALANCE_VITALITY_ADD,Vitality Bonus,38,43,,52097,236,BALANCE_VITALITY_ADD,Vitality Bonus,43,48,,52497,236,BALANCE_VITALITY_ADD,Vitality Bonus,48,54
50498,89,DAMAGEADD_ICE_ADD,Ice ATK Bonus,55,60,,50898,89,DAMAGEADD_ICE_ADD,Ice ATK Bonus,60,64,,51298,89,DAMAGEADD_ICE_ADD,Ice ATK Bonus,64,69,,51698,236,BALANCE_VITALITY_ADD,Vitality Bonus,38,43,,52098,236,BALANCE_VITALITY_ADD,Vitality Bonus,43,48,,52498,236,BALANCE_VITALITY_ADD,Vitality Bonus,48,54
50499,90,DAMAGEADD_LIGHTNING_ADD,Lightning ATK Bonus,55,60,,50899,90,DAMAGEADD_LIGHTNING_ADD,Lightning ATK Bonus,60,64,,51299,90,DAMAGEADD_LIGHTNING_ADD,Lightning ATK Bonus,64,69,,51699,236,BALANCE_VITALITY_ADD,Vitality Bonus,38,43,,52099,236,BALANCE_VITALITY_ADD,Vitality Bonus,43,48,,52499,236,BALANCE_VITALITY_ADD,Vitality Bonus,48,54
50500,233,BALANCE_DEATHBLOW_ADD,Critical Damage Bonus,60,70,,50900,233,BALANCE_DEATHBLOW_ADD,Critical Damage Bonus,70,80,,51300,233,BALANCE_DEATHBLOW_ADD,Critical Damage Bonus,80,90,,51700,233,BALANCE_DEATHBLOW_ADD,Critical Damage Bonus,60,70,,52100,233,BALANCE_DEATHBLOW_ADD,Critical Damage Bonus,70,80,,52500,233,BALANCE_DEATHBLOW_ADD,Critical Damage Bonus,80,90
4050,,18,115,,,,4090,,18,115,,,,4130,,18,115,,,,4170,,18,115,,,,4210,,18,115,,,,4250,,18,115,,
50501,35,DAMAGE_MINMAGICAL_ADD,Magic ATK Bonus,53,61,,50901,35,DAMAGE_MINMAGICAL_ADD,Magic ATK Bonus,58,66,,51301,35,DAMAGE_MINMAGICAL_ADD,Magic ATK Bonus,63,71,,51701,35,DAMAGE_MINMAGICAL_ADD,Magic ATK Bonus,53,61,,52101,35,DAMAGE_MINMAGICAL_ADD,Magic ATK Bonus,58,66,,52501,35,DAMAGE_MINMAGICAL_ADD,Magic ATK Bonus,63,71
50502,35,DAMAGE_MINMAGICAL_ADD,Magic ATK Bonus,53,61,,50902,35,DAMAGE_MINMAGICAL_ADD,Magic ATK Bonus,58,66,,51302,35,DAMAGE_MINMAGICAL_ADD,Magic ATK Bonus,63,71,,51702,35,DAMAGE_MINMAGICAL_ADD,Magic ATK Bonus,53,61,,52102,35,DAMAGE_MINMAGICAL_ADD,Magic ATK Bonus,58,66,,52502,35,DAMAGE_MINMAGICAL_ADD,Magic ATK Bonus,63,71
50503,35,DAMAGE_MINMAGICAL_ADD,Magic ATK Bonus,53,61,,50903,35,DAMAGE_MINMAGICAL_ADD,Magic ATK Bonus,58,66,,51303,35,DAMAGE_MINMAGICAL_ADD,Magic ATK Bonus,63,71,,51703,35,DAMAGE_MINMAGICAL_ADD,Magic ATK Bonus,53,61,,52103,35,DAMAGE_MINMAGICAL_ADD,Magic ATK Bonus,58,66,,52503,35,DAMAGE_MINMAGICAL_ADD,Magic ATK Bonus,63,71
50504,35,DAMAGE_MINMAGICAL_ADD,Magic ATK Bonus,53,61,,50904,35,DAMAGE_MINMAGICAL_ADD,Magic ATK Bonus,58,66,,51304,35,DAMAGE_MINMAGICAL_ADD,Magic ATK Bonus,63,71,,51704,35,DAMAGE_MINMAGICAL_ADD,Magic ATK Bonus,53,61,,52104,35,DAMAGE_MINMAGICAL_ADD,Magic ATK Bonus,58,66,,52504,35,DAMAGE_MINMAGICAL_ADD,Magic ATK Bonus,63,71
50505,35,DAMAGE_MINMAGICAL_ADD,Magic ATK Bonus,53,61,,50905,35,DAMAGE_MINMAGICAL_ADD,Magic ATK Bonus,58,66,,51305,35,DAMAGE_MINMAGICAL_ADD,Magic ATK Bonus,63,71,,51705,35,DAMAGE_MINMAGICAL_ADD,Magic ATK Bonus,53,61,,52105,35,DAMAGE_MINMAGICAL_ADD,Magic ATK Bonus,58,66,,52505,35,DAMAGE_MINMAGICAL_ADD,Magic ATK Bonus,63,71
50506,35,DAMAGE_MINMAGICAL_ADD,Magic ATK Bonus,53,61,,50906,35,DAMAGE_MINMAGICAL_ADD,Magic ATK Bonus,58,66,,51306,35,DAMAGE_MINMAGICAL_ADD,Magic ATK Bonus,63,71,,51706,91,DAMAGEADD_POISON_ADD,Poison ATK Bonus,63,68,,52106,91,DAMAGEADD_POISON_ADD,Poison ATK Bonus,68,73,,52506,91,DAMAGEADD_POISON_ADD,Poison ATK Bonus,73,78
50507,88,DAMAGEADD_FIRE_ADD,Fire ATK Bonus,63,68,,50907,88,DAMAGEADD_FIRE_ADD,Fire ATK Bonus,68,73,,51307,88,DAMAGEADD_FIRE_ADD,Fire ATK Bonus,73,78,,51707,236,BALANCE_VITALITY_ADD,Vitality Bonus,42,48,,52107,236,BALANCE_VITALITY_ADD,Vitality Bonus,48,54,,52507,236,BALANCE_VITALITY_ADD,Vitality Bonus,54,60
50508,89,DAMAGEADD_ICE_ADD,Ice ATK Bonus,63,68,,50908,89,DAMAGEADD_ICE_ADD,Ice ATK Bonus,68,73,,51308,89,DAMAGEADD_ICE_ADD,Ice ATK Bonus,73,78,,51708,236,BALANCE_VITALITY_ADD,Vitality Bonus,42,48,,52108,236,BALANCE_VITALITY_ADD,Vitality Bonus,48,54,,52508,236,BALANCE_VITALITY_ADD,Vitality Bonus,54,60
50509,90,DAMAGEADD_LIGHTNING_ADD,Lightning ATK Bonus,63,68,,50909,90,DAMAGEADD_LIGHTNING_ADD,Lightning ATK Bonus,68,73,,51309,90,DAMAGEADD_LIGHTNING_ADD,Lightning ATK Bonus,73,78,,51709,236,BALANCE_VITALITY_ADD,Vitality Bonus,42,48,,52109,236,BALANCE_VITALITY_ADD,Vitality Bonus,48,54,,52509,236,BALANCE_VITALITY_ADD,Vitality Bonus,54,60
50510,233,BALANCE_DEATHBLOW_ADD,Critical Damage Bonus,68,79,,50910,233,BALANCE_DEATHBLOW_ADD,Critical Damage Bonus,79,90,,51310,233,BALANCE_DEATHBLOW_ADD,Critical Damage Bonus,90,102,,51710,233,BALANCE_DEATHBLOW_ADD,Critical Damage Bonus,68,79,,52110,233,BALANCE_DEATHBLOW_ADD,Critical Damage Bonus,79,90,,52510,233,BALANCE_DEATHBLOW_ADD,Critical Damage Bonus,90,102
4051,,19,130,,,,4091,,19,130,,,,4131,,19,130,,,,4171,,19,130,,,,4211,,19,130,,,,4251,,19,130,,
50511,35,DAMAGE_MINMAGICAL_ADD,Magic ATK Bonus,63,73,,50911,35,DAMAGE_MINMAGICAL_ADD,Magic ATK Bonus,70,79,,51311,35,DAMAGE_MINMAGICAL_ADD,Magic ATK Bonus,76,85,,51711,35,DAMAGE_MINMAGICAL_ADD,Magic ATK Bonus,63,73,,52111,35,DAMAGE_MINMAGICAL_ADD,Magic ATK Bonus,70,79,,52511,35,DAMAGE_MINMAGICAL_ADD,Magic ATK Bonus,76,85
50512,35,DAMAGE_MINMAGICAL_ADD,Magic ATK Bonus,63,73,,50912,35,DAMAGE_MINMAGICAL_ADD,Magic ATK Bonus,70,79,,51312,35,DAMAGE_MINMAGICAL_ADD,Magic ATK Bonus,76,85,,51712,35,DAMAGE_MINMAGICAL_ADD,Magic ATK Bonus,63,73,,52112,35,DAMAGE_MINMAGICAL_ADD,Magic ATK Bonus,70,79,,52512,35,DAMAGE_MINMAGICAL_ADD,Magic ATK Bonus,76,85
50513,35,DAMAGE_MINMAGICAL_ADD,Magic ATK Bonus,63,73,,50913,35,DAMAGE_MINMAGICAL_ADD,Magic ATK Bonus,70,79,,51313,35,DAMAGE_MINMAGICAL_ADD,Magic ATK Bonus,76,85,,51713,35,DAMAGE_MINMAGICAL_ADD,Magic ATK Bonus,63,73,,52113,35,DAMAGE_MINMAGICAL_ADD,Magic ATK Bonus,70,79,,52513,35,DAMAGE_MINMAGICAL_ADD,Magic ATK Bonus,76,85
50514,35,DAMAGE_MINMAGICAL_ADD,Magic ATK Bonus,63,73,,50914,35,DAMAGE_MINMAGICAL_ADD,Magic ATK Bonus,70,79,,51314,35,DAMAGE_MINMAGICAL_ADD,Magic ATK Bonus,76,85,,51714,35,DAMAGE_MINMAGICAL_ADD,Magic ATK Bonus,63,73,,52114,35,DAMAGE_MINMAGICAL_ADD,Magic ATK Bonus,70,79,,52514,35,DAMAGE_MINMAGICAL_ADD,Magic ATK Bonus,76,85
50515,35,DAMAGE_MINMAGICAL_ADD,Magic ATK Bonus,63,73,,50915,35,DAMAGE_MINMAGICAL_ADD,Magic ATK Bonus,70,79,,51315,35,DAMAGE_MINMAGICAL_ADD,Magic ATK Bonus,76,85,,51715,35,DAMAGE_MINMAGICAL_ADD,Magic ATK Bonus,63,73,,52115,35,DAMAGE_MINMAGICAL_ADD,Magic ATK Bonus,70,79,,52515,35,DAMAGE_MINMAGICAL_ADD,Magic ATK Bonus,76,85
50516,35,DAMAGE_MINMAGICAL_ADD,Magic ATK Bonus,63,73,,50916,35,DAMAGE_MINMAGICAL_ADD,Magic ATK Bonus,70,79,,51316,35,DAMAGE_MINMAGICAL_ADD,Magic ATK Bonus,76,85,,51716,91,DAMAGEADD_POISON_ADD,Poison ATK Bonus,76,82,,52116,91,DAMAGEADD_POISON_ADD,Poison ATK Bonus,82,88,,52516,91,DAMAGEADD_POISON_ADD,Poison ATK Bonus,88,94
50517,88,DAMAGEADD_FIRE_ADD,Fire ATK Bonus,76,82,,50917,88,DAMAGEADD_FIRE_ADD,Fire ATK Bonus,82,88,,51317,88,DAMAGEADD_FIRE_ADD,Fire ATK Bonus,88,94,,51717,236,BALANCE_VITALITY_ADD,Vitality Bonus,49,56,,52117,236,BALANCE_VITALITY_ADD,Vitality Bonus,56,62,,52517,236,BALANCE_VITALITY_ADD,Vitality Bonus,62,69
50518,89,DAMAGEADD_ICE_ADD,Ice ATK Bonus,76,82,,50918,89,DAMAGEADD_ICE_ADD,Ice ATK Bonus,82,88,,51318,89,DAMAGEADD_ICE_ADD,Ice ATK Bonus,88,94,,51718,236,BALANCE_VITALITY_ADD,Vitality Bonus,49,56,,52118,236,BALANCE_VITALITY_ADD,Vitality Bonus,56,62,,52518,236,BALANCE_VITALITY_ADD,Vitality Bonus,62,69
50519,90,DAMAGEADD_LIGHTNING_ADD,Lightning ATK Bonus,76,82,,50919,90,DAMAGEADD_LIGHTNING_ADD,Lightning ATK Bonus,82,88,,51319,90,DAMAGEADD_LIGHTNING_ADD,Lightning ATK Bonus,88,94,,51719,236,BALANCE_VITALITY_ADD,Vitality Bonus,49,56,,52119,236,BALANCE_VITALITY_ADD,Vitality Bonus,56,62,,52519,236,BALANCE_VITALITY_ADD,Vitality Bonus,62,69
50520,233,BALANCE_DEATHBLOW_ADD,Critical Damage Bonus,79,93,,50920,233,BALANCE_DEATHBLOW_ADD,Critical Damage Bonus,93,106,,51320,233,BALANCE_DEATHBLOW_ADD,Critical Damage Bonus,106,119,,51720,233,BALANCE_DEATHBLOW_ADD,Critical Damage Bonus,79,93,,52120,233,BALANCE_DEATHBLOW_ADD,Critical Damage Bonus,93,106,,52520,233,BALANCE_DEATHBLOW_ADD,Critical Damage Bonus,106,119
4052,,20,145,,,,4092,,20,145,,,,4132,,20,145,,,,4172,,20,145,,,,4212,,20,145,,,,4252,,20,145,,
50521,35,DAMAGE_MINMAGICAL_ADD,Magic ATK Bonus,75,86,,50921,35,DAMAGE_MINMAGICAL_ADD,Magic ATK Bonus,82,93,,51321,35,DAMAGE_MINMAGICAL_ADD,Magic ATK Bonus,89,100,,51721,35,DAMAGE_MINMAGICAL_ADD,Magic ATK Bonus,75,86,,52121,35,DAMAGE_MINMAGICAL_ADD,Magic ATK Bonus,82,93,,52521,35,DAMAGE_MINMAGICAL_ADD,Magic ATK Bonus,89,100
50522,35,DAMAGE_MINMAGICAL_ADD,Magic ATK Bonus,75,86,,50922,35,DAMAGE_MINMAGICAL_ADD,Magic ATK Bonus,82,93,,51322,35,DAMAGE_MINMAGICAL_ADD,Magic ATK Bonus,89,100,,51722,35,DAMAGE_MINMAGICAL_ADD,Magic ATK Bonus,75,86,,52122,35,DAMAGE_MINMAGICAL_ADD,Magic ATK Bonus,82,93,,52522,35,DAMAGE_MINMAGICAL_ADD,Magic ATK Bonus,89,100
50523,35,DAMAGE_MINMAGICAL_ADD,Magic ATK Bonus,75,86,,50923,35,DAMAGE_MINMAGICAL_ADD,Magic ATK Bonus,82,93,,51323,35,DAMAGE_MINMAGICAL_ADD,Magic ATK Bonus,89,100,,51723,35,DAMAGE_MINMAGICAL_ADD,Magic ATK Bonus,75,86,,52123,35,DAMAGE_MINMAGICAL_ADD,Magic ATK Bonus,82,93,,52523,35,DAMAGE_MINMAGICAL_ADD,Magic ATK Bonus,89,100
50524,35,DAMAGE_MINMAGICAL_ADD,Magic ATK Bonus,75,86,,50924,35,DAMAGE_MINMAGICAL_ADD,Magic ATK Bonus,82,93,,51324,35,DAMAGE_MINMAGICAL_ADD,Magic ATK Bonus,89,100,,51724,35,DAMAGE_MINMAGICAL_ADD,Magic ATK Bonus,75,86,,52124,35,DAMAGE_MINMAGICAL_ADD,Magic ATK Bonus,82,93,,52524,35,DAMAGE_MINMAGICAL_ADD,Magic ATK Bonus,89,100
50525,35,DAMAGE_MINMAGICAL_ADD,Magic ATK Bonus,75,86,,50925,35,DAMAGE_MINMAGICAL_ADD,Magic ATK Bonus,82,93,,51325,35,DAMAGE_MINMAGICAL_ADD,Magic ATK Bonus,89,100,,51725,35,DAMAGE_MINMAGICAL_ADD,Magic ATK Bonus,75,86,,52125,35,DAMAGE_MINMAGICAL_ADD,Magic ATK Bonus,82,93,,52525,35,DAMAGE_MINMAGICAL_ADD,Magic ATK Bonus,89,100
50526,35,DAMAGE_MINMAGICAL_ADD,Magic ATK Bonus,75,86,,50926,35,DAMAGE_MINMAGICAL_ADD,Magic ATK Bonus,82,93,,51326,35,DAMAGE_MINMAGICAL_ADD,Magic ATK Bonus,89,100,,51726,91,DAMAGEADD_POISON_ADD,Poison ATK Bonus,89,97,,52126,91,DAMAGEADD_POISON_ADD,Poison ATK Bonus,97,104,,52526,91,DAMAGEADD_POISON_ADD,Poison ATK Bonus,104,111
50527,88,DAMAGEADD_FIRE_ADD,Fire ATK Bonus,89,97,,50927,88,DAMAGEADD_FIRE_ADD,Fire ATK Bonus,97,104,,51327,88,DAMAGEADD_FIRE_ADD,Fire ATK Bonus,104,111,,51727,236,BALANCE_VITALITY_ADD,Vitality Bonus,56,64,,52127,236,BALANCE_VITALITY_ADD,Vitality Bonus,64,71,,52527,236,BALANCE_VITALITY_ADD,Vitality Bonus,71,79
50528,89,DAMAGEADD_ICE_ADD,Ice ATK Bonus,89,97,,50928,89,DAMAGEADD_ICE_ADD,Ice ATK Bonus,97,104,,51328,89,DAMAGEADD_ICE_ADD,Ice ATK Bonus,104,111,,51728,236,BALANCE_VITALITY_ADD,Vitality Bonus,56,64,,52128,236,BALANCE_VITALITY_ADD,Vitality Bonus,64,71,,52528,236,BALANCE_VITALITY_ADD,Vitality Bonus,71,79
50529,90,DAMAGEADD_LIGHTNING_ADD,Lightning ATK Bonus,89,97,,50929,90,DAMAGEADD_LIGHTNING_ADD,Lightning ATK Bonus,97,104,,51329,90,DAMAGEADD_LIGHTNING_ADD,Lightning ATK Bonus,104,111,,51729,236,BALANCE_VITALITY_ADD,Vitality Bonus,56,64,,52129,236,BALANCE_VITALITY_ADD,Vitality Bonus,64,71,,52529,236,BALANCE_VITALITY_ADD,Vitality Bonus,71,79
50530,233,BALANCE_DEATHBLOW_ADD,Critical Damage Bonus,92,107,,50930,233,BALANCE_DEATHBLOW_ADD,Critical Damage Bonus,107,123,,51330,233,BALANCE_DEATHBLOW_ADD,Critical Damage Bonus,123,138,,51730,233,BALANCE_DEATHBLOW_ADD,Critical Damage Bonus,92,107,,52130,233,BALANCE_DEATHBLOW_ADD,Critical Damage Bonus,107,123,,52530,233,BALANCE_DEATHBLOW_ADD,Critical Damage Bonus,123,138
4053,,21,,,,,4093,,21,,,,,4133,,21,,,,,4173,,21,,,,,4213,,21,,,,,4253,,21,,,
50531,,,,,,,50931,,,,,,,51331,,,,,,,51731,,,,,,,52131,,,,,,,52531,,,,,
50532,,,,,,,50932,,,,,,,51332,,,,,,,51732,,,,,,,52132,,,,,,,52532,,,,,
50533,,,,,,,50933,,,,,,,51333,,,,,,,51733,,,,,,,52133,,,,,,,52533,,,,,
50534,,,,,,,50934,,,,,,,51334,,,,,,,51734,,,,,,,52134,,,,,,,52534,,,,,
50535,,,,,,,50935,,,,,,,51335,,,,,,,51735,,,,,,,52135,,,,,,,52535,,,,,
50536,,,,,,,50936,,,,,,,51336,,,,,,,51736,,,,,,,52136,,,,,,,52536,,,,,
50537,,,,,,,50937,,,,,,,51337,,,,,,,51737,,,,,,,52137,,,,,,,52537,,,,,
50538,,,,,,,50938,,,,,,,51338,,,,,,,51738,,,,,,,52138,,,,,,,52538,,,,,
50539,,,,,,,50939,,,,,,,51339,,,,,,,51739,,,,,,,52139,,,,,,,52539,,,,,
50540,,,,,,,50940,,,,,,,51340,,,,,,,51740,,,,,,,52140,,,,,,,52540,,,,,
4054,,22,,,,,4094,,22,,,,,4134,,22,,,,,4174,,22,,,,,4214,,22,,,,,4254,,22,,,
50541,,,,,,,50941,,,,,,,51341,,,,,,,51741,,,,,,,52141,,,,,,,52541,,,,,
50542,,,,,,,50942,,,,,,,51342,,,,,,,51742,,,,,,,52142,,,,,,,52542,,,,,
50543,,,,,,,50943,,,,,,,51343,,,,,,,51743,,,,,,,52143,,,,,,,52543,,,,,
50544,,,,,,,50944,,,,,,,51344,,,,,,,51744,,,,,,,52144,,,,,,,52544,,,,,
50545,,,,,,,50945,,,,,,,51345,,,,,,,51745,,,,,,,52145,,,,,,,52545,,,,,
50546,,,,,,,50946,,,,,,,51346,,,,,,,51746,,,,,,,52146,,,,,,,52546,,,,,
50547,,,,,,,50947,,,,,,,51347,,,,,,,51747,,,,,,,52147,,,,,,,52547,,,,,
50548,,,,,,,50948,,,,,,,51348,,,,,,,51748,,,,,,,52148,,,,,,,52548,,,,,
50549,,,,,,,50949,,,,,,,51349,,,,,,,51749,,,,,,,52149,,,,,,,52549,,,,,
50550,,,,,,,50950,,,,,,,51350,,,,,,,51750,,,,,,,52150,,,,,,,52550,,,,,
4055,,23,,,,,4095,,23,,,,,4135,,23,,,,,4175,,23,,,,,4215,,23,,,,,4255,,23,,,
50551,,,,,,,50951,,,,,,,51351,,,,,,,51751,,,,,,,52151,,,,,,,52551,,,,,
50552,,,,,,,50952,,,,,,,51352,,,,,,,51752,,,,,,,52152,,,,,,,52552,,,,,
50553,,,,,,,50953,,,,,,,51353,,,,,,,51753,,,,,,,52153,,,,,,,52553,,,,,
50554,,,,,,,50954,,,,,,,51354,,,,,,,51754,,,,,,,52154,,,,,,,52554,,,,,
50555,,,,,,,50955,,,,,,,51355,,,,,,,51755,,,,,,,52155,,,,,,,52555,,,,,
50556,,,,,,,50956,,,,,,,51356,,,,,,,51756,,,,,,,52156,,,,,,,52556,,,,,
50557,,,,,,,50957,,,,,,,51357,,,,,,,51757,,,,,,,52157,,,,,,,52557,,,,,
50558,,,,,,,50958,,,,,,,51358,,,,,,,51758,,,,,,,52158,,,,,,,52558,,,,,
50559,,,,,,,50959,,,,,,,51359,,,,,,,51759,,,,,,,52159,,,,,,,52559,,,,,
50560,,,,,,,50960,,,,,,,51360,,,,,,,51760,,,,,,,52160,,,,,,,52560,,,,,
4056,,24,,,,,4096,,24,,,,,4136,,24,,,,,4176,,24,,,,,4216,,24,,,,,4256,,24,,,
50561,,,,,,,50961,,,,,,,51361,,,,,,,51761,,,,,,,52161,,,,,,,52561,,,,,
50562,,,,,,,50962,,,,,,,51362,,,,,,,51762,,,,,,,52162,,,,,,,52562,,,,,
50563,,,,,,,50963,,,,,,,51363,,,,,,,51763,,,,,,,52163,,,,,,,52563,,,,,
50564,,,,,,,50964,,,,,,,51364,,,,,,,51764,,,,,,,52164,,,,,,,52564,,,,,
50565,,,,,,,50965,,,,,,,51365,,,,,,,51765,,,,,,,52165,,,,,,,52565,,,,,
50566,,,,,,,50966,,,,,,,51366,,,,,,,51766,,,,,,,52166,,,,,,,52566,,,,,
50567,,,,,,,50967,,,,,,,51367,,,,,,,51767,,,,,,,52167,,,,,,,52567,,,,,
50568,,,,,,,50968,,,,,,,51368,,,,,,,51768,,,,,,,52168,,,,,,,52568,,,,,
50569,,,,,,,50969,,,,,,,51369,,,,,,,51769,,,,,,,52169,,,,,,,52569,,,,,
50570,,,,,,,50970,,,,,,,51370,,,,,,,51770,,,,,,,52170,,,,,,,52570,,,,,
4057,,25,,,,,4097,,25,,,,,4137,,25,,,,,4177,,25,,,,,4217,,25,,,,,4257,,25,,,
50571,,,,,,,50971,,,,,,,51371,,,,,,,51771,,,,,,,52171,,,,,,,52571,,,,,
50572,,,,,,,50972,,,,,,,51372,,,,,,,51772,,,,,,,52172,,,,,,,52572,,,,,
50573,,,,,,,50973,,,,,,,51373,,,,,,,51773,,,,,,,52173,,,,,,,52573,,,,,
50574,,,,,,,50974,,,,,,,51374,,,,,,,51774,,,,,,,52174,,,,,,,52574,,,,,
50575,,,,,,,50975,,,,,,,51375,,,,,,,51775,,,,,,,52175,,,,,,,52575,,,,,
50576,,,,,,,50976,,,,,,,51376,,,,,,,51776,,,,,,,52176,,,,,,,52576,,,,,
50577,,,,,,,50977,,,,,,,51377,,,,,,,51777,,,,,,,52177,,,,,,,52577,,,,,
50578,,,,,,,50978,,,,,,,51378,,,,,,,51778,,,,,,,52178,,,,,,,52578,,,,,
50579,,,,,,,50979,,,,,,,51379,,,,,,,51779,,,,,,,52179,,,,,,,52579,,,,,
50580,,,,,,,50980,,,,,,,51380,,,,,,,51780,,,,,,,52180,,,,,,,52580,,,,,
4058,,26,,,,,4098,,26,,,,,4138,,26,,,,,4178,,26,,,,,4218,,26,,,,,4258,,26,,,
50581,,,,,,,50981,,,,,,,51381,,,,,,,51781,,,,,,,52181,,,,,,,52581,,,,,
50582,,,,,,,50982,,,,,,,51382,,,,,,,51782,,,,,,,52182,,,,,,,52582,,,,,
50583,,,,,,,50983,,,,,,,51383,,,,,,,51783,,,,,,,52183,,,,,,,52583,,,,,
50584,,,,,,,50984,,,,,,,51384,,,,,,,51784,,,,,,,52184,,,,,,,52584,,,,,
50585,,,,,,,50985,,,,,,,51385,,,,,,,51785,,,,,,,52185,,,,,,,52585,,,,,
50586,,,,,,,50986,,,,,,,51386,,,,,,,51786,,,,,,,52186,,,,,,,52586,,,,,
50587,,,,,,,50987,,,,,,,51387,,,,,,,51787,,,,,,,52187,,,,,,,52587,,,,,
50588,,,,,,,50988,,,,,,,51388,,,,,,,51788,,,,,,,52188,,,,,,,52588,,,,,
50589,,,,,,,50989,,,,,,,51389,,,,,,,51789,,,,,,,52189,,,,,,,52589,,,,,
50590,,,,,,,50990,,,,,,,51390,,,,,,,51790,,,,,,,52190,,,,,,,52590,,,,,
4059,,27,,,,,4099,,27,,,,,4139,,27,,,,,4179,,27,,,,,4219,,27,,,,,4259,,27,,,
50591,,,,,,,50991,,,,,,,51391,,,,,,,51791,,,,,,,52191,,,,,,,52591,,,,,
50592,,,,,,,50992,,,,,,,51392,,,,,,,51792,,,,,,,52192,,,,,,,52592,,,,,
50593,,,,,,,50993,,,,,,,51393,,,,,,,51793,,,,,,,52193,,,,,,,52593,,,,,
50594,,,,,,,50994,,,,,,,51394,,,,,,,51794,,,,,,,52194,,,,,,,52594,,,,,
50595,,,,,,,50995,,,,,,,51395,,,,,,,51795,,,,,,,52195,,,,,,,52595,,,,,
50596,,,,,,,50996,,,,,,,51396,,,,,,,51796,,,,,,,52196,,,,,,,52596,,,,,
50597,,,,,,,50997,,,,,,,51397,,,,,,,51797,,,,,,,52197,,,,,,,52597,,,,,
50598,,,,,,,50998,,,,,,,51398,,,,,,,51798,,,,,,,52198,,,,,,,52598,,,,,
50599,,,,,,,50999,,,,,,,51399,,,,,,,51799,,,,,,,52199,,,,,,,52599,,,,,
50600,,,,,,,51000,,,,,,,51400,,,,,,,51800,,,,,,,52200,,,,,,,52600,,,,,
4060,,28,,,,,4100,,28,,,,,4140,,28,,,,,4180,,28,,,,,4220,,28,,,,,4260,,28,,,
50601,,,,,,,51001,,,,,,,51401,,,,,,,51801,,,,,,,52201,,,,,,,52601,,,,,
50602,,,,,,,51002,,,,,,,51402,,,,,,,51802,,,,,,,52202,,,,,,,52602,,,,,
50603,,,,,,,51003,,,,,,,51403,,,,,,,51803,,,,,,,52203,,,,,,,52603,,,,,
50604,,,,,,,51004,,,,,,,51404,,,,,,,51804,,,,,,,52204,,,,,,,52604,,,,,
50605,,,,,,,51005,,,,,,,51405,,,,,,,51805,,,,,,,52205,,,,,,,52605,,,,,
50606,,,,,,,51006,,,,,,,51406,,,,,,,51806,,,,,,,52206,,,,,,,52606,,,,,
50607,,,,,,,51007,,,,,,,51407,,,,,,,51807,,,,,,,52207,,,,,,,52607,,,,,
50608,,,,,,,51008,,,,,,,51408,,,,,,,51808,,,,,,,52208,,,,,,,52608,,,,,
50609,,,,,,,51009,,,,,,,51409,,,,,,,51809,,,,,,,52209,,,,,,,52609,,,,,
50610,,,,,,,51010,,,,,,,51410,,,,,,,51810,,,,,,,52210,,,,,,,52610,,,,,
4061,,29,,,,,4101,,29,,,,,4141,,29,,,,,4181,,29,,,,,4221,,29,,,,,4261,,29,,,
50611,,,,,,,51011,,,,,,,51411,,,,,,,51811,,,,,,,52211,,,,,,,52611,,,,,
50612,,,,,,,51012,,,,,,,51412,,,,,,,51812,,,,,,,52212,,,,,,,52612,,,,,
50613,,,,,,,51013,,,,,,,51413,,,,,,,51813,,,,,,,52213,,,,,,,52613,,,,,
50614,,,,,,,51014,,,,,,,51414,,,,,,,51814,,,,,,,52214,,,,,,,52614,,,,,
50615,,,,,,,51015,,,,,,,51415,,,,,,,51815,,,,,,,52215,,,,,,,52615,,,,,
50616,,,,,,,51016,,,,,,,51416,,,,,,,51816,,,,,,,52216,,,,,,,52616,,,,,
50617,,,,,,,51017,,,,,,,51417,,,,,,,51817,,,,,,,52217,,,,,,,52617,,,,,
50618,,,,,,,51018,,,,,,,51418,,,,,,,51818,,,,,,,52218,,,,,,,52618,,,,,
50619,,,,,,,51019,,,,,,,51419,,,,,,,51819,,,,,,,52219,,,,,,,52619,,,,,
50620,,,,,,,51020,,,,,,,51420,,,,,,,51820,,,,,,,52220,,,,,,,52620,,,,,
4062,,30,,,,,4102,,30,,,,,4142,,30,,,,,4182,,30,,,,,4222,,30,,,,,4262,,30,,,
50621,,,,,,,51021,,,,,,,51421,,,,,,,51821,,,,,,,52221,,,,,,,52621,,,,,
50622,,,,,,,51022,,,,,,,51422,,,,,,,51822,,,,,,,52222,,,,,,,52622,,,,,
50623,,,,,,,51023,,,,,,,51423,,,,,,,51823,,,,,,,52223,,,,,,,52623,,,,,
50624,,,,,,,51024,,,,,,,51424,,,,,,,51824,,,,,,,52224,,,,,,,52624,,,,,
50625,,,,,,,51025,,,,,,,51425,,,,,,,51825,,,,,,,52225,,,,,,,52625,,,,,
50626,,,,,,,51026,,,,,,,51426,,,,,,,51826,,,,,,,52226,,,,,,,52626,,,,,
50627,,,,,,,51027,,,,,,,51427,,,,,,,51827,,,,,,,52227,,,,,,,52627,,,,,
50628,,,,,,,51028,,,,,,,51428,,,,,,,51828,,,,,,,52228,,,,,,,52628,,,,,
50629,,,,,,,51029,,,,,,,51429,,,,,,,51829,,,,,,,52229,,,,,,,52629,,,,,
50630,,,,,,,51030,,,,,,,51430,,,,,,,51830,,,,,,,52230,,,,,,,52630,,,,,
4063,,31,,,,,4103,,31,,,,,4143,,31,,,,,4183,,31,,,,,4223,,31,,,,,4263,,31,,,
50631,,,,,,,51031,,,,,,,51431,,,,,,,51831,,,,,,,52231,,,,,,,52631,,,,,
50632,,,,,,,51032,,,,,,,51432,,,,,,,51832,,,,,,,52232,,,,,,,52632,,,,,
50633,,,,,,,51033,,,,,,,51433,,,,,,,51833,,,,,,,52233,,,,,,,52633,,,,,
50634,,,,,,,51034,,,,,,,51434,,,,,,,51834,,,,,,,52234,,,,,,,52634,,,,,
50635,,,,,,,51035,,,,,,,51435,,,,,,,51835,,,,,,,52235,,,,,,,52635,,,,,
50636,,,,,,,51036,,,,,,,51436,,,,,,,51836,,,,,,,52236,,,,,,,52636,,,,,
50637,,,,,,,51037,,,,,,,51437,,,,,,,51837,,,,,,,52237,,,,,,,52637,,,,,
50638,,,,,,,51038,,,,,,,51438,,,,,,,51838,,,,,,,52238,,,,,,,52638,,,,,
50639,,,,,,,51039,,,,,,,51439,,,,,,,51839,,,,,,,52239,,,,,,,52639,,,,,
50640,,,,,,,51040,,,,,,,51440,,,,,,,51840,,,,,,,52240,,,,,,,52640,,,,,
4064,,32,,,,,4104,,32,,,,,4144,,32,,,,,4184,,32,,,,,4224,,32,,,,,4264,,32,,,
50641,,,,,,,51041,,,,,,,51441,,,,,,,51841,,,,,,,52241,,,,,,,52641,,,,,
50642,,,,,,,51042,,,,,,,51442,,,,,,,51842,,,,,,,52242,,,,,,,52642,,,,,
50643,,,,,,,51043,,,,,,,51443,,,,,,,51843,,,,,,,52243,,,,,,,52643,,,,,
50644,,,,,,,51044,,,,,,,51444,,,,,,,51844,,,,,,,52244,,,,,,,52644,,,,,
50645,,,,,,,51045,,,,,,,51445,,,,,,,51845,,,,,,,52245,,,,,,,52645,,,,,
50646,,,,,,,51046,,,,,,,51446,,,,,,,51846,,,,,,,52246,,,,,,,52646,,,,,
50647,,,,,,,51047,,,,,,,51447,,,,,,,51847,,,,,,,52247,,,,,,,52647,,,,,
50648,,,,,,,51048,,,,,,,51448,,,,,,,51848,,,,,,,52248,,,,,,,52648,,,,,
50649,,,,,,,51049,,,,,,,51449,,,,,,,51849,,,,,,,52249,,,,,,,52649,,,,,
50650,,,,,,,51050,,,,,,,51450,,,,,,,51850,,,,,,,52250,,,,,,,52650,,,,,
4065,,33,,,,,4105,,33,,,,,4145,,33,,,,,4185,,33,,,,,4225,,33,,,,,4265,,33,,,
50651,,,,,,,51051,,,,,,,51451,,,,,,,51851,,,,,,,52251,,,,,,,52651,,,,,
50652,,,,,,,51052,,,,,,,51452,,,,,,,51852,,,,,,,52252,,,,,,,52652,,,,,
50653,,,,,,,51053,,,,,,,51453,,,,,,,51853,,,,,,,52253,,,,,,,52653,,,,,
50654,,,,,,,51054,,,,,,,51454,,,,,,,51854,,,,,,,52254,,,,,,,52654,,,,,
50655,,,,,,,51055,,,,,,,51455,,,,,,,51855,,,,,,,52255,,,,,,,52655,,,,,
50656,,,,,,,51056,,,,,,,51456,,,,,,,51856,,,,,,,52256,,,,,,,52656,,,,,
50657,,,,,,,51057,,,,,,,51457,,,,,,,51857,,,,,,,52257,,,,,,,52657,,,,,
50658,,,,,,,51058,,,,,,,51458,,,,,,,51858,,,,,,,52258,,,,,,,52658,,,,,
50659,,,,,,,51059,,,,,,,51459,,,,,,,51859,,,,,,,52259,,,,,,,52659,,,,,
50660,,,,,,,51060,,,,,,,51460,,,,,,,51860,,,,,,,52260,,,,,,,52660,,,,,
4066,,34,,,,,4106,,34,,,,,4146,,34,,,,,4186,,34,,,,,4226,,34,,,,,4266,,34,,,
50661,,,,,,,51061,,,,,,,51461,,,,,,,51861,,,,,,,52261,,,,,,,52661,,,,,
50662,,,,,,,51062,,,,,,,51462,,,,,,,51862,,,,,,,52262,,,,,,,52662,,,,,
50663,,,,,,,51063,,,,,,,51463,,,,,,,51863,,,,,,,52263,,,,,,,52663,,,,,
50664,,,,,,,51064,,,,,,,51464,,,,,,,51864,,,,,,,52264,,,,,,,52664,,,,,
50665,,,,,,,51065,,,,,,,51465,,,,,,,51865,,,,,,,52265,,,,,,,52665,,,,,
50666,,,,,,,51066,,,,,,,51466,,,,,,,51866,,,,,,,52266,,,,,,,52666,,,,,
50667,,,,,,,51067,,,,,,,51467,,,,,,,51867,,,,,,,52267,,,,,,,52667,,,,,
50668,,,,,,,51068,,,,,,,51468,,,,,,,51868,,,,,,,52268,,,,,,,52668,,,,,
50669,,,,,,,51069,,,,,,,51469,,,,,,,51869,,,,,,,52269,,,,,,,52669,,,,,
50670,,,,,,,51070,,,,,,,51470,,,,,,,51870,,,,,,,52270,,,,,,,52670,,,,,
4067,,35,,,,,4107,,35,,,,,4147,,35,,,,,4187,,35,,,,,4227,,35,,,,,4267,,35,,,
50671,,,,,,,51071,,,,,,,51471,,,,,,,51871,,,,,,,52271,,,,,,,52671,,,,,
50672,,,,,,,51072,,,,,,,51472,,,,,,,51872,,,,,,,52272,,,,,,,52672,,,,,
50673,,,,,,,51073,,,,,,,51473,,,,,,,51873,,,,,,,52273,,,,,,,52673,,,,,
50674,,,,,,,51074,,,,,,,51474,,,,,,,51874,,,,,,,52274,,,,,,,52674,,,,,
50675,,,,,,,51075,,,,,,,51475,,,,,,,51875,,,,,,,52275,,,,,,,52675,,,,,
50676,,,,,,,51076,,,,,,,51476,,,,,,,51876,,,,,,,52276,,,,,,,52676,,,,,
50677,,,,,,,51077,,,,,,,51477,,,,,,,51877,,,,,,,52277,,,,,,,52677,,,,,
50678,,,,,,,51078,,,,,,,51478,,,,,,,51878,,,,,,,52278,,,,,,,52678,,,,,
50679,,,,,,,51079,,,,,,,51479,,,,,,,51879,,,,,,,52279,,,,,,,52679,,,,,
50680,,,,,,,51080,,,,,,,51480,,,,,,,51880,,,,,,,52280,,,,,,,52680,,,,,
4068,,36,,,,,4108,,36,,,,,4148,,36,,,,,4188,,36,,,,,4228,,36,,,,,4268,,36,,,
50681,,,,,,,51081,,,,,,,51481,,,,,,,51881,,,,,,,52281,,,,,,,52681,,,,,
50682,,,,,,,51082,,,,,,,51482,,,,,,,51882,,,,,,,52282,,,,,,,52682,,,,,
50683,,,,,,,51083,,,,,,,51483,,,,,,,51883,,,,,,,52283,,,,,,,52683,,,,,
50684,,,,,,,51084,,,,,,,51484,,,,,,,51884,,,,,,,52284,,,,,,,52684,,,,,
50685,,,,,,,51085,,,,,,,51485,,,,,,,51885,,,,,,,52285,,,,,,,52685,,,,,
50686,,,,,,,51086,,,,,,,51486,,,,,,,51886,,,,,,,52286,,,,,,,52686,,,,,
50687,,,,,,,51087,,,,,,,51487,,,,,,,51887,,,,,,,52287,,,,,,,52687,,,,,
50688,,,,,,,51088,,,,,,,51488,,,,,,,51888,,,,,,,52288,,,,,,,52688,,,,,
50689,,,,,,,51089,,,,,,,51489,,,,,,,51889,,,,,,,52289,,,,,,,52689,,,,,
50690,,,,,,,51090,,,,,,,51490,,,,,,,51890,,,,,,,52290,,,,,,,52690,,,,,
4069,,37,,,,,4109,,37,,,,,4149,,37,,,,,4189,,37,,,,,4229,,37,,,,,4269,,37,,,
50691,,,,,,,51091,,,,,,,51491,,,,,,,51891,,,,,,,52291,,,,,,,52691,,,,,
50692,,,,,,,51092,,,,,,,51492,,,,,,,51892,,,,,,,52292,,,,,,,52692,,,,,
50693,,,,,,,51093,,,,,,,51493,,,,,,,51893,,,,,,,52293,,,,,,,52693,,,,,
50694,,,,,,,51094,,,,,,,51494,,,,,,,51894,,,,,,,52294,,,,,,,52694,,,,,
50695,,,,,,,51095,,,,,,,51495,,,,,,,51895,,,,,,,52295,,,,,,,52695,,,,,
50696,,,,,,,51096,,,,,,,51496,,,,,,,51896,,,,,,,52296,,,,,,,52696,,,,,
50697,,,,,,,51097,,,,,,,51497,,,,,,,51897,,,,,,,52297,,,,,,,52697,,,,,
50698,,,,,,,51098,,,,,,,51498,,,,,,,51898,,,,,,,52298,,,,,,,52698,,,,,
50699,,,,,,,51099,,,,,,,51499,,,,,,,51899,,,,,,,52299,,,,,,,52699,,,,,
50700,,,,,,,51100,,,,,,,51500,,,,,,,51900,,,,,,,52300,,,,,,,52700,,,,,
4070,,38,,,,,4110,,38,,,,,4150,,38,,,,,4190,,38,,,,,4230,,38,,,,,4270,,38,,,
50701,,,,,,,51101,,,,,,,51501,,,,,,,51901,,,,,,,52301,,,,,,,52701,,,,,
50702,,,,,,,51102,,,,,,,51502,,,,,,,51902,,,,,,,52302,,,,,,,52702,,,,,
50703,,,,,,,51103,,,,,,,51503,,,,,,,51903,,,,,,,52303,,,,,,,52703,,,,,
50704,,,,,,,51104,,,,,,,51504,,,,,,,51904,,,,,,,52304,,,,,,,52704,,,,,
50705,,,,,,,51105,,,,,,,51505,,,,,,,51905,,,,,,,52305,,,,,,,52705,,,,,
50706,,,,,,,51106,,,,,,,51506,,,,,,,51906,,,,,,,52306,,,,,,,52706,,,,,
50707,,,,,,,51107,,,,,,,51507,,,,,,,51907,,,,,,,52307,,,,,,,52707,,,,,
50708,,,,,,,51108,,,,,,,51508,,,,,,,51908,,,,,,,52308,,,,,,,52708,,,,,
50709,,,,,,,51109,,,,,,,51509,,,,,,,51909,,,,,,,52309,,,,,,,52709,,,,,
50710,,,,,,,51110,,,,,,,51510,,,,,,,51910,,,,,,,52310,,,,,,,52710,,,,,
4071,,39,,,,,4111,,39,,,,,4151,,39,,,,,4191,,39,,,,,4231,,39,,,,,4271,,39,,,
50711,,,,,,,51111,,,,,,,51511,,,,,,,51911,,,,,,,52311,,,,,,,52711,,,,,
50712,,,,,,,51112,,,,,,,51512,,,,,,,51912,,,,,,,52312,,,,,,,52712,,,,,
50713,,,,,,,51113,,,,,,,51513,,,,,,,51913,,,,,,,52313,,,,,,,52713,,,,,
50714,,,,,,,51114,,,,,,,51514,,,,,,,51914,,,,,,,52314,,,,,,,52714,,,,,
50715,,,,,,,51115,,,,,,,51515,,,,,,,51915,,,,,,,52315,,,,,,,52715,,,,,
50716,,,,,,,51116,,,,,,,51516,,,,,,,51916,,,,,,,52316,,,,,,,52716,,,,,
50717,,,,,,,51117,,,,,,,51517,,,,,,,51917,,,,,,,52317,,,,,,,52717,,,,,
50718,,,,,,,51118,,,,,,,51518,,,,,,,51918,,,,,,,52318,,,,,,,52718,,,,,
50719,,,,,,,51119,,,,,,,51519,,,,,,,51919,,,,,,,52319,,,,,,,52719,,,,,
50720,,,,,,,51120,,,,,,,51520,,,,,,,51920,,,,,,,52320,,,,,,,52720,,,,,
4072,,40,,,,,4112,,40,,,,,4152,,40,,,,,4192,,40,,,,,4232,,40,,,,,4272,,40,,,
50721,,,,,,,51121,,,,,,,51521,,,,,,,51921,,,,,,,52321,,,,,,,52721,,,,,
50722,,,,,,,51122,,,,,,,51522,,,,,,,51922,,,,,,,52322,,,,,,,52722,,,,,
50723,,,,,,,51123,,,,,,,51523,,,,,,,51923,,,,,,,52323,,,,,,,52723,,,,,
50724,,,,,,,51124,,,,,,,51524,,,,,,,51924,,,,,,,52324,,,,,,,52724,,,,,
50725,,,,,,,51125,,,,,,,51525,,,,,,,51925,,,,,,,52325,,,,,,,52725,,,,,
50726,,,,,,,51126,,,,,,,51526,,,,,,,51926,,,,,,,52326,,,,,,,52726,,,,,
50727,,,,,,,51127,,,,,,,51527,,,,,,,51927,,,,,,,52327,,,,,,,52727,,,,,
50728,,,,,,,51128,,,,,,,51528,,,,,,,51928,,,,,,,52328,,,,,,,52728,,,,,
50729,,,,,,,51129,,,,,,,51529,,,,,,,51929,,,,,,,52329,,,,,,,52729,,,,,
50730,,,,,,,51130,,,,,,,51530,,,,,,,51930,,,,,,,52330,,,,,,,52730,,,,,
