QuestIndex,4501,,,,,
,,,,,,
MessageIndex,StringCode,Menu0,Menu1,Menu2,Menu3,Menu4
11,11,0,0,0,0,0
12,12,0,0,0,0,0
13,13,0,0,0,0,0
99,99,0,0,0,0,0
100,100,0,0,0,0,0
110,110,0,0,0,0,0
1000,1000,1001,0,0,0,0
1001,1001,0,0,0,0,0
1010,1010,1011,0,0,0,0
1011,1011,0,0,0,0,0
1100,1100,1101,0,0,0,0
1101,1101,0,0,0,0,0
10000,10000,10001,10002,0,0,0
10001,10001,0,0,0,0,0
10002,10002,0,0,0,0,0
10010,10010,10110,0,0,0,0
10020,10020,10210,0,0,0,0
10110,10110,0,0,0,0,0
10210,10210,0,0,0,0,0
20000,20000,20001,0,0,0,0
20001,20001,0,0,0,0,0
