QuestIndex,11020,,,,,,

MessageIndex,StringCode,Menu0,Menu1,Menu2,Menu3,Menu4,Menu5
1,1,0,0,0,0,0,0
11,11,0,0,0,0,0,0
99,99,0,0,0,0,0,0
300,300,0,0,0,0,0,0
10000,10000,10001,10002,10003,0,0,0
10001,10001,0,0,0,0,0,0
10002,10002,0,0,0,0,0,0
10003,10003,0,0,0,0,0,0
10010,10010,10011,10012,10013,10014,10015,10016
10011,10011,0,0,0,0,0,0
10012,10012,0,0,0,0,0,0
10013,10013,0,0,0,0,0,0
10014,10014,0,0,0,0,0,0
10015,10015,0,0,0,0,0,0
10016,10016,0,0,0,0,0,0
10020,10020,10021,10022,10023,10024,10025,0
10021,10021,0,0,0,0,0,0
10022,10022,0,0,0,0,0,0
10023,10023,0,0,0,0,0,0
10024,10024,0,0,0,0,0,0
10025,10025,0,0,0,0,0,0
10030,10030,10031,10032,10033,10034,10035,0
10031,10031,0,0,0,0,0,0
10032,10032,0,0,0,0,0,0
10033,10033,0,0,0,0,0,0
10034,10034,0,0,0,0,0,0
10035,10035,0,0,0,0,0,0
20000,20000,20001,0,0,0,0,0
20001,20001,0,0,0,0,0,0
