QuestIndex,1701,,,,,,,,
,,,,,,,,,
MessageIndex,StringCode,Menu0,Menu1,Menu2,Menu3,Menu4,Menu5,Menu6,Menu7
11,11,0,0,0,0,0,0,0,0
90,90,0,0,0,0,0,0,0,0
91,91,0,0,0,0,0,0,0,0
92,92,0,0,0,0,0,0,0,0
93,93,0,0,0,0,0,0,0,0
1001,1001,0,0,0,0,0,0,0,0
1002,1002,0,0,0,0,0,0,0,0
1003,1003,0,0,0,0,0,0,0,0
1004,1004,0,0,0,0,0,0,0,0
1005,1005,0,0,0,0,0,0,0,0
1006,1006,0,0,0,0,0,0,0,0
1007,1007,0,0,0,0,0,0,0,0
1008,1008,0,0,0,0,0,0,0,0
1101,1101,0,0,0,0,0,0,0,0
1102,1102,0,0,0,0,0,0,0,0
1103,1103,0,0,0,0,0,0,0,0
1104,1104,0,0,0,0,0,0,0,0
1105,1105,0,0,0,0,0,0,0,0
1106,1106,0,0,0,0,0,0,0,0
1107,1107,0,0,0,0,0,0,0,0
1108,1108,0,0,0,0,0,0,0,0
2000,2000,0,0,0,0,0,0,0,0
10000,10000,10001,10002,0,0,0,0,0,0
10001,10001,0,0,0,0,0,0,0,0
10002,10002,0,0,0,0,0,0,0,0
11000,11000,11002,11003,11004,11005,11006,11007,11008,11001
11002,11002,0,0,0,0,0,0,0,0
11003,11003,0,0,0,0,0,0,0,0
11004,11004,0,0,0,0,0,0,0,0
11005,11005,0,0,0,0,0,0,0,0
11006,11006,0,0,0,0,0,0,0,0
11007,11007,0,0,0,0,0,0,0,0
11008,11008,0,0,0,0,0,0,0,0
11001,11001,0,0,0,0,0,0,0,0
11020,11020,11021,11022,0,0,0,0,0,0
11021,11021,0,0,0,0,0,0,0,0
11022,11022,0,0,0,0,0,0,0,0
11030,11030,11031,11032,0,0,0,0,0,0
11031,11031,0,0,0,0,0,0,0,0
11032,11032,0,0,0,0,0,0,0,0
11040,11040,11041,11042,0,0,0,0,0,0
11041,11041,0,0,0,0,0,0,0,0
11042,11042,0,0,0,0,0,0,0,0
11050,11050,11051,11052,0,0,0,0,0,0
11051,11051,0,0,0,0,0,0,0,0
11052,11052,0,0,0,0,0,0,0,0
11060,11060,11061,11062,0,0,0,0,0,0
11061,11061,0,0,0,0,0,0,0,0
11062,11062,0,0,0,0,0,0,0,0
11070,11070,11071,11072,0,0,0,0,0,0
11071,11071,0,0,0,0,0,0,0,0
11072,11072,0,0,0,0,0,0,0,0
11080,11080,11081,11082,0,0,0,0,0,0
11081,11081,0,0,0,0,0,0,0,0
11082,11082,0,0,0,0,0,0,0,0
11010,11010,11011,11012,0,0,0,0,0,0
11011,11011,0,0,0,0,0,0,0,0
11012,11012,0,0,0,0,0,0,0,0
12000,12000,12002,12003,12004,12005,12006,12007,12008,12001
12002,12002,0,0,0,0,0,0,0,0
12003,12003,0,0,0,0,0,0,0,0
12004,12004,0,0,0,0,0,0,0,0
12005,12005,0,0,0,0,0,0,0,0
12006,12006,0,0,0,0,0,0,0,0
12007,12007,0,0,0,0,0,0,0,0
12008,12008,0,0,0,0,0,0,0,0
12001,12001,0,0,0,0,0,0,0,0
12020,12020,12021,12022,0,0,0,0,0,0
12021,12021,0,0,0,0,0,0,0,0
12022,12022,0,0,0,0,0,0,0,0
12030,12030,12031,12032,0,0,0,0,0,0
12031,12031,0,0,0,0,0,0,0,0
12032,12032,0,0,0,0,0,0,0,0
12040,12040,12041,12042,0,0,0,0,0,0
12041,12041,0,0,0,0,0,0,0,0
12042,12042,0,0,0,0,0,0,0,0
12050,12050,12051,12052,0,0,0,0,0,0
12051,12051,0,0,0,0,0,0,0,0
12052,12052,0,0,0,0,0,0,0,0
12060,12060,12061,12062,0,0,0,0,0,0
12061,12061,0,0,0,0,0,0,0,0
12062,12062,0,0,0,0,0,0,0,0
12070,12070,12071,12072,0,0,0,0,0,0
12071,12071,0,0,0,0,0,0,0,0
12072,12072,0,0,0,0,0,0,0,0
12080,12080,12081,12082,0,0,0,0,0,0
12081,12081,0,0,0,0,0,0,0,0
12082,12082,0,0,0,0,0,0,0,0
12010,12010,12011,12012,0,0,0,0,0,0
12011,12011,0,0,0,0,0,0,0,0
12012,12012,0,0,0,0,0,0,0,0
