QuestIndex,3811,,,,,
,,,,,,
MessageIndex,StringCode,Menu0,Menu1,Menu2,Menu3,Menu4
11,11,0,0,0,0,0
12,12,0,0,0,0,0
13,13,0,0,0,0,0
50,50,0,0,0,0,0
61,61,0,0,0,0,0
62,62,0,0,0,0,0
63,63,0,0,0,0,0
64,64,0,0,0,0,0
65,65,0,0,0,0,0
66,66,0,0,0,0,0
71,71,0,0,0,0,0
72,72,0,0,0,0,0
73,73,0,0,0,0,0
74,74,0,0,0,0,0
75,75,0,0,0,0,0
76,76,0,0,0,0,0
77,77,0,0,0,0,0
99,99,0,0,0,0,0
100,100,0,0,0,0,0
200,200,0,0,0,0,0
201,201,0,0,0,0,0
202,202,0,0,0,0,0
203,203,0,0,0,0,0
204,204,0,0,0,0,0
205,205,0,0,0,0,0
206,206,0,0,0,0,0
10000,10000,10001,10002,0,0,0
10001,10001,0,0,0,0,0
10002,10002,0,0,0,0,0
10010,10010,0,0,0,0,0
10020,10020,0,0,0,0,0
11000,11000,11001,0,0,0,0
11001,11001,0,0,0,0,0
20000,20000,20001,0,0,0,0
20001,20001,0,0,0,0,0
