QuestIndex,3805,,,,,
,,,,,,
MessageIndex,StringCode,Menu0,Menu1,Menu2,Menu3,Menu4
11,11,0,0,0,0,0
200,200,0,0,0,0,0
10000,10000,10001,10002,0,0,0
10001,10001,0,0,0,0,0
10002,10002,0,0,0,0,0
10010,10010,0,0,0,0,0
10020,10020,10021,0,0,0,0
10021,10021,0,0,0,0,0
12000,12000,12001,0,0,0,0
12001,12001,0,0,0,0,0
