QuestIndex,4342,,,,,,
,,,,,,,
MessageIndex,StringCode,Menu0,Menu1,Menu2,Menu3,Menu4,Menu5
1,1,0,0,0,0,0,0
11,11,0,0,0,0,0,0
12,12,0,0,0,0,0,0
13,13,0,0,0,0,0,0
60,60,0,0,0,0,0,0
70,70,0,0,0,0,0,0
99,99,0,0,0,0,0,0
100,100,0,0,0,0,0,0
110,110,0,0,0,0,0,0
111,111,0,0,0,0,0,0
200,200,0,0,0,0,0,0
201,201,0,0,0,0,0,0
202,202,0,0,0,0,0,0
203,203,0,0,0,0,0,0
1000,1000,1001,0,0,0,0,0
1001,1001,0,0,0,0,0,0
1100,1100,1101,0,0,0,0,0
1101,1101,0,0,0,0,0,0
10000,10000,10001,10002,0,0,0,0
10001,10001,0,0,0,0,0,0
10002,10002,0,0,0,0,0,0
10010,10010,10011,0,0,0,0,0
10011,10011,0,0,0,0,0,0
10020,10020,10021,0,0,0,0,0
10021,10021,0,0,0,0,0,0
11000,11000,11001,0,0,0,0,0
11001,11001,0,0,0,0,0,0
20000,20000,20001,0,0,0,0,0
20001,20001,0,0,0,0,0,0
23000,23000,23001,23002,23003,23004,23005,23006
23001,23001,0,0,0,0,0,0
23002,23002,0,0,0,0,0,0
23003,23003,0,0,0,0,0,0
23004,23004,0,0,0,0,0,0
23005,23005,0,0,0,0,0,0
23006,23006,0,0,0,0,0,0
24000,24000,24001,24002,24003,0,0,0
24001,24001,0,0,0,0,0,0
24002,24002,0,0,0,0,0,0
24003,24003,0,0,0,0,0,0
25000,25000,25001,25002,0,0,0,0
25001,25001,0,0,0,0,0,0
25002,25002,0,0,0,0,0,0
26000,26000,26001,26002,0,0,0,0
26001,26001,0,0,0,0,0,0
26002,26002,0,0,0,0,0,0
