QuestIndex,1244,,,,,

MessageIndex,StringCode,Menu0,Menu1,Menu2,Menu3,Menu4
99,99,0,0,0,0,0
110,110,0,0,0,0,0
201,201,0,0,0,0,0
1100,1100,0,0,0,0,0
10000,10000,10001,0,0,0,0
10001,10001,0,0,0,0,0
11000,11000,11001,0,0,0,0
11001,11001,0,0,0,0,0
12000,12000,12001,0,0,0,0
12001,12001,0,0,0,0,0
14000,14000,0,0,0,0,0
15000,15000,15001,0,0,0,0
15001,15001,0,0,0,0,0
20000,20000,20001,0,0,0,0
20001,20001,0,0,0,0,0
20002,20002,0,0,0,0,0
20003,20003,0,0,0,0,0
20004,20004,0,0,0,0,0
20005,20005,0,0,0,0,0
