QuestIndex,296,,,,,,,,
,,,,,,,,,
MessageIndex,StringCode,Menu0,Menu1,Menu2,Menu3,Menu4,Menu5,Menu6,Menu7
11,11,0,0,0,0,0,0,0,0
12,12,0,0,0,0,0,0,0,0
13,13,0,0,0,0,0,0,0,0
500,500,0,0,0,0,0,0,0,0
501,501,0,0,0,0,0,0,0,0
10000,10000,10001,0,0,0,0,0,0,0
10001,10001,0,0,0,0,0,0,0,0
