QuestIndex,10801,,,,,
,,,,,,
MessageIndex,StringCode,Menu0,Menu1,Menu2,Menu3,Menu4
1,1,0,0,0,0,0
11,11,0,0,0,0,0
100,100,0,0,0,0,0
300,300,0,0,0,0,0
1000,1000,1001,0,0,0,0
1001,1001,0,0,0,0,0
3000,3000,3001,0,0,0,0
3001,3001,0,0,0,0,0
10000,10000,10001,0,0,0,0
10001,10001,0,0,0,0,0
