QuestIndex,10437,,,,,,,
,,,,,,,,
MessageIndex,StringCode,Menu0,Menu1,Menu2,Menu3,Menu4,Menu5,Menu6
11,11,0,0,0,0,0,0,0
12,12,0,0,0,0,0,0,0
13,13,0,0,0,0,0,0,0
99,99,0,0,0,0,0,0,0
100,100,0,0,0,0,0,0,0
1000,1000,0,0,0,0,0,0,0
10000,10000,10001,0,0,0,0,0,0
10001,10001,0,0,0,0,0,0,0
20000,20000,20001,0,0,0,0,0,0
20001,20001,0,0,0,0,0,0,0
