QuestIndex,86,,,,,,,
,,,,,,,,
MessageIndex,StringCode,Menu0,Menu1,Menu2,Menu3,Menu4,Menu5,Menu6
11,11,0,0,0,0,0,0,0
100,100,0,0,0,0,0,0,0
101,101,0,0,0,0,0,0,0
200,200,0,0,0,0,0,0,0
201,201,0,0,0,0,0,0,0
10000,10000,10001,0,0,0,0,0,0
10001,10001,0,0,0,0,0,0,0
11000,11000,11001,0,0,0,0,0,0
11001,11001,0,0,0,0,0,0,0
20000,20000,20001,0,0,0,0,0,0
20001,20001,0,0,0,0,0,0,0
30000,30000,30001,0,0,0,0,0,0
30001,30001,0,0,0,0,0,0,0
