QuestIndex,136,,,,,
,,,,,,
MessageIndex,StringCode,Menu0,Menu1,Menu2,Menu3,Menu4
11,11,0,0,0,0,0
100,100,0,0,0,0,0
200,200,0,0,0,0,0
201,201,0,0,0,0,0
10000,10000,10001,0,0,0,0
10001,10001,0,0,0,0,0
20000,20000,20001,20002,0,0,0
20001,20001,0,0,0,0,0
20002,20002,0,0,0,0,0
21000,21000,21001,0,0,0,0
21001,21001,0,0,0,0,0
