QuestIndex,640,,,,,,,
,,,,,,,,
MessageIndex,StringCode,Menu0,Menu1,Menu2,Menu3,Menu4,Menu5,Menu6
11,11,0,0,0,0,0,0,0
12,12,0,0,0,0,0,0,0
13,13,0,0,0,0,0,0,0
99,99,0,0,0,0,0,0,0
100,100,0,0,0,0,0,0,0
200,200,0,0,0,0,0,0,0
201,201,0,0,0,0,0,0,0
202,202,0,0,0,0,0,0,0
203,203,0,0,0,0,0,0,0
10000,10000,10001,10002,0,0,0,0,0
10001,10001,0,0,0,0,0,0,0
10002,10002,0,0,0,0,0,0,0
10020,10020,34463,0,0,0,0,0,0
11000,11000,11001,0,0,0,0,0,0
11001,11001,0,0,0,0,0,0,0
20000,20000,34463,0,0,0,0,0,0
30000,30000,30001,0,0,0,0,0,0
30001,30001,0,0,0,0,0,0,0
34463,34463,0,0,0,0,0,0,0
