QuestIndex,4254,,,,,
,,,,,,
MessageIndex,StringCode,Menu0,Menu1,Menu2,Menu3,Menu4
11,11,0,0,0,0,0
100,100,0,0,0,0,0
200,200,0,0,0,0,0
201,201,0,0,0,0,0
202,202,0,0,0,0,0
203,203,0,0,0,0,0
10000,10000,10001,10002,0,0,0
10001,10001,0,0,0,0,0
10002,10002,0,0,0,0,0
20000,20000,20001,0,0,0,0
20001,20001,0,0,0,0,0
20010,20010,20011,0,0,0,0
20011,20011,0,0,0,0,0
21000,21000,21001,0,0,0,0
21001,21001,0,0,0,0,0
