QuestIndex,1613,,,,,

MessageIndex,StringCode,Menu0,Menu1,Menu2,Menu3,Menu4
1,1,0,0,0,0,0
99,99,0,0,0,0,0
100,100,0,0,0,0,0
1000,1000,0,0,0,0,0
10000,10000,10001,10002,0,0,0
10001,10001,0,0,0,0,0
10002,10002,0,0,0,0,0
10010,10010,0,0,0,0,0
10020,10020,0,0,0,0,0
11000,11000,0,0,0,0,0
20000,20000,20001,0,0,0,0
20001,20001,20010,0,0,0,0
20010,20010,20011,20012,0,0,0
20011,20011,0,0,0,0,0
20012,20012,0,0,0,0,0
