QuestIndex,1241,,,,,

MessageIndex,StringCode,Menu0,Menu1,Menu2,Menu3,Menu4
99,99,0,0,0,0,0
100,100,0,0,0,0,0
110,110,0,0,0,0,0
200,200,0,0,0,0,0
201,201,0,0,0,0,0
1100,1100,0,0,0,0,0
1000,1000,0,0,0,0,0
10000,10000,10001,0,0,0,0
10001,10001,0,0,0,0,0
10010,10010,10011,0,0,0,0
10011,10011,0,0,0,0,0
10100,10100,10101,0,0,0,0
10101,10101,0,0,0,0,0
10110,10110,10111,10112,0,0,0
10111,10111,0,0,0,0,0
10112,10112,0,0,0,0,0
10200,10200,10201,0,0,0,0
10201,10201,0,0,0,0,0
10300,10300,10301,0,0,0,0
10301,10301,0,0,0,0,0
11000,11000,0,0,0,0,0
12000,12000,0,0,0,0,0
20000,20000,20001,0,0,0,0
20001,20001,0,0,0,0,0
