QuestIndex,4901,,,,,
,,,,,,
MessageIndex,StringCode,Menu0,Menu1,Menu2,Menu3,Menu4
11,11,0,0,0,0,0
12,12,0,0,0,0,0
13,13,0,0,0,0,0
60,60,0,0,0,0,0
70,70,0,0,0,0,0
99,99,0,0,0,0,0
100,100,0,0,0,0,0
110,110,0,0,0,0,0
200,200,0,0,0,0,0
201,201,0,0,0,0,0
1000,1000,1001,0,0,0,0
1001,1001,0,0,0,0,0
1100,1100,1101,0,0,0,0
10000,10000,10001,10002,0,0,0
10001,10001,0,0,0,0,0
10010,10010,10011,0,0,0,0
10011,10011,0,0,0,0,0
10020,10020,10021,0,0,0,0
10021,10021,0,0,0,0,0
11000,11000,11001,0,0,0,0
11001,11001,0,0,0,0,0
20000,20000,20001,0,0,0,0
20001,20001,0,0,0,0,0
