QuestIndex,141,,,,,

MessageIndex,StringCode,Menu0,Menu1,Menu2,Menu3,Menu4
11,11,0,0,0,0,0
12,12,0,0,0,0,0
92,92,0,0,0,0,0
99,99,0,0,0,0,0
200,200,0,0,0,0,0
201,201,0,0,0,0,0
202,202,0,0,0,0,0
203,203,0,0,0,0,0
10000,10000,10001,10002,0,0,0
10001,10001,0,0,0,0,0
10002,10002,0,0,0,0,0
10100,10100,0,0,0,0,0
10200,10200,0,0,0,0,0
20000,20000,0,0,0,0,0
30000,30000,30001,0,0,0,0
30001,30001,0,0,0,0,0
