QuestIndex,3586,,,,,

MessageIndex,StringCode,Menu0,Menu1,Menu2,Menu3,Menu4
1,1,0,0,0,0,0
11,11,0,0,0,0,0
10000,10000,10001,0,0,0,0
10001,10001,0,0,0,0,0
11000,11000,11001,0,0,0,0
11001,11001,0,0,0,0,0
12000,12000,12001,0,0,0,0
12001,12001,0,0,0,0,0
13000,13000,13001,0,0,0,0
13001,13001,0,0,0,0,0
14000,14000,14001,0,0,0,0
14001,14001,0,0,0,0,0
15000,15000,15001,0,0,0,0
15001,15001,0,0,0,0,0
