QuestIndex,3531,,,,,

MessageIndex,StringCode,Menu0,Menu1,Menu2,Menu3,Menu4
11,11,0,0,0,0,0
12,12,0,0,0,0,0
99,99,0,0,0,0,0
200,200,0,0,0,0,0
210,210,0,0,0,0,0
1100,1100,1101,0,0,0,0
1101,1101,0,0,0,0,0
10000,10000,10001,10002,0,0,0
10001,10001,0,0,0,0,0
10002,10002,0,0,0,0,0
10010,10010,10011,10012,0,0,0
10011,10011,0,0,0,0,0
10012,10012,0,0,0,0,0
10020,10020,10021,10022,0,0,0
10021,10021,0,0,0,0,0
10022,10022,0,0,0,0,0
10030,10030,0,0,0,0,0
20000,20000,20001,0,0,0,0
20001,20001,0,0,0,0,0
20010,20010,20011,0,0,0,0
20011,20011,0,0,0,0,0
