QuestIndex,4957,,,,,,,
,,,,,,,,
MessageIndex,StringCode,Menu0,Menu1,Menu2,Menu3,Menu4,Menu5,Menu6
11,11,0,0,0,0,0,0,0
100,100,0,0,0,0,0,0,0
101,101,0,0,0,0,0,0,0
102,102,0,0,0,0,0,0,0
103,103,0,0,0,0,0,0,0
200,200,0,0,0,0,0,0,0
201,201,0,0,0,0,0,0,0
202,202,0,0,0,0,0,0,0
10000,10000,10001,0,0,0,0,0,0
10001,10001,0,0,0,0,0,0,0
20000,20000,20001,0,0,0,0,0,0
20001,20001,0,0,0,0,0,0,0
30000,30000,30001,30002,0,0,0,0,0
30001,30001,0,0,0,0,0,0,0
30002,30002,0,0,0,0,0,0,0
40000,40000,40001,0,0,0,0,0,0
40001,40001,0,0,0,0,0,0,0
50000,50000,50001,0,0,0,0,0,0
50001,50001,0,0,0,0,0,0,0
