QuestIndex,4079,,,,,
,,,,,,
MessageIndex,StringCode,Menu0,Menu1,Menu2,Menu3,Menu4
11,11,0,0,0,0,0
99,99,0,0,0,0,0
200,200,0,0,0,0,0
10000,10000,10001,10002,0,0,0
10001,10001,0,0,0,0,0
10002,10002,0,0,0,0,0
11000,11000,11001,0,0,0,0
11001,11001,0,0,0,0,0
