QuestIndex,4046,,,,,
,,,,,,
MessageIndex,StringCode,Menu0,Menu1,Menu2,Menu3,Menu4
11,11,0,0,0,0,0
70,70,0,0,0,0,0
80,80,0,0,0,0,0
90,90,0,0,0,0,0
99,99,0,0,0,0,0
100,100,0,0,0,0,0
201,201,0,0,0,0,0
10000,10000,10001,10002,0,0,0
10001,10001,0,0,0,0,0
10002,10002,0,0,0,0,0
10020,10020,10021,0,0,0,0
10021,10021,0,0,0,0,0
12000,12000,12001,0,0,0,0
12001,12001,0,0,0,0,0
13000,13000,13001,0,0,0,0
13001,13001,0,0,0,0,0
14000,14000,14001,0,0,0,0
14001,14001,0,0,0,0,0
19000,19000,19001,0,0,0,0
19001,19001,0,0,0,0,0
20000,20000,20001,0,0,0,0
20001,20001,0,0,0,0,0
