QuestIndex,3935,,,,,
,,,,,,
MessageIndex,StringCode,Menu0,Menu1,Menu2,Menu3,Menu4
11,11,0,0,0,0,0
99,99,0,0,0,0,0
100,100,0,0,0,0,0
10000,10000,10001,0,0,0,0
10001,10001,0,0,0,0,0
12000,12000,12001,0,0,0,0
12001,12001,0,0,0,0,0
13000,13000,13001,0,0,0,0
13001,13001,0,0,0,0,0
