QuestIndex,1702,,,,,,,,
,,,,,,,,,
MessageIndex,StringCode,Menu0,Menu1,Menu2,Menu3,Menu4,Menu5,Menu6,Menu7
11,11,0,0,0,0,0,0,0,0
90,90,0,0,0,0,0,0,0,0
91,91,0,0,0,0,0,0,0,0
10000,10000,10001,10002,0,0,0,0,0,0
10001,10001,0,0,0,0,0,0,0,0
10002,10002,0,0,0,0,0,0,0,0
11000,11000,11001,11002,11003,0,0,0,0,0
11001,11001,0,0,0,0,0,0,0,0
11002,11002,0,0,0,0,0,0,0,0
11003,11003,0,0,0,0,0,0,0,0
12000,12000,12001,12002,12003,0,0,0,0,0
12001,12001,0,0,0,0,0,0,0,0
12002,12002,0,0,0,0,0,0,0,0
12003,12003,0,0,0,0,0,0,0,0
