QuestIndex,11075,,,,,

MessageIndex,StringCode,Menu0,Menu1,Menu2,Menu3,Menu4
1,1,0,0,0,0,0
11,11,0,0,0,0,0
100,100,0,0,0,0,0
110,110,0,0,0,0,0
1000,1000,1001,0,0,0,0
1001,1001,0,0,0,0,0
1100,1100,1001,0,0,0,0
10000,10000,10001,0,0,0,0
10001,10001,0,0,0,0,0
20000,20000,20001,0,0,0,0
20001,20001,0,0,0,0,0
