QuestIndex,3823,,,,,
,,,,,,
MessageIndex,StringCode,Menu0,Menu1,Menu2,Menu3,Menu4
11,11,0,0,0,0,0
99,99,0,0,0,0,0
10000,10000,10001,10002,0,0,0
10001,10001,0,0,0,0,0
10002,10002,0,0,0,0,0
10010,10010,10011,10012,0,0,0
10011,10011,0,0,0,0,0
10012,10012,0,0,0,0,0
10020,10020,0,0,0,0,0
20000,20000,20001,0,0,0,0
20001,20001,0,0,0,0,0
