QuestIndex,1792,,,,,,
,,,,,,,
MessageIndex,StringCode,Menu0,Menu1,Menu2,Menu3,Menu4,Menu5
90,90,0,0,0,0,0,0
91,91,0,0,0,0,0,0
100,100,0,0,0,0,0,0
1000,1000,0,0,0,0,0,0
2000,2000,0,0,0,0,0,0
3000,3000,0,0,0,0,0,0
10000,10000,10001,10002,0,0,0,0
10001,10001,0,0,0,0,0,0
10002,10002,0,0,0,0,0,0
