QuestIndex,15806,,,,,
,,,,,,
MessageIndex,StringCode,Menu0,Menu1,Menu2,Menu3,Menu4
1,1,0,0,0,0,0
11,11,0,0,0,0,0
99,99,0,0,0,0,0
300,300,0,0,0,0,0
10000,10000,10001,0,0,0,0
10001,10001,0,0,0,0,0
20000,20000,20001,0,0,0,0
20001,20001,0,0,0,0,0
