QuestIndex,101,,,,,,,

MessageIndex,StringCode,Menu0,Menu1,Menu2,Menu3,Menu4,Menu5,Menu6
1,1,0,0,0,0,0,0,0
11,11,0,0,0,0,0,0,0
12,12,0,0,0,0,0,0,0
92,92,0,0,0,0,0,0,0
10000,10000,10001,10002,0,0,0,0,0
10001,10001,0,0,0,0,0,0,0
10002,10002,0,0,0,0,0,0,0
10100,10100,10101,0,0,0,0,0,0
10101,10101,0,0,0,0,0,0,0
10200,10200,0,0,0,0,0,0,0
10500,10500,0,0,0,0,0,0,0
10600,10600,0,0,0,0,0,0,0
10700,10700,0,0,0,0,0,0,0
10701,10701,0,0,0,0,0,0,0
