QuestIndex,1835,,,,,,,
,,,,,,,,
MessageIndex,StringCode,Menu0,Menu1,Menu2,Menu3,Menu4,Menu5,Menu6
11,11,0,0,0,0,0,0,0
12,12,0,0,0,0,0,0,0
13,13,0,0,0,0,0,0,0
99,99,0,0,0,0,0,0,0
100,100,0,0,0,0,0,0,0
1000,1000,0,0,0,0,0,0,0
10000,10000,10001,10002,10003,10004,0,0,0
10001,10001,0,0,0,0,0,0,0
10002,10002,0,0,0,0,0,0,0
10003,10003,0,0,0,0,0,0,0
10004,10004,0,0,0,0,0,0,0
11000,11000,11001,11002,11003,11004,11005,11006,11007
11001,11001,0,0,0,0,0,0,0
11002,11002,0,0,0,0,0,0,0
11003,11003,0,0,0,0,0,0,0
11004,11004,0,0,0,0,0,0,0
11005,11005,0,0,0,0,0,0,0
11006,11006,0,0,0,0,0,0,0
11007,11007,0,0,0,0,0,0,0
12000,12000,12001,12002,12003,12004,12005,0,0
12001,12001,0,0,0,0,0,0,0
12002,12002,0,0,0,0,0,0,0
12003,12003,0,0,0,0,0,0,0
12004,12004,0,0,0,0,0,0,0
12005,12005,0,0,0,0,0,0,0
13000,13000,13001,13002,13003,13004,13005,0,0
13001,13001,0,0,0,0,0,0,0
13002,13002,0,0,0,0,0,0,0
13003,13003,0,0,0,0,0,0,0
13004,13004,0,0,0,0,0,0,0
13005,13005,0,0,0,0,0,0,0
14000,14000,14001,14002,14003,14004,14005,0,0
14001,14001,0,0,0,0,0,0,0
14002,14002,0,0,0,0,0,0,0
14003,14003,0,0,0,0,0,0,0
14004,14004,0,0,0,0,0,0,0
14005,14005,0,0,0,0,0,0,0
20000,20000,20001,0,0,0,0,0,0
20001,20001,0,0,0,0,0,0,0
