QuestIndex,4071,,,,,,
,,,,,,,
MessageIndex,StringCode,Menu0,Menu1,Menu2,Menu3,Menu4,Menu5
11,11,0,0,0,0,0,0
100,100,0,0,0,0,0,0
110,110,0,0,0,0,0,0
200,200,0,0,0,0,0,0
10000,10000,10001,10002,0,0,0,0
10001,10001,0,0,0,0,0,0
10002,10002,0,0,0,0,0,0
20000,20000,20001,0,0,0,0,0
20001,20001,0,0,0,0,0,0
21000,21000,20001,0,0,0,0,0
