QuestIndex,5276,,,,,

MessageIndex,StringCode,Menu0,Menu1,Menu2,Menu3,Menu4
1,1,0,0,0,0,0
11,11,0,0,0,0,0
12,12,0,0,0,0,0
99,99,0,0,0,0,0
110,110,0,0,0,0,0
200,200,0,0,0,0,0
201,201,0,0,0,0,0
300,300,0,0,0,0,0
1100,1100,1101,0,0,0,0
1101,1101,0,0,0,0,0
5000,5000,0,0,0,0,0
10000,10000,10001,10002,0,0,0
10001,10001,0,0,0,0,0
10002,10002,0,0,0,0,0
10020,10020,0,0,0,0,0
11000,11000,10001,10002,0,0,0
20000,20000,20001,0,0,0,0
20001,20001,0,0,0,0,0
21000,21000,21001,0,0,0,0
21001,21001,0,0,0,0,0
30000,30000,30001,0,0,0,0
30001,30001,0,0,0,0,0
31000,31000,30001,0,0,0,0
