ImageIndex,Count,ItemIndex,Cash,String,Description,Waring
10,2,60083,30,0,1 個,0
,,60084,140,0,5 個,0
1,5,60040,50,0,1 個,1
,,60047,50,0,1 個,1
,,60048,50,0,1 個,1
,,60050,50,0,1 個,1
,,60052,50,0,1 個,1
9,2,60054,50,0,1 個,1
,,60079,50,0,1 個,1
2,3,60035,10,0,10 個,1
,,60041,45,0,50 個,1
,,60042,88,0,100 個,1
3,3,60009,88,0,1 個,0
,,60012,400,0,5 個,0
,,60013,800,0,10 個,0
4,3,60002,88,0,1 個,0
,,60010,400,0,5 個,0
,,60011,800,0,10 個,0
5,4,60004,99,0,1 個,0
,,60005,99,0,1 個,0
,,60006,99,0,1 個,0
,,60007,99,0,1 個,0
6,1,60003,300,0,1 個,0
93,1,60088,198,0,1 個,1
8,5,60082,10,0,1 日,1
,,60008,100,0,15 日,1
,,60014,180,0,30 日,1
,,60015,350,0,60 日,1
,,60016,500,0,90 日,1
7,4,62504,210,0,無期限,0
,,62505,210,0,無期限,0
,,62506,210,0,無期限,0
,,62507,210,0,無期限,0
11,1,60039,198,0,1 個,1
94,3,60090,150,0,30 日,1
,,60093,150,0,30 日,1
,,60096,150,0,30 日,1
95,1,60089,50,0,1 個,1
12,2,62602,25,0,500 個,0
,,62603,110,0,2500 個,0
13,2,62600,25,0,500 個,0
,,62601,110,0,2500 個,0
21,3,60055,3,0,300 個,0
,,60056,7,0,1000 個,0
,,60067,20,0,5000 個,0
22,3,60057,3,0,300 個,0
,,60058,7,0,1000 個,0
,,60068,20,0,5000 個,0
23,3,60059,5,0,300 個,0
,,60060,9,0,1000 個,0
,,60069,30,0,5000 個,0
24,3,60061,5,0,300 個,0
,,60062,9,0,1000 個,0
,,60070,30,0,5000 個,0
25,2,60063,13,0,1000 個,0
,,60064,50,0,5000 個,0
26,2,60065,13,0,1000 個,0
,,60066,50,0,5000 個,0
31,3,60019,2,0,300 個,0
,,60020,6,0,1000 個,0
,,60031,19,0,5000 個,0
32,3,60021,2,0,300 個,0
,,60022,6,0,1000 個,0
,,60032,19,0,5000 個,0
33,3,60023,4,0,300 個,0
,,60024,8,0,1000 個,0
,,60033,30,0,5000 個,0
34,3,60025,4,0,300 個,0
,,60026,8,0,1000 個,0
,,60034,30,0,5000 個,0
35,2,60027,9,0,1000 個,0
,,60028,38,0,5000 個,0
36,2,60029,9,0,1000 個,0
,,60030,38,0,5000 個,0
41,3,57225,63,0,15 日,1
,,57226,110,0,30 日,1
,,57227,151,0,無期限,1
42,3,57440,63,0,15 日,1
,,57441,110,0,30 日,1
,,57442,151,0,無期限,1
43,3,57655,63,0,15 日,1
,,57656,110,0,30 日,1
,,57657,151,0,無期限,1
44,3,57870,63,0,15 日,1
,,57871,110,0,30 日,1
,,57872,151,0,無期限,1
45,3,58085,63,0,15 日,1
,,58086,110,0,30 日,1
,,58087,151,0,無期限,1
46,3,58300,63,0,15 日,1
,,58301,110,0,30 日,1
,,58302,151,0,無期限,1
51,3,57222,63,0,15 日,0
,,57223,110,0,30 日,0
,,57224,151,0,無期限,0
52,3,57437,63,0,15 日,0
,,57438,110,0,30 日,0
,,57439,151,0,無期限,0
53,3,57652,63,0,15 日,0
,,57653,110,0,30 日,0
,,57654,151,0,無期限,0
54,3,57867,63,0,15 日,0
,,57868,110,0,30 日,0
,,57869,151,0,無期限,0
55,3,58082,63,0,15 日,0
,,58083,110,0,30 日,0
,,58084,151,0,無期限,0
56,3,58297,63,0,15 日,0
,,58298,110,0,30 日,0
,,58299,151,0,無期限,0
61,3,57008,25,0,15 日,0
,,57009,45,0,30 日,0
,,57010,60,0,無期限,0
62,3,57017,25,0,15 日,0
,,57018,45,0,30 日,0
,,57019,60,0,無期限,0
64,3,57005,25,0,15 日,0
,,57006,45,0,30 日,0
,,57007,60,0,無期限,0
63,3,57014,25,0,15 日,0
,,57015,45,0,30 日,0
,,57016,60,0,無期限,0
65,3,57011,25,0,15 日,0
,,57012,45,0,30 日,0
,,57013,60,0,無期限,0
71,3,57219,50,0,15 日,0
,,57220,90,0,30 日,0
,,57221,120,0,無期限,0
72,3,57434,50,0,15 日,0
,,57435,90,0,30 日,0
,,57436,120,0,無期限,0
73,3,57649,50,0,15 日,0
,,57650,90,0,30 日,0
,,57651,120,0,無期限,0
74,3,57864,50,0,15 日,0
,,57865,90,0,30 日,0
,,57866,120,0,無期限,0
75,3,58079,50,0,15 日,0
,,58080,90,0,30 日,0
,,58081,120,0,無期限,0
76,3,58294,50,0,15 日,0
,,58295,90,0,30 日,0
,,58296,120,0,無期限,0
66,3,57002,25,0,15 日,0
,,57003,45,0,30 日,0
,,57004,60,0,無期限,0
81,3,57216,63,0,15 日,0
,,57217,113,0,30 日,0
,,57218,151,0,無期限,0
82,3,57431,63,0,15 日,0
,,57432,113,0,30 日,0
,,57433,151,0,無期限,0
83,3,57646,63,0,15 日,0
,,57647,113,0,30 日,0
,,57648,151,0,無期限,0
84,3,57861,63,0,15 日,0
,,57862,113,0,30 日,0
,,57863,151,0,無期限,0
85,3,58076,63,0,15 日,0
,,58077,113,0,30 日,0
,,58078,151,0,無期限,0
86,3,58291,63,0,15 日,0
,,58292,113,0,30 日,0
,,58293,151,0,無期限,0
88,3,58303,63,0,15 日,1
,,58304,110,0,30 日,1
,,58305,151,0,無期限,1
89,3,58306,63,0,15 日,1
,,58307,110,0,30 日,1
,,58308,151,0,無期限,1
91,3,58309,63,0,15 日,1
,,58310,110,0,30 日,1
,,58311,151,0,無期限,1
90,3,58312,63,0,15 日,1
,,58313,110,0,30 日,1
,,58314,151,0,無期限,1
87,3,58315,63,0,15 日,1
,,58316,110,0,30 日,1
,,58317,151,0,無期限,1
92,3,58318,63,0,15 日,1
,,58319,110,0,30 日,1
,,58320,151,0,無期限,1
