<window>
	name			observer_confirmwnd
	enable			true
	visible			true
	alwaysontop		true
	layer			100
	rect			300 300 532 457
	titlerect		28 2 174 14
	
	<panel>
		id			pan_back
		enable		true
		visible		true
		layer		1
		rect		0 0 232 157
		<image>
			key		none
			screen	etc_01
			index	1
		</image>
		
		<label>
			id		lbl_title
			enable	true
			visible true
			layer	10
			align	center
			rect	28 2 174 14
			<title>
				color		ffffffff
				fontindex	4
				text2		2100 1
			</title>
		</label>
		
		<button>
			id			btn_exit
			enable		true
			visible		true
			layer		100
			rect		216 3 13 13
			sound		0
			<image>		
				key		none
				screen	etc_01
				index	3
			</image>			
			<image>	
				key		over
				screen	etc_01
				index	4	
			</image>
			<image>		
				key		down
				screen	etc_01
				index	5
			</image>
		</button>
		<label>
			id				lbl_confirmhelp
			enable			true
			visible 		true
			layer			10
			multiline		true
			rect			14 27 203 92
			<title>
				color		ffffffff
				fontindex	2
				text2		2100 15
			</title>
		</label>
		<button>
			id			btn_ok
			enable		true
			visible		true
			layer		100
			rect		37 132 56 18
			sound  		0
			<image>
				key 	none
				screen 	etc_01
				index 	2
			</image>
			<title>
				state 		none
				color		ff929292
				fontIndex	4
				position	16 3
				text2 		2000 15
			</title>
			<title>
				state 		over
				color		ffffffff
				fontIndex	4
				position	16 3
			</title>
			<title>
				state 		down
				color		ff929292
				fontIndex	4
				position	17 4
			</title>
		</button>		
		<button>
			id			btn_cancel
			enable		true
			visible		true
			layer		100
			rect		138 132 56 18
			sound		0
			<image>
				key 	none
				screen 	etc_01
				index 	2
			</image>
			<title>
				state 		none
				color		ff929292
				fontIndex	4
				position	16 3
				text2 		2000 23
			</title>
			<title>
				state 		over
				color		ffffffff
				fontIndex	4
				position	16 3
			</title>
			<title>
				state 		down
				color		ff929292
				fontIndex	4
				position	17 4
			</title>
		</button>	
	</panel>
</window>