Knight.csv,Knight
Hunter.csv,Hunter
Magician.csv,Magician
summoner.csv,Summoner
segnale.csv,Segnale
warrior.csv,Warrior
aloken.csv,Aloken
dragonknight.csv,DragonKnight
segeuriper.csv,Segeuriper
concerra.csv,Concerra
Wizard.csv,Wizard
HalfBagi.csv,HalfBagi
