Index,1,2,3,4,5,6,7,8,9,10,11,12,13,14,15,16,17,18,19,20,21,22,23,24,25,26,27,28,29,30,31,32,33,34,35,36,37,38,39,40,41,42,43,44,45,46,47,48,49,50,51,52,53,54,55,56,57,58,59,60,61,62,63,64,65,66,67,68,69,70,71,72,73,74,75,76,80,81,82,83,84,85,86,87,88,89,90,91,92,93,94,95
SellRatio,3,3,3,3,3,3,3,3,3,3,3,3,3,3,3,3,3,3,3,3,3,3,3,3,3,3,3,3,3,3,3,3,3,3,3,3,3,3,3,3,3,3,3,3,3,3,3,3,3,3,3,3,3,3,3,3,3,3,3,3,3,3,3,3,3,3,3,3,3,3,3,3,3,3,3,3,3,3,3,3,3,3,3,3,3,3,3,3,3,3,3,3
MaxSellCost,1000,1000,1000,1000,1000,1000,1000,1000,1000,1000,1000,1000,1000,1000,1000,1000,1000,1000,1000,1000,1000,1000,1000,1000,1000,1000,1000,1000,1000,1000,1000,1000,1000,1000,1000,1000,1000,1000,1000,1000,1000,1000,1000,1000,1000,1000,1000,1000,1000,1000,1000,1000,1000,1000,1000,1000,1000,1000,1000,1000,1000,1000,1000,1000,1000,1000,1000,1000,1000,1000,1000,1000,1000,1000,1000,1000,1000,1000,1000,1000,1000,1000,1000,1000,1000,1000,1000,1000,1000,1000,1000,1000
TabCount,1,1,2,3,1,1,1,5,4,5,5,3,4,3,3,5,5,5,5,5,2,4,1,3,3,2,5,1,1,1,1,1,3,4,3,5,1,5,1,1,3,4,3,4,1,5,1,4,5,4,5,3,5,2,5,2,5,3,4,4,1,2,5,2,4,1,1,2,1,1,4,4,4,4,2,1,1,1,1,1,1,1,1,1,1,1,1,1,2,5,1,4
SupplyShop,0,0,0,0,0,0,0,0,0,0,0,0,0,0,0,0,0,0,0,0,0,0,0,0,0,0,0,0,0,0,0,0,0,0,0,0,0,0,0,0,0,0,0,0,0,0,0,0,0,0,0,0,0,0,0,0,0,0,0,0,0,0,0,0,0,0,0,0,0,0,0,0,0,0,0,0,0,0,0,0,0,0,0,0,0,0,0,0,0,0,0,0
Name_1,211,211,20,30,30,30,30,220,120,180,260,610,630,660,690,510,510,510,510,510,700,710,30,808,300,480,510,810,820,30,30,30,808,760,760,510,30,510,211,30,790,793,790,793,1202,510,1204,1204,1100,1104,510,691,510,701,510,1120,510,481,1107,1110,1205,935,510,661,1113,1118,1118,1118,1904,1116,1905,1909,1911,1917,1921,1205,211,211,211,211,211,211,211,211,211,211,211,211,211,510,211,211
BuyRatio_1,10,10,10,10,10,10,10,10,10,10,10,10,10,10,10,10,10,10,10,10,10,10,10,10,10,10,10,10,10,10,10,10,10,10,10,10,10,10,10,10,10,10,10,10,10,10,10,10,10,10,10,10,10,10,10,10,10,10,10,10,10,10,10,10,10,10,10,10,10,10,10,10,10,10,10,10,10,10,10,10,10,10,10,10,10,10,10,10,10,10,10,10
SupplyPoint_1,0,0,0,0,0,0,0,0,0,0,0,0,0,0,0,0,0,0,0,0,0,0,0,0,0,0,0,0,0,0,0,0,0,0,0,0,0,0,0,0,0,0,0,0,0,0,0,0,0,0,0,0,0,0,0,0,0,0,0,0,0,0,0,0,0,0,0,0,0,0,0,0,0,0,0,0,0,0,0,0,0,0,0,0,0,0,0,0,0,0,0,0
SetIndex_1,999,998,605,701,706,701,702,650,653,656,660,500,503,506,508,600,610,615,620,625,510,664,702,705,667,511,630,750,800,707,708,709,705,669,512,635,801,640,936,810,683,686,690,693,902,904,909,930,751,756,550,555,556,561,562,567,568,573,770,774,934,935,937,942,943,900,903,906,950,951,952,956,958,964,976,909,1000,1001,1002,1003,1004,1005,1006,1007,1008,1009,1010,1011,1012,1014,1019,1020
SetType_1,ALL,ALL,ALL,ALL,ALL,ALL,ALL,ALL,ALL,ALL,ALL,ALL,ALL,ALL,ALL,ALL,ALL,ALL,ALL,ALL,ALL,ALL,ALL,ALL,ALL,ALL,ALL,ALL,ALL,ALL,ALL,ALL,ALL,ALL,ALL,ALL,ALL,ALL,ALL,ALL,ALL,ALL,ALL,ALL,ALL,ALL,ALL,ALL,ALL,ALL,ALL,ALL,ALL,ALL,ALL,ALL,ALL,ALL,ALL,ALL,ALL,ALL,ALL,ALL,ALL,ALL,ALL,ALL,ALL,ALL,ALL,ALL,ALL,ALL,ALL,ALL,ALL,ALL,ALL,ALL,ALL,ALL,ALL,ALL,ALL,ALL,ALL,ALL,ALL,ALL,ALL,ALL
Number_1,0,0,0,0,0,0,0,0,0,0,0,0,0,0,0,0,0,0,0,0,0,0,0,0,0,0,0,0,0,0,0,0,0,0,0,0,0,0,0,0,0,0,0,0,0,0,0,0,0,0,0,0,0,0,0,0,0,0,0,0,0,0,0,0,0,0,0,0,0,0,0,0,0,0,0,0,0,0,0,0,0,0,0,0,0,0,0,0,0,0,0,0
Name_2,0,0,30,935,0,0,0,230,160,70,270,600,640,670,660,520,520,520,520,520,30,720,0,804,310,30,520,0,0,0,0,0,800,770,770,520,0,520,0,0,791,794,791,794,0,520,0,1204,1101,1105,520,660,520,30,520,30,520,482,1108,1111,1111,1117,520,30,1114,0,0,1119,0,0,1906,1910,1912,1918,1922,0,0,0,0,0,0,0,0,0,0,0,0,0,211,520,0,211
BuyRatio_2,10,10,10,10,10,10,10,10,10,10,10,10,10,10,10,10,10,10,10,10,10,10,10,10,10,10,10,10,10,10,10,10,10,10,10,10,10,10,10,10,10,10,10,10,10,10,10,10,10,10,10,10,10,10,10,10,10,10,10,10,10,10,10,10,10,10,10,10,10,10,10,10,10,10,10,10,10,10,10,10,10,10,10,10,10,10,10,10,10,10,10,10
SupplyPoint_2,0,0,0,0,0,0,0,0,0,0,0,0,0,0,0,0,0,0,0,0,0,0,0,0,0,0,0,0,0,0,0,0,0,0,0,0,0,0,0,0,0,0,0,0,0,0,0,0,0,0,0,0,0,0,0,0,0,0,0,0,0,0,0,0,0,0,0,0,0,0,0,0,0,0,0,0,0,0,0,0,0,0,0,0,0,0,0,0,0,0,0,0
SetIndex_2,0,0,701,935,0,0,0,651,654,657,661,501,504,507,506,601,611,616,621,626,701,665,0,703,668,701,631,0,0,0,0,0,704,670,513,636,0,641,0,0,684,687,691,694,0,906,0,931,752,757,551,506,557,701,563,701,569,574,771,775,775,948,938,701,944,0,0,907,0,0,953,957,959,965,977,0,0,0,0,0,0,0,0,0,0,0,0,0,1013,1015,0,1021
SetType_2,0,0,ALL,ALL,0,0,0,ALL,ALL,ALL,ALL,ALL,ALL,ALL,ALL,ALL,ALL,ALL,ALL,ALL,ALL,ALL,0,ALL,ALL,ALL,ALL,0,0,0,0,0,ALL,ALL,ALL,ALL,0,ALL,0,0,ALL,ALL,ALL,ALL,0,ALL,0,ALL,ALL,ALL,ALL,ALL,ALL,ALL,ALL,ALL,ALL,ALL,ALL,ALL,ALL,ALL,ALL,ALL,ALL,0,0,ALL,0,0,ALL,ALL,ALL,ALL,ALL,0,0,0,0,0,0,0,0,0,0,0,0,0,ALL,ALL,0,ALL
Number_2,0,0,0,0,0,0,0,0,0,0,0,0,0,0,0,0,0,0,0,0,0,0,0,0,0,0,0,0,0,0,0,0,0,0,0,0,0,0,0,0,0,0,0,0,0,0,0,0,0,0,0,0,0,0,0,0,0,0,0,0,0,0,0,0,0,0,0,0,0,0,0,0,0,0,0,0,0,0,0,0,0,0,0,0,0,0,0,0,0,0,0,0
Name_3,0,0,0,1117,0,0,0,240,140,90,280,30,650,30,30,530,530,530,530,530,0,730,0,800,200,0,530,0,0,0,0,0,30,780,30,530,0,530,0,0,792,795,792,795,0,530,0,1204,1102,1106,530,30,530,0,530,0,530,30,1109,1112,1112,0,530,0,1115,0,0,1116,0,0,1907,1915,1913,1919,0,0,0,0,0,0,0,0,0,0,0,0,0,0,0,530,0,211
BuyRatio_3,10,10,10,10,10,10,10,10,10,10,10,10,10,10,10,10,10,10,10,10,10,10,10,10,10,10,10,10,10,10,10,10,10,10,10,10,10,10,10,10,10,10,10,10,10,10,10,10,10,10,10,10,10,10,10,10,10,10,10,10,10,10,10,10,10,10,10,10,10,10,10,10,10,10,10,10,10,10,10,10,10,10,10,10,10,10,10,10,10,10,10,10
SupplyPoint_3,0,0,0,0,0,0,0,0,0,0,0,0,0,0,0,0,0,0,0,0,0,0,0,0,0,0,0,0,0,0,0,0,0,0,0,0,0,0,0,0,0,0,0,0,0,0,0,0,0,0,0,0,0,0,0,0,0,0,0,0,0,0,0,0,0,0,0,0,0,0,0,0,0,0,0,0,0,0,0,0,0,0,0,0,0,0,0,0,0,0,0,0
SetIndex_3,0,0,0,948,0,0,0,652,655,658,662,701,505,701,701,602,612,617,622,627,0,666,0,704,677,0,632,0,0,0,0,0,709,671,701,637,0,642,0,0,685,688,692,695,0,905,0,932,753,758,552,701,558,0,564,0,570,701,772,776,776,0,939,0,945,0,0,0,0,0,954,962,960,966,0,0,0,0,0,0,0,0,0,0,0,0,0,0,0,1016,0,1022
SetType_3,0,0,0,ALL,0,0,0,ALL,ALL,ALL,ALL,ALL,ALL,ALL,ALL,ALL,ALL,ALL,ALL,ALL,0,ALL,0,ALL,ALL,0,ALL,0,0,0,0,0,ALL,ALL,ALL,ALL,0,ALL,0,0,ALL,ALL,ALL,ALL,0,ALL,0,ALL,ALL,ALL,ALL,ALL,ALL,0,ALL,0,ALL,ALL,ALL,ALL,ALL,0,ALL,0,ALL,0,0,0,0,0,ALL,ALL,ALL,ALL,0,0,0,0,0,0,0,0,0,0,0,0,0,0,0,ALL,0,ALL
Number_3,0,0,0,0,0,0,0,0,0,0,0,0,0,0,0,0,0,0,0,0,0,0,0,0,0,0,0,0,0,0,0,0,0,0,0,0,0,0,0,0,0,0,0,0,0,0,0,0,0,0,0,0,0,0,0,0,0,0,0,0,0,0,0,0,0,0,0,0,0,0,0,0,0,0,0,0,0,0,0,0,0,0,0,0,0,0,0,0,0,0,0,0
Name_4,0,0,0,0,0,0,0,250,200,110,290,0,30,0,0,540,540,540,540,540,0,200,0,0,0,0,540,0,0,0,0,0,0,200,0,540,0,540,0,945,0,796,0,796,0,540,0,1204,1103,200,540,0,540,0,540,0,540,0,200,200,200,0,540,0,200,0,0,0,0,0,1908,1916,1914,1920,0,0,0,0,0,0,0,0,0,0,0,0,0,0,0,540,0,211
BuyRatio_4,10,10,10,10,10,10,10,10,10,10,10,10,10,10,10,10,10,10,10,10,10,10,10,10,10,10,10,10,10,10,10,10,10,10,10,10,10,10,10,10,10,10,10,10,10,10,10,10,10,10,10,10,10,10,10,10,10,10,10,10,10,10,10,10,10,10,10,10,10,10,10,10,10,10,10,10,10,10,10,10,10,10,10,10,10,10,10,10,10,10,10,10
SupplyPoint_4,0,0,0,0,0,0,0,0,0,0,0,0,0,0,0,0,0,0,0,0,0,0,0,0,0,0,0,0,0,0,0,0,0,0,0,0,0,0,0,0,0,0,0,0,0,0,0,0,0,0,0,0,0,0,0,0,0,0,0,0,0,0,0,0,0,0,0,0,0,0,0,0,0,0,0,0,0,0,0,0,0,0,0,0,0,0,0,0,0,0,0,0
SetIndex_4,0,0,0,0,0,0,0,679,673,659,663,0,701,0,0,603,613,618,623,628,0,676,0,0,0,0,633,0,0,0,0,0,0,678,0,638,0,643,0,0,0,689,0,696,0,907,0,933,754,759,553,0,559,0,565,0,571,0,773,777,777,0,940,0,946,0,0,0,0,0,955,963,961,967,0,0,0,0,0,0,0,0,0,0,0,0,0,0,0,1017,0,1023
SetType_4,0,0,0,0,0,0,0,ALL,ALL,ALL,ALL,0,ALL,0,0,ALL,ALL,ALL,ALL,ALL,0,ALL,0,0,0,0,ALL,0,0,0,0,0,0,ALL,0,ALL,0,ALL,0,0,0,ALL,0,ALL,0,ALL,0,ALL,ALL,ALL,ALL,0,ALL,0,ALL,0,ALL,0,ALL,ALL,ALL,0,ALL,0,ALL,0,0,0,0,0,ALL,ALL,ALL,ALL,0,0,0,0,0,0,0,0,0,0,0,0,0,0,0,ALL,0,ALL
Number_4,0,0,0,0,0,0,0,0,0,0,0,0,0,0,0,0,0,0,0,0,0,0,0,0,0,0,0,0,0,0,0,0,0,0,0,0,0,0,0,0,0,0,0,0,0,0,0,0,0,0,0,0,0,0,0,0,0,0,0,0,0,0,0,0,0,0,0,0,0,0,0,0,0,0,0,0,0,0,0,0,0,0,0,0,0,0,0,0,0,0,0,0
Name_5,0,0,0,0,0,0,0,200,0,200,200,0,0,0,0,550,550,550,550,550,0,0,0,0,0,0,550,0,0,0,0,0,0,0,0,550,0,550,0,30,0,0,0,0,0,550,0,0,200,0,550,0,550,0,550,0,550,0,0,0,0,0,550,0,0,0,0,0,0,0,0,0,0,0,0,0,0,0,0,0,0,0,0,0,0,0,0,0,0,550,0,0
BuyRatio_5,10,10,10,10,10,10,10,10,10,10,10,10,10,10,10,10,10,10,10,10,10,10,10,10,10,10,10,10,10,10,10,10,10,10,10,10,10,10,10,10,10,10,10,10,10,10,10,10,10,10,10,10,10,10,10,10,10,10,10,10,10,10,10,10,10,10,10,10,10,10,10,10,10,10,10,10,10,10,10,10,10,10,10,10,10,10,10,10,10,10,10,10
SupplyPoint_5,0,0,0,0,0,0,0,0,0,0,0,0,0,0,0,0,0,0,0,0,0,0,0,0,0,0,0,0,0,0,0,0,0,0,0,0,0,0,0,0,0,0,0,0,0,0,0,0,0,0,0,0,0,0,0,0,0,0,0,0,0,0,0,0,0,0,0,0,0,0,0,0,0,0,0,0,0,0,0,0,0,0,0,0,0,0,0,0,0,0,0,0
SetIndex_5,0,0,0,0,0,0,0,672,0,674,675,0,0,0,0,604,614,619,624,629,0,0,0,0,0,0,634,0,0,0,0,0,0,0,0,639,0,644,0,0,0,0,0,0,0,908,0,0,755,0,554,0,560,0,566,0,572,0,0,0,0,0,941,0,0,0,0,0,0,0,0,0,0,0,0,0,0,0,0,0,0,0,0,0,0,0,0,0,0,1018,0,0
SetType_5,0,0,0,0,0,0,0,ALL,0,ALL,ALL,0,0,0,0,ALL,ALL,ALL,ALL,ALL,0,0,0,0,0,0,ALL,0,0,0,0,0,0,0,0,ALL,0,ALL,0,0,0,0,0,0,0,ALL,0,ALL,ALL,ALL,ALL,0,ALL,0,ALL,0,ALL,0,0,0,0,0,ALL,0,0,0,0,0,0,0,0,0,0,0,0,0,0,0,0,0,0,0,0,0,0,0,0,0,0,ALL,0,0
Number_5,0,0,0,0,0,0,0,0,0,0,0,0,0,0,0,0,0,0,0,0,0,0,0,0,0,0,0,0,0,0,0,0,0,0,0,0,0,0,0,0,0,0,0,0,0,0,0,0,0,0,0,0,0,0,0,0,0,0,0,0,0,0,0,0,0,0,0,0,0,0,0,0,0,0,0,0,0,0,0,0,0,0,0,0,0,0,0,0,0,0,0,0
