1917,15,65,101
1914,15,89,101
1917,15,98,101
1917,15,46,102
1914,15,97,107
1301,15,72,111
1917,15,83,115
1917,15,56,116
1917,15,31,117
1917,15,98,121
1301,15,35,129
1914,15,87,135
1917,15,73,136
1301,15,100,136
1917,15,20,139
1917,15,52,141
1301,15,65,143
1917,15,32,145
1917,15,89,155
1917,15,46,159
1917,15,63,162
1301,15,38,163
1301,15,81,170
1917,15,85,175
1917,15,40,180
1301,15,60,180
1917,15,58,188
1917,15,30,193
1917,15,79,195
1913,15,41,199
1301,15,59,203
1301,15,91,203
1917,15,43,209
1913,15,73,213
1917,15,85,223
1913,15,100,223
1913,15,36,229
1301,15,80,229
1917,15,62,231
1913,15,56,242
1913,15,88,243
1917,15,36,245
1301,15,45,253
1301,15,75,256
1301,15,94,259
1913,15,26,263
1917,15,53,263
1301,15,23,272
1913,15,88,274
1913,15,57,279
1913,15,43,280
1304,15,72,286
1913,15,93,293
1913,15,40,297
1913,15,60,299
1913,15,77,307
1304,15,98,311
1304,15,41,313
1913,15,55,317
1304,15,81,324
1304,15,60,336
1304,15,39,338
1304,15,76,348
1304,15,92,354
1304,15,36,361
1304,15,65,365
1304,15,101,369
1917,15,101,243
1914,15,101,85
1917,15,102,182
1304,15,104,283
1914,15,104,57
1913,15,105,328
1304,15,109,339
1917,15,110,156
1917,15,111,110
1304,15,114,321
1301,15,114,167
1917,15,114,215
1914,15,114,75
1304,15,115,356
1914,15,115,51
1913,15,116,376
1301,15,117,199
1913,15,119,234
1301,15,119,268
1914,15,119,25
1304,15,122,394
1914,15,122,99
1917,15,124,185
1914,15,124,21
1304,15,127,344
1914,15,129,94
1914,15,130,37
1914,15,130,74
1304,15,131,323
1304,15,131,376
1913,15,131,286
1913,15,131,254
1913,15,133,308
1917,15,133,225
1301,15,134,232
1917,15,134,166
1917,15,138,205
1304,15,139,421
1304,15,140,447
1301,15,142,274
1304,15,143,393
1914,15,144,51
1913,15,145,331
1301,15,146,185
1914,15,146,27
1301,15,147,304
1304,15,148,343
1913,15,148,239
1914,15,148,99
1304,15,149,370
1304,15,149,435
1914,15,149,68
1304,15,151,410
1301,15,153,214
1913,15,154,375
1914,15,155,33
1914,15,155,168
1919,15,156,81
1917,15,158,250
1917,15,159,181
1913,15,161,315
1917,15,161,200
1304,15,162,357
1913,15,162,287
1304,15,163,436
1914,15,164,165
1304,15,165,409
1304,15,165,336
1301,15,165,245
1301,15,166,268
1917,15,167,220
1914,15,168,46
1304,15,170,373
1914,15,170,119
1914,15,170,87
1914,15,172,65
1914,15,172,148
1304,15,173,387
1914,15,174,26
1301,15,175,300
1304,15,176,446
1301,15,176,194
1304,15,177,403
1914,15,177,174
1304,15,178,355
1914,15,178,28
1919,15,178,105
1914,15,184,87
1304,15,185,432
1913,15,185,395
1304,15,186,373
1304,15,189,391
1914,15,189,46
1914,15,189,131
1914,15,191,157
1304,15,192,414
1913,15,192,337
1913,15,192,439
1914,15,194,184
1913,15,196,313
1914,15,196,108
1919,15,198,31
1914,15,198,49
1914,15,199,78
1913,15,200,357
1919,15,200,59
1919,15,200,147
1304,15,203,430
1914,15,203,81
1914,15,203,113
1301,15,208,331
1919,15,208,121
1304,15,209,410
1913,15,214,380
1914,15,215,157
1919,15,215,94
1913,15,216,399
1914,15,216,63
1919,15,217,38
1913,15,219,431
1914,15,219,129
1914,15,220,27
1914,15,222,164
1919,15,224,72
1919,15,224,96
1919,15,225,129
1301,15,226,363
1913,15,227,341
1913,15,227,413
1301,15,227,322
1919,15,227,114
1913,15,229,384
1919,15,232,152
1919,15,233,53
1919,15,235,29
1914,15,237,102
1913,15,241,406
1919,15,241,146
1913,15,242,362
1919,15,243,83
1919,15,244,92
1919,15,244,56
1914,15,248,33
1919,15,249,117
1301,15,250,345
1919,15,251,158
1919,15,255,140
1919,15,257,40
1916,15,262,88
1919,15,264,65
1919,15,265,26
1919,15,268,95
1919,15,269,153
1919,15,272,125
1916,15,272,111
1919,15,274,56
1919,15,279,159
1919,15,281,95
1916,15,282,143
1919,15,283,134
1916,15,285,37
1919,15,287,114
1919,15,287,29
1919,15,288,76
1919,15,292,59
1919,15,295,160
1916,15,302,99
1919,15,303,41
1919,15,304,107
1916,15,306,132
1919,15,307,78
1919,15,312,134
1916,15,313,59
1918,15,313,380
1918,15,313,434
1918,15,315,429
1918,15,316,455
1918,15,316,466
1918,15,317,389
1916,15,320,152
1916,15,321,27
1919,15,322,170
1916,15,322,96
1918,15,323,413
1919,15,324,121
1919,15,326,57
1918,15,328,350
1916,15,330,117
1915,15,330,417
1919,15,331,88
1918,15,331,342
1918,15,332,376
1918,15,334,469
1915,15,337,440
1919,15,338,142
1919,15,339,26
1916,15,339,67
1916,15,339,46
1918,15,339,414
1916,15,341,179
1918,15,342,380
1919,15,343,103
1919,15,344,163
1918,15,346,452
1915,15,348,343
1915,15,350,400
1916,15,351,122
1915,15,351,472
1918,15,355,487
1919,15,356,65
1918,15,356,358
1916,15,357,40
1916,15,357,93
1916,15,360,145
1919,15,361,117
1918,15,361,420
1918,15,361,388
1916,15,365,176
1916,15,365,66
1918,15,366,331
1918,15,366,394
1916,15,367,27
1918,15,368,468
1915,15,369,445
1919,15,371,182
1919,15,371,32
1918,15,372,337
1918,15,373,430
1915,15,373,374
1919,15,374,150
1918,15,375,357
1916,15,378,48
1916,15,379,175
1916,15,380,89
1916,15,380,131
1918,15,383,314
1919,15,385,70
1915,15,385,318
1916,15,388,26
1919,15,388,97
1916,15,389,112
1918,15,389,303
1918,15,389,405
1918,15,390,472
1916,15,391,181
1918,15,391,445
1918,15,391,332
1918,15,392,477
1916,15,393,194
1916,15,394,62
1918,15,395,403
1918,15,395,438
1916,15,396,152
1918,15,396,282
1916,15,397,81
1919,15,397,136
1919,15,398,38
1915,15,399,420
1918,15,400,345
1915,15,403,462
1915,15,403,350
1915,15,405,210
1916,15,406,167
1916,15,407,127
1916,15,409,183
1918,15,409,329
1916,15,410,103
1918,15,411,232
1918,15,412,480
1916,15,413,50
1918,15,413,394
1918,15,413,424
1918,15,414,445
1915,15,414,308
1918,15,415,294
1916,15,416,71
1916,15,417,26
1915,15,417,261
1916,15,419,210
1916,15,420,146
1918,15,420,350
1918,15,420,476
1918,15,421,429
1918,15,421,393
1918,15,423,332
1918,15,424,371
1916,15,425,94
1919,15,426,41
1915,15,427,128
1915,15,427,173
1918,15,429,287
1915,15,429,408
1915,15,431,354
1916,15,432,257
1918,15,433,212
1915,15,434,231
1915,15,434,443
1915,15,435,284
1916,15,436,115
1918,15,436,313
1916,15,438,64
1918,15,438,463
1916,15,439,35
1916,15,439,176
1915,15,440,77
1915,15,444,146
1918,15,444,411
1918,15,444,378
1915,15,446,201
1918,15,446,465
1918,15,447,349
1916,15,449,225
1918,15,450,421
1918,15,450,377
1916,15,452,248
1918,15,452,267
1916,15,453,86
1915,15,453,287
1918,15,453,326
1918,15,455,442
1915,15,456,394
1915,15,458,96
1916,15,459,143
1915,15,459,314
1915,15,459,434
1915,15,462,228
1915,15,464,168
1918,15,464,356
1915,15,464,341
1915,15,465,464
1916,15,466,120
1916,15,466,191
1918,15,468,474
1915,15,469,256
1918,15,470,238
1916,15,474,276
1918,15,474,377
1916,15,475,87
1918,15,475,422
1918,15,476,397
1918,15,477,318
1915,15,480,209
1918,15,480,341
1918,15,480,303
1916,15,481,236
1915,15,481,436
1916,15,482,150
1918,15,483,460
1915,15,484,291
1915,15,485,136
1918,15,485,414
1915,15,485,383
1916,15,486,105
1915,15,487,88
1918,15,487,452
1915,15,487,329
1916,15,488,181
1918,15,488,261
1918,15,491,362
