Creature,-7028,,,,,,,,,,,
Index,-60018,,,,,,,,,,,
Skeleton,SUHasuhdxtsnf3xpjq,,,,,,,,,,,
,,,,,,,,,,,,
Style,Action,Index,Animation,Start_Inter,End_Inter,TimeLength,Swing,Strike,Timing,Split,Timing2,Freeze
<,UVCPF,0,TVIbtvieyutog4gtos,<,B,G,0,0,0,0,0,0,,
<,UVCPF,-16376,TVIbtvieyutog4gtos,<,B,G,0,0,0,0,0,0,,
<,TGXKXG,0,TVIbtvieyutog4gtos,<,B,G,0,0,0,0,0,0,,
<,OQXG,0,,;,B,D,0,0,0,0,0,0,,
<,OQXG,-16376,,;,B,D,0,0,0,0,0,0,,
<,CVVCEM,0,,;,B,C,0,0,0,0,1,0,,
<,FGHGCV,0,,;,B,C,0,0,0,0,0,0,,
<,FGCF,0,,;,B,C,0,0,0,0,0,0,,
