Creature,NPC,,,,,,,,,,,
Index,5436,,,,,,,,,,,
Skeleton,Monster\Decayed_Progressor.skel,,,,,,,,,,,
,,,,,,,,,,,,
Style,Action,Index,Animation,Start_Inter,End_Inter,TimeLength,Swing,Strike,Timing,Split,Timing2,Freeze
0,STAND,0,Monster\Decayed_Progressor\Decayed_Progressor_stand.anim,4,1,2,0,0,0,0,0,0
0,STAND,1,Monster\Decayed_Progressor\Decayed_Progressor_cstand.anim,4,1,1,0,0,0,0,0,0
0,REVIVE,0,,1,1,2,0,0,0,0,0,0
0,MOVE,0,,0,1,1,0,0,0,0,0,0
0,MOVE,1,,0,1,1,0,0,0,0,0,0
0,ATTACK,0,,0,1,0,0,0,0,0,1,0
0,DEFEAT,0,,0,1,0,0,0,0,0,0,0
0,DEAD,0,,0,1,0,0,0,0,0,0,0
