Creature,NPC,,,,,,,,,,,
Index,5452,,,,,,,,,,,
Skeleton,Monster\Event_mob01.skel,,,,,,,,,,,
,,,,,,,,,,,,
Style,Action,Index,Animation,Start_Inter,End_Inter,TimeLength,Swing,Strike,Timing,Split,Timing2,Freeze
0,STAND,0,Monster\Event_mob01\Event_mob01_stand.anim,1,1,10,0,0,0,0,0,0
0,STAND,1,Monster\Event_mob01\Event_mob01_cstand.anim,1,1,6,0,0,0,0,0,0
0,REVIVE,0,,1,1,2,0,0,0,0,0,0
0,MOVE,0,Monster\Event_mob01\Event_mob01_walk.anim,1,1,1,0,0,0,0,0,0
0,MOVE,1,Monster\Event_mob01\Event_mob01_crun.anim,1,1,1,0,0,0,0,0,0
0,ATTACK,0,,0,1,0,0,0,0,0,1,0
0,DEFEAT,0,,0,1,0,0,0,0,0,0,0
0,DEAD,0,,0,1,0,0,0,0,0,0,0
