Creature,NPC,,,,,,,,,,,
Index,1213,,,,,,,,,,,
Skeleton,Monster\Hell_GhostNight.skel,,,,,,,,,,,

Style,Action,Index,Animation,Start_Inter,End_Inter,TimeLength,Swing,Strike,Timing,Split,Timing2,Freeze
0,STAND,0,Monster\Hell_GhostNight\Hell_GhostNight_stand.anim,5,5,3,0,0,0,0,0,0
0,STAND,1,Monster\Hell_GhostNight\Hell_GhostNight_stand.anim,5,5,3,0,0,0,0,0,0
0,REVIVE,0,Monster\Hell_GhostNight\Hell_GhostNight_stand.anim,5,5,3,0,0,0,0,0,0
0,MOVE,0,,0,1,1,0,0,0,0,0,0
0,MOVE,1,,0,1,1,0,0,0,0,0,0
0,ATTACK,0,,0,1,0,0,0,0,0,1,0
0,DEFEAT,0,,0,1,0,0,0,0,0,0,0
0,DEAD,0,,0,1,0,0,0,0,0,0,0
