Creature,NPC,,,,,,,,,,,
Index,5480,,,,,,,,,,,
Skeleton,Character\WSU.skel,,,,,,,,,,,
,,,,,,,,,,,,
Style,Action,Index,Animation,Start_Inter,End_Inter,TimeLength,Swing,Strike,Timing,Split,Timing2,Freeze
0,STAND,0,Character\Conserra\Motion\WSU_SWIM_COM_STAND.anim,5,1,1.5,0,0,0,0,0,0
0,STAND,1,Character\Conserra\Motion\WSU_SWIM_COM_STAND.anim,5,1,1.5,0,0,0,0,0,0
0,REVIVE,0,Character\Conserra\Motion\WSU_SWIM_COM_STAND.anim,5,1,1.5,0,0,0,0,0,0
0,MOVE,0,,0,1,1,0,0,0,0,0,0
0,MOVE,1,,0,1,1,0,0,0,0,0,0
0,ATTACK,0,,0,1,0,0,0,0,0,1,0
0,DEFEAT,0,,0,1,0,0,0,0,0,0,0
0,DEAD,0,,0,1,0,0,0,0,0,0,0
