Creature,SERVANT,,,,,,,,,,,,,
Index,4239,,,,,,,,,,,,,
Skeleton,Servant\Arrogans.skel,,,,,,,,,,,,,
,,,,,,,,,,,,,,
Style,Action,Index,Animation,Start_Inter,End_Inter,TimeLength,Swing,Strike,Timing,Split,Timing2,Freeze,Effect,CancelTime
0,STAND,0,Servant\Arrogans\Arrogans_stand.anim,4,1,4,0,0,0,0,0,0,0,0
0,STAND,1,Servant\Arrogans\Arrogans_cstand.anim,4,1,1,0,0,0,0,0,0,0,0
0,SM_STAND,0,Servant\Arrogans\Arrogans_swin_stand.anim,4,1,1.5,0,0,0,0,0,0,0,0
0,SM_STAND,1,Servant\Arrogans\Arrogans_swin_stand.anim,4,1,1.5,0,0,0,0,0,0,0,0
0,REVIVE,0,,0,1,0,0,0,0,0,0,0,0,0
0,MOVE,0,Servant\Arrogans\Arrogans_run.anim,4,1,0.9,0,0,0,0,0,0,0,0
0,MOVE,1,Servant\Arrogans\Arrogans_run.anim,4,1,0.9,0,0,0,0,0,0,0,0
0,SM_MOVE,0,Servant\Arrogans\Arrogans_swin_run.anim,4,1,0.9,0,0,0,0,0,0,0,0
0,SM_MOVE,1,Servant\Arrogans\Arrogans_swin_run.anim,4,1,0.9,0,0,0,0,0,0,0,0
0,ATTACK,4,Servant\Arrogans\Arrogans_att1.anim,4,1,1.5,0,0,0.49,0,1,0,133,0
0,ATTACK,5,Servant\Arrogans\Arrogans_att2.anim,4,1,2.4,0,0,0.74,0,1,0,134,0
0,ATTACK,6,Servant\Arrogans\Arrogans_att3.anim,4,1,2,0,0,0.4,0,1,0,135,0
0,BLOCKING,0,Servant\Arrogans\Arrogans_blocking.anim,10,1,0.5,0,0,0,0,0,0,0,0
0,BLOCKED,0,Servant\Arrogans\Arrogans_blocking.anim,10,1,0.5,0,0,0,0,0,0,0,0
0,BLOCKED,1,Servant\Arrogans\Arrogans_blocking.anim,10,1,0.5,0,0,0,0,0,0,0,0
0,BLOCKED,2,Servant\Arrogans\Arrogans_blocking.anim,10,1,0.5,0,0,0,0,0,0,0,0
0,BLOCKED,3,Servant\Arrogans\Arrogans_blocking.anim,10,1,0.5,0,0,0,0,0,0,0,0
0,BLOCKED,4,Servant\Arrogans\Arrogans_blocking.anim,10,1,0.5,0,0,0,0,0,0,0,0
0,BLOCKED,5,Servant\Arrogans\Arrogans_blocking.anim,10,1,0.5,0,0,0,0,0,0,0,0
0,BLOCKED,6,Servant\Arrogans\Arrogans_blocking.anim,10,1,0.5,0,0,0,0,0,0,0,0
0,BLOCKED,7,Servant\Arrogans\Arrogans_blocking.anim,10,1,0.5,0,0,0,0,0,0,0,0
0,DEFEAT,0,Servant\Arrogans\Arrogans_p.anim,10,1,0.5,0,0,0,0,0,0,0,0
0,DEFEAT,1,Servant\Arrogans\Arrogans_p.anim,10,1,0.5,0,0,0,0,0,0,0,0
0,DEFEAT,2,Servant\Arrogans\Arrogans_p.anim,10,1,0.5,0,0,0,0,0,0,0,0
0,DEFEAT,3,Servant\Arrogans\Arrogans_p.anim,10,1,0.5,0,0,0,0,0,0,0,0
0,DEAD,0,Servant\Arrogans\Arrogans_p.anim,4,1,0.5,0,0,0.1,1,0,0,0,0
0,GUARDING,0,Servant\Arrogans\Arrogans_p.anim,10,1,0.5,0,0,0,0,0,0,0,0
0,GUARDING,1,Servant\Arrogans\Arrogans_p.anim,10,1,0.5,0,0,0,0,0,0,0,0
0,GUARDING,2,Servant\Arrogans\Arrogans_p.anim,10,1,0.5,0,0,0,0,0,0,0,0
0,GUARDING,2,Servant\Agares\Agares_guard3.anim,10,1,0.5,0,0,0,0,0,0,0,0
