Creature,SERVANT,,,,,,,,,,,,,
Index,4205,,,,,,,,,,,,,
Skeleton,Servant\ErigoL_1.skel,,,,,,,,,,,,,
,,,,,,,,,,,,,,
Style,Action,Index,Animation,Start_Inter,End_Inter,TimeLength,Swing,Strike,Timing,Split,Timing2,Freeze,Effect,CancelTime
0,STAND,0,Servant\Erigol\Erigol_stand.anim,4,1,3,0,0,0,0,0,0,0,0
0,STAND,1,Servant\Erigol\Erigol_cstand.anim,4,1,3,0,0,0,0,0,0,0,0
0,SM_STAND,0,Servant\Erigol\Erigol_stand.anim,4,1,3,0,0,0,0,0,0,0,0
0,SM_STAND,1,Servant\Erigol\Erigol_cstand.anim,4,1,3,0,0,0,0,0,0,0,0
0,REVIVE,0,,0,1,0,0,0,0,0,0,0,0,0
0,MOVE,0,Servant\Erigol\Erigol_walk.anim,4,1,2,0,0,0,0,0,0,0,0
0,MOVE,1,Servant\Erigol\Erigol_crun.anim,4,1,1.5,0,0,0,0,0,0,0,0
0,SM_MOVE,0,Servant\Erigol\Erigol_walk.anim,4,1,2,0,0,0,0,0,0,0,0
0,SM_MOVE,1,Servant\Erigol\Erigol_crun.anim,4,1,1.5,0,0,0,0,0,0,0,0
0,ATTACK,4,Servant\Erigol\Erigol_att1.anim,4,1,3,0,0,0.26,0,0,0,125,0
0,ATTACK,5,Servant\Erigol\Erigol_att2.anim,4,1,2,0,0,0.68,0,0,0,126,0
0,ATTACK,6,Servant\Erigol\Erigol_att3.anim,4,1,2.5,0,0,0.68,0,0,0,127,0
0,ATTACK,7,Servant\Erigol\Erigol_att4.anim,4,1,3,0,0,0.1,0,0,0,128,0
0,BLOCKING,0,Servant\Erigol\Erigol_blocking.anim,10,1,0.5,0,0,0,0,0,0,0,0
0,DEFEAT,0,Servant\Erigol\Erigol_p3.anim,10,1,0.7,0,0,0,0,0,0,0,0
0,DEFEAT,1,Servant\Erigol\Erigol_p3.anim,10,1,0.7,0,0,0,0,0,0,0,0
0,DEFEAT,2,Servant\Erigol\Erigol_p3.anim,10,1,0.7,0,0,0,0,0,0,0,0
0,DEFEAT,3,Servant\Erigol\Erigol_p3.anim,10,1,0.7,0,0,0,0,0,0,0,0
0,DEAD,0,Servant\Erigol\Erigol_die.anim,4,1,2,0,0,0,0,0,0,0,0
0,GUARDING,0,Servant\Erigol\Erigol_guard3.anim,10,1,0.7,0,0,0,0,0,0,0,0
0,GUARDING,1,Servant\Erigol\Erigol_guard3.anim,10,1,0.7,0,0,0,0,0,0,0,0
0,GUARDING,2,Servant\Erigol\Erigol_guard3.anim,10,1,0.7,0,0,0,0,0,0,0,0
