Creature,SERVANT,,,,,,,,,,,,,
Index,4235,,,,,,,,,,,,,
Skeleton,Servant\Gigantes.skel,,,,,,,,,,,,,
,,,,,,,,,,,,,,
Style,Action,Index,Animation,Start_Inter,End_Inter,TimeLength,Swing,Strike,Timing,Split,Timing2,Freeze,Effect,CancelTime
0,STAND,0,Servant\Gigantes\Gigantes_stand.anim,4,1,5.3,0,0,0,0,0,0,0,0
0,STAND,1,Servant\Gigantes\Gigantes_cstand.anim,4,1,1,0,0,0,0,0,0,0,0
0,SM_STAND,0,Servant\Gigantes\Gigantes_swim_stand.anim,4,1,1.2,0,0,0,0,0,0,0,0
0,SM_STAND,1,Servant\Gigantes\Gigantes_swim_stand.anim,4,1,1.2,0,0,0,0,0,0,0,0
0,REVIVE,0,,0,1,0,0,0,0,0,0,0,0,0
0,MOVE,0,Servant\Gigantes\Gigantes_crun.anim,4,1,1,0,0,0,0,0,0,0,0
0,MOVE,1,Servant\Gigantes\Gigantes_crun.anim,4,1,1,0,0,0,0,0,0,0,0
0,SM_MOVE,0,Servant\Gigantes\Gigantes_swim_crun.anim,4,1,1,0,0,0,0,0,0,0,0
0,SM_MOVE,1,Servant\Gigantes\Gigantes_swim_crun.anim,4,1,1,0,0,0,0,0,0,0,0
0,ATTACK,0,Servant\Gigantes\Gigantes_att02.anim,4,1,1.7,0,0,0.55,0,1,0,130,0
0,ATTACK,1,Servant\Gigantes\Gigantes_att03.anim,4,1,2.3,0,0,0.55,0,1,0,131,0
0,ATTACK,2,Servant\Gigantes\Gigantes_att04.anim,4,1,3.3,0,0,0.4,0,1,0,132,0
0,ATTACK,3,Servant\Gigantes\Gigantes_att04.anim,4,1,3.3,0,0,0.4,0,1,0,132,0
0,BLOCKING,0,Servant\Gigantes\Gigantes_blocking.anim,10,1,0.5,0,0,0,0,0,0,0,0
0,BLOCKED,0,Servant\Gigantes\Gigantes_blocking.anim,10,1,0.5,0,0,0,0,0,0,0,0
0,BLOCKED,1,Servant\Gigantes\Gigantes_blocking.anim,10,1,0.5,0,0,0,0,0,0,0,0
0,BLOCKED,2,Servant\Gigantes\Gigantes_blocking.anim,10,1,0.5,0,0,0,0,0,0,0,0
0,BLOCKED,3,Servant\Gigantes\Gigantes_blocking.anim,10,1,0.5,0,0,0,0,0,0,0,0
0,BLOCKED,4,Servant\Gigantes\Gigantes_blocking.anim,10,1,0.5,0,0,0,0,0,0,0,0
0,BLOCKED,5,Servant\Gigantes\Gigantes_blocking.anim,10,1,0.5,0,0,0,0,0,0,0,0
0,BLOCKED,6,Servant\Gigantes\Gigantes_blocking.anim,10,1,0.5,0,0,0,0,0,0,0,0
0,BLOCKED,7,Servant\Gigantes\Gigantes_blocking.anim,10,1,0.5,0,0,0,0,0,0,0,0
0,DEFEAT,0,Servant\Gigantes\Gigantes_p4.anim,10,1,0.5,0,0,0,0,0,0,0,0
0,DEFEAT,1,Servant\Gigantes\Gigantes_p4.anim,10,1,0.5,0,0,0,0,0,0,0,0
0,DEFEAT,2,Servant\Gigantes\Gigantes_p4.anim,10,1,0.5,0,0,0,0,0,0,0,0
0,DEFEAT,3,Servant\Gigantes\Gigantes_p4.anim,10,1,0.5,0,0,0,0,0,0,0,0
0,DEAD,0,Servant\Gigantes\Gigantes_p4.anim,4,1,0.5,0,0,0.1,1,0,0,0,0
0,GUARDING,0,Servant\Gigantes\Gigantes_guard03.anim,10,1,0.5,0,0,0,0,0,0,0,0
0,GUARDING,1,Servant\Gigantes\Gigantes_guard03.anim,10,1,0.5,0,0,0,0,0,0,0,0
0,GUARDING,2,Servant\Gigantes\Gigantes_guard03.anim,10,1,0.5,0,0,0,0,0,0,0,0
