Creature,SERVANT,,,,,,,,,,,,,
Index,60457,,,,,,,,,,,,,
Skeleton,monster\istel.skel,,,,,,,,,,,,,
,,,,,,,,,,,,,,
Style,Action,Index,Animation,Start_Inter,End_Inter,TimeLength,Swing,Strike,Timing,Split,Timing2,Freeze,Effect,CancelTime
0,STAND,0,Monster\istel\istel_stand.anim,5,1,1.5,0,0,0,0,0,0,0,0
0,STAND,1,Monster\istel\istel_cstand.anim,5,1,1.6,0,0,0,0,0,0,0,0
0,SM_STAND,0,Character\Aloken\Motion\ALO_SWIM_COM_STAND_01.anim,5,1,1.5,0,0,0,0,0,0,0,0
0,SM_STAND,1,Character\Aloken\Motion\ALO_SWIM_COM_STAND_01.anim,5,1,1.5,0,0,0,0,0,0,0,0
0,REVIVE,0,,0,1,0,0,0,0,0,0,0,0,0
0,MOVE,0,Monster\istel\istel_walk.anim,5,1,1,0,0,0,0,0,0,0,0
0,MOVE,1,Monster\istel\istel_crun.anim,5,1,0.8,0,0,0,0,0,0,0,0
0,SM_MOVE,0,Character\Aloken\Motion\ALO_SWIM_COM_WALK_01.anim,5,1,1,0,0,0,0,0,0,0,0
0,SM_MOVE,1,Character\Aloken\Motion\ALO_SWIM_COM_CRUN_01.anim,5,1,1,0,0,0,0,0,0,0,0
0,ATTACK,0,Monster\istel\istel_att02.anim,4,1,2.33,0,0,0.55,0,0,0,158,0
0,ATTACK,1,Character\Aloken\Skill\ALO_SKL_SPR_PUNISH.anim,4,1,1,0,0,1,0,0,0,157,0
0,ATTACK,2,Character\Aloken\Skill\ALO_SKL_SPR_BLASTRO_01.anim,4,1,1,0,0,0.72,0,0,0,159,0
0,BLOCKING,0,Character\Aloken\Motion\SPR\ALO_SPR_BLOCKING_01.anim,10,1,0.5,0,0,0,0,0,0,0,0
0,BLOCKED,0,Character\Aloken\Motion\SPR\ALO_SPR_BLOCKED_01.anim,10,1,1,0,0,0,0,0,0,0,0
0,BLOCKED,1,Character\Aloken\Motion\SPR\ALO_SPR_BLOCKED_02.anim,10,1,1,0,0,0,0,0,0,0,0
0,BLOCKED,2,Character\Aloken\Motion\SPR\ALO_SPR_BLOCKED_01.anim,10,1,1,0,0,0,0,0,0,0,0
0,BLOCKED,3,Character\Aloken\Motion\SPR\ALO_SPR_BLOCKED_02.anim,10,1,1,0,0,0,0,0,0,0,0
0,BLOCKED,4,Character\Aloken\Motion\SPR\ALO_SPR_BLOCKED_01.anim,10,1,1,0,0,0,0,0,0,0,0
0,BLOCKED,5,Character\Aloken\Motion\SPR\ALO_SPR_BLOCKED_02.anim,10,1,1,0,0,0,0,0,0,0,0
0,BLOCKED,6,Character\Aloken\Motion\SPR\ALO_SPR_BLOCKED_01.anim,10,1,1,0,0,0,0,0,0,0,0
0,BLOCKED,7,Character\Aloken\Motion\SPR\ALO_SPR_BLOCKED_02.anim,10,1,1,0,0,0,0,0,0,0,0
0,DEFEAT,0,Character\Aloken\Motion\ALO_COM_DAMAGE_01.anim,4,1,0.64,0,0,0,0,0,0,0,0
0,DEFEAT,1,Character\Aloken\Motion\ALO_COM_DAMAGE_02.anim,4,1,0.64,0,0,0,0,0,0,0,0
0,DEFEAT,2,Character\Aloken\Motion\ALO_COM_KNOCKDOWN.anim,4,1,3,0,0,0,0,0,0,0,0
0,DEFEAT,3,Character\Aloken\Motion\ALO_COM_KNOCKDOWN.anim,4,1,3,0,0,0,0,0,0,0,0
0,DEAD,0,Character\Aloken\Motion\ALO_COM_DIE_01.anim,1,1,2.5,0,0,0,1,0,0,0,0
0,GUARDING,0,Character\Aloken\Motion\SPR\ALO_SPR_GUARD_01.anim,10,1,0.5,0,0,0,0,0,0,0,0
0,GUARDING,1,Character\Aloken\Motion\SPR\ALO_SPR_GUARD_01.anim,10,1,0.5,0,0,0,0,0,0,0,0
0,GUARDING,2,Character\Aloken\Motion\SPR\ALO_SPR_GUARD_01.anim,10,1,0.5,0,0,0,0,0,0,0,0
