Creature,SERVANT,,,,,,,,,,,,,
Index,4268,,,,,,,,,,,,,
Skeleton,Monster\Maneuver.skel,,,,,,,,,,,,,
,,,,,,,,,,,,,,
Style,Action,Index,Animation,Start_Inter,End_Inter,TimeLength,Swing,Strike,Timing,Split,Timing2,Freeze,Effect,CancelTime
0,STAND,0,Monster\Maneuver\Maneuver_stand.anim,1,1,1.3,0,0,0,0,0,0,0,0
0,STAND,1,Monster\Maneuver\Maneuver_cstand.anim,1,1,1,0,0,0,0,0,0,0,0
0,SM_STAND,0,Monster\Maneuver\Maneuver_stand.anim,1,1,1.3,0,0,0,0,0,0,0,0
0,SM_STAND,1,Monster\Maneuver\Maneuver_cstand.anim,1,1,1,0,0,0,0,0,0,0,0
0,REVIVE,0,,0,1,0,0,0,0,0,0,0,0,0
0,MOVE,0,Monster\Maneuver\Maneuver_walk.anim,1,1,1.1,0,0,0,0,0,0,0,0
0,MOVE,1,Monster\Maneuver\Maneuver_crun.anim,1,1,1.1,0,0,0,0,0,0,0,0
0,SM_MOVE,0,Monster\Maneuver\Maneuver_walk.anim,1,1,1.1,0,0,0,0,0,0,0,0
0,SM_MOVE,1,Monster\Maneuver\Maneuver_crun.anim,1,1,1.1,0,0,0,0,0,0,0,0
0,ATTACK,0,Monster\Maneuver\Maneuver_att01.anim,4,1,2,0,0,0,0,1,0,139,0
0,ATTACK,1,Monster\Maneuver\Maneuver_att02.anim,4,1,2,0,0,0,0,1,0,140,0
0,ATTACK,2,Monster\Maneuver\Maneuver_att04.anim,4,1,3,0,0,0,0,1,0,141,0
0,BLOCKING,0,Monster\Maneuver\Maneuver_blocking.anim,10,1,1,0,0,0,0,0,0,0,0
0,BLOCKED,0,Monster\Maneuver\Maneuver_blocking.anim,10,1,1,0,0,0,0,0,0,0,0
0,BLOCKED,1,Monster\Maneuver\Maneuver_blocking.anim,10,1,1,0,0,0,0,0,0,0,0
0,BLOCKED,2,Monster\Maneuver\Maneuver_blocking.anim,10,1,1,0,0,0,0,0,0,0,0
0,BLOCKED,3,Monster\Maneuver\Maneuver_blocking.anim,10,1,1,0,0,0,0,0,0,0,0
0,BLOCKED,4,Monster\Maneuver\Maneuver_blocking.anim,10,1,1,0,0,0,0,0,0,0,0
0,BLOCKED,5,Monster\Maneuver\Maneuver_blocking.anim,10,1,1,0,0,0,0,0,0,0,0
0,BLOCKED,6,Monster\Maneuver\Maneuver_blocking.anim,10,1,1,0,0,0,0,0,0,0,0
0,BLOCKED,7,Monster\Maneuver\Maneuver_blocking.anim,10,1,1,0,0,0,0,0,0,0,0
0,DEFEAT,0,Monster\Maneuver\Maneuver_p4.anim,5,1,0.7,0,0,0,0,0,0,0,0
0,DEFEAT,1,Monster\Maneuver\Maneuver_p4.anim,5,1,0.7,0,0,0,0,0,0,0,0
0,DEFEAT,2,Monster\Maneuver\Maneuver_p4.anim,5,1,0.7,0,0,0,0,0,0,0,0
0,DEFEAT,3,Monster\Maneuver\Maneuver_p4.anim,5,1,0.7,0,0,0,0,0,0,0,0
0,DEAD,0,Monster\Maneuver\Maneuver_die.anim,4,1,7,0,0,0.1,1,0,0,1421,0
0,GUARDING,0,monster\Maneuver\Maneuver_guard3.anim,10,1,0.7,0,0,0,0,0,0,0,0
0,GUARDING,1,monster\Maneuver\Maneuver_guard3.anim,10,1,0.7,0,0,0,0,0,0,0,0
0,GUARDING,2,monster\Maneuver\Maneuver_guard3.anim,10,1,0.7,0,0,0,0,0,0,0,0
