Creature,SERVANT,,,,,,,,,,,,,
Index,60454,,,,,,,,,,,,,
Skeleton,Monster\marto.skel,,,,,,,,,,,,,
,,,,,,,,,,,,,,
Style,Action,Index,Animation,Start_Inter,End_Inter,TimeLength,Swing,Strike,Timing,Split,Timing2,Freeze,Effect,CancelTime
0,STAND,0,Monster\marto\marto_stand.anim,5,1,1.5,0,0,0,0,0,0,0,0
0,STAND,1,Monster\marto\marto_cstand.anim,5,1,1.5,0,0,0,0,0,0,0,0
0,SM_STAND,0,Character\summoner\Motion\SUM_SWIM_COM_STAND_01.anim,5,1,1.5,0,0,0,0,0,0,0,0
0,SM_STAND,1,Character\summoner\Motion\SUM_SWIM_COM_STAND_01.anim,5,1,1.5,0,0,0,0,0,0,0,0
0,REVIVE,0,,0,1,0,0,0,0,0,0,0,0,0
0,MOVE,0,Monster\marto\marto_walk.anim,5,1,1,0,0,0,0,0,0,0,0
0,MOVE,1,Monster\marto\marto_crun.anim,5,1,1,0,0,0,0,0,0,0,0
0,SM_MOVE,0,Character\summoner\Motion\SUM_SWIM_COM_WALK_01.anim,5,1,1,0,0,0,0,0,0,0,0
0,SM_MOVE,1,Character\summoner\Motion\SUM_SWIM_COM_CRUN_01.anim,5,1,1,0,0,0,0,0,0,0,0
0,ATTACK,0,Character\Summoner\Skill\SUM_SKL_DUL_BINDSWORD_01.anim,5,1,1,0,0,0.75,0,0,0,148,0
0,ATTACK,1,Character\Summoner\Skill\SUM_SKL_DUL_DARKNESS_01.anim,5,1,1,0,0,0.5,0,0,0,149,0
0,ATTACK,2,Character\Summoner\Skill\SUM_SKL_DUL_STORMRUNNER_01.anim,5,1,1.3,0,0,1,0,0,0,150,0
0,BLOCKING,0,Character\Summoner\Motion\DUL\SUM_DUL_BLOCKING_00.anim,10,1,1,0,0,0,0,0,0,0,0
0,BLOCKED,0,Character\Summoner\Motion\SUM_ONE_BLOCKED_00.anim,10,1,1,0,0,0,0,0,0,0,0
0,BLOCKED,1,Character\Summoner\Motion\SUM_ONE_BLOCKED_01.anim,10,1,1,0,0,0,0,0,0,0,0
0,BLOCKED,2,Character\Summoner\Motion\SUM_ONE_BLOCKED_02.anim,10,1,1,0,0,0,0,0,0,0,0
0,BLOCKED,3,Character\Summoner\Motion\SUM_ONE_BLOCKED_00.anim,10,1,1,0,0,0,0,0,0,0,0
0,BLOCKED,4,Character\Summoner\Motion\SUM_ONE_BLOCKED_00.anim,10,1,1,0,0,0,0,0,0,0,0
0,BLOCKED,5,Character\Summoner\Motion\SUM_ONE_BLOCKED_00.anim,10,1,1,0,0,0,0,0,0,0,0
0,BLOCKED,6,Character\Summoner\Motion\SUM_ONE_BLOCKED_01.anim,10,1,1,0,0,0,0,0,0,0,0
0,BLOCKED,7,Character\Summoner\Motion\SUM_ONE_BLOCKED_01.anim,10,1,1,0,0,0,0,0,0,0,0
0,DEFEAT,0,Character\Summoner\Motion\SUM_COM_DAMAGE_01.anim,4,1,0.64,0,0,0,0,0,0,0,0
0,DEFEAT,1,Character\Summoner\Motion\SUM_COM_DAMAGE_01.anim,4,1,0.64,0,0,0,0,0,0,0,0
0,DEFEAT,2,Character\Summoner\Motion\SUM_COM_KNOCKDOWN.anim,4,1,3,0,0,0,0,0,0,0,0
0,DEFEAT,3,Character\Summoner\Motion\SUM_COM_KNOCKDOWN.anim,4,1,3,0,0,0,0,0,0,0,0
0,DEAD,0,Character\Summoner\Motion\SUM_COM_DIE_01.anim,1,1,2.06,0,0,0,1,0,0,0,0
0,GUARDING,0,character\summoner\motion\dul\sum_dul_guard_00.anim,10,1,1,0,0,0,0,0,0,0,0
0,GUARDING,1,character\summoner\motion\dul\sum_dul_guard_00.anim,10,1,1,0,0,0,0,0,0,0,0
0,GUARDING,2,character\summoner\motion\dul\sum_dul_guard_00.anim,10,1,1,0,0,0,0,0,0,0,0
