Creature,SERVANT,,,,,,,,,,,,,
Index,60473,,,,,,,,,,,,,
Skeleton,monster\morak.skel,,,,,,,,,,,,,
,,,,,,,,,,,,,,
Style,Action,Index,Animation,Start_Inter,End_Inter,TimeLength,Swing,Strike,Timing,Split,Timing2,Freeze,Effect,CancelTime
0,STAND,0,Monster\morak\morak_stand.anim,5,1,1.7,0,0,0,0,0,0,0,0
0,STAND,1,Monster\morak\morak_stand.anim,5,1,1.7,0,0,0,0,0,0,0,0
0,SM_STAND,0,Character\HalfWarrior\Motion\HWA_SWIM_COM_STAND_01.anim,5,1,1.5,0,0,0,0,0,0,0,0
0,SM_STAND,1,Character\HalfWarrior\Motion\HWA_SWIM_COM_STAND_01.anim,5,1,1.5,0,0,0,0,0,0,0,0
0,REVIVE,0,,0,1,0,0,0,0,0,0,0,0,0
0,MOVE,0,Monster\morak\morak_walk.anim,5,1,1,0,0,0,0,0,0,0,0
0,MOVE,1,Monster\morak\morak_run.anim,5,1,1,0,0,0,0,0,0,0,0
0,SM_MOVE,0,Character\HalfWarrior\Motion\HWA_SWIM_COM_WALK_01.anim,5,1,1,0,0,0,0,0,0,0,0
0,SM_MOVE,1,Character\HalfWarrior\Motion\HWA_SWIM_COM_CRUN.anim,5,1,0.9,0,0,0,0,0,0,0,0
0,ATTACK,0,Character\HalfWarrior\Skill\HWA_SKL_KAT_POWERSPIN_01.anim,4,1,2,0,0,0.55,0,0,0,169,0
0,ATTACK,1,Character\HalfWarrior\Skill\HWA_SKL_KAT_MOTALBLOW_01.anim,4,1,1.4,0,0,0.7,0,0,0,170,0
0,ATTACK,2,Character\HalfWarrior\Skill\HWA_SKL_KAT_UPPERCUT_01.anim,4,1,1,0,0,0.5,0,0,0,171,0
0,BLOCKING,0,Character\HalfWarrior\Motion\katar\HWA_KAT_BLOCKING.anim,10,1,0.5,0,0,0,0,0,0,0,0
0,BLOCKED,0,Character\HalfWarrior\Motion\katar\HWA_KAT_BLOCKED_01.anim,10,1,1,0,0,0,0,0,0,0,0
0,BLOCKED,1,Character\HalfWarrior\Motion\katar\HWA_KAT_BLOCKED_02.anim,10,1,1,0,0,0,0,0,0,0,0
0,BLOCKED,2,Character\HalfWarrior\Motion\katar\HWA_KAT_BLOCKED_02.anim,10,1,1,0,0,0,0,0,0,0,0
0,BLOCKED,3,Character\HalfWarrior\Motion\katar\HWA_KAT_BLOCKED_01.anim,10,1,1,0,0,0,0,0,0,0,0
0,BLOCKED,4,Character\HalfWarrior\Motion\katar\HWA_KAT_BLOCKED_01.anim,10,1,1,0,0,0,0,0,0,0,0
0,BLOCKED,5,Character\HalfWarrior\Motion\katar\HWA_KAT_BLOCKED_01.anim,10,1,1,0,0,0,0,0,0,0,0
0,BLOCKED,6,Character\HalfWarrior\Motion\katar\HWA_KAT_BLOCKED_02.anim,10,1,1,0,0,0,0,0,0,0,0
0,BLOCKED,7,Character\HalfWarrior\Motion\katar\HWA_KAT_BLOCKED_02.anim,10,1,1,0,0,0,0,0,0,0,0
0,DEFEAT,0,Character\HalfWarrior\Motion\HWA_COM_DAMAGE_01.anim,4,1,0.5,0,0,0,0,0,0,0,0
0,DEFEAT,1,Character\HalfWarrior\Motion\HWA_COM_DAMAGE_02.anim,4,1,0.5,0,0,0,0,0,0,0,0
0,DEFEAT,2,Character\HalfWarrior\Motion\HWA_COM_KNOCKDOWN.anim,4,1,3,0,0,0,0,0,0,0,0
0,DEFEAT,3,Character\HalfWarrior\Motion\HWA_COM_KNOCKDOWN.anim,4,1,3,0,0,0,0,0,0,0,0
0,DEAD,0,Character\HalfWarrior\Motion\HWA_COM_DIE.anim,1,1,3.1,0,0,0,1,0,0,0,0
0,GUARDING,0,Character\HalfWarrior\Motion\NON\HWA_NON_GUARD.anim,10,1,0.5,0,0,0,0,0,0,0,0
0,GUARDING,1,Character\HalfWarrior\Motion\NON\HWA_NON_GUARD.anim,10,1,0.5,0,0,0,0,0,0,0,0
0,GUARDING,2,Character\HalfWarrior\Motion\NON\HWA_NON_GUARD.anim,10,1,0.5,0,0,0,0,0,0,0,0
