Creature,SERVANT,,,,,,,,,,,,,
Index,4246,,,,,,,,,,,,,
Skeleton,Servant\Paranoia.skel,,,,,,,,,,,,,
,,,,,,,,,,,,,,
Style,Action,Index,Animation,Start_Inter,End_Inter,TimeLength,Swing,Strike,Timing,Split,Timing2,Freeze,Effect,CancelTime
0,STAND,0,Servant\Paranoia\Paranoia_stand.anim,4,1,2,0,0,0,0,0,0,0,0
0,STAND,1,Servant\Paranoia\Paranoia_cstand.anim,4,1,1,0,0,0,0,0,0,0,0
0,SM_STAND,0,Servant\Paranoia\Paranoia_swim_stand.anim,4,1,1.5,0,0,0,0,0,0,0,0
0,SM_STAND,1,Servant\Paranoia\Paranoia_swim_stand.anim,4,1,1.5,0,0,0,0,0,0,0,0
0,REVIVE,0,,0,1,0,0,0,0,0,0,0,0,0
0,MOVE,0,Servant\Paranoia\Paranoia_run.anim,4,1,0.9,0,0,0,0,0,0,0,0
0,MOVE,1,Servant\Paranoia\Paranoia_run.anim,4,1,0.9,0,0,0,0,0,0,0,0
0,SM_MOVE,0,Servant\Paranoia\Paranoia_swim_run.anim,4,1,0.9,0,0,0,0,0,0,0,0
0,SM_MOVE,1,Servant\Paranoia\Paranoia_swim_run.anim,4,1,0.9,0,0,0,0,0,0,0,0
0,ATTACK,0,Servant\Paranoia\Paranoia_att_01.anim,4,1,2,0,0,0.58,0,0,0,136,0
0,ATTACK,1,Servant\Paranoia\Paranoia_att_02.anim,4,1,2,0,0,0.58,0,0,0,137,0
0,ATTACK,2,Servant\Paranoia\Paranoia_att_03.anim,4,1,2,0,0,0.55,0,0,0,138,0
0,BLOCKING,0,Servant\Paranoia\Paranoia_blocking.anim,10,1,0.5,0,0,0,0,0,0,0,0
0,BLOCKED,0,Servant\Paranoia\Paranoia_blocked.anim,10,1,1,0,0,0,0,0,0,0,0
0,BLOCKED,1,Servant\Paranoia\Paranoia_blocked.anim,10,1,1,0,0,0,0,0,0,0,0
0,BLOCKED,2,Servant\Paranoia\Paranoia_blocked.anim,10,1,1,0,0,0,0,0,0,0,0
0,BLOCKED,3,Servant\Paranoia\Paranoia_blocked.anim,10,1,1,0,0,0,0,0,0,0,0
0,BLOCKED,4,Servant\Paranoia\Paranoia_blocked.anim,10,1,1,0,0,0,0,0,0,0,0
0,BLOCKED,5,Servant\Paranoia\Paranoia_blocked.anim,10,1,1,0,0,0,0,0,0,0,0
0,BLOCKED,6,Servant\Paranoia\Paranoia_blocked.anim,10,1,1,0,0,0,0,0,0,0,0
0,BLOCKED,7,Servant\Paranoia\Paranoia_blocked.anim,10,1,1,0,0,0,0,0,0,0,0
0,DEFEAT,0,Servant\Paranoia\Paranoia_p.anim,10,1,0.5,0,0,0,0,0,0,0,0
0,DEFEAT,1,Servant\Paranoia\Paranoia_p.anim,10,1,0.5,0,0,0,0,0,0,0,0
0,DEFEAT,2,Servant\Paranoia\Paranoia_p.anim,10,1,0.5,0,0,0,0,0,0,0,0
0,DEFEAT,3,Servant\Paranoia\Paranoia_p.anim,10,1,0.5,0,0,0,0,0,0,0,0
0,DEAD,0,Servant\Paranoia\Paranoia_p.anim,4,1,0.5,0,0,0.1,1,0,0,0,0
0,GUARDING,0,Servant\Paranoia\Paranoia_blocking.anim,10,1,0.5,0,0,0,0,0,0,0,0
0,GUARDING,1,Servant\Paranoia\Paranoia_blocking.anim,10,1,0.5,0,0,0,0,0,0,0,0
0,GUARDING,2,Servant\Paranoia\Paranoia_blocking.anim,10,1,0.5,0,0,0,0,0,0,0,0
