MapIndex,98,,,,
,,,,,
CallIndex,MonsterIndex,X,Y,Cell,Count
1,5346,225,188,0,1
1,5346,232,186,0,1
1,5346,226,180,0,1
1,5346,229,188,0,1
1,5346,229,180,0,1
1,5346,229,183,0,1
1,5346,232,183,0,1
1,5346,229,185,0,1
1,5346,264,185,0,1
1,5346,264,189,0,1
1,5346,260,188,0,1
1,5346,259,183,0,1
1,5346,259,180,0,1
1,5346,264,180,0,1
1,5346,264,183,0,1
1,5346,259,186,0,1
1,5346,225,185,0,1
1,5346,225,183,0,1
1,5346,264,192,0,1
1,5346,260,192,0,1
2,5339,263,238,0,1
3,5345,197,240,0,1
3,5345,198,239,0,1
3,5345,199,239,0,1
3,5345,201,239,0,1
3,5345,202,239,0,1
3,5345,196,242,0,1
3,5345,198,242,0,1
3,5345,199,242,0,1
3,5345,201,242,0,1
3,5345,202,242,0,1
3,5345,196,245,0,1
3,5345,198,244,0,1
3,5345,199,244,0,1
3,5345,201,244,0,1
3,5345,202,244,0,1
4,5345,216,292,0,1
4,5345,215,293,0,1
4,5345,216,295,0,1
4,5345,216,297,0,1
4,5345,216,299,0,1
4,5345,218,292,0,1
4,5345,217,293,0,1
4,5345,217,295,0,1
4,5345,217,297,0,1
4,5345,217,299,0,1
4,5345,219,292,0,1
4,5345,219,293,0,1
4,5345,219,296,0,1
4,5345,219,297,0,1
4,5345,219,298,0,1
4,5345,221,292,0,1
4,5345,221,294,0,1
4,5345,221,295,0,1
4,5345,221,297,0,1
4,5345,221,299,0,1
5,5345,275,290,0,1
5,5345,275,292,0,1
5,5345,275,294,0,1
5,5345,275,296,0,1
5,5345,275,298,0,1
5,5345,275,300,0,1
5,5345,275,302,0,1
5,5345,275,305,0,1
5,5345,277,289,0,1
5,5345,277,291,0,1
5,5345,277,293,0,1
5,5345,277,295,0,1
5,5345,277,297,0,1
5,5345,277,299,0,1
5,5345,277,301,0,1
5,5345,277,304,0,1
5,5345,279,292,0,1
5,5345,279,294,0,1
5,5345,279,296,0,1
5,5345,279,298,0,1
6,5342,310,309,0,1
6,5342,307,309,0,1
6,5342,303,310,0,1
6,5342,299,309,0,1
6,5342,294,309,0,1
6,5342,294,305,0,1
6,5342,294,285,0,1
6,5342,294,282,0,1
6,5342,299,282,0,1
6,5342,303,282,0,1
6,5342,307,282,0,1
6,5342,310,282,0,1
7,5341,309,285,0,1
7,5341,309,305,0,1
7,5341,305,285,0,1
7,5341,301,305,0,1
7,5341,305,306,0,1
7,5341,298,306,0,1
7,5341,298,285,0,1
7,5341,302,285,0,1
7,5341,294,301,0,1
7,5341,293,297,0,1
7,5341,293,293,0,1
7,5341,293,288,0,1
8,5344,301,328,0,1
8,5344,302,327,0,1
8,5344,300,326,0,1
8,5344,302,326,0,1
8,5344,310,328,0,1
8,5344,310,328,0,1
8,5344,310,326,0,1
8,5344,311,327,0,1
8,5344,301,328,0,1
8,5344,302,327,0,1
8,5344,300,326,0,1
8,5344,302,326,0,1
9,5344,310,328,0,1
9,5344,310,328,0,1
9,5344,310,326,0,1
9,5344,311,327,0,1
9,5344,301,328,0,1
9,5344,302,327,0,1
9,5344,300,326,0,1
9,5344,302,326,0,1
9,5344,310,328,0,1
9,5344,310,328,0,1
9,5344,310,326,0,1
9,5344,311,327,0,1
10,5343,301,265,0,1
10,5343,300,265,0,1
10,5343,302,264,0,1
10,5343,302,266,0,1
10,5343,310,266,0,1
10,5343,309,265,0,1
10,5343,311,266,0,1
10,5343,310,264,0,1
10,5343,301,265,0,1
10,5343,300,265,0,1
10,5343,302,264,0,1
10,5343,302,266,0,1
11,5343,310,266,0,1
11,5343,309,265,0,1
11,5343,311,266,0,1
11,5343,310,264,0,1
11,5343,301,265,0,1
11,5343,300,265,0,1
11,5343,302,264,0,1
11,5343,302,266,0,1
11,5343,310,266,0,1
11,5343,309,265,0,1
11,5343,311,266,0,1
11,5343,310,264,0,1
12,5340,308,296,0,1
