2502,1,106,382
2502,1,106,384
2502,1,43,335
2502,1,39,337
2502,1,37,307
2502,1,35,303
2502,1,50,319
2502,1,55,324
2502,1,71,338
2502,1,72,334
2502,1,61,298
2502,1,63,300
2502,1,92,387
2502,1,91,390
2502,1,68,409
2502,1,71,412
2502,1,64,436
2502,1,64,440
2502,1,40,442
2502,1,44,439
2502,1,33,468
2502,1,35,465
2502,1,62,461
2502,1,62,465
2502,1,68,487
2502,1,68,484
2502,1,95,420
2502,1,96,423
2502,1,86,449
2502,1,89,450
2502,1,92,478
2502,1,95,477
2502,1,90,313
2502,1,91,317
2502,1,104,330
2502,1,106,336
2502,1,97,286
2502,1,99,293
2502,1,122,292
2502,1,121,297
2502,1,125,356
2502,1,126,351
2502,1,110,457
2502,1,114,461
2502,1,119,430
2502,1,116,429
2502,1,108,399
2502,1,110,400
2502,1,123,379
2502,1,126,383
2502,1,144,333
2502,1,143,339
2502,1,144,302
2502,1,147,307
2501,1,33,306
2501,1,38,332
2501,1,49,323
2501,1,77,336
2501,1,64,298
2501,1,108,383
2501,1,95,390
2501,1,72,408
2501,1,68,438
2501,1,44,442
2501,1,36,470
2501,1,65,462
2501,1,72,488
2501,1,89,447
2501,1,92,474
2501,1,115,456
2501,1,99,422
2501,1,120,428
2501,1,108,403
2501,1,123,383
2501,1,129,355
2501,1,110,331
2501,1,94,316
2501,1,92,290
2501,1,125,295
2501,1,142,306
2501,1,147,336
2501,1,147,384
2501,1,161,411
2501,1,172,392
2501,1,211,376
2501,1,167,361
2501,1,170,325
2501,1,164,297
2501,1,191,310
2501,1,218,315
2501,1,198,332
2501,1,228,340
2501,1,239,320
2501,1,256,370
2501,1,261,345
2501,1,258,309
2501,1,264,286
2501,1,243,292
2501,1,187,372
2501,1,200,351
2502,1,143,387
2502,1,155,459
2502,1,166,444
2502,1,160,414
2502,1,170,387
2502,1,183,420
2502,1,193,440
2502,1,179,463
2502,1,211,446
2502,1,242,457
2502,1,234,435
2502,1,264,448
2502,1,262,426
2502,1,242,415
2502,1,220,411
2502,1,215,430
2502,1,201,411
2502,1,188,396
2502,1,187,368
2502,1,164,366
2502,1,195,351
2502,1,170,318
2502,1,161,292
2502,1,187,310
2502,1,214,312
2502,1,203,331
2502,1,235,343
2502,1,236,316
2502,1,212,371
2502,1,229,384
2502,1,261,399
2502,1,253,367
2502,1,259,343
2502,1,253,310
2502,1,238,289
2502,1,269,287
2503,1,142,381
2503,1,156,412
2503,1,171,444
2503,1,153,455
2503,1,180,467
2503,1,190,441
2503,1,182,417
2503,1,192,395
2503,1,166,391
2503,1,161,360
2503,1,189,368
2503,1,196,347
2503,1,200,328
2503,1,189,305
2503,1,166,321
2503,1,160,298
2503,1,212,316
2503,1,230,338
2503,1,234,320
2503,1,239,294
2503,1,257,313
2503,1,266,291
2503,1,259,349
2503,1,252,372
2503,1,259,403
2503,1,230,389
2503,1,208,371
2503,1,199,407
2503,1,211,429
2503,1,221,406
2503,1,240,419
2503,1,266,425
2503,1,263,455
2503,1,237,453
2503,1,237,434
2503,1,207,448
2502,1,133,403
2502,1,134,407
2502,1,141,435
2502,1,137,438
2502,1,136,466
2502,1,134,469
2501,1,138,405
2501,1,137,434
2501,1,140,469
2503,1,285,440
2503,1,285,446
2503,1,317,443
2503,1,312,446
2503,1,339,450
2503,1,339,456
2503,1,364,449
2503,1,366,454
2503,1,349,476
2503,1,354,479
2503,1,381,485
2503,1,376,480
2503,1,372,426
2503,1,370,419
2503,1,339,411
2503,1,335,415
2503,1,311,410
2503,1,283,398
2503,1,287,395
2501,1,274,372
2502,1,271,374
2503,1,272,368
2503,1,395,452
2503,1,394,460
2503,1,441,468
2503,1,446,466
2503,1,422,452
2503,1,422,457
2503,1,426,408
2503,1,430,408
2503,1,457,447
2503,1,459,452
2502,1,281,442
2502,1,316,450
2502,1,343,453
2502,1,369,449
2502,1,353,473
2502,1,376,487
2502,1,390,453
2502,1,366,422
2502,1,342,418
2502,1,315,407
2502,1,289,401
2502,1,444,472
2502,1,425,454
2502,1,461,449
2502,1,429,413
2504,1,361,316
2504,1,364,323
2504,1,367,290
2504,1,370,294
2504,1,382,262
2504,1,378,268
2504,1,408,337
2504,1,409,330
2504,1,431,344
2504,1,429,350
2504,1,448,387
2504,1,451,382
2504,1,471,366
2504,1,473,371
2504,1,455,336
2504,1,458,344
2504,1,421,313
2504,1,422,308
2504,1,394,317
2504,1,388,312
2504,1,400,275
2504,1,404,276
2504,1,445,310
2504,1,446,303
2504,1,470,294
2504,1,473,301
2504,1,424,279
2504,1,430,284
2505,1,452,386
2505,1,468,371
2505,1,434,348
2505,1,412,334
2505,1,425,314
2505,1,461,338
2505,1,468,301
2505,1,442,307
2505,1,429,276
2505,1,401,282
2505,1,392,308
2505,1,356,317
2505,1,377,264
2505,1,372,289
2504,1,454,255
2504,1,474,242
2504,1,427,244
2504,1,430,214
2504,1,419,186
2504,1,404,212
2504,1,397,182
2504,1,383,225
2504,1,376,196
2504,1,358,219
2504,1,332,222
2504,1,318,208
2504,1,294,212
2504,1,278,231
2504,1,301,244
2505,1,359,229
2505,1,337,226
2505,1,320,215
2505,1,289,218
2505,1,274,239
2505,1,304,238
2506,1,431,242
2506,1,459,257
2506,1,470,237
2506,1,426,218
2506,1,389,233
2506,1,410,212
2506,1,425,189
2506,1,400,186
2506,1,382,199
2506,1,364,220
2506,1,332,230
2506,1,313,211
2506,1,297,221
2506,1,269,232
2506,1,293,239
2506,1,300,189
2506,1,303,183
2506,1,342,178
2506,1,339,185
2506,1,323,156
2506,1,327,162
2506,1,351,148
2506,1,358,147
2506,1,384,157
2506,1,384,165
2506,1,372,130
2506,1,377,128
2506,1,412,158
2506,1,408,164
2506,1,397,135
2506,1,401,129
2506,1,419,120
2506,1,423,125
2506,1,431,155
2506,1,435,152
2506,1,456,148
2506,1,459,155
2506,1,448,125
2506,1,452,119
2506,1,473,99
2506,1,475,105
2506,1,462,75
2506,1,466,70
2506,1,445,46
2506,1,448,52
2506,1,447,94
2506,1,444,98
2506,1,419,42
2506,1,422,49
2506,1,419,80
2506,1,415,86
2506,1,389,101
2506,1,392,95
2506,1,378,75
2506,1,378,67
2506,1,389,39
2506,1,392,45
2506,1,357,91
2506,1,354,97
2506,1,356,44
2506,1,349,55
2506,1,330,81
2506,1,326,80
2506,1,318,55
2506,1,321,50
2506,1,327,119
2506,1,333,119
2506,1,307,91
2506,1,310,99
2506,1,297,71
2506,1,301,66
2505,1,306,190
2505,1,350,182
2505,1,320,160
2505,1,354,153
2505,1,380,162
2505,1,376,132
2505,1,353,90
2505,1,355,52
2505,1,330,88
2505,1,330,115
2505,1,304,97
2505,1,315,51
2505,1,298,60
2504,1,308,185
2504,1,345,176
2504,1,323,166
2504,1,360,154
2504,1,388,162
2504,1,415,164
2504,1,402,136
2504,1,373,126
2504,1,438,159
2504,1,425,118
2504,1,451,154
2504,1,456,123
2504,1,470,107
2504,1,467,77
2504,1,440,97
2504,1,415,78
2504,1,395,101
2504,1,424,42
2504,1,452,45
2504,1,395,39
2504,1,383,70
2504,1,357,97
2504,1,350,46
2504,1,326,85
2504,1,330,122
2504,1,307,104
2504,1,318,47
2504,1,294,57
2504,1,445,194
2504,1,477,204
2504,1,454,225
2506,1,449,220
2506,1,446,186
2506,1,472,202
2507,1,228,61
2507,1,226,65
2507,1,204,70
2507,1,205,71
2507,1,237,73
2507,1,236,77
2507,1,239,109
2507,1,238,115
2507,1,227,141
2507,1,225,138
2507,1,237,160
2507,1,235,166
2507,1,236,191
2507,1,236,197
2507,1,214,122
2507,1,218,121
2507,1,225,92
2507,1,226,95
2507,1,211,92
2507,1,213,97
2507,1,214,153
2507,1,221,155
2507,1,200,147
2507,1,194,151
2508,1,225,61
2508,1,208,69
2508,1,234,77
2508,1,235,111
2508,1,229,140
2508,1,238,165
2508,1,238,194
2508,1,218,155
2508,1,221,120
2508,1,214,94
2508,1,227,89
2508,1,197,152
2507,1,218,170
2507,1,193,176
2507,1,228,175
2507,1,219,205
2507,1,234,216
2507,1,205,198
2507,1,204,224
2507,1,190,204
2507,1,187,232
2507,1,180,183
2507,1,164,190
2507,1,172,212
2507,1,164,154
2507,1,154,160
2507,1,152,211
2507,1,156,238
2507,1,182,55
2507,1,156,52
2507,1,135,35
2508,1,177,57
2508,1,153,51
2508,1,133,42
2508,1,228,179
2508,1,218,174
2508,1,230,219
2508,1,224,203
2508,1,202,228
2508,1,203,195
2508,1,189,173
2508,1,179,179
2508,1,168,156
2508,1,163,194
2508,1,172,215
2508,1,186,205
2508,1,189,233
2508,1,154,164
2508,1,150,215
2508,1,160,238
2509,1,178,53
2509,1,155,56
2509,1,137,40
2509,1,226,207
2509,1,235,219
2509,1,227,182
2509,1,213,173
2509,1,191,169
2509,1,181,176
2509,1,169,153
2509,1,163,197
2509,1,188,208
2509,1,202,199
2509,1,207,228
2509,1,183,235
2509,1,172,218
2509,1,152,168
2509,1,154,214
2509,1,163,238
2509,1,129,156
2509,1,125,158
2509,1,132,184
2509,1,139,189
2509,1,102,161
2509,1,105,157
2509,1,107,126
2509,1,107,131
2509,1,79,166
2509,1,74,166
2509,1,50,159
2509,1,51,165
2509,1,35,130
2509,1,39,131
2509,1,60,140
2509,1,62,143
2509,1,82,141
2509,1,86,136
2509,1,55,113
2509,1,61,113
2509,1,86,110
2509,1,91,108
2509,1,115,55
2509,1,112,60
2509,1,100,30
2509,1,97,35
2509,1,89,63
2509,1,87,61
2509,1,74,83
2509,1,72,86
2509,1,54,84
2509,1,54,78
2509,1,30,55
2509,1,32,62
2509,1,61,60
2509,1,65,56
2509,1,70,32
2509,1,72,36
2509,1,51,33
2509,1,46,34
2509,1,68,189
2509,1,64,185
2509,1,73,216
2509,1,77,218
2509,1,45,210
2509,1,46,215
2508,1,133,188
2508,1,125,152
2508,1,106,161
2508,1,105,134
2508,1,73,212
2508,1,49,210
2508,1,67,184
2508,1,77,169
2508,1,54,161
2508,1,64,138
2508,1,36,136
2508,1,60,110
2508,1,58,80
2508,1,74,89
2508,1,62,55
2508,1,34,55
2508,1,51,29
2508,1,77,34
2508,1,101,33
2508,1,116,58
2508,1,88,58
2508,1,90,112
2508,1,86,141
2507,1,129,160
2507,1,138,184
2507,1,76,214
2507,1,49,219
2507,1,64,188
2507,1,75,163
2507,1,54,158
2507,1,61,135
2507,1,40,137
2507,1,57,113
2507,1,58,85
2507,1,64,61
2507,1,33,57
2507,1,51,34
2507,1,74,30
2507,1,99,37
2507,1,91,64
2507,1,112,53
2507,1,92,110
2507,1,109,131
2507,1,109,158
2509,1,105,187
2509,1,102,192
2509,1,94,236
2509,1,99,233
2508,1,101,187
2508,1,95,231
2507,1,105,193
2507,1,99,237
2503,1,310,405
2507,1,254,70
2507,1,257,67
2507,1,255,100
2507,1,259,102
2507,1,259,133
2507,1,258,140
2507,1,255,174
2507,1,259,173
2508,1,259,72
2508,1,256,104
2508,1,262,137
2508,1,257,169
2509,1,104,89
2509,1,107,84
2508,1,109,89
2507,1,103,84
2509,1,132,214
2509,1,131,219
2508,1,135,218
2507,1,134,223
2509,1,118,243
2509,1,107,219
2509,1,109,213
2508,1,123,245
2508,1,111,218
2507,1,121,240
2507,1,113,215
2504,1,355,270
2504,1,352,274
2504,1,340,299
2504,1,341,305
2505,1,349,270
2505,1,344,298
2502,1,151,458
2502,1,167,441
2502,1,184,465
2502,1,193,445
2502,1,186,418
2502,1,202,407
2502,1,188,391
2502,1,223,409
2502,1,212,424
2502,1,211,450
2502,1,236,438
2502,1,240,451
2502,1,244,418
2502,1,263,403
2502,1,232,388
2502,1,264,429
2502,1,266,452
2503,0,448,419
2503,0,452,424
2501,0,449,425
2503,0,439,444
2503,0,443,446
2501,0,442,441
2504,1,458,250
2504,1,475,234
2504,1,473,208
2504,1,455,218
2504,1,452,190
2504,1,433,219
2504,1,433,249
2504,1,420,193
2504,1,408,219
2504,1,404,185
2504,1,380,192
2504,1,389,223
2502,1,63,280
2502,1,67,282
2501,1,65,277
2503,1,407,427
2503,1,409,431
2502,1,412,428
