skill_slotimage	1	UI\Game\skill_arrow.dds		320	0	40	40	
skill_slotimage	2	UI\Game\skill_arrow.dds		320	40	40	40
skill_slotimage	3	UI\Game\skill_arrow.dds		320	80	40	40
skill_slotimage	41	UI\Game\skill_arrow.dds		320	120	40	40
skill_slotimage	42	UI\Game\theme01\skill_icon_effect.dds	0	320	40	40
skill_slotimage	43	UI\Game\theme01\skill_icon_effect.dds	0	360	40	40

skill_slotimage	201	UI\Game\skill_arrow.dds		320	160	40	40
skill_slotimage	202	UI\Game\skill_arrow.dds		320	200	40	40
skill_slotimage	203	UI\Game\skill_arrow.dds		320	240	40	40
skill_slotimage	241	UI\Game\skill_arrow.dds		320	360	40	40
skill_slotimage	242	UI\Game\skill_arrow.dds		320	400	40	40

skill_slotimage	401	UI\Game\theme01\skill_icon_effect.dds	0	240	40	40
skill_slotimage	441	UI\Game\theme01\skill_icon_effect.dds	0	400	40	40
skill_slotimage	442	UI\Game\theme01\soket_gage.dds	360	120	40	40
skill_slotimage	443	UI\Game\theme01\soket_gage.dds	360	80	40	40
skill_slotimage	444	UI\Game\theme01\soket_gage.dds	360	160	40	40

control_create
