DungeonIndex,144,,,,,
,,,,,,
MessageIndex,StringCode,Menu0,Menu1,Menu2,Menu3,Menu4
100,100,0,0,0,0,0
110,110,0,0,0,0,0
200,200,0,0,0,0,0
300,300,0,0,0,0,0
310,310,0,0,0,0,0
320,320,0,0,0,0,0
330,330,0,0,0,0,0
340,340,0,0,0,0,0
800,800,0,0,0,0,0
801,801,0,0,0,0,0
802,802,0,0,0,0,0
810,810,0,0,0,0,0
820,820,0,0,0,0,0
830,830,0,0,0,0,0
1300,1300,0,0,0,0,0
2000,2000,0,0,0,0,0
3000,3000,0,0,0,0,0
10000,10000,10001,0,0,0,0
10001,10001,0,0,0,0,0
15000,15000,10001,0,0,0,0
20000,20000,20001,0,0,0,0
20001,20001,0,0,0,0,0
