DungeonIndex,63,,,,,

MessageIndex,StringCode,Menu0,Menu1,Menu2,Menu3,Menu4
5,5,0,0,0,0,0
100,100,0,0,0,0,0
110,110,0,0,0,0,0
200,200,0,0,0,0,0
300,300,0,0,0,0,0
400,400,0,0,0,0,0
410,410,0,0,0,0,0
420,420,0,0,0,0,0
430,430,0,0,0,0,0
440,440,0,0,0,0,0
450,450,0,0,0,0,0
460,460,0,0,0,0,0
500,500,0,0,0,0,0
600,600,0,0,0,0,0
700,700,0,0,0,0,0
800,800,0,0,0,0,0
1000,1000,0,0,0,0,0
1100,1100,0,0,0,0,0
1200,1200,0,0,0,0,0
10000,10000,10001,0,0,0,0
10001,10001,0,0,0,0,0
11000,11000,0,0,0,0,0
12000,12000,12001,0,0,0,0
12001,12001,0,0,0,0,0
13000,13000,13001,0,0,0,0
13001,13001,0,0,0,0,0
14000,14000,14001,0,0,0,0
14001,14001,0,0,0,0,0
15000,15000,15001,0,0,0,0
15001,15001,0,0,0,0,0
