DungeonIndex,157,,,,,,,,,
,,,,,,,,,,
MessageIndex,StringCode,Menu0,Menu1,Menu2,Menu3,Menu4,Menu5,Menu6,Menu7,Menu8
39000,39000,0,0,0,0,0,0,0,0,0
39100,39100,39101,39102,39103,39104,39105,39106,39107,39108,39109
39101,39101,0,0,0,0,0,0,0,0,0
39102,39102,0,0,0,0,0,0,0,0,0
39103,39103,0,0,0,0,0,0,0,0,0
39104,39104,0,0,0,0,0,0,0,0,0
39105,39105,0,0,0,0,0,0,0,0,0
39106,39106,0,0,0,0,0,0,0,0,0
39107,39107,0,0,0,0,0,0,0,0,0
39108,39108,0,0,0,0,0,0,0,0,0
39109,39109,0,0,0,0,0,0,0,0,0
39200,39200,0,0,0,0,0,0,0,0,0
39201,39201,0,0,0,0,0,0,0,0,0
39202,39202,0,0,0,0,0,0,0,0,0
39501,39501,0,0,0,0,0,0,0,0,0
39502,39502,0,0,0,0,0,0,0,0,0
39503,39503,0,0,0,0,0,0,0,0,0
39504,39504,0,0,0,0,0,0,0,0,0
39505,39505,0,0,0,0,0,0,0,0,0
39599,39599,0,0,0,0,0,0,0,0,0
