DungeonIndex,15,,,,,
,,,,,,
MessageIndex,StringCode,Menu0,Menu1,Menu2,Menu3,Menu4
1001,1001,0,0,0,0,0
1002,1002,0,0,0,0,0
1003,1003,0,0,0,0,0
1004,1004,0,0,0,0,0
1005,1005,0,0,0,0,0
1006,1006,0,0,0,0,0
1101,1101,0,0,0,0,0
1102,1102,0,0,0,0,0
1103,1103,0,0,0,0,0
1104,1104,0,0,0,0,0
1105,1105,0,0,0,0,0
1106,1106,0,0,0,0,0
1201,1201,0,0,0,0,0
1202,1202,0,0,0,0,0
1203,1203,0,0,0,0,0
1204,1204,0,0,0,0,0
1205,1205,0,0,0,0,0
1206,1206,0,0,0,0,0
1301,1301,0,0,0,0,0
1302,1302,0,0,0,0,0
1303,1303,0,0,0,0,0
1304,1304,0,0,0,0,0
1305,1305,0,0,0,0,0
1306,1306,0,0,0,0,0
1401,1401,0,0,0,0,0
1402,1402,0,0,0,0,0
1403,1403,0,0,0,0,0
1404,1404,0,0,0,0,0
1405,1405,0,0,0,0,0
1406,1406,0,0,0,0,0
1501,1501,0,0,0,0,0
1502,1502,0,0,0,0,0
1503,1503,0,0,0,0,0
1504,1504,0,0,0,0,0
1505,1505,0,0,0,0,0
1506,1506,0,0,0,0,0
1601,1601,0,0,0,0,0
1602,1602,0,0,0,0,0
1603,1603,0,0,0,0,0
1604,1604,0,0,0,0,0
1605,1605,0,0,0,0,0
1606,1606,0,0,0,0,0
1800,1800,0,0,0,0,0
1810,1810,0,0,0,0,0
1820,1820,0,0,0,0,0
1830,1830,0,0,0,0,0
1840,1840,0,0,0,0,0
1850,1850,0,0,0,0,0
1860,1860,0,0,0,0,0
