DungeonIndex,98,,,,,
,,,,,,
MessageIndex,StringCode,Menu0,Menu1,Menu2,Menu3,Menu4
100,100,0,0,0,0,0
200,200,0,0,0,0,0
300,300,0,0,0,0,0
310,310,0,0,0,0,0
400,400,0,0,0,0,0
410,410,0,0,0,0,0
500,500,0,0,0,0,0
800,800,0,0,0,0,0
810,810,0,0,0,0,0
900,900,0,0,0,0,0
910,910,0,0,0,0,0
920,920,0,0,0,0,0
930,930,0,0,0,0,0
940,940,0,0,0,0,0
950,950,0,0,0,0,0
960,960,0,0,0,0,0
1300,1300,0,0,0,0,0
2000,2000,0,0,0,0,0
3000,3000,0,0,0,0,0
10000,10000,10001,0,0,0,0
10001,10001,0,0,0,0,0
11000,11000,11001,0,0,0,0
11001,11001,0,0,0,0,0
12000,12000,12001,0,0,0,0
12001,12001,0,0,0,0,0
13000,13000,13001,0,0,0,0
13001,13001,0,0,0,0,0
15000,15000,15001,0,0,0,0
15001,15001,0,0,0,0,0
16000,16000,16001,0,0,0,0
16001,16001,0,0,0,0,0
17000,17000,17001,0,0,0,0
17001,17001,0,0,0,0,0
20000,20000,20001,0,0,0,0
20001,20001,0,0,0,0,0
21000,21000,21001,0,0,0,0
21001,21001,0,0,0,0,0
30000,30000,30001,0,0,0,0
30001,30001,0,0,0,0,0
31000,31000,31001,0,0,0,0
31001,31001,0,0,0,0,0
