DungeonIndex,163,,,,,
,,,,,,
MessageIndex,StringCode,Menu0,Menu1,Menu2,Menu3,Menu4
90,90,0,0,0,0,0
100,100,0,0,0,0,0
200,200,0,0,0,0,0
300,300,0,0,0,0,0
400,400,0,0,0,0,0
500,500,0,0,0,0,0
600,600,0,0,0,0,0
700,700,0,0,0,0,0
