DungeonIndex,64,,,,,
,,,,,,
MessageIndex,StringCode,Menu0,Menu1,Menu2,Menu3,Menu4
100,100,0,0,0,0,0
110,110,0,0,0,0,0
900,900,0,0,0,0,0
1000,1000,0,0,0,0,0
1100,1100,0,0,0,0,0
1200,1200,0,0,0,0,0
1300,1300,0,0,0,0,0
2000,2000,0,0,0,0,0
3000,3000,0,0,0,0,0
11000,11000,0,0,0,0,0
19000,19000,19001,0,0,0,0
19001,19001,0,0,0,0,0
19100,19100,0,0,0,0,0
19200,19200,0,0,0,0,0
20000,20000,20001,0,0,0,0
20001,20001,0,0,0,0,0
