DungeonIndex,565,,,,,
,,,,,,
MessageIndex,StringCode,Menu0,Menu1,Menu2,Menu3,Menu4
100,100,0,0,0,0,0
110,110,0,0,0,0,0
120,120,0,0,0,0,0
121,121,0,0,0,0,0
122,122,0,0,0,0,0
123,123,0,0,0,0,0
124,124,0,0,0,0,0
125,125,0,0,0,0,0
126,126,0,0,0,0,0
127,127,0,0,0,0,0
128,128,0,0,0,0,0
129,129,0,0,0,0,0
130,130,0,0,0,0,0
200,200,0,0,0,0,0
230,230,0,0,0,0,0
250,250,0,0,0,0,0
300,300,0,0,0,0,0
301,301,0,0,0,0,0
302,302,0,0,0,0,0
310,310,0,0,0,0,0
320,320,0,0,0,0,0
330,330,0,0,0,0,0
340,340,0,0,0,0,0
350,350,0,0,0,0,0
600,600,0,0,0,0,0
610,610,0,0,0,0,0
620,620,0,0,0,0,0
800,800,0,0,0,0,0
801,801,0,0,0,0,0
802,802,0,0,0,0,0
803,803,0,0,0,0,0
804,804,0,0,0,0,0
810,810,0,0,0,0,0
811,811,0,0,0,0,0
815,815,0,0,0,0,0
820,820,0,0,0,0,0
821,821,0,0,0,0,0
830,830,0,0,0,0,0
831,831,0,0,0,0,0
832,832,0,0,0,0,0
900,900,0,0,0,0,0
1000,1000,0,0,0,0,0
1300,1300,0,0,0,0,0
2000,2000,0,0,0,0,0
2300,2300,0,0,0,0,0
2500,2500,0,0,0,0,0
3000,3000,0,0,0,0,0
10000,10000,10001,0,0,0,0
10001,10001,0,0,0,0,0
20000,20000,20001,0,0,0,0
20001,20001,0,0,0,0,0
30000,30000,30001,0,0,0,0
30001,30001,0,0,0,0,0
31000,31000,31001,0,0,0,0
31001,31001,0,0,0,0,0
40000,40000,40001,0,0,0,0
40001,40001,0,0,0,0,0
40010,40010,40011,0,0,0,0
40011,40011,0,0,0,0,0
45000,45000,40001,0,0,0,0
50000,50000,50001,0,0,0,0
50001,50001,0,0,0,0,0
