DungeonIndex,176,,,,,
,,,,,,
MessageIndex,StringCode,Menu0,Menu1,Menu2,Menu3,Menu4
10000,10000,0,0,0,0,0
10100,10100,10101,10102,0,0,0
10101,10101,0,0,0,0,0
10102,10102,0,0,0,0,0
10200,10200,10201,0,0,0,0
10201,10201,0,0,0,0,0
10300,10300,10301,0,0,0,0
10301,10301,0,0,0,0,0
10400,10400,10401,0,0,0,0
10401,10401,0,0,0,0,0
11000,11000,0,0,0,0,0
11100,11100,11101,11102,0,0,0
11101,11101,0,0,0,0,0
11102,11102,0,0,0,0,0
11200,11200,11201,0,0,0,0
11201,11201,0,0,0,0,0
11300,11300,11301,0,0,0,0
11301,11301,0,0,0,0,0
11400,11400,11401,0,0,0,0
11401,11401,0,0,0,0,0
12000,12000,0,0,0,0,0
12100,12100,12101,12102,0,0,0
12101,12101,0,0,0,0,0
12102,12102,0,0,0,0,0
12200,12200,12201,0,0,0,0
12201,12201,0,0,0,0,0
12300,12300,12301,0,0,0,0
12301,12301,0,0,0,0,0
12400,12400,12401,0,0,0,0
12401,12401,0,0,0,0,0
13000,13000,0,0,0,0,0
13100,13100,13101,13102,0,0,0
13101,13101,0,0,0,0,0
13102,13102,0,0,0,0,0
13200,13200,13201,0,0,0,0
13201,13201,0,0,0,0,0
14000,14000,0,0,0,0,0
14100,14100,14001,0,0,0,0
14101,14101,0,0,0,0,0
14110,14110,14111,0,0,0,0
14111,14111,0,0,0,0,0
14120,14120,14121,0,0,0,0
14121,14121,0,0,0,0,0
14200,14200,14201,14202,14203,14204,0
14201,14201,0,0,0,0,0
14202,14202,0,0,0,0,0
14203,14203,0,0,0,0,0
14204,14204,0,0,0,0,0
14300,14300,14301,14302,14303,0,0
14301,14301,0,0,0,0,0
14302,14302,0,0,0,0,0
14303,14303,0,0,0,0,0
14400,14400,14401,14402,14403,0,0
14401,14401,0,0,0,0,0
14402,14402,0,0,0,0,0
14403,14403,0,0,0,0,0
14500,14500,14501,14502,14503,0,0
14501,14501,0,0,0,0,0
14502,14502,0,0,0,0,0
14503,14503,0,0,0,0,0
15100,15100,15101,15102,0,0,0
15101,15101,0,0,0,0,0
15102,15102,0,0,0,0,0
15200,15200,15201,0,0,0,0
15201,15201,0,0,0,0,0
15300,15300,15301,0,0,0,0
15301,15301,0,0,0,0,0
15400,15400,15401,0,0,0,0
15401,15401,0,0,0,0,0
15500,15500,15501,0,0,0,0
15501,15501,0,0,0,0,0
16000,16000,0,0,0,0,0
16100,16100,16101,16102,0,0,0
16101,16101,0,0,0,0,0
16102,16102,0,0,0,0,0
16200,16200,16201,0,0,0,0
16201,16201,0,0,0,0,0
