DungeonIndex,190,,,,,
,,,,,,
MessageIndex,StringCode,Menu0,Menu1,Menu2,Menu3,Menu4
10000,10000,0,0,0,0,0
11000,11000,11001,0,0,0,0
11001,11001,0,0,0,0,0
20000,20000,20001,0,0,0,0
20001,20001,0,0,0,0,0
30000,30000,30001,0,0,0,0
30001,30001,0,0,0,0,0
