NpcIndex,3102,3102,713,5167,5167,5450,5450,5450,5450,5450,5450,5450,5450,5450,5450,5450,5450,5450,5450,5450,5450,5450,5450,5450,5450,5450,5450,5450,5450,5450,5450,5450,5450,5450,5450,5450,5450,5450,5450,5450,5450,5450,5450,5450,5450,5450,5450,5450,5450,5450
Direction,122,356,94,0,0,24,29,47,45,355,356,91,90,176,180,268,268,209,206,233,226,4,13,53,1,7,50,0,2,358,0,5,5,99,89,94,95,89,88,94,89,76,75,33,33,31,29,45,50,48
Location_X,455.62,388.047,399.763,406,406,311.625,296.139,430.007,442.089,405.348,414.602,356.746,356.817,414.932,404.571,375.231,375.166,322.045,312.102,458.742,451.252,381.839,426.066,445.458,394.676,384.371,444.344,423.143,405.844,403.152,414.784,417.435,397.312,340.783,340.727,340.798,340.81,340.704,340.645,340.608,340.544,339.437,338.622,308.285,307.03,318.751,319.969,452.986,454.117,441.387
Location_Y,396.544,464.854,449.807,406,413,416.235,425.159,314.128,300.955,358.232,358.191,414.981,405.297,376.203,376.277,404.966,415.118,442.876,448.276,319.685,328.379,342.326,341.677,323.284,342.289,342.314,324.607,342.272,342.248,342.243,342.27,342.249,342.231,411.178,413.433,398.858,400.947,391.044,388.754,378.42,375.83,420.136,422.517,441.093,441.805,435.813,435.131,314.379,313.113,300.451
Description,,,,,,,,,,,,,,,,,,,,,,,,,,,,,,,,,,,,,,,,,,,,,,,,,,
