Creature,BRICK,,,,,,,,,,,,,,,
Index,36706,,,,,,,,,,,,,,,
Skeleton,Brick\to_sdoor_01.skel,,,,,,,,,,,,,,,
,,,,,,,,,,,,,,,,
Style,Action,Index,Animation,Start_Inter,End_Inter,TimeLength,Swing,Strike,Timing,Split,Timing2,Freeze,Effect,CancelTime,DefaultAction,Intersect
0,OPENBRICK,0,Brick\to_sdoor_01\to_sdoor_01_open.anim,1,1,1.5,0,0,0,0,0,0,0,0,0,0
0,CLOSEBRICK,0,Brick\to_sdoor_01\to_sdoor_01.anim,1,1,1,0,0,0,0,0,0,0,0,0,2
0,DEAD,0,,0,0,0,0,0,0,0,0,0,0,0,0,0
