Creature,BRICK,,,,,,,,,,,,,,,
Index,36702,,,,,,,,,,,,,,,
Skeleton,Brick\to_underboss_statue.skel,,,,,,,,,,,,,,,
,,,,,,,,,,,,,,,,
Style,Action,Index,Animation,Start_Inter,End_Inter,TimeLength,Swing,Strike,Timing,Split,Timing2,Freeze,Effect,CancelTime,DefaultAction,Intersect
0,OPENBRICK,0,Brick\to_underboss_statue\to_underboss_statue.anim,1,1,1,0,0,0,0,0,0,0,0,0,0
0,CLOSEBRICK,0,Brick\to_underboss_statue\to_underboss_statue.anim,1,1,1,0,0,0,0,0,0,0,0,0,0
0,DEAD,0,Brick\to_underboss_statue\to_underboss_statue_die.anim,1,1,4,0,0,0,0,0,0,0,0,0,0
