Creature,BRICK,,,,,,,,,,,,,,,
Index,36736,,,,,,,,,,,,,,,
Skeleton,Brick\hidden_brick02.skel,,,,,,,,,,,,,,,
,,,,,,,,,,,,,,,,
Style,Action,Index,Animation,Start_Inter,End_Inter,TimeLength,Swing,Strike,Timing,Split,Timing2,Freeze,Effect,CancelTime,DefaultAction,Intersect
0,OPENBRICK,0,Brick\hidden_brick\hidden_brick02_die.anim,1,1,1,0,0,0,0,0,0,0,0,0,0
0,CLOSEBRICK,0,Brick\hidden_brick\hidden_brick02.anim,1,1,1,0,0,0,0,0,0,61,0,0,2
0,DEAD,0,,0,0,0,0,0,0,0,0,0,0,0,0,0
