Creature,BRICK,,,,,,,,,,,,,,,
Index,36746,,,,,,,,,,,,,,,
Skeleton,Brick\in_hl_door.skel,,,,,,,,,,,,,,,

Style,Action,Index,Animation,Start_Inter,End_Inter,TimeLength,Swing,Strike,Timing,Split,Timing2,Freeze,Effect,CancelTime,DefaultAction,Intersect
0,OPENBRICK,0,Brick\in_hl_door\in_hl_door_die.anim,1,1,3,0,0,0,0,0,0,68,0,0,0
0,CLOSEBRICK,0,Brick\in_hl_door\in_hl_door_stand.anim,1,1,2,0,0,0,0,0,0,67,0,0,2
0,DEAD,0,Brick\in_hl_door\in_hl_door_die.anim,1,1,3,0,0,0,0,0,0,68,0,0,0
