Creature,BRICK,,,,,,,,,,,,,,,
Index,36752,,,,,,,,,,,,,,,
Skeleton,Brick\fa_dragon_boss04.skel,,,,,,,,,,,,,,,
,,,,,,,,,,,,,,,,
Style,Action,Index,Animation,Start_Inter,End_Inter,TimeLength,Swing,Strike,Timing,Split,Timing2,Freeze,Effect,CancelTime,DefaultAction,Intersect
0,OPENBRICK,0,brick\fa_dragon_boss04.anim,1,1,2,0,0,0,0,0,0,101,0,0,2
0,CLOSEBRICK,0,brick\fa_dragon_boss04.anim,1,1,2,0,0,0,0,0,0,0,0,0,2
0,DEAD,0,brick\fa_dragon_boss04.anim,1,1,2,0,0,0,0,0,0,101,0,0,2
