Creature,BRICK,,,,,,,,,,,,,,,
Index,36760,,,,,,,,,,,,,,,
Skeleton,Brick\dp_boss_back_01.skel,,,,,,,,,,,,,,,
,,,,,,,,,,,,,,,,
Style,Action,Index,Animation,Start_Inter,End_Inter,TimeLength,Swing,Strike,Timing,Split,Timing2,Freeze,Effect,CancelTime,DefaultAction,Intersect
0,OPENBRICK,0,,1,1,0,0,0,0,0,0,0,0,0,0,0
0,CLOSEBRICK,0,Brick\boss_back\dp_boss_back_01.anim,1,1,2,0,0,0,0,0,0,0,0,0,2
0,DEAD,0,Brick\boss_back\dp_boss_back_01_die.anim,1,1,5,0,0,0,0,0,0,10,0,0,0
