Creature,BRICK,,,,,,,,,,,,,,,
Index,36775,,,,,,,,,,,,,,,
Skeleton,Brick\fa_magic_trap_blue.skel,,,,,,,,,,,,,,,
,,,,,,,,,,,,,,,,
Style,Action,Index,Animation,Start_Inter,End_Inter,TimeLength,Swing,Strike,Timing,Split,Timing2,Freeze,Effect,CancelTime,DefaultAction,Intersect
0,OPENBRICK,0,,1,1,0,0,0,0,0,0,0,0,0,0,0
0,CLOSEBRICK,0,Brick\fa_magic_trap\fa_magic_trap_blue_stand.anim,1,1,2,0,0,0,0,0,0,78,0,0,0
0,DEAD,0,Brick\fa_magic_trap\fa_magic_trap_blue_die.anim,1,1,3,0,0,0,0,0,0,79,0,0,0
