Creature,BRICK,,,,,,,,,,,,,,,
Index,36781,,,,,,,,,,,,,,,
Skeleton,Brick\hidden_brick.skel,,,,,,,,,,,,,,,
,,,,,,,,,,,,,,,,
Style,Action,Index,Animation,Start_Inter,End_Inter,TimeLength,Swing,Strike,Timing,Split,Timing2,Freeze,Effect,CancelTime,DefaultAction,Intersect
0,OPENBRICK,0,Brick\hidden_brick\hidden_brick_die.anim,1,1,4,0,0,0,0,0,0,100,0,0,0
0,CLOSEBRICK,0,Brick\hidden_brick\hidden_brick_die.anim,1,1,4,0,0,0,0,0,0,100,0,0,0
0,DEAD,0,Brick\hidden_brick\hidden_brick_die.anim,1,1,0,0,0,0,0,0,0,0,0,0,0
