Creature,BRICK,,,,,,,,,,,,,,,
Index,36783,,,,,,,,,,,,,,,
Skeleton,Brick\hidden_brick.skel,,,,,,,,,,,,,,,
,,,,,,,,,,,,,,,,
Style,Action,Index,Animation,Start_Inter,End_Inter,TimeLength,Swing,Strike,Timing,Split,Timing2,Freeze,Effect,CancelTime,DefaultAction,Intersect
0,OPENBRICK,0,Brick\brick_abyss_lastgate\brick_abyss_lastgate_die.anim,1,1,1,0,0,0,0,0,0,0,0,0,0
0,CLOSEBRICK,0,Brick\brick_abyss_lastgate\brick_abyss_lastgate_stand.anim,1,1,2,0,0,0,0,0,0,75,0,0,0
0,DEAD,0,,0,0,0,0,0,0,0,0,0,0,0,0,0
