Creature,BRICK,,,,,,,,,,,,,,,
Index,36787,,,,,,,,,,,,,,,
Skeleton,Brick\fa_dradoor_01.skel,,,,,,,,,,,,,,,
,,,,,,,,,,,,,,,,
Style,Action,Index,Animation,Start_Inter,End_Inter,TimeLength,Swing,Strike,Timing,Split,Timing2,Freeze,Effect,CancelTime,DefaultAction,Intersect
0,OPENBRICK,0,Brick\fa_dradoor_01\fa_dradoor_01_die.anim,4,1,2,0,0,0.1,1,0,0,0,0,0,0
0,CLOSEBRICK,0,Brick\fa_dradoor_01\fa_dradoor_01.anim,4,1,3,0,0,0,0,0,0,73,0,0,0
0,DEAD,0,,4,1,2,0,0,0.1,1,0,0,0,0,0,0
