Creature,BRICK,,,,,,,,,,,,,,,
Index,36840,,,,,,,,,,,,,,,
Skeleton,Brick\brick_re_vine.skel,,,,,,,,,,,,,,,
,,,,,,,,,,,,,,,,
Style,Action,Index,Animation,Start_Inter,End_Inter,TimeLength,Swing,Strike,Timing,Split,Timing2,Freeze,Effect,CancelTime,DefaultAction,Intersect
0,OPENBRICK,0,Brick\brick_re_vine\brick_re_vine_die.anim,1,1,2,0,0,0,0,0,0,135,0,0,0
0,CLOSEBRICK,0,Brick\brick_re_vine\brick_re_vine_stand.anim,1,1,1,0,0,0,0,0,0,0,0,0,0
0,DEAD,0,Brick\brick_re_vine\brick_re_vine_die.anim,1,1,2,0,0,0,0,0,0,135,0,0,0
