Creature,BRICK,,,,,,,,,,,,,,,
Index,36843,,,,,,,,,,,,,,,
Skeleton,Brick\fab_door_02.skel,,,,,,,,,,,,,,,
,,,,,,,,,,,,,,,,
Style,Action,Index,Animation,Start_Inter,End_Inter,TimeLength,Swing,Strike,Timing,Split,Timing2,Freeze,Effect,CancelTime,DefaultAction,Intersect
0,OPENBRICK,0,Brick\fab_door_02\fab_door_02_die.anim,1,1,3,0,0,0,0,0,0,0,0,0,0
0,CLOSEBRICK,0,Brick\fab_door_02\fab_door_02_stand.anim,1,1,1,0,0,0,0,0,0,0,0,0,0
0,DEAD,0,Brick\fab_door_02\fab_door_02_die.anim,1,1,3,0,0,0,0,0,0,0,0,0,0
