Creature,BRICK,,,,,,,,,,,,,,,
Index,36887,,,,,,,,,,,,,,,
Skeleton,Brick\sc_wooddoor.skel,,,,,,,,,,,,,,,
,,,,,,,,,,,,,,,,
Style,Action,Index,Animation,Start_Inter,End_Inter,TimeLength,Swing,Strike,Timing,Split,Timing2,Freeze,Effect,CancelTime,DefaultAction,Intersect
0,OPENBRICK,0,Brick\sc_wooddoor\sc_wooddoor_die.anim,1,1,3,0,0,1,0,0,0,174,0,0,0
0,CLOSEBRICK,0,Brick\sc_wooddoor\sc_wooddoor_stand.anim,1,1,1,0,0,1,0,0,0,0,0,0,0
0,DEAD,0,Brick\sc_wooddoor\sc_wooddoor_die.anim,1,1,3,0,0,0,0,0,0,174,0,0,0
