Creature,BRICK,,,,,,,,,,,,,,,
Index,36700,,,,,,,,,,,,,,,
Skeleton,Brick\hidden_brick.skel,,,,,,,,,,,,,,,

Style,Action,Index,Animation,Start_Inter,End_Inter,TimeLength,Swing,Strike,Timing,Split,Timing2,Freeze,Effect,CancelTime,DefaultAction,Intersect
0,OPENBRICK,0,,1,1,3,0,0,0,0,0,0,46,0,0,0
0,CLOSEBRICK,0,Brick\brick_s_spine_stone\brick_s_spine_stone_01_stand.anim,1,1,3,0,0,0,0,0,0,46,0,0,0
0,DEAD,0,Brick\brick_s_spine_stone\s_spine_stone_01_stand_die.anim,1,1,4,0,0,0,0,0,0,47,0,0,0
