Creature,BRICK,,,,,,,,,,,,,,,
Index,36800,,,,,,,,,,,,,,,
Skeleton,Brick\cl_p_ib_06.skel,,,,,,,,,,,,,,,
,,,,,,,,,,,,,,,,
Style,Action,Index,Animation,Start_Inter,End_Inter,TimeLength,Swing,Strike,Timing,Split,Timing2,Freeze,Effect,CancelTime,DefaultAction,Intersect
0,OPENBRICK,0,Brick\cl_p_ib_06\cl_p_ib_06_stand.anim     ,1,1,1,0,0,0,0,0,0,0,0,0,0
0,CLOSEBRICK,0,Brick\cl_p_ib_06\cl_p_ib_06_stand.anim     ,1,1,1,0,0,0,0,0,0,0,0,0,0
0,DEAD,0,Brick\cl_p_ib_06\cl_p_ib_06_die.anim        ,1,1,3.5,0,0,0,0,0,0,1269,0,0,0
