Creature,BRICK,,,,,,,,,,,,,,,
Index,36682,,,,,,,,,,,,,,,
Skeleton,Brick\eg_dog_stand_01.skel,,,,,,,,,,,,,,,

Style,Action,Index,Animation,Start_Inter,End_Inter,TimeLength,Swing,Strike,Timing,Split,Timing2,Freeze,Effect,CancelTime,DefaultAction,Intersect
0,OPENBRICK,0,,1,1,0,0,0,0,0,0,0,0,0,0,0
0,CLOSEBRICK,0,Brick\eg_dog_stand\eg_dog_stand_01.anim,1,1,4,0,0,0,0,0,0,0,0,0,0
0,DEAD,0,Brick\eg_dog_stand\eg_dog_stand_die.anim,1,1,4,0,0,0,0,0,0,28,0,0,0
