Creature,BRICK,,,,,,,,,,,,,,,
Index,36679,,,,,,,,,,,,,,,
Skeleton,Brick\eg_mainstone_small.skel,,,,,,,,,,,,,,,

Style,Action,Index,Animation,Start_Inter,End_Inter,TimeLength,Swing,Strike,Timing,Split,Timing2,Freeze,Effect,CancelTime,DefaultAction,Intersect
0,OPENBRICK,0,,1,1,0,0,0,0,0,0,0,0,0,0,0
0,CLOSEBRICK,0,Brick\eg_mainstone_small\eg_mainstone_small.anim,1,1,4,0,0,0,0,0,0,23,0,0,0
0,DEAD,0,Brick\eg_mainstone_small\eg_mainstone_small_die.anim,1,1,4,0,0,0,0,0,0,24,0,0,0
