Creature,BRICK,,,,,,,,,,,,,,,
Index,36658,,,,,,,,,,,,,,,
Skeleton,Brick\Umbar_brick.skel,,,,,,,,,,,,,,,

Style,Action,Index,Animation,Start_Inter,End_Inter,TimeLength,Swing,Strike,Timing,Split,Timing2,Freeze,Effect,CancelTime,DefaultAction,Intersect
0,OPENBRICK,0,Brick\Umbar\Umbar_brick_c.anim,1,1,6,0,0,0,0,0,0,21,0,0,0
0,CLOSEBRICK,0,Brick\Umbar\Umbar_brick_c.anim,1,1,6,0,0,0,0,0,0,21,0,0,0
0,DEAD,0,,1,1,0,0,0,0,0,0,0,0,0,0,0
