Index,swd/mesh,tpack,effect,arc/mesh,tpack,effect,sor/mesh,tpack,effect,sum/mesh,tpack,effect,seg/mesh,tpack,effect,bgw/mesh,tpack,effect,alo/mesh,tpack,effect,drg/meshs,tpacks,effects,bwz/mesh,tpack,effect,wsum/mesh,tpack,effect,mseg/mesh,tpack,effect,hwa/mesh,tpack,effect,lod
521,Item\Armor\AWK\SWD_AWK.mesh,Item\Armor\AWK\SWD_AWK.tpack,0,Item\Armor\AWK\ARC_AWK.mesh,Item\Armor\AWK\ARC_AWK.tpack,0,Item\Armor\AWK\SOR_AWK.mesh,Item\Armor\AWK\SOR_AWK.tpack,0,Item\Armor\AWK\SUM_AWK.mesh,Item\Armor\AWK\SUM_AWK.tpack,0,Item\Armor\AWK\HIL_AWK.mesh,Item\Armor\AWK\HIL_AWK.tpack,0,Item\Armor\AWK\BGW_AWK.mesh,Item\Armor\AWK\BGW_AWK.tpack,0,Item\Armor\AWK\ALO_AWK.mesh,Item\Armor\AWK\ALO_AWK.tpack,0,Item\Armor\AWK\DRG_AWK.mesh,Item\Armor\AWK\DRG_AWK.tpack,0,Item\Armor\AWK\BWZ_AWK.mesh,Item\Armor\AWK\BWZ_AWK.tpack,0,Item\Armor\AWK\WSU_AWK.mesh,Item\Armor\AWK\WSU_AWK.tpack,0,Item\Armor\AWK\MSE_AWK.mesh,Item\Armor\AWK\MSE_AWK.tpack,0,Item\Armor\AWK\HWA_AWK.mesh,Item\Armor\AWK\HWA_AWK.tpack,0,TRUE
1281,Item\Armor\AWK\SWD_AWK.mesh,Item\Armor\AWK\SWD_AWK.tpack,0,Item\Armor\AWK\ARC_AWK.mesh,Item\Armor\AWK\ARC_AWK.tpack,0,Item\Armor\AWK\SOR_AWK.mesh,Item\Armor\AWK\SOR_AWK.tpack,0,Item\Armor\AWK\SUM_AWK.mesh,Item\Armor\AWK\SUM_AWK.tpack,0,Item\Armor\AWK\HIL_AWK.mesh,Item\Armor\AWK\HIL_AWK.tpack,0,Item\Armor\AWK\BGW_AWK.mesh,Item\Armor\AWK\BGW_AWK.tpack,0,Item\Armor\AWK\ALO_AWK.mesh,Item\Armor\AWK\ALO_AWK.tpack,0,Item\Armor\AWK\DRG_AWK.mesh,Item\Armor\AWK\DRG_AWK.tpack,0,Item\Armor\AWK\BWZ_AWK.mesh,Item\Armor\AWK\BWZ_AWK.tpack,0,Item\Armor\AWK\WSU_AWK.mesh,Item\Armor\AWK\WSU_AWK.tpack,0,Item\Armor\AWK\MSE_AWK.mesh,Item\Armor\AWK\MSE_AWK.tpack,0,Item\Armor\AWK\HWA_AWK.mesh,Item\Armor\AWK\HWA_AWK.tpack,0,TRUE
2381,Item\Armor\AWK\SWD_AWK.mesh,Item\Armor\AWK\SWD_AWK.tpack,0,Item\Armor\AWK\ARC_AWK.mesh,Item\Armor\AWK\ARC_AWK.tpack,0,Item\Armor\AWK\SOR_AWK.mesh,Item\Armor\AWK\SOR_AWK.tpack,0,Item\Armor\AWK\SUM_AWK.mesh,Item\Armor\AWK\SUM_AWK.tpack,0,Item\Armor\AWK\HIL_AWK.mesh,Item\Armor\AWK\HIL_AWK.tpack,0,Item\Armor\AWK\BGW_AWK.mesh,Item\Armor\AWK\BGW_AWK.tpack,0,Item\Armor\AWK\ALO_AWK.mesh,Item\Armor\AWK\ALO_AWK.tpack,0,Item\Armor\AWK\DRG_AWK.mesh,Item\Armor\AWK\DRG_AWK.tpack,0,Item\Armor\AWK\BWZ_AWK.mesh,Item\Armor\AWK\BWZ_AWK.tpack,0,Item\Armor\AWK\WSU_AWK.mesh,Item\Armor\AWK\WSU_AWK.tpack,0,Item\Armor\AWK\MSE_AWK.mesh,Item\Armor\AWK\MSE_AWK.tpack,0,Item\Armor\AWK\HWA_AWK.mesh,Item\Armor\AWK\HWA_AWK.tpack,0,TRUE
3321,Item\Armor\AWK\SWD_AWK.mesh,Item\Armor\AWK\SWD_AWK.tpack,0,Item\Armor\AWK\ARC_AWK.mesh,Item\Armor\AWK\ARC_AWK.tpack,0,Item\Armor\AWK\SOR_AWK.mesh,Item\Armor\AWK\SOR_AWK.tpack,0,Item\Armor\AWK\SUM_AWK.mesh,Item\Armor\AWK\SUM_AWK.tpack,0,Item\Armor\AWK\HIL_AWK.mesh,Item\Armor\AWK\HIL_AWK.tpack,0,Item\Armor\AWK\BGW_AWK.mesh,Item\Armor\AWK\BGW_AWK.tpack,0,Item\Armor\AWK\ALO_AWK.mesh,Item\Armor\AWK\ALO_AWK.tpack,0,Item\Armor\AWK\DRG_AWK.mesh,Item\Armor\AWK\DRG_AWK.tpack,0,Item\Armor\AWK\BWZ_AWK.mesh,Item\Armor\AWK\BWZ_AWK.tpack,0,Item\Armor\AWK\WSU_AWK.mesh,Item\Armor\AWK\WSU_AWK.tpack,0,Item\Armor\AWK\MSE_AWK.mesh,Item\Armor\AWK\MSE_AWK.tpack,0,Item\Armor\AWK\HWA_AWK.mesh,Item\Armor\AWK\HWA_AWK.tpack,0,TRUE
4421,Item\Armor\AWK\SWD_AWK.mesh,Item\Armor\AWK\SWD_AWK.tpack,0,Item\Armor\AWK\ARC_AWK.mesh,Item\Armor\AWK\ARC_AWK.tpack,0,Item\Armor\AWK\SOR_AWK.mesh,Item\Armor\AWK\SOR_AWK.tpack,0,Item\Armor\AWK\SUM_AWK.mesh,Item\Armor\AWK\SUM_AWK.tpack,0,Item\Armor\AWK\HIL_AWK.mesh,Item\Armor\AWK\HIL_AWK.tpack,0,Item\Armor\AWK\BGW_AWK.mesh,Item\Armor\AWK\BGW_AWK.tpack,0,Item\Armor\AWK\ALO_AWK.mesh,Item\Armor\AWK\ALO_AWK.tpack,0,Item\Armor\AWK\DRG_AWK.mesh,Item\Armor\AWK\DRG_AWK.tpack,0,Item\Armor\AWK\BWZ_AWK.mesh,Item\Armor\AWK\BWZ_AWK.tpack,0,Item\Armor\AWK\WSU_AWK.mesh,Item\Armor\AWK\WSU_AWK.tpack,0,Item\Armor\AWK\MSE_AWK.mesh,Item\Armor\AWK\MSE_AWK.tpack,0,Item\Armor\AWK\HWA_AWK.mesh,Item\Armor\AWK\HWA_AWK.tpack,0,TRUE
8201,Item\Armor\AWK\SWD_AWK.mesh,Item\Armor\AWK\SWD_AWK.tpack,0,Item\Armor\AWK\ARC_AWK.mesh,Item\Armor\AWK\ARC_AWK.tpack,0,Item\Armor\AWK\SOR_AWK.mesh,Item\Armor\AWK\SOR_AWK.tpack,0,Item\Armor\AWK\SUM_AWK.mesh,Item\Armor\AWK\SUM_AWK.tpack,0,Item\Armor\AWK\HIL_AWK.mesh,Item\Armor\AWK\HIL_AWK.tpack,0,Item\Armor\AWK\BGW_AWK.mesh,Item\Armor\AWK\BGW_AWK.tpack,0,Item\Armor\AWK\ALO_AWK.mesh,Item\Armor\AWK\ALO_AWK.tpack,0,Item\Armor\AWK\DRG_AWK.mesh,Item\Armor\AWK\DRG_AWK.tpack,0,Item\Armor\AWK\BWZ_AWK.mesh,Item\Armor\AWK\BWZ_AWK.tpack,0,Item\Armor\AWK\WSU_AWK.mesh,Item\Armor\AWK\WSU_AWK.tpack,0,Item\Armor\AWK\MSE_AWK.mesh,Item\Armor\AWK\MSE_AWK.tpack,0,Item\Armor\AWK\HWA_AWK.mesh,Item\Armor\AWK\HWA_AWK.tpack,0,TRUE
9460,Item\Armor\AWK\SWD_AWK.mesh,Item\Armor\AWK\SWD_AWK.tpack,0,Item\Armor\AWK\ARC_AWK.mesh,Item\Armor\AWK\ARC_AWK.tpack,0,Item\Armor\AWK\SOR_AWK.mesh,Item\Armor\AWK\SOR_AWK.tpack,0,Item\Armor\AWK\SUM_AWK.mesh,Item\Armor\AWK\SUM_AWK.tpack,0,Item\Armor\AWK\HIL_AWK.mesh,Item\Armor\AWK\HIL_AWK.tpack,0,Item\Armor\AWK\BGW_AWK.mesh,Item\Armor\AWK\BGW_AWK.tpack,0,Item\Armor\AWK\ALO_AWK.mesh,Item\Armor\AWK\ALO_AWK.tpack,0,Item\Armor\AWK\DRG_AWK.mesh,Item\Armor\AWK\DRG_AWK.tpack,0,Item\Armor\AWK\BWZ_AWK.mesh,Item\Armor\AWK\BWZ_AWK.tpack,0,Item\Armor\AWK\WSU_AWK.mesh,Item\Armor\AWK\WSU_AWK.tpack,0,Item\Armor\AWK\MSE_AWK.mesh,Item\Armor\AWK\MSE_AWK.tpack,0,Item\Armor\AWK\HWA_AWK.mesh,Item\Armor\AWK\HWA_AWK.tpack,0,TRUE
13660,Item\Armor\AWK\SWD_AWK.mesh,Item\Armor\AWK\SWD_AWK.tpack,0,Item\Armor\AWK\ARC_AWK.mesh,Item\Armor\AWK\ARC_AWK.tpack,0,Item\Armor\AWK\SOR_AWK.mesh,Item\Armor\AWK\SOR_AWK.tpack,0,Item\Armor\AWK\SUM_AWK.mesh,Item\Armor\AWK\SUM_AWK.tpack,0,Item\Armor\AWK\HIL_AWK.mesh,Item\Armor\AWK\HIL_AWK.tpack,0,Item\Armor\AWK\BGW_AWK.mesh,Item\Armor\AWK\BGW_AWK.tpack,0,Item\Armor\AWK\ALO_AWK.mesh,Item\Armor\AWK\ALO_AWK.tpack,0,Item\Armor\AWK\DRG_AWK.mesh,Item\Armor\AWK\DRG_AWK.tpack,0,Item\Armor\AWK\BWZ_AWK.mesh,Item\Armor\AWK\BWZ_AWK.tpack,0,Item\Armor\AWK\WSU_AWK.mesh,Item\Armor\AWK\WSU_AWK.tpack,0,Item\Armor\AWK\MSE_AWK.mesh,Item\Armor\AWK\MSE_AWK.tpack,0,Item\Armor\AWK\HWA_AWK.mesh,Item\Armor\AWK\HWA_AWK.tpack,0,TRUE
14200,Item\Armor\AWK\SWD_AWK.mesh,Item\Armor\AWK\SWD_AWK.tpack,0,Item\Armor\AWK\ARC_AWK.mesh,Item\Armor\AWK\ARC_AWK.tpack,0,Item\Armor\AWK\SOR_AWK.mesh,Item\Armor\AWK\SOR_AWK.tpack,0,Item\Armor\AWK\SUM_AWK.mesh,Item\Armor\AWK\SUM_AWK.tpack,0,Item\Armor\AWK\HIL_AWK.mesh,Item\Armor\AWK\HIL_AWK.tpack,0,Item\Armor\AWK\BGW_AWK.mesh,Item\Armor\AWK\BGW_AWK.tpack,0,Item\Armor\AWK\ALO_AWK.mesh,Item\Armor\AWK\ALO_AWK.tpack,0,Item\Armor\AWK\DRG_AWK.mesh,Item\Armor\AWK\DRG_AWK.tpack,0,Item\Armor\AWK\BWZ_AWK.mesh,Item\Armor\AWK\BWZ_AWK.tpack,0,Item\Armor\AWK\WSU_AWK.mesh,Item\Armor\AWK\WSU_AWK.tpack,0,Item\Armor\AWK\MSE_AWK.mesh,Item\Armor\AWK\MSE_AWK.tpack,0,Item\Armor\AWK\HWA_AWK.mesh,Item\Armor\AWK\HWA_AWK.tpack,0,TRUE
14690,Item\Armor\AWK\SWD_AWK.mesh,Item\Armor\AWK\SWD_AWK.tpack,0,Item\Armor\AWK\ARC_AWK.mesh,Item\Armor\AWK\ARC_AWK.tpack,0,Item\Armor\AWK\SOR_AWK.mesh,Item\Armor\AWK\SOR_AWK.tpack,0,Item\Armor\AWK\SUM_AWK.mesh,Item\Armor\AWK\SUM_AWK.tpack,0,Item\Armor\AWK\HIL_AWK.mesh,Item\Armor\AWK\HIL_AWK.tpack,0,Item\Armor\AWK\BGW_AWK.mesh,Item\Armor\AWK\BGW_AWK.tpack,0,Item\Armor\AWK\ALO_AWK.mesh,Item\Armor\AWK\ALO_AWK.tpack,0,Item\Armor\AWK\DRG_AWK.mesh,Item\Armor\AWK\DRG_AWK.tpack,0,Item\Armor\AWK\BWZ_AWK.mesh,Item\Armor\AWK\BWZ_AWK.tpack,0,Item\Armor\AWK\WSU_AWK.mesh,Item\Armor\AWK\WSU_AWK.tpack,0,Item\Armor\AWK\MSE_AWK.mesh,Item\Armor\AWK\MSE_AWK.tpack,0,Item\Armor\AWK\HWA_AWK.mesh,Item\Armor\AWK\HWA_AWK.tpack,0,TRUE
14980,Item\Armor\AWK\SWD_AWK.mesh,Item\Armor\AWK\SWD_AWK.tpack,0,Item\Armor\AWK\ARC_AWK.mesh,Item\Armor\AWK\ARC_AWK.tpack,0,Item\Armor\AWK\SOR_AWK.mesh,Item\Armor\AWK\SOR_AWK.tpack,0,Item\Armor\AWK\SUM_AWK.mesh,Item\Armor\AWK\SUM_AWK.tpack,0,Item\Armor\AWK\HIL_AWK.mesh,Item\Armor\AWK\HIL_AWK.tpack,0,Item\Armor\AWK\BGW_AWK.mesh,Item\Armor\AWK\BGW_AWK.tpack,0,Item\Armor\AWK\ALO_AWK.mesh,Item\Armor\AWK\ALO_AWK.tpack,0,Item\Armor\AWK\DRG_AWK.mesh,Item\Armor\AWK\DRG_AWK.tpack,0,Item\Armor\AWK\BWZ_AWK.mesh,Item\Armor\AWK\BWZ_AWK.tpack,0,Item\Armor\AWK\WSU_AWK.mesh,Item\Armor\AWK\WSU_AWK.tpack,0,Item\Armor\AWK\MSE_AWK.mesh,Item\Armor\AWK\MSE_AWK.tpack,0,Item\Armor\AWK\HWA_AWK.mesh,Item\Armor\AWK\HWA_AWK.tpack,0,TRUE
30421,Item\Armor\AWK\SWD_AWK.mesh,Item\Armor\AWK\SWD_AWK.tpack,0,Item\Armor\AWK\ARC_AWK.mesh,Item\Armor\AWK\ARC_AWK.tpack,0,Item\Armor\AWK\SOR_AWK.mesh,Item\Armor\AWK\SOR_AWK.tpack,0,Item\Armor\AWK\SUM_AWK.mesh,Item\Armor\AWK\SUM_AWK.tpack,0,Item\Armor\AWK\HIL_AWK.mesh,Item\Armor\AWK\HIL_AWK.tpack,0,Item\Armor\AWK\BGW_AWK.mesh,Item\Armor\AWK\BGW_AWK.tpack,0,Item\Armor\AWK\ALO_AWK.mesh,Item\Armor\AWK\ALO_AWK.tpack,0,Item\Armor\AWK\DRG_AWK.mesh,Item\Armor\AWK\DRG_AWK.tpack,0,Item\Armor\AWK\BWZ_AWK.mesh,Item\Armor\AWK\BWZ_AWK.tpack,0,Item\Armor\AWK\WSU_AWK.mesh,Item\Armor\AWK\WSU_AWK.tpack,0,Item\Armor\AWK\MSE_AWK.mesh,Item\Armor\AWK\MSE_AWK.tpack,0,Item\Armor\AWK\HWA_AWK.mesh,Item\Armor\AWK\HWA_AWK.tpack,0,TRUE
522,Item\Armor\AWK\SWD_AWK.mesh,Item\Armor\AWK\SWD_AWK.tpack,0,Item\Armor\AWK\ARC_AWK.mesh,Item\Armor\AWK\ARC_AWK.tpack,0,Item\Armor\AWK\SOR_AWK.mesh,Item\Armor\AWK\SOR_AWK.tpack,0,Item\Armor\AWK\SUM_AWK.mesh,Item\Armor\AWK\SUM_AWK.tpack,0,Item\Armor\AWK\HIL_AWK.mesh,Item\Armor\AWK\HIL_AWK.tpack,0,Item\Armor\AWK\BGW_AWK.mesh,Item\Armor\AWK\BGW_AWK.tpack,0,Item\Armor\AWK\ALO_AWK.mesh,Item\Armor\AWK\ALO_AWK.tpack,0,Item\Armor\AWK\DRG_AWK.mesh,Item\Armor\AWK\DRG_AWK.tpack,0,Item\Armor\AWK\BWZ_AWK.mesh,Item\Armor\AWK\BWZ_AWK.tpack,0,Item\Armor\AWK\WSU_AWK.mesh,Item\Armor\AWK\WSU_AWK.tpack,0,Item\Armor\AWK\MSE_AWK.mesh,Item\Armor\AWK\MSE_AWK.tpack,0,Item\Armor\AWK\HWA_AWK.mesh,Item\Armor\AWK\HWA_AWK.tpack,0,TRUE
1282,Item\Armor\AWK\SWD_AWK.mesh,Item\Armor\AWK\SWD_AWK.tpack,0,Item\Armor\AWK\ARC_AWK.mesh,Item\Armor\AWK\ARC_AWK.tpack,0,Item\Armor\AWK\SOR_AWK.mesh,Item\Armor\AWK\SOR_AWK.tpack,0,Item\Armor\AWK\SUM_AWK.mesh,Item\Armor\AWK\SUM_AWK.tpack,0,Item\Armor\AWK\HIL_AWK.mesh,Item\Armor\AWK\HIL_AWK.tpack,0,Item\Armor\AWK\BGW_AWK.mesh,Item\Armor\AWK\BGW_AWK.tpack,0,Item\Armor\AWK\ALO_AWK.mesh,Item\Armor\AWK\ALO_AWK.tpack,0,Item\Armor\AWK\DRG_AWK.mesh,Item\Armor\AWK\DRG_AWK.tpack,0,Item\Armor\AWK\BWZ_AWK.mesh,Item\Armor\AWK\BWZ_AWK.tpack,0,Item\Armor\AWK\WSU_AWK.mesh,Item\Armor\AWK\WSU_AWK.tpack,0,Item\Armor\AWK\MSE_AWK.mesh,Item\Armor\AWK\MSE_AWK.tpack,0,Item\Armor\AWK\HWA_AWK.mesh,Item\Armor\AWK\HWA_AWK.tpack,0,TRUE
2382,Item\Armor\AWK\SWD_AWK.mesh,Item\Armor\AWK\SWD_AWK.tpack,0,Item\Armor\AWK\ARC_AWK.mesh,Item\Armor\AWK\ARC_AWK.tpack,0,Item\Armor\AWK\SOR_AWK.mesh,Item\Armor\AWK\SOR_AWK.tpack,0,Item\Armor\AWK\SUM_AWK.mesh,Item\Armor\AWK\SUM_AWK.tpack,0,Item\Armor\AWK\HIL_AWK.mesh,Item\Armor\AWK\HIL_AWK.tpack,0,Item\Armor\AWK\BGW_AWK.mesh,Item\Armor\AWK\BGW_AWK.tpack,0,Item\Armor\AWK\ALO_AWK.mesh,Item\Armor\AWK\ALO_AWK.tpack,0,Item\Armor\AWK\DRG_AWK.mesh,Item\Armor\AWK\DRG_AWK.tpack,0,Item\Armor\AWK\BWZ_AWK.mesh,Item\Armor\AWK\BWZ_AWK.tpack,0,Item\Armor\AWK\WSU_AWK.mesh,Item\Armor\AWK\WSU_AWK.tpack,0,Item\Armor\AWK\MSE_AWK.mesh,Item\Armor\AWK\MSE_AWK.tpack,0,Item\Armor\AWK\HWA_AWK.mesh,Item\Armor\AWK\HWA_AWK.tpack,0,TRUE
3322,Item\Armor\AWK\SWD_AWK.mesh,Item\Armor\AWK\SWD_AWK.tpack,0,Item\Armor\AWK\ARC_AWK.mesh,Item\Armor\AWK\ARC_AWK.tpack,0,Item\Armor\AWK\SOR_AWK.mesh,Item\Armor\AWK\SOR_AWK.tpack,0,Item\Armor\AWK\SUM_AWK.mesh,Item\Armor\AWK\SUM_AWK.tpack,0,Item\Armor\AWK\HIL_AWK.mesh,Item\Armor\AWK\HIL_AWK.tpack,0,Item\Armor\AWK\BGW_AWK.mesh,Item\Armor\AWK\BGW_AWK.tpack,0,Item\Armor\AWK\ALO_AWK.mesh,Item\Armor\AWK\ALO_AWK.tpack,0,Item\Armor\AWK\DRG_AWK.mesh,Item\Armor\AWK\DRG_AWK.tpack,0,Item\Armor\AWK\BWZ_AWK.mesh,Item\Armor\AWK\BWZ_AWK.tpack,0,Item\Armor\AWK\WSU_AWK.mesh,Item\Armor\AWK\WSU_AWK.tpack,0,Item\Armor\AWK\MSE_AWK.mesh,Item\Armor\AWK\MSE_AWK.tpack,0,Item\Armor\AWK\HWA_AWK.mesh,Item\Armor\AWK\HWA_AWK.tpack,0,TRUE
4422,Item\Armor\AWK\SWD_AWK.mesh,Item\Armor\AWK\SWD_AWK.tpack,0,Item\Armor\AWK\ARC_AWK.mesh,Item\Armor\AWK\ARC_AWK.tpack,0,Item\Armor\AWK\SOR_AWK.mesh,Item\Armor\AWK\SOR_AWK.tpack,0,Item\Armor\AWK\SUM_AWK.mesh,Item\Armor\AWK\SUM_AWK.tpack,0,Item\Armor\AWK\HIL_AWK.mesh,Item\Armor\AWK\HIL_AWK.tpack,0,Item\Armor\AWK\BGW_AWK.mesh,Item\Armor\AWK\BGW_AWK.tpack,0,Item\Armor\AWK\ALO_AWK.mesh,Item\Armor\AWK\ALO_AWK.tpack,0,Item\Armor\AWK\DRG_AWK.mesh,Item\Armor\AWK\DRG_AWK.tpack,0,Item\Armor\AWK\BWZ_AWK.mesh,Item\Armor\AWK\BWZ_AWK.tpack,0,Item\Armor\AWK\WSU_AWK.mesh,Item\Armor\AWK\WSU_AWK.tpack,0,Item\Armor\AWK\MSE_AWK.mesh,Item\Armor\AWK\MSE_AWK.tpack,0,Item\Armor\AWK\HWA_AWK.mesh,Item\Armor\AWK\HWA_AWK.tpack,0,TRUE
8202,Item\Armor\AWK\SWD_AWK.mesh,Item\Armor\AWK\SWD_AWK.tpack,0,Item\Armor\AWK\ARC_AWK.mesh,Item\Armor\AWK\ARC_AWK.tpack,0,Item\Armor\AWK\SOR_AWK.mesh,Item\Armor\AWK\SOR_AWK.tpack,0,Item\Armor\AWK\SUM_AWK.mesh,Item\Armor\AWK\SUM_AWK.tpack,0,Item\Armor\AWK\HIL_AWK.mesh,Item\Armor\AWK\HIL_AWK.tpack,0,Item\Armor\AWK\BGW_AWK.mesh,Item\Armor\AWK\BGW_AWK.tpack,0,Item\Armor\AWK\ALO_AWK.mesh,Item\Armor\AWK\ALO_AWK.tpack,0,Item\Armor\AWK\DRG_AWK.mesh,Item\Armor\AWK\DRG_AWK.tpack,0,Item\Armor\AWK\BWZ_AWK.mesh,Item\Armor\AWK\BWZ_AWK.tpack,0,Item\Armor\AWK\WSU_AWK.mesh,Item\Armor\AWK\WSU_AWK.tpack,0,Item\Armor\AWK\MSE_AWK.mesh,Item\Armor\AWK\MSE_AWK.tpack,0,Item\Armor\AWK\HWA_AWK.mesh,Item\Armor\AWK\HWA_AWK.tpack,0,TRUE
9461,Item\Armor\AWK\SWD_AWK.mesh,Item\Armor\AWK\SWD_AWK.tpack,0,Item\Armor\AWK\ARC_AWK.mesh,Item\Armor\AWK\ARC_AWK.tpack,0,Item\Armor\AWK\SOR_AWK.mesh,Item\Armor\AWK\SOR_AWK.tpack,0,Item\Armor\AWK\SUM_AWK.mesh,Item\Armor\AWK\SUM_AWK.tpack,0,Item\Armor\AWK\HIL_AWK.mesh,Item\Armor\AWK\HIL_AWK.tpack,0,Item\Armor\AWK\BGW_AWK.mesh,Item\Armor\AWK\BGW_AWK.tpack,0,Item\Armor\AWK\ALO_AWK.mesh,Item\Armor\AWK\ALO_AWK.tpack,0,Item\Armor\AWK\DRG_AWK.mesh,Item\Armor\AWK\DRG_AWK.tpack,0,Item\Armor\AWK\BWZ_AWK.mesh,Item\Armor\AWK\BWZ_AWK.tpack,0,Item\Armor\AWK\WSU_AWK.mesh,Item\Armor\AWK\WSU_AWK.tpack,0,Item\Armor\AWK\MSE_AWK.mesh,Item\Armor\AWK\MSE_AWK.tpack,0,Item\Armor\AWK\HWA_AWK.mesh,Item\Armor\AWK\HWA_AWK.tpack,0,TRUE
13661,Item\Armor\AWK\SWD_AWK.mesh,Item\Armor\AWK\SWD_AWK.tpack,0,Item\Armor\AWK\ARC_AWK.mesh,Item\Armor\AWK\ARC_AWK.tpack,0,Item\Armor\AWK\SOR_AWK.mesh,Item\Armor\AWK\SOR_AWK.tpack,0,Item\Armor\AWK\SUM_AWK.mesh,Item\Armor\AWK\SUM_AWK.tpack,0,Item\Armor\AWK\HIL_AWK.mesh,Item\Armor\AWK\HIL_AWK.tpack,0,Item\Armor\AWK\BGW_AWK.mesh,Item\Armor\AWK\BGW_AWK.tpack,0,Item\Armor\AWK\ALO_AWK.mesh,Item\Armor\AWK\ALO_AWK.tpack,0,Item\Armor\AWK\DRG_AWK.mesh,Item\Armor\AWK\DRG_AWK.tpack,0,Item\Armor\AWK\BWZ_AWK.mesh,Item\Armor\AWK\BWZ_AWK.tpack,0,Item\Armor\AWK\WSU_AWK.mesh,Item\Armor\AWK\WSU_AWK.tpack,0,Item\Armor\AWK\MSE_AWK.mesh,Item\Armor\AWK\MSE_AWK.tpack,0,Item\Armor\AWK\HWA_AWK.mesh,Item\Armor\AWK\HWA_AWK.tpack,0,TRUE
14201,Item\Armor\AWK\SWD_AWK.mesh,Item\Armor\AWK\SWD_AWK.tpack,0,Item\Armor\AWK\ARC_AWK.mesh,Item\Armor\AWK\ARC_AWK.tpack,0,Item\Armor\AWK\SOR_AWK.mesh,Item\Armor\AWK\SOR_AWK.tpack,0,Item\Armor\AWK\SUM_AWK.mesh,Item\Armor\AWK\SUM_AWK.tpack,0,Item\Armor\AWK\HIL_AWK.mesh,Item\Armor\AWK\HIL_AWK.tpack,0,Item\Armor\AWK\BGW_AWK.mesh,Item\Armor\AWK\BGW_AWK.tpack,0,Item\Armor\AWK\ALO_AWK.mesh,Item\Armor\AWK\ALO_AWK.tpack,0,Item\Armor\AWK\DRG_AWK.mesh,Item\Armor\AWK\DRG_AWK.tpack,0,Item\Armor\AWK\BWZ_AWK.mesh,Item\Armor\AWK\BWZ_AWK.tpack,0,Item\Armor\AWK\WSU_AWK.mesh,Item\Armor\AWK\WSU_AWK.tpack,0,Item\Armor\AWK\MSE_AWK.mesh,Item\Armor\AWK\MSE_AWK.tpack,0,Item\Armor\AWK\HWA_AWK.mesh,Item\Armor\AWK\HWA_AWK.tpack,0,TRUE
14691,Item\Armor\AWK\SWD_AWK.mesh,Item\Armor\AWK\SWD_AWK.tpack,0,Item\Armor\AWK\ARC_AWK.mesh,Item\Armor\AWK\ARC_AWK.tpack,0,Item\Armor\AWK\SOR_AWK.mesh,Item\Armor\AWK\SOR_AWK.tpack,0,Item\Armor\AWK\SUM_AWK.mesh,Item\Armor\AWK\SUM_AWK.tpack,0,Item\Armor\AWK\HIL_AWK.mesh,Item\Armor\AWK\HIL_AWK.tpack,0,Item\Armor\AWK\BGW_AWK.mesh,Item\Armor\AWK\BGW_AWK.tpack,0,Item\Armor\AWK\ALO_AWK.mesh,Item\Armor\AWK\ALO_AWK.tpack,0,Item\Armor\AWK\DRG_AWK.mesh,Item\Armor\AWK\DRG_AWK.tpack,0,Item\Armor\AWK\BWZ_AWK.mesh,Item\Armor\AWK\BWZ_AWK.tpack,0,Item\Armor\AWK\WSU_AWK.mesh,Item\Armor\AWK\WSU_AWK.tpack,0,Item\Armor\AWK\MSE_AWK.mesh,Item\Armor\AWK\MSE_AWK.tpack,0,Item\Armor\AWK\HWA_AWK.mesh,Item\Armor\AWK\HWA_AWK.tpack,0,TRUE
14981,Item\Armor\AWK\SWD_AWK.mesh,Item\Armor\AWK\SWD_AWK.tpack,0,Item\Armor\AWK\ARC_AWK.mesh,Item\Armor\AWK\ARC_AWK.tpack,0,Item\Armor\AWK\SOR_AWK.mesh,Item\Armor\AWK\SOR_AWK.tpack,0,Item\Armor\AWK\SUM_AWK.mesh,Item\Armor\AWK\SUM_AWK.tpack,0,Item\Armor\AWK\HIL_AWK.mesh,Item\Armor\AWK\HIL_AWK.tpack,0,Item\Armor\AWK\BGW_AWK.mesh,Item\Armor\AWK\BGW_AWK.tpack,0,Item\Armor\AWK\ALO_AWK.mesh,Item\Armor\AWK\ALO_AWK.tpack,0,Item\Armor\AWK\DRG_AWK.mesh,Item\Armor\AWK\DRG_AWK.tpack,0,Item\Armor\AWK\BWZ_AWK.mesh,Item\Armor\AWK\BWZ_AWK.tpack,0,Item\Armor\AWK\WSU_AWK.mesh,Item\Armor\AWK\WSU_AWK.tpack,0,Item\Armor\AWK\MSE_AWK.mesh,Item\Armor\AWK\MSE_AWK.tpack,0,Item\Armor\AWK\HWA_AWK.mesh,Item\Armor\AWK\HWA_AWK.tpack,0,TRUE
30422,Item\Armor\AWK\SWD_AWK.mesh,Item\Armor\AWK\SWD_AWK.tpack,0,Item\Armor\AWK\ARC_AWK.mesh,Item\Armor\AWK\ARC_AWK.tpack,0,Item\Armor\AWK\SOR_AWK.mesh,Item\Armor\AWK\SOR_AWK.tpack,0,Item\Armor\AWK\SUM_AWK.mesh,Item\Armor\AWK\SUM_AWK.tpack,0,Item\Armor\AWK\HIL_AWK.mesh,Item\Armor\AWK\HIL_AWK.tpack,0,Item\Armor\AWK\BGW_AWK.mesh,Item\Armor\AWK\BGW_AWK.tpack,0,Item\Armor\AWK\ALO_AWK.mesh,Item\Armor\AWK\ALO_AWK.tpack,0,Item\Armor\AWK\DRG_AWK.mesh,Item\Armor\AWK\DRG_AWK.tpack,0,Item\Armor\AWK\BWZ_AWK.mesh,Item\Armor\AWK\BWZ_AWK.tpack,0,Item\Armor\AWK\WSU_AWK.mesh,Item\Armor\AWK\WSU_AWK.tpack,0,Item\Armor\AWK\MSE_AWK.mesh,Item\Armor\AWK\MSE_AWK.tpack,0,Item\Armor\AWK\HWA_AWK.mesh,Item\Armor\AWK\HWA_AWK.tpack,0,TRUE
523,Item\Armor\AWK\SWD_AWK.mesh,Item\Armor\AWK\SWD_AWK.tpack,0,Item\Armor\AWK\ARC_AWK.mesh,Item\Armor\AWK\ARC_AWK.tpack,0,Item\Armor\AWK\SOR_AWK.mesh,Item\Armor\AWK\SOR_AWK.tpack,0,Item\Armor\AWK\SUM_AWK.mesh,Item\Armor\AWK\SUM_AWK.tpack,0,Item\Armor\AWK\HIL_AWK.mesh,Item\Armor\AWK\HIL_AWK.tpack,0,Item\Armor\AWK\BGW_AWK.mesh,Item\Armor\AWK\BGW_AWK.tpack,0,Item\Armor\AWK\ALO_AWK.mesh,Item\Armor\AWK\ALO_AWK.tpack,0,Item\Armor\AWK\DRG_AWK.mesh,Item\Armor\AWK\DRG_AWK.tpack,0,Item\Armor\AWK\BWZ_AWK.mesh,Item\Armor\AWK\BWZ_AWK.tpack,0,Item\Armor\AWK\WSU_AWK.mesh,Item\Armor\AWK\WSU_AWK.tpack,0,Item\Armor\AWK\MSE_AWK.mesh,Item\Armor\AWK\MSE_AWK.tpack,0,Item\Armor\AWK\HWA_AWK.mesh,Item\Armor\AWK\HWA_AWK.tpack,0,TRUE
1283,Item\Armor\AWK\SWD_AWK.mesh,Item\Armor\AWK\SWD_AWK.tpack,0,Item\Armor\AWK\ARC_AWK.mesh,Item\Armor\AWK\ARC_AWK.tpack,0,Item\Armor\AWK\SOR_AWK.mesh,Item\Armor\AWK\SOR_AWK.tpack,0,Item\Armor\AWK\SUM_AWK.mesh,Item\Armor\AWK\SUM_AWK.tpack,0,Item\Armor\AWK\HIL_AWK.mesh,Item\Armor\AWK\HIL_AWK.tpack,0,Item\Armor\AWK\BGW_AWK.mesh,Item\Armor\AWK\BGW_AWK.tpack,0,Item\Armor\AWK\ALO_AWK.mesh,Item\Armor\AWK\ALO_AWK.tpack,0,Item\Armor\AWK\DRG_AWK.mesh,Item\Armor\AWK\DRG_AWK.tpack,0,Item\Armor\AWK\BWZ_AWK.mesh,Item\Armor\AWK\BWZ_AWK.tpack,0,Item\Armor\AWK\WSU_AWK.mesh,Item\Armor\AWK\WSU_AWK.tpack,0,Item\Armor\AWK\MSE_AWK.mesh,Item\Armor\AWK\MSE_AWK.tpack,0,Item\Armor\AWK\HWA_AWK.mesh,Item\Armor\AWK\HWA_AWK.tpack,0,TRUE
2383,Item\Armor\AWK\SWD_AWK.mesh,Item\Armor\AWK\SWD_AWK.tpack,0,Item\Armor\AWK\ARC_AWK.mesh,Item\Armor\AWK\ARC_AWK.tpack,0,Item\Armor\AWK\SOR_AWK.mesh,Item\Armor\AWK\SOR_AWK.tpack,0,Item\Armor\AWK\SUM_AWK.mesh,Item\Armor\AWK\SUM_AWK.tpack,0,Item\Armor\AWK\HIL_AWK.mesh,Item\Armor\AWK\HIL_AWK.tpack,0,Item\Armor\AWK\BGW_AWK.mesh,Item\Armor\AWK\BGW_AWK.tpack,0,Item\Armor\AWK\ALO_AWK.mesh,Item\Armor\AWK\ALO_AWK.tpack,0,Item\Armor\AWK\DRG_AWK.mesh,Item\Armor\AWK\DRG_AWK.tpack,0,Item\Armor\AWK\BWZ_AWK.mesh,Item\Armor\AWK\BWZ_AWK.tpack,0,Item\Armor\AWK\WSU_AWK.mesh,Item\Armor\AWK\WSU_AWK.tpack,0,Item\Armor\AWK\MSE_AWK.mesh,Item\Armor\AWK\MSE_AWK.tpack,0,Item\Armor\AWK\HWA_AWK.mesh,Item\Armor\AWK\HWA_AWK.tpack,0,TRUE
3323,Item\Armor\AWK\SWD_AWK.mesh,Item\Armor\AWK\SWD_AWK.tpack,0,Item\Armor\AWK\ARC_AWK.mesh,Item\Armor\AWK\ARC_AWK.tpack,0,Item\Armor\AWK\SOR_AWK.mesh,Item\Armor\AWK\SOR_AWK.tpack,0,Item\Armor\AWK\SUM_AWK.mesh,Item\Armor\AWK\SUM_AWK.tpack,0,Item\Armor\AWK\HIL_AWK.mesh,Item\Armor\AWK\HIL_AWK.tpack,0,Item\Armor\AWK\BGW_AWK.mesh,Item\Armor\AWK\BGW_AWK.tpack,0,Item\Armor\AWK\ALO_AWK.mesh,Item\Armor\AWK\ALO_AWK.tpack,0,Item\Armor\AWK\DRG_AWK.mesh,Item\Armor\AWK\DRG_AWK.tpack,0,Item\Armor\AWK\BWZ_AWK.mesh,Item\Armor\AWK\BWZ_AWK.tpack,0,Item\Armor\AWK\WSU_AWK.mesh,Item\Armor\AWK\WSU_AWK.tpack,0,Item\Armor\AWK\MSE_AWK.mesh,Item\Armor\AWK\MSE_AWK.tpack,0,Item\Armor\AWK\HWA_AWK.mesh,Item\Armor\AWK\HWA_AWK.tpack,0,TRUE
4423,Item\Armor\AWK\SWD_AWK.mesh,Item\Armor\AWK\SWD_AWK.tpack,0,Item\Armor\AWK\ARC_AWK.mesh,Item\Armor\AWK\ARC_AWK.tpack,0,Item\Armor\AWK\SOR_AWK.mesh,Item\Armor\AWK\SOR_AWK.tpack,0,Item\Armor\AWK\SUM_AWK.mesh,Item\Armor\AWK\SUM_AWK.tpack,0,Item\Armor\AWK\HIL_AWK.mesh,Item\Armor\AWK\HIL_AWK.tpack,0,Item\Armor\AWK\BGW_AWK.mesh,Item\Armor\AWK\BGW_AWK.tpack,0,Item\Armor\AWK\ALO_AWK.mesh,Item\Armor\AWK\ALO_AWK.tpack,0,Item\Armor\AWK\DRG_AWK.mesh,Item\Armor\AWK\DRG_AWK.tpack,0,Item\Armor\AWK\BWZ_AWK.mesh,Item\Armor\AWK\BWZ_AWK.tpack,0,Item\Armor\AWK\WSU_AWK.mesh,Item\Armor\AWK\WSU_AWK.tpack,0,Item\Armor\AWK\MSE_AWK.mesh,Item\Armor\AWK\MSE_AWK.tpack,0,Item\Armor\AWK\HWA_AWK.mesh,Item\Armor\AWK\HWA_AWK.tpack,0,TRUE
8203,Item\Armor\AWK\SWD_AWK.mesh,Item\Armor\AWK\SWD_AWK.tpack,0,Item\Armor\AWK\ARC_AWK.mesh,Item\Armor\AWK\ARC_AWK.tpack,0,Item\Armor\AWK\SOR_AWK.mesh,Item\Armor\AWK\SOR_AWK.tpack,0,Item\Armor\AWK\SUM_AWK.mesh,Item\Armor\AWK\SUM_AWK.tpack,0,Item\Armor\AWK\HIL_AWK.mesh,Item\Armor\AWK\HIL_AWK.tpack,0,Item\Armor\AWK\BGW_AWK.mesh,Item\Armor\AWK\BGW_AWK.tpack,0,Item\Armor\AWK\ALO_AWK.mesh,Item\Armor\AWK\ALO_AWK.tpack,0,Item\Armor\AWK\DRG_AWK.mesh,Item\Armor\AWK\DRG_AWK.tpack,0,Item\Armor\AWK\BWZ_AWK.mesh,Item\Armor\AWK\BWZ_AWK.tpack,0,Item\Armor\AWK\WSU_AWK.mesh,Item\Armor\AWK\WSU_AWK.tpack,0,Item\Armor\AWK\MSE_AWK.mesh,Item\Armor\AWK\MSE_AWK.tpack,0,Item\Armor\AWK\HWA_AWK.mesh,Item\Armor\AWK\HWA_AWK.tpack,0,TRUE
9462,Item\Armor\AWK\SWD_AWK.mesh,Item\Armor\AWK\SWD_AWK.tpack,0,Item\Armor\AWK\ARC_AWK.mesh,Item\Armor\AWK\ARC_AWK.tpack,0,Item\Armor\AWK\SOR_AWK.mesh,Item\Armor\AWK\SOR_AWK.tpack,0,Item\Armor\AWK\SUM_AWK.mesh,Item\Armor\AWK\SUM_AWK.tpack,0,Item\Armor\AWK\HIL_AWK.mesh,Item\Armor\AWK\HIL_AWK.tpack,0,Item\Armor\AWK\BGW_AWK.mesh,Item\Armor\AWK\BGW_AWK.tpack,0,Item\Armor\AWK\ALO_AWK.mesh,Item\Armor\AWK\ALO_AWK.tpack,0,Item\Armor\AWK\DRG_AWK.mesh,Item\Armor\AWK\DRG_AWK.tpack,0,Item\Armor\AWK\BWZ_AWK.mesh,Item\Armor\AWK\BWZ_AWK.tpack,0,Item\Armor\AWK\WSU_AWK.mesh,Item\Armor\AWK\WSU_AWK.tpack,0,Item\Armor\AWK\MSE_AWK.mesh,Item\Armor\AWK\MSE_AWK.tpack,0,Item\Armor\AWK\HWA_AWK.mesh,Item\Armor\AWK\HWA_AWK.tpack,0,TRUE
13662,Item\Armor\AWK\SWD_AWK.mesh,Item\Armor\AWK\SWD_AWK.tpack,0,Item\Armor\AWK\ARC_AWK.mesh,Item\Armor\AWK\ARC_AWK.tpack,0,Item\Armor\AWK\SOR_AWK.mesh,Item\Armor\AWK\SOR_AWK.tpack,0,Item\Armor\AWK\SUM_AWK.mesh,Item\Armor\AWK\SUM_AWK.tpack,0,Item\Armor\AWK\HIL_AWK.mesh,Item\Armor\AWK\HIL_AWK.tpack,0,Item\Armor\AWK\BGW_AWK.mesh,Item\Armor\AWK\BGW_AWK.tpack,0,Item\Armor\AWK\ALO_AWK.mesh,Item\Armor\AWK\ALO_AWK.tpack,0,Item\Armor\AWK\DRG_AWK.mesh,Item\Armor\AWK\DRG_AWK.tpack,0,Item\Armor\AWK\BWZ_AWK.mesh,Item\Armor\AWK\BWZ_AWK.tpack,0,Item\Armor\AWK\WSU_AWK.mesh,Item\Armor\AWK\WSU_AWK.tpack,0,Item\Armor\AWK\MSE_AWK.mesh,Item\Armor\AWK\MSE_AWK.tpack,0,Item\Armor\AWK\HWA_AWK.mesh,Item\Armor\AWK\HWA_AWK.tpack,0,TRUE
14202,Item\Armor\AWK\SWD_AWK.mesh,Item\Armor\AWK\SWD_AWK.tpack,0,Item\Armor\AWK\ARC_AWK.mesh,Item\Armor\AWK\ARC_AWK.tpack,0,Item\Armor\AWK\SOR_AWK.mesh,Item\Armor\AWK\SOR_AWK.tpack,0,Item\Armor\AWK\SUM_AWK.mesh,Item\Armor\AWK\SUM_AWK.tpack,0,Item\Armor\AWK\HIL_AWK.mesh,Item\Armor\AWK\HIL_AWK.tpack,0,Item\Armor\AWK\BGW_AWK.mesh,Item\Armor\AWK\BGW_AWK.tpack,0,Item\Armor\AWK\ALO_AWK.mesh,Item\Armor\AWK\ALO_AWK.tpack,0,Item\Armor\AWK\DRG_AWK.mesh,Item\Armor\AWK\DRG_AWK.tpack,0,Item\Armor\AWK\BWZ_AWK.mesh,Item\Armor\AWK\BWZ_AWK.tpack,0,Item\Armor\AWK\WSU_AWK.mesh,Item\Armor\AWK\WSU_AWK.tpack,0,Item\Armor\AWK\MSE_AWK.mesh,Item\Armor\AWK\MSE_AWK.tpack,0,Item\Armor\AWK\HWA_AWK.mesh,Item\Armor\AWK\HWA_AWK.tpack,0,TRUE
14692,Item\Armor\AWK\SWD_AWK.mesh,Item\Armor\AWK\SWD_AWK.tpack,0,Item\Armor\AWK\ARC_AWK.mesh,Item\Armor\AWK\ARC_AWK.tpack,0,Item\Armor\AWK\SOR_AWK.mesh,Item\Armor\AWK\SOR_AWK.tpack,0,Item\Armor\AWK\SUM_AWK.mesh,Item\Armor\AWK\SUM_AWK.tpack,0,Item\Armor\AWK\HIL_AWK.mesh,Item\Armor\AWK\HIL_AWK.tpack,0,Item\Armor\AWK\BGW_AWK.mesh,Item\Armor\AWK\BGW_AWK.tpack,0,Item\Armor\AWK\ALO_AWK.mesh,Item\Armor\AWK\ALO_AWK.tpack,0,Item\Armor\AWK\DRG_AWK.mesh,Item\Armor\AWK\DRG_AWK.tpack,0,Item\Armor\AWK\BWZ_AWK.mesh,Item\Armor\AWK\BWZ_AWK.tpack,0,Item\Armor\AWK\WSU_AWK.mesh,Item\Armor\AWK\WSU_AWK.tpack,0,Item\Armor\AWK\MSE_AWK.mesh,Item\Armor\AWK\MSE_AWK.tpack,0,Item\Armor\AWK\HWA_AWK.mesh,Item\Armor\AWK\HWA_AWK.tpack,0,TRUE
14982,Item\Armor\AWK\SWD_AWK.mesh,Item\Armor\AWK\SWD_AWK.tpack,0,Item\Armor\AWK\ARC_AWK.mesh,Item\Armor\AWK\ARC_AWK.tpack,0,Item\Armor\AWK\SOR_AWK.mesh,Item\Armor\AWK\SOR_AWK.tpack,0,Item\Armor\AWK\SUM_AWK.mesh,Item\Armor\AWK\SUM_AWK.tpack,0,Item\Armor\AWK\HIL_AWK.mesh,Item\Armor\AWK\HIL_AWK.tpack,0,Item\Armor\AWK\BGW_AWK.mesh,Item\Armor\AWK\BGW_AWK.tpack,0,Item\Armor\AWK\ALO_AWK.mesh,Item\Armor\AWK\ALO_AWK.tpack,0,Item\Armor\AWK\DRG_AWK.mesh,Item\Armor\AWK\DRG_AWK.tpack,0,Item\Armor\AWK\BWZ_AWK.mesh,Item\Armor\AWK\BWZ_AWK.tpack,0,Item\Armor\AWK\WSU_AWK.mesh,Item\Armor\AWK\WSU_AWK.tpack,0,Item\Armor\AWK\MSE_AWK.mesh,Item\Armor\AWK\MSE_AWK.tpack,0,Item\Armor\AWK\HWA_AWK.mesh,Item\Armor\AWK\HWA_AWK.tpack,0,TRUE
30423,Item\Armor\AWK\SWD_AWK.mesh,Item\Armor\AWK\SWD_AWK.tpack,0,Item\Armor\AWK\ARC_AWK.mesh,Item\Armor\AWK\ARC_AWK.tpack,0,Item\Armor\AWK\SOR_AWK.mesh,Item\Armor\AWK\SOR_AWK.tpack,0,Item\Armor\AWK\SUM_AWK.mesh,Item\Armor\AWK\SUM_AWK.tpack,0,Item\Armor\AWK\HIL_AWK.mesh,Item\Armor\AWK\HIL_AWK.tpack,0,Item\Armor\AWK\BGW_AWK.mesh,Item\Armor\AWK\BGW_AWK.tpack,0,Item\Armor\AWK\ALO_AWK.mesh,Item\Armor\AWK\ALO_AWK.tpack,0,Item\Armor\AWK\DRG_AWK.mesh,Item\Armor\AWK\DRG_AWK.tpack,0,Item\Armor\AWK\BWZ_AWK.mesh,Item\Armor\AWK\BWZ_AWK.tpack,0,Item\Armor\AWK\WSU_AWK.mesh,Item\Armor\AWK\WSU_AWK.tpack,0,Item\Armor\AWK\MSE_AWK.mesh,Item\Armor\AWK\MSE_AWK.tpack,0,Item\Armor\AWK\HWA_AWK.mesh,Item\Armor\AWK\HWA_AWK.tpack,0,TRUE
524,Item\Armor\AWK\SWD_AWK_02.mesh,Item\Armor\AWK\SWD_AWK_02.tpack,0,Item\Armor\AWK\ARC_AWK_02.mesh,Item\Armor\AWK\ARC_AWK_02.tpack,0,Item\Armor\AWK\SOR_AWK_02.mesh,Item\Armor\AWK\SOR_AWK_02.tpack,0,Item\Armor\AWK\SUM_AWK_02.mesh,Item\Armor\AWK\SUM_AWK_02.tpack,0,Item\Armor\AWK\HIL_AWK_02.mesh,Item\Armor\AWK\HIL_AWK_02.tpack,0,Item\Armor\AWK\WAR_AWK_02.mesh,Item\Armor\AWK\WAR_AWK_02.tpack,0,Item\Armor\AWK\ALO_AWK_02.mesh,Item\Armor\AWK\ALO_AWK_02.tpack,0,Item\Armor\AWK\DRG_AWK_02.mesh,Item\Armor\AWK\DRG_AWK_02.tpack,0,Item\Armor\AWK\BWZ_AWK_02.mesh,Item\Armor\AWK\BWZ_AWK_02.tpack,0,Item\Armor\AWK\WSU_AWK_02.mesh,Item\Armor\AWK\WSU_AWK_02.tpack,0,Item\Armor\AWK\MSE_AWK_02.mesh,Item\Armor\AWK\MSE_AWK_02.tpack,0,Item\Armor\AWK\HWA_AWK_02.mesh,Item\Armor\AWK\HWA_AWK_02.tpack,0,TRUE
1284,Item\Armor\AWK\SWD_AWK_02.mesh,Item\Armor\AWK\SWD_AWK_02.tpack,0,Item\Armor\AWK\ARC_AWK_02.mesh,Item\Armor\AWK\ARC_AWK_02.tpack,0,Item\Armor\AWK\SOR_AWK_02.mesh,Item\Armor\AWK\SOR_AWK_02.tpack,0,Item\Armor\AWK\SUM_AWK_02.mesh,Item\Armor\AWK\SUM_AWK_02.tpack,0,Item\Armor\AWK\HIL_AWK_02.mesh,Item\Armor\AWK\HIL_AWK_02.tpack,0,Item\Armor\AWK\WAR_AWK_02.mesh,Item\Armor\AWK\WAR_AWK_02.tpack,0,Item\Armor\AWK\ALO_AWK_02.mesh,Item\Armor\AWK\ALO_AWK_02.tpack,0,Item\Armor\AWK\DRG_AWK_02.mesh,Item\Armor\AWK\DRG_AWK_02.tpack,0,Item\Armor\AWK\BWZ_AWK_02.mesh,Item\Armor\AWK\BWZ_AWK_02.tpack,0,Item\Armor\AWK\WSU_AWK_02.mesh,Item\Armor\AWK\WSU_AWK_02.tpack,0,Item\Armor\AWK\MSE_AWK_02.mesh,Item\Armor\AWK\MSE_AWK_02.tpack,0,Item\Armor\AWK\HWA_AWK_02.mesh,Item\Armor\AWK\HWA_AWK_02.tpack,0,TRUE
2384,Item\Armor\AWK\SWD_AWK_02.mesh,Item\Armor\AWK\SWD_AWK_02.tpack,0,Item\Armor\AWK\ARC_AWK_02.mesh,Item\Armor\AWK\ARC_AWK_02.tpack,0,Item\Armor\AWK\SOR_AWK_02.mesh,Item\Armor\AWK\SOR_AWK_02.tpack,0,Item\Armor\AWK\SUM_AWK_02.mesh,Item\Armor\AWK\SUM_AWK_02.tpack,0,Item\Armor\AWK\HIL_AWK_02.mesh,Item\Armor\AWK\HIL_AWK_02.tpack,0,Item\Armor\AWK\WAR_AWK_02.mesh,Item\Armor\AWK\WAR_AWK_02.tpack,0,Item\Armor\AWK\ALO_AWK_02.mesh,Item\Armor\AWK\ALO_AWK_02.tpack,0,Item\Armor\AWK\DRG_AWK_02.mesh,Item\Armor\AWK\DRG_AWK_02.tpack,0,Item\Armor\AWK\BWZ_AWK_02.mesh,Item\Armor\AWK\BWZ_AWK_02.tpack,0,Item\Armor\AWK\WSU_AWK_02.mesh,Item\Armor\AWK\WSU_AWK_02.tpack,0,Item\Armor\AWK\MSE_AWK_02.mesh,Item\Armor\AWK\MSE_AWK_02.tpack,0,Item\Armor\AWK\HWA_AWK_02.mesh,Item\Armor\AWK\HWA_AWK_02.tpack,0,TRUE
3324,Item\Armor\AWK\SWD_AWK_02.mesh,Item\Armor\AWK\SWD_AWK_02.tpack,0,Item\Armor\AWK\ARC_AWK_02.mesh,Item\Armor\AWK\ARC_AWK_02.tpack,0,Item\Armor\AWK\SOR_AWK_02.mesh,Item\Armor\AWK\SOR_AWK_02.tpack,0,Item\Armor\AWK\SUM_AWK_02.mesh,Item\Armor\AWK\SUM_AWK_02.tpack,0,Item\Armor\AWK\HIL_AWK_02.mesh,Item\Armor\AWK\HIL_AWK_02.tpack,0,Item\Armor\AWK\WAR_AWK_02.mesh,Item\Armor\AWK\WAR_AWK_02.tpack,0,Item\Armor\AWK\ALO_AWK_02.mesh,Item\Armor\AWK\ALO_AWK_02.tpack,0,Item\Armor\AWK\DRG_AWK_02.mesh,Item\Armor\AWK\DRG_AWK_02.tpack,0,Item\Armor\AWK\BWZ_AWK_02.mesh,Item\Armor\AWK\BWZ_AWK_02.tpack,0,Item\Armor\AWK\WSU_AWK_02.mesh,Item\Armor\AWK\WSU_AWK_02.tpack,0,Item\Armor\AWK\MSE_AWK_02.mesh,Item\Armor\AWK\MSE_AWK_02.tpack,0,Item\Armor\AWK\HWA_AWK_02.mesh,Item\Armor\AWK\HWA_AWK_02.tpack,0,TRUE
4424,Item\Armor\AWK\SWD_AWK_02.mesh,Item\Armor\AWK\SWD_AWK_02.tpack,0,Item\Armor\AWK\ARC_AWK_02.mesh,Item\Armor\AWK\ARC_AWK_02.tpack,0,Item\Armor\AWK\SOR_AWK_02.mesh,Item\Armor\AWK\SOR_AWK_02.tpack,0,Item\Armor\AWK\SUM_AWK_02.mesh,Item\Armor\AWK\SUM_AWK_02.tpack,0,Item\Armor\AWK\HIL_AWK_02.mesh,Item\Armor\AWK\HIL_AWK_02.tpack,0,Item\Armor\AWK\WAR_AWK_02.mesh,Item\Armor\AWK\WAR_AWK_02.tpack,0,Item\Armor\AWK\ALO_AWK_02.mesh,Item\Armor\AWK\ALO_AWK_02.tpack,0,Item\Armor\AWK\DRG_AWK_02.mesh,Item\Armor\AWK\DRG_AWK_02.tpack,0,Item\Armor\AWK\BWZ_AWK_02.mesh,Item\Armor\AWK\BWZ_AWK_02.tpack,0,Item\Armor\AWK\WSU_AWK_02.mesh,Item\Armor\AWK\WSU_AWK_02.tpack,0,Item\Armor\AWK\MSE_AWK_02.mesh,Item\Armor\AWK\MSE_AWK_02.tpack,0,Item\Armor\AWK\HWA_AWK_02.mesh,Item\Armor\AWK\HWA_AWK_02.tpack,0,TRUE
8204,Item\Armor\AWK\SWD_AWK_02.mesh,Item\Armor\AWK\SWD_AWK_02.tpack,0,Item\Armor\AWK\ARC_AWK_02.mesh,Item\Armor\AWK\ARC_AWK_02.tpack,0,Item\Armor\AWK\SOR_AWK_02.mesh,Item\Armor\AWK\SOR_AWK_02.tpack,0,Item\Armor\AWK\SUM_AWK_02.mesh,Item\Armor\AWK\SUM_AWK_02.tpack,0,Item\Armor\AWK\HIL_AWK_02.mesh,Item\Armor\AWK\HIL_AWK_02.tpack,0,Item\Armor\AWK\WAR_AWK_02.mesh,Item\Armor\AWK\WAR_AWK_02.tpack,0,Item\Armor\AWK\ALO_AWK_02.mesh,Item\Armor\AWK\ALO_AWK_02.tpack,0,Item\Armor\AWK\DRG_AWK_02.mesh,Item\Armor\AWK\DRG_AWK_02.tpack,0,Item\Armor\AWK\BWZ_AWK_02.mesh,Item\Armor\AWK\BWZ_AWK_02.tpack,0,Item\Armor\AWK\WSU_AWK_02.mesh,Item\Armor\AWK\WSU_AWK_02.tpack,0,Item\Armor\AWK\MSE_AWK_02.mesh,Item\Armor\AWK\MSE_AWK_02.tpack,0,Item\Armor\AWK\HWA_AWK_02.mesh,Item\Armor\AWK\HWA_AWK_02.tpack,0,TRUE
9463,Item\Armor\AWK\SWD_AWK_02.mesh,Item\Armor\AWK\SWD_AWK_02.tpack,0,Item\Armor\AWK\ARC_AWK_02.mesh,Item\Armor\AWK\ARC_AWK_02.tpack,0,Item\Armor\AWK\SOR_AWK_02.mesh,Item\Armor\AWK\SOR_AWK_02.tpack,0,Item\Armor\AWK\SUM_AWK_02.mesh,Item\Armor\AWK\SUM_AWK_02.tpack,0,Item\Armor\AWK\HIL_AWK_02.mesh,Item\Armor\AWK\HIL_AWK_02.tpack,0,Item\Armor\AWK\WAR_AWK_02.mesh,Item\Armor\AWK\WAR_AWK_02.tpack,0,Item\Armor\AWK\ALO_AWK_02.mesh,Item\Armor\AWK\ALO_AWK_02.tpack,0,Item\Armor\AWK\DRG_AWK_02.mesh,Item\Armor\AWK\DRG_AWK_02.tpack,0,Item\Armor\AWK\BWZ_AWK_02.mesh,Item\Armor\AWK\BWZ_AWK_02.tpack,0,Item\Armor\AWK\WSU_AWK_02.mesh,Item\Armor\AWK\WSU_AWK_02.tpack,0,Item\Armor\AWK\MSE_AWK_02.mesh,Item\Armor\AWK\MSE_AWK_02.tpack,0,Item\Armor\AWK\HWA_AWK_02.mesh,Item\Armor\AWK\HWA_AWK_02.tpack,0,TRUE
13663,Item\Armor\AWK\SWD_AWK_02.mesh,Item\Armor\AWK\SWD_AWK_02.tpack,0,Item\Armor\AWK\ARC_AWK_02.mesh,Item\Armor\AWK\ARC_AWK_02.tpack,0,Item\Armor\AWK\SOR_AWK_02.mesh,Item\Armor\AWK\SOR_AWK_02.tpack,0,Item\Armor\AWK\SUM_AWK_02.mesh,Item\Armor\AWK\SUM_AWK_02.tpack,0,Item\Armor\AWK\HIL_AWK_02.mesh,Item\Armor\AWK\HIL_AWK_02.tpack,0,Item\Armor\AWK\WAR_AWK_02.mesh,Item\Armor\AWK\WAR_AWK_02.tpack,0,Item\Armor\AWK\ALO_AWK_02.mesh,Item\Armor\AWK\ALO_AWK_02.tpack,0,Item\Armor\AWK\DRG_AWK_02.mesh,Item\Armor\AWK\DRG_AWK_02.tpack,0,Item\Armor\AWK\BWZ_AWK_02.mesh,Item\Armor\AWK\BWZ_AWK_02.tpack,0,Item\Armor\AWK\WSU_AWK_02.mesh,Item\Armor\AWK\WSU_AWK_02.tpack,0,Item\Armor\AWK\MSE_AWK_02.mesh,Item\Armor\AWK\MSE_AWK_02.tpack,0,Item\Armor\AWK\HWA_AWK_02.mesh,Item\Armor\AWK\HWA_AWK_02.tpack,0,TRUE
14203,Item\Armor\AWK\SWD_AWK_02.mesh,Item\Armor\AWK\SWD_AWK_02.tpack,0,Item\Armor\AWK\ARC_AWK_02.mesh,Item\Armor\AWK\ARC_AWK_02.tpack,0,Item\Armor\AWK\SOR_AWK_02.mesh,Item\Armor\AWK\SOR_AWK_02.tpack,0,Item\Armor\AWK\SUM_AWK_02.mesh,Item\Armor\AWK\SUM_AWK_02.tpack,0,Item\Armor\AWK\HIL_AWK_02.mesh,Item\Armor\AWK\HIL_AWK_02.tpack,0,Item\Armor\AWK\WAR_AWK_02.mesh,Item\Armor\AWK\WAR_AWK_02.tpack,0,Item\Armor\AWK\ALO_AWK_02.mesh,Item\Armor\AWK\ALO_AWK_02.tpack,0,Item\Armor\AWK\DRG_AWK_02.mesh,Item\Armor\AWK\DRG_AWK_02.tpack,0,Item\Armor\AWK\BWZ_AWK_02.mesh,Item\Armor\AWK\BWZ_AWK_02.tpack,0,Item\Armor\AWK\WSU_AWK_02.mesh,Item\Armor\AWK\WSU_AWK_02.tpack,0,Item\Armor\AWK\MSE_AWK_02.mesh,Item\Armor\AWK\MSE_AWK_02.tpack,0,Item\Armor\AWK\HWA_AWK_02.mesh,Item\Armor\AWK\HWA_AWK_02.tpack,0,TRUE
14693,Item\Armor\AWK\SWD_AWK_02.mesh,Item\Armor\AWK\SWD_AWK_02.tpack,0,Item\Armor\AWK\ARC_AWK_02.mesh,Item\Armor\AWK\ARC_AWK_02.tpack,0,Item\Armor\AWK\SOR_AWK_02.mesh,Item\Armor\AWK\SOR_AWK_02.tpack,0,Item\Armor\AWK\SUM_AWK_02.mesh,Item\Armor\AWK\SUM_AWK_02.tpack,0,Item\Armor\AWK\HIL_AWK_02.mesh,Item\Armor\AWK\HIL_AWK_02.tpack,0,Item\Armor\AWK\WAR_AWK_02.mesh,Item\Armor\AWK\WAR_AWK_02.tpack,0,Item\Armor\AWK\ALO_AWK_02.mesh,Item\Armor\AWK\ALO_AWK_02.tpack,0,Item\Armor\AWK\DRG_AWK_02.mesh,Item\Armor\AWK\DRG_AWK_02.tpack,0,Item\Armor\AWK\BWZ_AWK_02.mesh,Item\Armor\AWK\BWZ_AWK_02.tpack,0,Item\Armor\AWK\WSU_AWK_02.mesh,Item\Armor\AWK\WSU_AWK_02.tpack,0,Item\Armor\AWK\MSE_AWK_02.mesh,Item\Armor\AWK\MSE_AWK_02.tpack,0,Item\Armor\AWK\HWA_AWK_02.mesh,Item\Armor\AWK\HWA_AWK_02.tpack,0,TRUE
14983,Item\Armor\AWK\SWD_AWK_02.mesh,Item\Armor\AWK\SWD_AWK_02.tpack,0,Item\Armor\AWK\ARC_AWK_02.mesh,Item\Armor\AWK\ARC_AWK_02.tpack,0,Item\Armor\AWK\SOR_AWK_02.mesh,Item\Armor\AWK\SOR_AWK_02.tpack,0,Item\Armor\AWK\SUM_AWK_02.mesh,Item\Armor\AWK\SUM_AWK_02.tpack,0,Item\Armor\AWK\HIL_AWK_02.mesh,Item\Armor\AWK\HIL_AWK_02.tpack,0,Item\Armor\AWK\WAR_AWK_02.mesh,Item\Armor\AWK\WAR_AWK_02.tpack,0,Item\Armor\AWK\ALO_AWK_02.mesh,Item\Armor\AWK\ALO_AWK_02.tpack,0,Item\Armor\AWK\DRG_AWK_02.mesh,Item\Armor\AWK\DRG_AWK_02.tpack,0,Item\Armor\AWK\BWZ_AWK_02.mesh,Item\Armor\AWK\BWZ_AWK_02.tpack,0,Item\Armor\AWK\WSU_AWK_02.mesh,Item\Armor\AWK\WSU_AWK_02.tpack,0,Item\Armor\AWK\MSE_AWK_02.mesh,Item\Armor\AWK\MSE_AWK_02.tpack,0,Item\Armor\AWK\HWA_AWK_02.mesh,Item\Armor\AWK\HWA_AWK_02.tpack,0,TRUE
30424,Item\Armor\AWK\SWD_AWK_02.mesh,Item\Armor\AWK\SWD_AWK_02.tpack,0,Item\Armor\AWK\ARC_AWK_02.mesh,Item\Armor\AWK\ARC_AWK_02.tpack,0,Item\Armor\AWK\SOR_AWK_02.mesh,Item\Armor\AWK\SOR_AWK_02.tpack,0,Item\Armor\AWK\SUM_AWK_02.mesh,Item\Armor\AWK\SUM_AWK_02.tpack,0,Item\Armor\AWK\HIL_AWK_02.mesh,Item\Armor\AWK\HIL_AWK_02.tpack,0,Item\Armor\AWK\WAR_AWK_02.mesh,Item\Armor\AWK\WAR_AWK_02.tpack,0,Item\Armor\AWK\ALO_AWK_02.mesh,Item\Armor\AWK\ALO_AWK_02.tpack,0,Item\Armor\AWK\DRG_AWK_02.mesh,Item\Armor\AWK\DRG_AWK_02.tpack,0,Item\Armor\AWK\BWZ_AWK_02.mesh,Item\Armor\AWK\BWZ_AWK_02.tpack,0,Item\Armor\AWK\WSU_AWK_02.mesh,Item\Armor\AWK\WSU_AWK_02.tpack,0,Item\Armor\AWK\MSE_AWK_02.mesh,Item\Armor\AWK\MSE_AWK_02.tpack,0,Item\Armor\AWK\HWA_AWK_02.mesh,Item\Armor\AWK\HWA_AWK_02.tpack,0,TRUE
525,Item\Armor\AWK\SWD_AWK_02.mesh,Item\Armor\AWK\SWD_AWK_02.tpack,0,Item\Armor\AWK\ARC_AWK_02.mesh,Item\Armor\AWK\ARC_AWK_02.tpack,0,Item\Armor\AWK\SOR_AWK_02.mesh,Item\Armor\AWK\SOR_AWK_02.tpack,0,Item\Armor\AWK\SUM_AWK_02.mesh,Item\Armor\AWK\SUM_AWK_02.tpack,0,Item\Armor\AWK\HIL_AWK_02.mesh,Item\Armor\AWK\HIL_AWK_02.tpack,0,Item\Armor\AWK\WAR_AWK_02.mesh,Item\Armor\AWK\WAR_AWK_02.tpack,0,Item\Armor\AWK\ALO_AWK_02.mesh,Item\Armor\AWK\ALO_AWK_02.tpack,0,Item\Armor\AWK\DRG_AWK_02.mesh,Item\Armor\AWK\DRG_AWK_02.tpack,0,Item\Armor\AWK\BWZ_AWK_02.mesh,Item\Armor\AWK\BWZ_AWK_02.tpack,0,Item\Armor\AWK\WSU_AWK_02.mesh,Item\Armor\AWK\WSU_AWK_02.tpack,0,Item\Armor\AWK\MSE_AWK_02.mesh,Item\Armor\AWK\MSE_AWK_02.tpack,0,Item\Armor\AWK\HWA_AWK_02.mesh,Item\Armor\AWK\HWA_AWK_02.tpack,0,TRUE
1285,Item\Armor\AWK\SWD_AWK_02.mesh,Item\Armor\AWK\SWD_AWK_02.tpack,0,Item\Armor\AWK\ARC_AWK_02.mesh,Item\Armor\AWK\ARC_AWK_02.tpack,0,Item\Armor\AWK\SOR_AWK_02.mesh,Item\Armor\AWK\SOR_AWK_02.tpack,0,Item\Armor\AWK\SUM_AWK_02.mesh,Item\Armor\AWK\SUM_AWK_02.tpack,0,Item\Armor\AWK\HIL_AWK_02.mesh,Item\Armor\AWK\HIL_AWK_02.tpack,0,Item\Armor\AWK\WAR_AWK_02.mesh,Item\Armor\AWK\WAR_AWK_02.tpack,0,Item\Armor\AWK\ALO_AWK_02.mesh,Item\Armor\AWK\ALO_AWK_02.tpack,0,Item\Armor\AWK\DRG_AWK_02.mesh,Item\Armor\AWK\DRG_AWK_02.tpack,0,Item\Armor\AWK\BWZ_AWK_02.mesh,Item\Armor\AWK\BWZ_AWK_02.tpack,0,Item\Armor\AWK\WSU_AWK_02.mesh,Item\Armor\AWK\WSU_AWK_02.tpack,0,Item\Armor\AWK\MSE_AWK_02.mesh,Item\Armor\AWK\MSE_AWK_02.tpack,0,Item\Armor\AWK\HWA_AWK_02.mesh,Item\Armor\AWK\HWA_AWK_02.tpack,0,TRUE
2385,Item\Armor\AWK\SWD_AWK_02.mesh,Item\Armor\AWK\SWD_AWK_02.tpack,0,Item\Armor\AWK\ARC_AWK_02.mesh,Item\Armor\AWK\ARC_AWK_02.tpack,0,Item\Armor\AWK\SOR_AWK_02.mesh,Item\Armor\AWK\SOR_AWK_02.tpack,0,Item\Armor\AWK\SUM_AWK_02.mesh,Item\Armor\AWK\SUM_AWK_02.tpack,0,Item\Armor\AWK\HIL_AWK_02.mesh,Item\Armor\AWK\HIL_AWK_02.tpack,0,Item\Armor\AWK\WAR_AWK_02.mesh,Item\Armor\AWK\WAR_AWK_02.tpack,0,Item\Armor\AWK\ALO_AWK_02.mesh,Item\Armor\AWK\ALO_AWK_02.tpack,0,Item\Armor\AWK\DRG_AWK_02.mesh,Item\Armor\AWK\DRG_AWK_02.tpack,0,Item\Armor\AWK\BWZ_AWK_02.mesh,Item\Armor\AWK\BWZ_AWK_02.tpack,0,Item\Armor\AWK\WSU_AWK_02.mesh,Item\Armor\AWK\WSU_AWK_02.tpack,0,Item\Armor\AWK\MSE_AWK_02.mesh,Item\Armor\AWK\MSE_AWK_02.tpack,0,Item\Armor\AWK\HWA_AWK_02.mesh,Item\Armor\AWK\HWA_AWK_02.tpack,0,TRUE
3325,Item\Armor\AWK\SWD_AWK_02.mesh,Item\Armor\AWK\SWD_AWK_02.tpack,0,Item\Armor\AWK\ARC_AWK_02.mesh,Item\Armor\AWK\ARC_AWK_02.tpack,0,Item\Armor\AWK\SOR_AWK_02.mesh,Item\Armor\AWK\SOR_AWK_02.tpack,0,Item\Armor\AWK\SUM_AWK_02.mesh,Item\Armor\AWK\SUM_AWK_02.tpack,0,Item\Armor\AWK\HIL_AWK_02.mesh,Item\Armor\AWK\HIL_AWK_02.tpack,0,Item\Armor\AWK\WAR_AWK_02.mesh,Item\Armor\AWK\WAR_AWK_02.tpack,0,Item\Armor\AWK\ALO_AWK_02.mesh,Item\Armor\AWK\ALO_AWK_02.tpack,0,Item\Armor\AWK\DRG_AWK_02.mesh,Item\Armor\AWK\DRG_AWK_02.tpack,0,Item\Armor\AWK\BWZ_AWK_02.mesh,Item\Armor\AWK\BWZ_AWK_02.tpack,0,Item\Armor\AWK\WSU_AWK_02.mesh,Item\Armor\AWK\WSU_AWK_02.tpack,0,Item\Armor\AWK\MSE_AWK_02.mesh,Item\Armor\AWK\MSE_AWK_02.tpack,0,Item\Armor\AWK\HWA_AWK_02.mesh,Item\Armor\AWK\HWA_AWK_02.tpack,0,TRUE
4425,Item\Armor\AWK\SWD_AWK_02.mesh,Item\Armor\AWK\SWD_AWK_02.tpack,0,Item\Armor\AWK\ARC_AWK_02.mesh,Item\Armor\AWK\ARC_AWK_02.tpack,0,Item\Armor\AWK\SOR_AWK_02.mesh,Item\Armor\AWK\SOR_AWK_02.tpack,0,Item\Armor\AWK\SUM_AWK_02.mesh,Item\Armor\AWK\SUM_AWK_02.tpack,0,Item\Armor\AWK\HIL_AWK_02.mesh,Item\Armor\AWK\HIL_AWK_02.tpack,0,Item\Armor\AWK\WAR_AWK_02.mesh,Item\Armor\AWK\WAR_AWK_02.tpack,0,Item\Armor\AWK\ALO_AWK_02.mesh,Item\Armor\AWK\ALO_AWK_02.tpack,0,Item\Armor\AWK\DRG_AWK_02.mesh,Item\Armor\AWK\DRG_AWK_02.tpack,0,Item\Armor\AWK\BWZ_AWK_02.mesh,Item\Armor\AWK\BWZ_AWK_02.tpack,0,Item\Armor\AWK\WSU_AWK_02.mesh,Item\Armor\AWK\WSU_AWK_02.tpack,0,Item\Armor\AWK\MSE_AWK_02.mesh,Item\Armor\AWK\MSE_AWK_02.tpack,0,Item\Armor\AWK\HWA_AWK_02.mesh,Item\Armor\AWK\HWA_AWK_02.tpack,0,TRUE
8205,Item\Armor\AWK\SWD_AWK_02.mesh,Item\Armor\AWK\SWD_AWK_02.tpack,0,Item\Armor\AWK\ARC_AWK_02.mesh,Item\Armor\AWK\ARC_AWK_02.tpack,0,Item\Armor\AWK\SOR_AWK_02.mesh,Item\Armor\AWK\SOR_AWK_02.tpack,0,Item\Armor\AWK\SUM_AWK_02.mesh,Item\Armor\AWK\SUM_AWK_02.tpack,0,Item\Armor\AWK\HIL_AWK_02.mesh,Item\Armor\AWK\HIL_AWK_02.tpack,0,Item\Armor\AWK\WAR_AWK_02.mesh,Item\Armor\AWK\WAR_AWK_02.tpack,0,Item\Armor\AWK\ALO_AWK_02.mesh,Item\Armor\AWK\ALO_AWK_02.tpack,0,Item\Armor\AWK\DRG_AWK_02.mesh,Item\Armor\AWK\DRG_AWK_02.tpack,0,Item\Armor\AWK\BWZ_AWK_02.mesh,Item\Armor\AWK\BWZ_AWK_02.tpack,0,Item\Armor\AWK\WSU_AWK_02.mesh,Item\Armor\AWK\WSU_AWK_02.tpack,0,Item\Armor\AWK\MSE_AWK_02.mesh,Item\Armor\AWK\MSE_AWK_02.tpack,0,Item\Armor\AWK\HWA_AWK_02.mesh,Item\Armor\AWK\HWA_AWK_02.tpack,0,TRUE
9464,Item\Armor\AWK\SWD_AWK_02.mesh,Item\Armor\AWK\SWD_AWK_02.tpack,0,Item\Armor\AWK\ARC_AWK_02.mesh,Item\Armor\AWK\ARC_AWK_02.tpack,0,Item\Armor\AWK\SOR_AWK_02.mesh,Item\Armor\AWK\SOR_AWK_02.tpack,0,Item\Armor\AWK\SUM_AWK_02.mesh,Item\Armor\AWK\SUM_AWK_02.tpack,0,Item\Armor\AWK\HIL_AWK_02.mesh,Item\Armor\AWK\HIL_AWK_02.tpack,0,Item\Armor\AWK\WAR_AWK_02.mesh,Item\Armor\AWK\WAR_AWK_02.tpack,0,Item\Armor\AWK\ALO_AWK_02.mesh,Item\Armor\AWK\ALO_AWK_02.tpack,0,Item\Armor\AWK\DRG_AWK_02.mesh,Item\Armor\AWK\DRG_AWK_02.tpack,0,Item\Armor\AWK\BWZ_AWK_02.mesh,Item\Armor\AWK\BWZ_AWK_02.tpack,0,Item\Armor\AWK\WSU_AWK_02.mesh,Item\Armor\AWK\WSU_AWK_02.tpack,0,Item\Armor\AWK\MSE_AWK_02.mesh,Item\Armor\AWK\MSE_AWK_02.tpack,0,Item\Armor\AWK\HWA_AWK_02.mesh,Item\Armor\AWK\HWA_AWK_02.tpack,0,TRUE
13664,Item\Armor\AWK\SWD_AWK_02.mesh,Item\Armor\AWK\SWD_AWK_02.tpack,0,Item\Armor\AWK\ARC_AWK_02.mesh,Item\Armor\AWK\ARC_AWK_02.tpack,0,Item\Armor\AWK\SOR_AWK_02.mesh,Item\Armor\AWK\SOR_AWK_02.tpack,0,Item\Armor\AWK\SUM_AWK_02.mesh,Item\Armor\AWK\SUM_AWK_02.tpack,0,Item\Armor\AWK\HIL_AWK_02.mesh,Item\Armor\AWK\HIL_AWK_02.tpack,0,Item\Armor\AWK\WAR_AWK_02.mesh,Item\Armor\AWK\WAR_AWK_02.tpack,0,Item\Armor\AWK\ALO_AWK_02.mesh,Item\Armor\AWK\ALO_AWK_02.tpack,0,Item\Armor\AWK\DRG_AWK_02.mesh,Item\Armor\AWK\DRG_AWK_02.tpack,0,Item\Armor\AWK\BWZ_AWK_02.mesh,Item\Armor\AWK\BWZ_AWK_02.tpack,0,Item\Armor\AWK\WSU_AWK_02.mesh,Item\Armor\AWK\WSU_AWK_02.tpack,0,Item\Armor\AWK\MSE_AWK_02.mesh,Item\Armor\AWK\MSE_AWK_02.tpack,0,Item\Armor\AWK\HWA_AWK_02.mesh,Item\Armor\AWK\HWA_AWK_02.tpack,0,TRUE
14204,Item\Armor\AWK\SWD_AWK_02.mesh,Item\Armor\AWK\SWD_AWK_02.tpack,0,Item\Armor\AWK\ARC_AWK_02.mesh,Item\Armor\AWK\ARC_AWK_02.tpack,0,Item\Armor\AWK\SOR_AWK_02.mesh,Item\Armor\AWK\SOR_AWK_02.tpack,0,Item\Armor\AWK\SUM_AWK_02.mesh,Item\Armor\AWK\SUM_AWK_02.tpack,0,Item\Armor\AWK\HIL_AWK_02.mesh,Item\Armor\AWK\HIL_AWK_02.tpack,0,Item\Armor\AWK\WAR_AWK_02.mesh,Item\Armor\AWK\WAR_AWK_02.tpack,0,Item\Armor\AWK\ALO_AWK_02.mesh,Item\Armor\AWK\ALO_AWK_02.tpack,0,Item\Armor\AWK\DRG_AWK_02.mesh,Item\Armor\AWK\DRG_AWK_02.tpack,0,Item\Armor\AWK\BWZ_AWK_02.mesh,Item\Armor\AWK\BWZ_AWK_02.tpack,0,Item\Armor\AWK\WSU_AWK_02.mesh,Item\Armor\AWK\WSU_AWK_02.tpack,0,Item\Armor\AWK\MSE_AWK_02.mesh,Item\Armor\AWK\MSE_AWK_02.tpack,0,Item\Armor\AWK\HWA_AWK_02.mesh,Item\Armor\AWK\HWA_AWK_02.tpack,0,TRUE
14694,Item\Armor\AWK\SWD_AWK_02.mesh,Item\Armor\AWK\SWD_AWK_02.tpack,0,Item\Armor\AWK\ARC_AWK_02.mesh,Item\Armor\AWK\ARC_AWK_02.tpack,0,Item\Armor\AWK\SOR_AWK_02.mesh,Item\Armor\AWK\SOR_AWK_02.tpack,0,Item\Armor\AWK\SUM_AWK_02.mesh,Item\Armor\AWK\SUM_AWK_02.tpack,0,Item\Armor\AWK\HIL_AWK_02.mesh,Item\Armor\AWK\HIL_AWK_02.tpack,0,Item\Armor\AWK\WAR_AWK_02.mesh,Item\Armor\AWK\WAR_AWK_02.tpack,0,Item\Armor\AWK\ALO_AWK_02.mesh,Item\Armor\AWK\ALO_AWK_02.tpack,0,Item\Armor\AWK\DRG_AWK_02.mesh,Item\Armor\AWK\DRG_AWK_02.tpack,0,Item\Armor\AWK\BWZ_AWK_02.mesh,Item\Armor\AWK\BWZ_AWK_02.tpack,0,Item\Armor\AWK\WSU_AWK_02.mesh,Item\Armor\AWK\WSU_AWK_02.tpack,0,Item\Armor\AWK\MSE_AWK_02.mesh,Item\Armor\AWK\MSE_AWK_02.tpack,0,Item\Armor\AWK\HWA_AWK_02.mesh,Item\Armor\AWK\HWA_AWK_02.tpack,0,TRUE
14984,Item\Armor\AWK\SWD_AWK_02.mesh,Item\Armor\AWK\SWD_AWK_02.tpack,0,Item\Armor\AWK\ARC_AWK_02.mesh,Item\Armor\AWK\ARC_AWK_02.tpack,0,Item\Armor\AWK\SOR_AWK_02.mesh,Item\Armor\AWK\SOR_AWK_02.tpack,0,Item\Armor\AWK\SUM_AWK_02.mesh,Item\Armor\AWK\SUM_AWK_02.tpack,0,Item\Armor\AWK\HIL_AWK_02.mesh,Item\Armor\AWK\HIL_AWK_02.tpack,0,Item\Armor\AWK\WAR_AWK_02.mesh,Item\Armor\AWK\WAR_AWK_02.tpack,0,Item\Armor\AWK\ALO_AWK_02.mesh,Item\Armor\AWK\ALO_AWK_02.tpack,0,Item\Armor\AWK\DRG_AWK_02.mesh,Item\Armor\AWK\DRG_AWK_02.tpack,0,Item\Armor\AWK\BWZ_AWK_02.mesh,Item\Armor\AWK\BWZ_AWK_02.tpack,0,Item\Armor\AWK\WSU_AWK_02.mesh,Item\Armor\AWK\WSU_AWK_02.tpack,0,Item\Armor\AWK\MSE_AWK_02.mesh,Item\Armor\AWK\MSE_AWK_02.tpack,0,Item\Armor\AWK\HWA_AWK_02.mesh,Item\Armor\AWK\HWA_AWK_02.tpack,0,TRUE
30425,Item\Armor\AWK\SWD_AWK_02.mesh,Item\Armor\AWK\SWD_AWK_02.tpack,0,Item\Armor\AWK\ARC_AWK_02.mesh,Item\Armor\AWK\ARC_AWK_02.tpack,0,Item\Armor\AWK\SOR_AWK_02.mesh,Item\Armor\AWK\SOR_AWK_02.tpack,0,Item\Armor\AWK\SUM_AWK_02.mesh,Item\Armor\AWK\SUM_AWK_02.tpack,0,Item\Armor\AWK\HIL_AWK_02.mesh,Item\Armor\AWK\HIL_AWK_02.tpack,0,Item\Armor\AWK\WAR_AWK_02.mesh,Item\Armor\AWK\WAR_AWK_02.tpack,0,Item\Armor\AWK\ALO_AWK_02.mesh,Item\Armor\AWK\ALO_AWK_02.tpack,0,Item\Armor\AWK\DRG_AWK_02.mesh,Item\Armor\AWK\DRG_AWK_02.tpack,0,Item\Armor\AWK\BWZ_AWK_02.mesh,Item\Armor\AWK\BWZ_AWK_02.tpack,0,Item\Armor\AWK\WSU_AWK_02.mesh,Item\Armor\AWK\WSU_AWK_02.tpack,0,Item\Armor\AWK\MSE_AWK_02.mesh,Item\Armor\AWK\MSE_AWK_02.tpack,0,Item\Armor\AWK\HWA_AWK_02.mesh,Item\Armor\AWK\HWA_AWK_02.tpack,0,TRUE
526,Item\Armor\AWK\SWD_AWK_02.mesh,Item\Armor\AWK\SWD_AWK_02.tpack,0,Item\Armor\AWK\ARC_AWK_02.mesh,Item\Armor\AWK\ARC_AWK_02.tpack,0,Item\Armor\AWK\SOR_AWK_02.mesh,Item\Armor\AWK\SOR_AWK_02.tpack,0,Item\Armor\AWK\SUM_AWK_02.mesh,Item\Armor\AWK\SUM_AWK_02.tpack,0,Item\Armor\AWK\HIL_AWK_02.mesh,Item\Armor\AWK\HIL_AWK_02.tpack,0,Item\Armor\AWK\WAR_AWK_02.mesh,Item\Armor\AWK\WAR_AWK_02.tpack,0,Item\Armor\AWK\ALO_AWK_02.mesh,Item\Armor\AWK\ALO_AWK_02.tpack,0,Item\Armor\AWK\DRG_AWK_02.mesh,Item\Armor\AWK\DRG_AWK_02.tpack,0,Item\Armor\AWK\BWZ_AWK_02.mesh,Item\Armor\AWK\BWZ_AWK_02.tpack,0,Item\Armor\AWK\WSU_AWK_02.mesh,Item\Armor\AWK\WSU_AWK_02.tpack,0,Item\Armor\AWK\MSE_AWK_02.mesh,Item\Armor\AWK\MSE_AWK_02.tpack,0,Item\Armor\AWK\HWA_AWK_02.mesh,Item\Armor\AWK\HWA_AWK_02.tpack,0,TRUE
1286,Item\Armor\AWK\SWD_AWK_02.mesh,Item\Armor\AWK\SWD_AWK_02.tpack,0,Item\Armor\AWK\ARC_AWK_02.mesh,Item\Armor\AWK\ARC_AWK_02.tpack,0,Item\Armor\AWK\SOR_AWK_02.mesh,Item\Armor\AWK\SOR_AWK_02.tpack,0,Item\Armor\AWK\SUM_AWK_02.mesh,Item\Armor\AWK\SUM_AWK_02.tpack,0,Item\Armor\AWK\HIL_AWK_02.mesh,Item\Armor\AWK\HIL_AWK_02.tpack,0,Item\Armor\AWK\WAR_AWK_02.mesh,Item\Armor\AWK\WAR_AWK_02.tpack,0,Item\Armor\AWK\ALO_AWK_02.mesh,Item\Armor\AWK\ALO_AWK_02.tpack,0,Item\Armor\AWK\DRG_AWK_02.mesh,Item\Armor\AWK\DRG_AWK_02.tpack,0,Item\Armor\AWK\BWZ_AWK_02.mesh,Item\Armor\AWK\BWZ_AWK_02.tpack,0,Item\Armor\AWK\WSU_AWK_02.mesh,Item\Armor\AWK\WSU_AWK_02.tpack,0,Item\Armor\AWK\MSE_AWK_02.mesh,Item\Armor\AWK\MSE_AWK_02.tpack,0,Item\Armor\AWK\HWA_AWK_02.mesh,Item\Armor\AWK\HWA_AWK_02.tpack,0,TRUE
2386,Item\Armor\AWK\SWD_AWK_02.mesh,Item\Armor\AWK\SWD_AWK_02.tpack,0,Item\Armor\AWK\ARC_AWK_02.mesh,Item\Armor\AWK\ARC_AWK_02.tpack,0,Item\Armor\AWK\SOR_AWK_02.mesh,Item\Armor\AWK\SOR_AWK_02.tpack,0,Item\Armor\AWK\SUM_AWK_02.mesh,Item\Armor\AWK\SUM_AWK_02.tpack,0,Item\Armor\AWK\HIL_AWK_02.mesh,Item\Armor\AWK\HIL_AWK_02.tpack,0,Item\Armor\AWK\WAR_AWK_02.mesh,Item\Armor\AWK\WAR_AWK_02.tpack,0,Item\Armor\AWK\ALO_AWK_02.mesh,Item\Armor\AWK\ALO_AWK_02.tpack,0,Item\Armor\AWK\DRG_AWK_02.mesh,Item\Armor\AWK\DRG_AWK_02.tpack,0,Item\Armor\AWK\BWZ_AWK_02.mesh,Item\Armor\AWK\BWZ_AWK_02.tpack,0,Item\Armor\AWK\WSU_AWK_02.mesh,Item\Armor\AWK\WSU_AWK_02.tpack,0,Item\Armor\AWK\MSE_AWK_02.mesh,Item\Armor\AWK\MSE_AWK_02.tpack,0,Item\Armor\AWK\HWA_AWK_02.mesh,Item\Armor\AWK\HWA_AWK_02.tpack,0,TRUE
3326,Item\Armor\AWK\SWD_AWK_02.mesh,Item\Armor\AWK\SWD_AWK_02.tpack,0,Item\Armor\AWK\ARC_AWK_02.mesh,Item\Armor\AWK\ARC_AWK_02.tpack,0,Item\Armor\AWK\SOR_AWK_02.mesh,Item\Armor\AWK\SOR_AWK_02.tpack,0,Item\Armor\AWK\SUM_AWK_02.mesh,Item\Armor\AWK\SUM_AWK_02.tpack,0,Item\Armor\AWK\HIL_AWK_02.mesh,Item\Armor\AWK\HIL_AWK_02.tpack,0,Item\Armor\AWK\WAR_AWK_02.mesh,Item\Armor\AWK\WAR_AWK_02.tpack,0,Item\Armor\AWK\ALO_AWK_02.mesh,Item\Armor\AWK\ALO_AWK_02.tpack,0,Item\Armor\AWK\DRG_AWK_02.mesh,Item\Armor\AWK\DRG_AWK_02.tpack,0,Item\Armor\AWK\BWZ_AWK_02.mesh,Item\Armor\AWK\BWZ_AWK_02.tpack,0,Item\Armor\AWK\WSU_AWK_02.mesh,Item\Armor\AWK\WSU_AWK_02.tpack,0,Item\Armor\AWK\MSE_AWK_02.mesh,Item\Armor\AWK\MSE_AWK_02.tpack,0,Item\Armor\AWK\HWA_AWK_02.mesh,Item\Armor\AWK\HWA_AWK_02.tpack,0,TRUE
4426,Item\Armor\AWK\SWD_AWK_02.mesh,Item\Armor\AWK\SWD_AWK_02.tpack,0,Item\Armor\AWK\ARC_AWK_02.mesh,Item\Armor\AWK\ARC_AWK_02.tpack,0,Item\Armor\AWK\SOR_AWK_02.mesh,Item\Armor\AWK\SOR_AWK_02.tpack,0,Item\Armor\AWK\SUM_AWK_02.mesh,Item\Armor\AWK\SUM_AWK_02.tpack,0,Item\Armor\AWK\HIL_AWK_02.mesh,Item\Armor\AWK\HIL_AWK_02.tpack,0,Item\Armor\AWK\WAR_AWK_02.mesh,Item\Armor\AWK\WAR_AWK_02.tpack,0,Item\Armor\AWK\ALO_AWK_02.mesh,Item\Armor\AWK\ALO_AWK_02.tpack,0,Item\Armor\AWK\DRG_AWK_02.mesh,Item\Armor\AWK\DRG_AWK_02.tpack,0,Item\Armor\AWK\BWZ_AWK_02.mesh,Item\Armor\AWK\BWZ_AWK_02.tpack,0,Item\Armor\AWK\WSU_AWK_02.mesh,Item\Armor\AWK\WSU_AWK_02.tpack,0,Item\Armor\AWK\MSE_AWK_02.mesh,Item\Armor\AWK\MSE_AWK_02.tpack,0,Item\Armor\AWK\HWA_AWK_02.mesh,Item\Armor\AWK\HWA_AWK_02.tpack,0,TRUE
8206,Item\Armor\AWK\SWD_AWK_02.mesh,Item\Armor\AWK\SWD_AWK_02.tpack,0,Item\Armor\AWK\ARC_AWK_02.mesh,Item\Armor\AWK\ARC_AWK_02.tpack,0,Item\Armor\AWK\SOR_AWK_02.mesh,Item\Armor\AWK\SOR_AWK_02.tpack,0,Item\Armor\AWK\SUM_AWK_02.mesh,Item\Armor\AWK\SUM_AWK_02.tpack,0,Item\Armor\AWK\HIL_AWK_02.mesh,Item\Armor\AWK\HIL_AWK_02.tpack,0,Item\Armor\AWK\WAR_AWK_02.mesh,Item\Armor\AWK\WAR_AWK_02.tpack,0,Item\Armor\AWK\ALO_AWK_02.mesh,Item\Armor\AWK\ALO_AWK_02.tpack,0,Item\Armor\AWK\DRG_AWK_02.mesh,Item\Armor\AWK\DRG_AWK_02.tpack,0,Item\Armor\AWK\BWZ_AWK_02.mesh,Item\Armor\AWK\BWZ_AWK_02.tpack,0,Item\Armor\AWK\WSU_AWK_02.mesh,Item\Armor\AWK\WSU_AWK_02.tpack,0,Item\Armor\AWK\MSE_AWK_02.mesh,Item\Armor\AWK\MSE_AWK_02.tpack,0,Item\Armor\AWK\HWA_AWK_02.mesh,Item\Armor\AWK\HWA_AWK_02.tpack,0,TRUE
9465,Item\Armor\AWK\SWD_AWK_02.mesh,Item\Armor\AWK\SWD_AWK_02.tpack,0,Item\Armor\AWK\ARC_AWK_02.mesh,Item\Armor\AWK\ARC_AWK_02.tpack,0,Item\Armor\AWK\SOR_AWK_02.mesh,Item\Armor\AWK\SOR_AWK_02.tpack,0,Item\Armor\AWK\SUM_AWK_02.mesh,Item\Armor\AWK\SUM_AWK_02.tpack,0,Item\Armor\AWK\HIL_AWK_02.mesh,Item\Armor\AWK\HIL_AWK_02.tpack,0,Item\Armor\AWK\WAR_AWK_02.mesh,Item\Armor\AWK\WAR_AWK_02.tpack,0,Item\Armor\AWK\ALO_AWK_02.mesh,Item\Armor\AWK\ALO_AWK_02.tpack,0,Item\Armor\AWK\DRG_AWK_02.mesh,Item\Armor\AWK\DRG_AWK_02.tpack,0,Item\Armor\AWK\BWZ_AWK_02.mesh,Item\Armor\AWK\BWZ_AWK_02.tpack,0,Item\Armor\AWK\WSU_AWK_02.mesh,Item\Armor\AWK\WSU_AWK_02.tpack,0,Item\Armor\AWK\MSE_AWK_02.mesh,Item\Armor\AWK\MSE_AWK_02.tpack,0,Item\Armor\AWK\HWA_AWK_02.mesh,Item\Armor\AWK\HWA_AWK_02.tpack,0,TRUE
13665,Item\Armor\AWK\SWD_AWK_02.mesh,Item\Armor\AWK\SWD_AWK_02.tpack,0,Item\Armor\AWK\ARC_AWK_02.mesh,Item\Armor\AWK\ARC_AWK_02.tpack,0,Item\Armor\AWK\SOR_AWK_02.mesh,Item\Armor\AWK\SOR_AWK_02.tpack,0,Item\Armor\AWK\SUM_AWK_02.mesh,Item\Armor\AWK\SUM_AWK_02.tpack,0,Item\Armor\AWK\HIL_AWK_02.mesh,Item\Armor\AWK\HIL_AWK_02.tpack,0,Item\Armor\AWK\WAR_AWK_02.mesh,Item\Armor\AWK\WAR_AWK_02.tpack,0,Item\Armor\AWK\ALO_AWK_02.mesh,Item\Armor\AWK\ALO_AWK_02.tpack,0,Item\Armor\AWK\DRG_AWK_02.mesh,Item\Armor\AWK\DRG_AWK_02.tpack,0,Item\Armor\AWK\BWZ_AWK_02.mesh,Item\Armor\AWK\BWZ_AWK_02.tpack,0,Item\Armor\AWK\WSU_AWK_02.mesh,Item\Armor\AWK\WSU_AWK_02.tpack,0,Item\Armor\AWK\MSE_AWK_02.mesh,Item\Armor\AWK\MSE_AWK_02.tpack,0,Item\Armor\AWK\HWA_AWK_02.mesh,Item\Armor\AWK\HWA_AWK_02.tpack,0,TRUE
14205,Item\Armor\AWK\SWD_AWK_02.mesh,Item\Armor\AWK\SWD_AWK_02.tpack,0,Item\Armor\AWK\ARC_AWK_02.mesh,Item\Armor\AWK\ARC_AWK_02.tpack,0,Item\Armor\AWK\SOR_AWK_02.mesh,Item\Armor\AWK\SOR_AWK_02.tpack,0,Item\Armor\AWK\SUM_AWK_02.mesh,Item\Armor\AWK\SUM_AWK_02.tpack,0,Item\Armor\AWK\HIL_AWK_02.mesh,Item\Armor\AWK\HIL_AWK_02.tpack,0,Item\Armor\AWK\WAR_AWK_02.mesh,Item\Armor\AWK\WAR_AWK_02.tpack,0,Item\Armor\AWK\ALO_AWK_02.mesh,Item\Armor\AWK\ALO_AWK_02.tpack,0,Item\Armor\AWK\DRG_AWK_02.mesh,Item\Armor\AWK\DRG_AWK_02.tpack,0,Item\Armor\AWK\BWZ_AWK_02.mesh,Item\Armor\AWK\BWZ_AWK_02.tpack,0,Item\Armor\AWK\WSU_AWK_02.mesh,Item\Armor\AWK\WSU_AWK_02.tpack,0,Item\Armor\AWK\MSE_AWK_02.mesh,Item\Armor\AWK\MSE_AWK_02.tpack,0,Item\Armor\AWK\HWA_AWK_02.mesh,Item\Armor\AWK\HWA_AWK_02.tpack,0,TRUE
14695,Item\Armor\AWK\SWD_AWK_02.mesh,Item\Armor\AWK\SWD_AWK_02.tpack,0,Item\Armor\AWK\ARC_AWK_02.mesh,Item\Armor\AWK\ARC_AWK_02.tpack,0,Item\Armor\AWK\SOR_AWK_02.mesh,Item\Armor\AWK\SOR_AWK_02.tpack,0,Item\Armor\AWK\SUM_AWK_02.mesh,Item\Armor\AWK\SUM_AWK_02.tpack,0,Item\Armor\AWK\HIL_AWK_02.mesh,Item\Armor\AWK\HIL_AWK_02.tpack,0,Item\Armor\AWK\WAR_AWK_02.mesh,Item\Armor\AWK\WAR_AWK_02.tpack,0,Item\Armor\AWK\ALO_AWK_02.mesh,Item\Armor\AWK\ALO_AWK_02.tpack,0,Item\Armor\AWK\DRG_AWK_02.mesh,Item\Armor\AWK\DRG_AWK_02.tpack,0,Item\Armor\AWK\BWZ_AWK_02.mesh,Item\Armor\AWK\BWZ_AWK_02.tpack,0,Item\Armor\AWK\WSU_AWK_02.mesh,Item\Armor\AWK\WSU_AWK_02.tpack,0,Item\Armor\AWK\MSE_AWK_02.mesh,Item\Armor\AWK\MSE_AWK_02.tpack,0,Item\Armor\AWK\HWA_AWK_02.mesh,Item\Armor\AWK\HWA_AWK_02.tpack,0,TRUE
14985,Item\Armor\AWK\SWD_AWK_02.mesh,Item\Armor\AWK\SWD_AWK_02.tpack,0,Item\Armor\AWK\ARC_AWK_02.mesh,Item\Armor\AWK\ARC_AWK_02.tpack,0,Item\Armor\AWK\SOR_AWK_02.mesh,Item\Armor\AWK\SOR_AWK_02.tpack,0,Item\Armor\AWK\SUM_AWK_02.mesh,Item\Armor\AWK\SUM_AWK_02.tpack,0,Item\Armor\AWK\HIL_AWK_02.mesh,Item\Armor\AWK\HIL_AWK_02.tpack,0,Item\Armor\AWK\WAR_AWK_02.mesh,Item\Armor\AWK\WAR_AWK_02.tpack,0,Item\Armor\AWK\ALO_AWK_02.mesh,Item\Armor\AWK\ALO_AWK_02.tpack,0,Item\Armor\AWK\DRG_AWK_02.mesh,Item\Armor\AWK\DRG_AWK_02.tpack,0,Item\Armor\AWK\BWZ_AWK_02.mesh,Item\Armor\AWK\BWZ_AWK_02.tpack,0,Item\Armor\AWK\WSU_AWK_02.mesh,Item\Armor\AWK\WSU_AWK_02.tpack,0,Item\Armor\AWK\MSE_AWK_02.mesh,Item\Armor\AWK\MSE_AWK_02.tpack,0,Item\Armor\AWK\HWA_AWK_02.mesh,Item\Armor\AWK\HWA_AWK_02.tpack,0,TRUE
30426,Item\Armor\AWK\SWD_AWK_02.mesh,Item\Armor\AWK\SWD_AWK_02.tpack,0,Item\Armor\AWK\ARC_AWK_02.mesh,Item\Armor\AWK\ARC_AWK_02.tpack,0,Item\Armor\AWK\SOR_AWK_02.mesh,Item\Armor\AWK\SOR_AWK_02.tpack,0,Item\Armor\AWK\SUM_AWK_02.mesh,Item\Armor\AWK\SUM_AWK_02.tpack,0,Item\Armor\AWK\HIL_AWK_02.mesh,Item\Armor\AWK\HIL_AWK_02.tpack,0,Item\Armor\AWK\WAR_AWK_02.mesh,Item\Armor\AWK\WAR_AWK_02.tpack,0,Item\Armor\AWK\ALO_AWK_02.mesh,Item\Armor\AWK\ALO_AWK_02.tpack,0,Item\Armor\AWK\DRG_AWK_02.mesh,Item\Armor\AWK\DRG_AWK_02.tpack,0,Item\Armor\AWK\BWZ_AWK_02.mesh,Item\Armor\AWK\BWZ_AWK_02.tpack,0,Item\Armor\AWK\WSU_AWK_02.mesh,Item\Armor\AWK\WSU_AWK_02.tpack,0,Item\Armor\AWK\MSE_AWK_02.mesh,Item\Armor\AWK\MSE_AWK_02.tpack,0,Item\Armor\AWK\HWA_AWK_02.mesh,Item\Armor\AWK\HWA_AWK_02.tpack,0,TRUE
527,Item\Armor\AWK\SWD_AWK_02.mesh,Item\Armor\AWK\SWD_AWK_02.tpack,0,Item\Armor\AWK\ARC_AWK_02.mesh,Item\Armor\AWK\ARC_AWK_02.tpack,0,Item\Armor\AWK\SOR_AWK_02.mesh,Item\Armor\AWK\SOR_AWK_02.tpack,0,Item\Armor\AWK\SUM_AWK_02.mesh,Item\Armor\AWK\SUM_AWK_02.tpack,0,Item\Armor\AWK\HIL_AWK_02.mesh,Item\Armor\AWK\HIL_AWK_02.tpack,0,Item\Armor\AWK\WAR_AWK_02.mesh,Item\Armor\AWK\WAR_AWK_02.tpack,0,Item\Armor\AWK\ALO_AWK_02.mesh,Item\Armor\AWK\ALO_AWK_02.tpack,0,Item\Armor\AWK\DRG_AWK_02.mesh,Item\Armor\AWK\DRG_AWK_02.tpack,0,Item\Armor\AWK\BWZ_AWK_02.mesh,Item\Armor\AWK\BWZ_AWK_02.tpack,0,Item\Armor\AWK\WSU_AWK_02.mesh,Item\Armor\AWK\WSU_AWK_02.tpack,0,Item\Armor\AWK\MSE_AWK_02.mesh,Item\Armor\AWK\MSE_AWK_02.tpack,0,Item\Armor\AWK\HWA_AWK_02.mesh,Item\Armor\AWK\HWA_AWK_02.tpack,0,TRUE
1287,Item\Armor\AWK\SWD_AWK_02.mesh,Item\Armor\AWK\SWD_AWK_02.tpack,0,Item\Armor\AWK\ARC_AWK_02.mesh,Item\Armor\AWK\ARC_AWK_02.tpack,0,Item\Armor\AWK\SOR_AWK_02.mesh,Item\Armor\AWK\SOR_AWK_02.tpack,0,Item\Armor\AWK\SUM_AWK_02.mesh,Item\Armor\AWK\SUM_AWK_02.tpack,0,Item\Armor\AWK\HIL_AWK_02.mesh,Item\Armor\AWK\HIL_AWK_02.tpack,0,Item\Armor\AWK\WAR_AWK_02.mesh,Item\Armor\AWK\WAR_AWK_02.tpack,0,Item\Armor\AWK\ALO_AWK_02.mesh,Item\Armor\AWK\ALO_AWK_02.tpack,0,Item\Armor\AWK\DRG_AWK_02.mesh,Item\Armor\AWK\DRG_AWK_02.tpack,0,Item\Armor\AWK\BWZ_AWK_02.mesh,Item\Armor\AWK\BWZ_AWK_02.tpack,0,Item\Armor\AWK\WSU_AWK_02.mesh,Item\Armor\AWK\WSU_AWK_02.tpack,0,Item\Armor\AWK\MSE_AWK_02.mesh,Item\Armor\AWK\MSE_AWK_02.tpack,0,Item\Armor\AWK\HWA_AWK_02.mesh,Item\Armor\AWK\HWA_AWK_02.tpack,0,TRUE
2387,Item\Armor\AWK\SWD_AWK_02.mesh,Item\Armor\AWK\SWD_AWK_02.tpack,0,Item\Armor\AWK\ARC_AWK_02.mesh,Item\Armor\AWK\ARC_AWK_02.tpack,0,Item\Armor\AWK\SOR_AWK_02.mesh,Item\Armor\AWK\SOR_AWK_02.tpack,0,Item\Armor\AWK\SUM_AWK_02.mesh,Item\Armor\AWK\SUM_AWK_02.tpack,0,Item\Armor\AWK\HIL_AWK_02.mesh,Item\Armor\AWK\HIL_AWK_02.tpack,0,Item\Armor\AWK\WAR_AWK_02.mesh,Item\Armor\AWK\WAR_AWK_02.tpack,0,Item\Armor\AWK\ALO_AWK_02.mesh,Item\Armor\AWK\ALO_AWK_02.tpack,0,Item\Armor\AWK\DRG_AWK_02.mesh,Item\Armor\AWK\DRG_AWK_02.tpack,0,Item\Armor\AWK\BWZ_AWK_02.mesh,Item\Armor\AWK\BWZ_AWK_02.tpack,0,Item\Armor\AWK\WSU_AWK_02.mesh,Item\Armor\AWK\WSU_AWK_02.tpack,0,Item\Armor\AWK\MSE_AWK_02.mesh,Item\Armor\AWK\MSE_AWK_02.tpack,0,Item\Armor\AWK\HWA_AWK_02.mesh,Item\Armor\AWK\HWA_AWK_02.tpack,0,TRUE
3327,Item\Armor\AWK\SWD_AWK_02.mesh,Item\Armor\AWK\SWD_AWK_02.tpack,0,Item\Armor\AWK\ARC_AWK_02.mesh,Item\Armor\AWK\ARC_AWK_02.tpack,0,Item\Armor\AWK\SOR_AWK_02.mesh,Item\Armor\AWK\SOR_AWK_02.tpack,0,Item\Armor\AWK\SUM_AWK_02.mesh,Item\Armor\AWK\SUM_AWK_02.tpack,0,Item\Armor\AWK\HIL_AWK_02.mesh,Item\Armor\AWK\HIL_AWK_02.tpack,0,Item\Armor\AWK\WAR_AWK_02.mesh,Item\Armor\AWK\WAR_AWK_02.tpack,0,Item\Armor\AWK\ALO_AWK_02.mesh,Item\Armor\AWK\ALO_AWK_02.tpack,0,Item\Armor\AWK\DRG_AWK_02.mesh,Item\Armor\AWK\DRG_AWK_02.tpack,0,Item\Armor\AWK\BWZ_AWK_02.mesh,Item\Armor\AWK\BWZ_AWK_02.tpack,0,Item\Armor\AWK\WSU_AWK_02.mesh,Item\Armor\AWK\WSU_AWK_02.tpack,0,Item\Armor\AWK\MSE_AWK_02.mesh,Item\Armor\AWK\MSE_AWK_02.tpack,0,Item\Armor\AWK\HWA_AWK_02.mesh,Item\Armor\AWK\HWA_AWK_02.tpack,0,TRUE
4427,Item\Armor\AWK\SWD_AWK_02.mesh,Item\Armor\AWK\SWD_AWK_02.tpack,0,Item\Armor\AWK\ARC_AWK_02.mesh,Item\Armor\AWK\ARC_AWK_02.tpack,0,Item\Armor\AWK\SOR_AWK_02.mesh,Item\Armor\AWK\SOR_AWK_02.tpack,0,Item\Armor\AWK\SUM_AWK_02.mesh,Item\Armor\AWK\SUM_AWK_02.tpack,0,Item\Armor\AWK\HIL_AWK_02.mesh,Item\Armor\AWK\HIL_AWK_02.tpack,0,Item\Armor\AWK\WAR_AWK_02.mesh,Item\Armor\AWK\WAR_AWK_02.tpack,0,Item\Armor\AWK\ALO_AWK_02.mesh,Item\Armor\AWK\ALO_AWK_02.tpack,0,Item\Armor\AWK\DRG_AWK_02.mesh,Item\Armor\AWK\DRG_AWK_02.tpack,0,Item\Armor\AWK\BWZ_AWK_02.mesh,Item\Armor\AWK\BWZ_AWK_02.tpack,0,Item\Armor\AWK\WSU_AWK_02.mesh,Item\Armor\AWK\WSU_AWK_02.tpack,0,Item\Armor\AWK\MSE_AWK_02.mesh,Item\Armor\AWK\MSE_AWK_02.tpack,0,Item\Armor\AWK\HWA_AWK_02.mesh,Item\Armor\AWK\HWA_AWK_02.tpack,0,TRUE
8207,Item\Armor\AWK\SWD_AWK_02.mesh,Item\Armor\AWK\SWD_AWK_02.tpack,0,Item\Armor\AWK\ARC_AWK_02.mesh,Item\Armor\AWK\ARC_AWK_02.tpack,0,Item\Armor\AWK\SOR_AWK_02.mesh,Item\Armor\AWK\SOR_AWK_02.tpack,0,Item\Armor\AWK\SUM_AWK_02.mesh,Item\Armor\AWK\SUM_AWK_02.tpack,0,Item\Armor\AWK\HIL_AWK_02.mesh,Item\Armor\AWK\HIL_AWK_02.tpack,0,Item\Armor\AWK\WAR_AWK_02.mesh,Item\Armor\AWK\WAR_AWK_02.tpack,0,Item\Armor\AWK\ALO_AWK_02.mesh,Item\Armor\AWK\ALO_AWK_02.tpack,0,Item\Armor\AWK\DRG_AWK_02.mesh,Item\Armor\AWK\DRG_AWK_02.tpack,0,Item\Armor\AWK\BWZ_AWK_02.mesh,Item\Armor\AWK\BWZ_AWK_02.tpack,0,Item\Armor\AWK\WSU_AWK_02.mesh,Item\Armor\AWK\WSU_AWK_02.tpack,0,Item\Armor\AWK\MSE_AWK_02.mesh,Item\Armor\AWK\MSE_AWK_02.tpack,0,Item\Armor\AWK\HWA_AWK_02.mesh,Item\Armor\AWK\HWA_AWK_02.tpack,0,TRUE
9466,Item\Armor\AWK\SWD_AWK_02.mesh,Item\Armor\AWK\SWD_AWK_02.tpack,0,Item\Armor\AWK\ARC_AWK_02.mesh,Item\Armor\AWK\ARC_AWK_02.tpack,0,Item\Armor\AWK\SOR_AWK_02.mesh,Item\Armor\AWK\SOR_AWK_02.tpack,0,Item\Armor\AWK\SUM_AWK_02.mesh,Item\Armor\AWK\SUM_AWK_02.tpack,0,Item\Armor\AWK\HIL_AWK_02.mesh,Item\Armor\AWK\HIL_AWK_02.tpack,0,Item\Armor\AWK\WAR_AWK_02.mesh,Item\Armor\AWK\WAR_AWK_02.tpack,0,Item\Armor\AWK\ALO_AWK_02.mesh,Item\Armor\AWK\ALO_AWK_02.tpack,0,Item\Armor\AWK\DRG_AWK_02.mesh,Item\Armor\AWK\DRG_AWK_02.tpack,0,Item\Armor\AWK\BWZ_AWK_02.mesh,Item\Armor\AWK\BWZ_AWK_02.tpack,0,Item\Armor\AWK\WSU_AWK_02.mesh,Item\Armor\AWK\WSU_AWK_02.tpack,0,Item\Armor\AWK\MSE_AWK_02.mesh,Item\Armor\AWK\MSE_AWK_02.tpack,0,Item\Armor\AWK\HWA_AWK_02.mesh,Item\Armor\AWK\HWA_AWK_02.tpack,0,TRUE
13666,Item\Armor\AWK\SWD_AWK_02.mesh,Item\Armor\AWK\SWD_AWK_02.tpack,0,Item\Armor\AWK\ARC_AWK_02.mesh,Item\Armor\AWK\ARC_AWK_02.tpack,0,Item\Armor\AWK\SOR_AWK_02.mesh,Item\Armor\AWK\SOR_AWK_02.tpack,0,Item\Armor\AWK\SUM_AWK_02.mesh,Item\Armor\AWK\SUM_AWK_02.tpack,0,Item\Armor\AWK\HIL_AWK_02.mesh,Item\Armor\AWK\HIL_AWK_02.tpack,0,Item\Armor\AWK\WAR_AWK_02.mesh,Item\Armor\AWK\WAR_AWK_02.tpack,0,Item\Armor\AWK\ALO_AWK_02.mesh,Item\Armor\AWK\ALO_AWK_02.tpack,0,Item\Armor\AWK\DRG_AWK_02.mesh,Item\Armor\AWK\DRG_AWK_02.tpack,0,Item\Armor\AWK\BWZ_AWK_02.mesh,Item\Armor\AWK\BWZ_AWK_02.tpack,0,Item\Armor\AWK\WSU_AWK_02.mesh,Item\Armor\AWK\WSU_AWK_02.tpack,0,Item\Armor\AWK\MSE_AWK_02.mesh,Item\Armor\AWK\MSE_AWK_02.tpack,0,Item\Armor\AWK\HWA_AWK_02.mesh,Item\Armor\AWK\HWA_AWK_02.tpack,0,TRUE
14206,Item\Armor\AWK\SWD_AWK_02.mesh,Item\Armor\AWK\SWD_AWK_02.tpack,0,Item\Armor\AWK\ARC_AWK_02.mesh,Item\Armor\AWK\ARC_AWK_02.tpack,0,Item\Armor\AWK\SOR_AWK_02.mesh,Item\Armor\AWK\SOR_AWK_02.tpack,0,Item\Armor\AWK\SUM_AWK_02.mesh,Item\Armor\AWK\SUM_AWK_02.tpack,0,Item\Armor\AWK\HIL_AWK_02.mesh,Item\Armor\AWK\HIL_AWK_02.tpack,0,Item\Armor\AWK\WAR_AWK_02.mesh,Item\Armor\AWK\WAR_AWK_02.tpack,0,Item\Armor\AWK\ALO_AWK_02.mesh,Item\Armor\AWK\ALO_AWK_02.tpack,0,Item\Armor\AWK\DRG_AWK_02.mesh,Item\Armor\AWK\DRG_AWK_02.tpack,0,Item\Armor\AWK\BWZ_AWK_02.mesh,Item\Armor\AWK\BWZ_AWK_02.tpack,0,Item\Armor\AWK\WSU_AWK_02.mesh,Item\Armor\AWK\WSU_AWK_02.tpack,0,Item\Armor\AWK\MSE_AWK_02.mesh,Item\Armor\AWK\MSE_AWK_02.tpack,0,Item\Armor\AWK\HWA_AWK_02.mesh,Item\Armor\AWK\HWA_AWK_02.tpack,0,TRUE
14696,Item\Armor\AWK\SWD_AWK_02.mesh,Item\Armor\AWK\SWD_AWK_02.tpack,0,Item\Armor\AWK\ARC_AWK_02.mesh,Item\Armor\AWK\ARC_AWK_02.tpack,0,Item\Armor\AWK\SOR_AWK_02.mesh,Item\Armor\AWK\SOR_AWK_02.tpack,0,Item\Armor\AWK\SUM_AWK_02.mesh,Item\Armor\AWK\SUM_AWK_02.tpack,0,Item\Armor\AWK\HIL_AWK_02.mesh,Item\Armor\AWK\HIL_AWK_02.tpack,0,Item\Armor\AWK\WAR_AWK_02.mesh,Item\Armor\AWK\WAR_AWK_02.tpack,0,Item\Armor\AWK\ALO_AWK_02.mesh,Item\Armor\AWK\ALO_AWK_02.tpack,0,Item\Armor\AWK\DRG_AWK_02.mesh,Item\Armor\AWK\DRG_AWK_02.tpack,0,Item\Armor\AWK\BWZ_AWK_02.mesh,Item\Armor\AWK\BWZ_AWK_02.tpack,0,Item\Armor\AWK\WSU_AWK_02.mesh,Item\Armor\AWK\WSU_AWK_02.tpack,0,Item\Armor\AWK\MSE_AWK_02.mesh,Item\Armor\AWK\MSE_AWK_02.tpack,0,Item\Armor\AWK\HWA_AWK_02.mesh,Item\Armor\AWK\HWA_AWK_02.tpack,0,TRUE
14986,Item\Armor\AWK\SWD_AWK_02.mesh,Item\Armor\AWK\SWD_AWK_02.tpack,0,Item\Armor\AWK\ARC_AWK_02.mesh,Item\Armor\AWK\ARC_AWK_02.tpack,0,Item\Armor\AWK\SOR_AWK_02.mesh,Item\Armor\AWK\SOR_AWK_02.tpack,0,Item\Armor\AWK\SUM_AWK_02.mesh,Item\Armor\AWK\SUM_AWK_02.tpack,0,Item\Armor\AWK\HIL_AWK_02.mesh,Item\Armor\AWK\HIL_AWK_02.tpack,0,Item\Armor\AWK\WAR_AWK_02.mesh,Item\Armor\AWK\WAR_AWK_02.tpack,0,Item\Armor\AWK\ALO_AWK_02.mesh,Item\Armor\AWK\ALO_AWK_02.tpack,0,Item\Armor\AWK\DRG_AWK_02.mesh,Item\Armor\AWK\DRG_AWK_02.tpack,0,Item\Armor\AWK\BWZ_AWK_02.mesh,Item\Armor\AWK\BWZ_AWK_02.tpack,0,Item\Armor\AWK\WSU_AWK_02.mesh,Item\Armor\AWK\WSU_AWK_02.tpack,0,Item\Armor\AWK\MSE_AWK_02.mesh,Item\Armor\AWK\MSE_AWK_02.tpack,0,Item\Armor\AWK\HWA_AWK_02.mesh,Item\Armor\AWK\HWA_AWK_02.tpack,0,TRUE
30427,Item\Armor\AWK\SWD_AWK_02.mesh,Item\Armor\AWK\SWD_AWK_02.tpack,0,Item\Armor\AWK\ARC_AWK_02.mesh,Item\Armor\AWK\ARC_AWK_02.tpack,0,Item\Armor\AWK\SOR_AWK_02.mesh,Item\Armor\AWK\SOR_AWK_02.tpack,0,Item\Armor\AWK\SUM_AWK_02.mesh,Item\Armor\AWK\SUM_AWK_02.tpack,0,Item\Armor\AWK\HIL_AWK_02.mesh,Item\Armor\AWK\HIL_AWK_02.tpack,0,Item\Armor\AWK\WAR_AWK_02.mesh,Item\Armor\AWK\WAR_AWK_02.tpack,0,Item\Armor\AWK\ALO_AWK_02.mesh,Item\Armor\AWK\ALO_AWK_02.tpack,0,Item\Armor\AWK\DRG_AWK_02.mesh,Item\Armor\AWK\DRG_AWK_02.tpack,0,Item\Armor\AWK\BWZ_AWK_02.mesh,Item\Armor\AWK\BWZ_AWK_02.tpack,0,Item\Armor\AWK\WSU_AWK_02.mesh,Item\Armor\AWK\WSU_AWK_02.tpack,0,Item\Armor\AWK\MSE_AWK_02.mesh,Item\Armor\AWK\MSE_AWK_02.tpack,0,Item\Armor\AWK\HWA_AWK_02.mesh,Item\Armor\AWK\HWA_AWK_02.tpack,0,TRUE
