index,name,mesh,tpack,effect,Lod,GlowEffect,EffectID
1,aaron,NPC\npc_arron.mesh,NPC\npc_arron.tpack,0,FALSE,FALSE,0
2,accion,NPC\npc_blacksmith.mesh,NPC\npc_blacksmith.tpack,0,FALSE,FALSE,0
3,adella,NPC\npc_victoria.mesh,NPC\npc_victoria.tpack,0,FALSE,FALSE,0
4,adrian,NPC\npc_calix.mesh,NPC\npc_calix.tpack,0,FALSE,FALSE,0
5,agatha,NPC\npc_agatha.mesh,NPC\npc_agatha.tpack,0,FALSE,FALSE,0
6,alexis,NPC\npc_calix.mesh,NPC\npc_calix.tpack,0,FALSE,FALSE,0
7,alice,NPC\npc_sonia.mesh,NPC\npc_sonia.tpack,0,FALSE,FALSE,0
8,allan,NPC\npc_luxy.mesh,NPC\npc_luxy.tpack,0,FALSE,FALSE,0
9,altar,NPC\npc_wolfsanctuary.mesh,NPC\npc_wolfsanctuary.tpack,0,FALSE,FALSE,0
10,alvin,NPC\npc_yod.mesh,NPC\npc_yod.tpack,0,FALSE,FALSE,0
11,amie,NPC\npc_amie.mesh,NPC\npc_amie.tpack,0,FALSE,FALSE,0
12,amos,NPC\npc_baron.mesh,NPC\npc_baron.tpack,0,FALSE,FALSE,0
13,anais,NPC\npc_sonia.mesh,NPC\npc_sonia.tpack,0,FALSE,FALSE,0
14,andras,NPC\npc_guardsman.mesh,NPC\npc_guardsman.tpack,0,FALSE,FALSE,0
15,andrew,NPC\npc_baron.mesh,NPC\npc_baron.tpack,0,FALSE,FALSE,0
16,assam,NPC\npc_capital_store.mesh,NPC\npc_capital_store.tpack,0,FALSE,FALSE,0
17,avid,NPC\npc_guardsman.mesh,NPC\npc_guardsman.tpack,0,FALSE,FALSE,0
18,azrai,NPC\npc_asrai.mesh,NPC\npc_asrai.tpack,0,FALSE,FALSE,0
19,bailey,NPC\npc_guardsman.mesh,NPC\npc_guardsman.tpack,0,FALSE,FALSE,0
20,baron,NPC\npc_amos.mesh,NPC\npc_amos.tpack,0,FALSE,FALSE,0
21,bartol,NPC\npc_batol.mesh,NPC\npc_batol.tpack,0,FALSE,FALSE,0
22,baxter,Object\junk\npc_klaus_dead3.mesh,Object\junk\npc_klaus_dead3.tpack,0,FALSE,FALSE,0
23,beatrice,NPC\npc_luxy.mesh,NPC\npc_luxy.tpack,0,FALSE,FALSE,0
24,bebero,NPC\npc_bebero.mesh,NPC\npc_bebero.tpack,0,FALSE,FALSE,0
25,bella,NPC\npc_sonia.mesh,NPC\npc_sonia.tpack,0,FALSE,FALSE,0
26,bellisaria,NPC\npc_victoria.mesh,NPC\npc_victoria.tpack,0,FALSE,FALSE,0
27,benjamin,NPC\npc_calix.mesh,NPC\npc_calix.tpack,0,FALSE,FALSE,0
28,berkse,NPC\npc_berks.mesh,NPC\npc_berks.tpack,0,FALSE,FALSE,0
29,bernaud,NPC\npc_calix.mesh,NPC\npc_calix.tpack,0,FALSE,FALSE,0
30,bingo,NPC\npc_bingo.mesh,NPC\npc_bingo.tpack,0,FALSE,FALSE,0
31,bithiah,NPC\npc_loderbar.mesh,NPC\npc_loderbar.tpack,0,FALSE,FALSE,0
32,blake,NPC\npc_blake.mesh,NPC\npc_blake.tpack,0,FALSE,FALSE,0
33,bourbaki,NPC\npc-snow-quest.mesh,NPC\npc-snow-quest.tpack,0,FALSE,FALSE,0
34,bozez,NPC\npc_bozez.mesh,NPC\npc_bozez.tpack,0,FALSE,FALSE,0
35,britten,NPC\npc_uni.mesh,NPC\npc_uni.tpack,0,FALSE,FALSE,0
36,bruno,NPC\npc_tanesia.mesh,NPC\npc_tanesia.tpack,0,FALSE,FALSE,0
37,cain,NPC\npc_blake.mesh,NPC\npc_blake.tpack,0,FALSE,FALSE,0
38,calix,NPC\npc_calix.mesh,NPC\npc_calix.tpack,0,FALSE,FALSE,0
39,carlyle,NPC\npc_pidellio.mesh,NPC\npc_pidellio.tpack,0,FALSE,FALSE,0
40,carmen,NPC\npc_carmen.mesh,NPC\npc_carmen.tpack,0,FALSE,FALSE,0
41,castlegate,NPC\npc_pythondoor_01.mesh,NPC\npc_pythondoor_01.tpack,0,FALSE,FALSE,0
42,castlegate_exit,NPC\npc_pythondoor_01.mesh,NPC\npc_pythondoor_01.tpack,0,FALSE,FALSE,0
43,catar,NPC\npc_catar.mesh,NPC\npc_catar.tpack,0,FALSE,FALSE,0
44,catarina,NPC\npc_victoria.mesh,NPC\npc_victoria.tpack,0,FALSE,FALSE,0
45,celestyn,NPC\npc_sonia.mesh,NPC\npc_sonia.tpack,0,FALSE,FALSE,0
46,cenchrea,NPC\npc_cenchrea.mesh,NPC\npc_cenchrea.tpack,0,FALSE,FALSE,0
47,charles,NPC\npc_calix.mesh,NPC\npc_calix.tpack,0,FALSE,FALSE,0
48,chase,NPC\npc_baron.mesh,NPC\npc_baron.tpack,0,FALSE,FALSE,0
49,choi,NPC\npc_choi.mesh,NPC\npc_choi.tpack,0,FALSE,FALSE,0
50,choi_gate,NPC\npc_pythondoor_02.mesh,NPC\npc_pythondoor_02.tpack,0,FALSE,FALSE,0
51,choi_gate_exit,NPC\npc_pythondoor_02.mesh,NPC\npc_pythondoor_02.tpack,0,FALSE,FALSE,0
52,christine,NPC\npc_victoria.mesh,NPC\npc_victoria.tpack,0,FALSE,FALSE,0
53,clio,NPC\npc_guardsman.mesh,NPC\npc_guardsman.tpack,0,FALSE,FALSE,0
54,conrad,NPC\npc_yod.mesh,NPC\npc_yod.tpack,0,FALSE,FALSE,0
55,cooper,NPC\npc_cooper.mesh,NPC\npc_cooper.tpack,0,FALSE,FALSE,0
56,daisy,NPC\npc_sonia.mesh,NPC\npc_sonia.tpack,0,FALSE,FALSE,0
57,damien,NPC\npc_luxy.mesh,NPC\npc_luxy.tpack,0,FALSE,FALSE,0
58,daniel,NPC\npc_calix.mesh,NPC\npc_calix.tpack,0,FALSE,FALSE,0
59,dario,NPC\npc_baron.mesh,NPC\npc_baron.tpack,0,FALSE,FALSE,0
60,dave,NPC\npc_dave.mesh,NPC\npc_dave.tpack,0,FALSE,FALSE,0
61,dean,NPC\npc_guardsman.mesh,NPC\npc_guardsman.tpack,0,FALSE,FALSE,0
62,delcador,NPC\npc_delcadoro.mesh,NPC\npc_delcadoro.tpack,0,FALSE,FALSE,0
63,denis,NPC\npc_calix.mesh,NPC\npc_calix.tpack,0,FALSE,FALSE,0
64,door_dream_enter,NPC\parcadoor.mesh,NPC\parcadoor.tpack,0,FALSE,FALSE,0
65,door_dream_exit,NPC\parcadoor.mesh,NPC\parcadoor.tpack,0,FALSE,FALSE,0
66,door_fire_enter,NPC\parcadoor.mesh,NPC\parcadoor.tpack,0,FALSE,FALSE,0
67,door_fire_exit,NPC\parcadoor.mesh,NPC\parcadoor.tpack,0,FALSE,FALSE,0
68,door_hall_enter,NPC\parcadoor.mesh,NPC\parcadoor.tpack,0,FALSE,FALSE,0
69,door_hall_exit,NPC\parcadoor.mesh,NPC\parcadoor.tpack,0,FALSE,FALSE,0
70,door_ice_enter,NPC\parcadoor.mesh,NPC\parcadoor.tpack,0,FALSE,FALSE,0
71,door_ice_exit,NPC\parcadoor.mesh,NPC\parcadoor.tpack,0,FALSE,FALSE,0
72,door_iron_enter,NPC\parcadoor.mesh,NPC\parcadoor.tpack,0,FALSE,FALSE,0
73,door_iron_exit,NPC\parcadoor.mesh,NPC\parcadoor.tpack,0,FALSE,FALSE,0
74,door_magic_enter,NPC\parcadoor.mesh,NPC\parcadoor.tpack,0,FALSE,FALSE,0
75,door_magic_exit,NPC\parcadoor.mesh,NPC\parcadoor.tpack,0,FALSE,FALSE,0
76,door_poison_enter,NPC\parcadoor.mesh,NPC\parcadoor.tpack,0,FALSE,FALSE,0
77,door_poison_exit,NPC\parcadoor.mesh,NPC\parcadoor.tpack,0,FALSE,FALSE,0
78,dorothy,NPC\npc_luxy.mesh,NPC\npc_luxy.tpack,0,FALSE,FALSE,0
79,duncan,NPC\npc_duncan.mesh,NPC\npc_duncan.tpack,0,FALSE,FALSE,0
80,dustin,NPC\npc_pidellio.mesh,NPC\npc_pidellio.tpack,0,FALSE,FALSE,0
81,easten,NPC\npc_gerk.mesh,NPC\npc_gerk.tpack,0,FALSE,FALSE,0
82,elenoar,NPC\npc_victoria.mesh,NPC\npc_victoria.tpack,0,FALSE,FALSE,0
83,eloyi,NPC\skillmaster.mesh,NPC\skillmaster.tpack,0,FALSE,FALSE,0
84,embarco,NPC\npc_embaco.mesh,NPC\npc_embaco.tpack,0,FALSE,FALSE,0
85,emilie,NPC\npc_luxy.mesh,NPC\npc_luxy.tpack,0,FALSE,FALSE,0
86,esteban,NPC\npc_orpheus.mesh,NPC\npc_orpheus.tpack,0,FALSE,FALSE,0
87,exit,NPC\npc_wolfsanctuary.mesh,NPC\npc_wolfsanctuary.tpack,0,FALSE,FALSE,0
88,fafnir_altar,NPC\npc_wolfsanctuary.mesh,NPC\npc_wolfsanctuary.tpack,0,FALSE,FALSE,0
89,fellicity,NPC\npc_victoria.mesh,NPC\npc_victoria.tpack,0,FALSE,FALSE,0
90,fidelio,NPC\npc_pidellio.mesh,NPC\npc_pidellio.tpack,0,FALSE,FALSE,0
91,fire_pot_01,Object\Building\pb_pillar_brazier_02.mesh,Object\Building\pb_pillar_brazier_02.tpack,0,FALSE,FALSE,0
92,fire_pot_02,Object\Building\pb_pillar_brazier_02.mesh,Object\Building\pb_pillar_brazier_02.tpack,0,FALSE,FALSE,0
93,fire_pot_03,Object\Building\pb_pillar_brazier_02.mesh,Object\Building\pb_pillar_brazier_02.tpack,0,FALSE,FALSE,0
94,fire_pot_04,Object\Building\pb_pillar_brazier_02.mesh,Object\Building\pb_pillar_brazier_02.tpack,0,FALSE,FALSE,0
95,florence,NPC\npc_luxy.mesh,NPC\npc_luxy.tpack,0,FALSE,FALSE,0
96,furiechelle,NPC\npc_pidellio.mesh,NPC\npc_pidellio.tpack,0,FALSE,FALSE,0
97,gabriel,NPC\npc_calix.mesh,NPC\npc_calix.tpack,0,FALSE,FALSE,0
98,gemma,NPC\npc_luxy.mesh,NPC\npc_luxy.tpack,0,FALSE,FALSE,0
99,geoffrey,NPC\npc_yod.mesh,NPC\npc_yod.tpack,0,FALSE,FALSE,0
100,gerard,NPC\npc_hold.mesh,NPC\npc_hold.tpack,0,FALSE,FALSE,0
101,germo,NPC\npc_guardsman.mesh,NPC\npc_guardsman.tpack,0,FALSE,FALSE,0
102,gholein,NPC\npc_gholein.mesh,NPC\npc_gholein.tpack,0,FALSE,FALSE,0
103,gino,NPC\npc_pidellio.mesh,NPC\npc_pidellio.tpack,0,FALSE,FALSE,0
104,giovanni,NPC\npc_ingrid.mesh,NPC\npc_ingrid.tpack,0,FALSE,FALSE,0
105,goofy,NPC\npc_gupi.mesh,NPC\npc_gupi.tpack,0,FALSE,FALSE,0
106,goustav,NPC\npc_calix.mesh,NPC\npc_calix.tpack,0,FALSE,FALSE,0
107,gregory,NPC\npc_yod.mesh,NPC\npc_yod.tpack,0,FALSE,FALSE,0
108,guilbert,NPC\npc_pidellio.mesh,NPC\npc_pidellio.tpack,0,FALSE,FALSE,0
109,gwyneth,NPC\npc_gwyneth.mesh,NPC\npc_gwyneth.tpack,0,FALSE,FALSE,0
110,hamon,NPC\npc_noire.mesh,NPC\npc_noire.tpack,0,FALSE,FALSE,0
111,hebron,NPC\npc_hebron.mesh,NPC\npc_hebron.tpack,0,FALSE,FALSE,0
112,helmut,NPC\npc_helmut.mesh,NPC\npc_helmut.tpack,0,FALSE,FALSE,0
113,hestia,NPC\npc_luxy.mesh,NPC\npc_luxy.tpack,0,FALSE,FALSE,0
114,holde,NPC\npc_hold.mesh,NPC\npc_hold.tpack,0,FALSE,FALSE,0
115,horonaim,NPC\npc_horonaim.mesh,NPC\npc_horonaim.tpack,0,FALSE,FALSE,0
116,hosea,NPC\npc_hosea.mesh,NPC\npc_hosea.tpack,0,FALSE,FALSE,0
117,illiana,NPC\npc_capital_healer.mesh,NPC\npc_capital_healer.tpack,0,FALSE,FALSE,0
118,ingrid,NPC\npc_ingrid.mesh,NPC\npc_ingrid.tpack,0,FALSE,FALSE,0
119,isabel,NPC\npc_sonia.mesh,NPC\npc_sonia.tpack,0,FALSE,FALSE,0
120,isadora,NPC\npc_carmen.mesh,NPC\npc_carmen.tpack,0,FALSE,FALSE,0
121,isis,NPC\npc_isis.mesh,NPC\npc_isis.tpack,0,FALSE,FALSE,0
122,jackson,NPC\npc_baron.mesh,NPC\npc_baron.tpack,0,FALSE,FALSE,0
123,jajamouse,NPC\npc_gerk.mesh,NPC\npc_gerk.tpack,0,FALSE,FALSE,0
124,jawoods,NPC\skillmaster.mesh,NPC\skillmaster.tpack,0,FALSE,FALSE,0
125,jericho,NPC\npc_jericho.mesh,NPC\npc_jericho.tpack,0,FALSE,FALSE,0
126,jerome,NPC\npc_yod.mesh,NPC\npc_yod.tpack,0,FALSE,FALSE,0
127,jordan,NPC\npc_hold.mesh,NPC\npc_hold.tpack,0,FALSE,FALSE,0
128,judiana,NPC\npc_duncan.mesh,NPC\npc_duncan.tpack,0,FALSE,FALSE,0
129,julien,NPC\npc_calix.mesh,NPC\npc_calix.tpack,0,FALSE,FALSE,0
130,keilah,NPC\npc_keilah.mesh,NPC\npc_keilah.tpack,0,FALSE,FALSE,0
131,kenneth,NPC\npc_yod.mesh,NPC\npc_yod.tpack,0,FALSE,FALSE,0
132,kervin,Object\junk\npc_klaus_dead3.mesh,Object\junk\npc_klaus_dead3.tpack,0,FALSE,FALSE,0
133,kevin,NPC\npc_sonia.mesh,NPC\npc_sonia.tpack,0,FALSE,FALSE,0
134,roof,NPC\npc_re_portroof_01.mesh,NPC\npc_re_portroof_01.tpack,0,FALSE,FALSE,0
135,klaus,NPC\npc_guardsman.mesh,NPC\npc_guardsman.tpack,0,FALSE,FALSE,0
136,leopold,NPC\npc_yod.mesh,NPC\npc_yod.tpack,0,FALSE,FALSE,0
137,lodebar,NPC\npc_loderbar.mesh,NPC\npc_loderbar.tpack,0,FALSE,FALSE,0
138,lowell,NPC\npc_baron.mesh,NPC\npc_baron.tpack,0,FALSE,FALSE,0
139,luc,NPC\npc_calix.mesh,NPC\npc_calix.tpack,0,FALSE,FALSE,0
140,luka,NPC\npc_guardsman.mesh,NPC\npc_guardsman.tpack,0,FALSE,FALSE,0
141,lukas,NPC\npc_pidellio.mesh,NPC\npc_pidellio.tpack,0,FALSE,FALSE,0
142,luxy,NPC\npc_luxy.mesh,NPC\npc_luxy.tpack,0,FALSE,FALSE,0
143,makaio,NPC\npc_yod.mesh,NPC\npc_yod.tpack,0,FALSE,FALSE,0
144,mansalena,NPC\npc_mensalena.mesh,NPC\npc_mensalena.tpack,0,FALSE,FALSE,0
145,marblegate,NPC\npc_pythondoor_01.mesh,NPC\npc_pythondoor_01.tpack,0,FALSE,FALSE,0
146,marblegate_exit,NPC\npc_pythondoor_01.mesh,NPC\npc_pythondoor_01.tpack,0,FALSE,FALSE,0
147,marcelle,NPC\npc_calix.mesh,NPC\npc_calix.tpack,0,FALSE,FALSE,0
148,mariel,NPC\npc_mariel.mesh,NPC\npc_mariel.tpack,0,FALSE,FALSE,0
149,martha,NPC\npc_tanesia.mesh,NPC\npc_tanesia.tpack,0,FALSE,FALSE,0
150,matthew,NPC\npc_yod.mesh,NPC\npc_yod.tpack,0,FALSE,FALSE,0
151,mighty,NPC\npc_pidellio.mesh,NPC\npc_pidellio.tpack,0,FALSE,FALSE,0
152,molokai,NPC\npc_bingo.mesh,NPC\npc_bingo.tpack,0,FALSE,FALSE,0
153,monet,NPC\npc_guardsman.mesh,NPC\npc_guardsman.tpack,0,FALSE,FALSE,0
154,moris,NPC\npc-capital_guard.mesh,NPC\npc-capital_guard.tpack,0,FALSE,FALSE,0
155,morte,NPC\npc_morte.mesh,NPC\npc_morte.tpack,0,FALSE,FALSE,0
156,nicholas,NPC\npc_luxy.mesh,NPC\npc_luxy.tpack,0,FALSE,FALSE,0
157,niger,NPC\npc_ingrid.mesh,NPC\npc_ingrid.tpack,0,FALSE,FALSE,0
158,noire,NPC\npc_noire.mesh,NPC\npc_noire.tpack,0,FALSE,FALSE,0
159,nostra,NPC\skillmaster.mesh,NPC\skillmaster.tpack,0,FALSE,FALSE,0
160,odellia,NPC\npc_odellia.mesh,NPC\npc_odellia.tpack,0,FALSE,FALSE,0
161,oread_gate_enter,NPC\npc_bossroom-exit_01.mesh,NPC\npc_bossroom-exit_01.tpack,0,FALSE,FALSE,0
162,oread_gate_exit,NPC\npc_bossroom-exit_01.mesh,NPC\npc_bossroom-exit_01.tpack,0,FALSE,FALSE,0
163,orpheus,NPC\npc_orpheus.mesh,NPC\npc_orpheus.tpack,0,FALSE,FALSE,0
164,oscar,NPC\npc_oscar.mesh,NPC\npc_oscar.tpack,0,FALSE,FALSE,0
165,oswald,NPC\npc_sonia.mesh,NPC\npc_sonia.tpack,0,FALSE,FALSE,0
166,pablos,NPC\npc_pablos.mesh,NPC\npc_pablos.tpack,0,FALSE,FALSE,0
167,parai,NPC\npc_parai_stand.mesh,NPC\npc_parai_stand.tpack,0,FALSE,FALSE,0
168,paul,NPC\npc_calix.mesh,NPC\npc_calix.tpack,0,FALSE,FALSE,0
169,pello,NPC\npc_guardsman.mesh,NPC\npc_guardsman.tpack,0,FALSE,FALSE,0
170,pharpar,NPC\npc_yod.mesh,NPC\npc_yod.tpack,0,FALSE,FALSE,0
171,phileppe,NPC\npc_calix.mesh,NPC\npc_calix.tpack,0,FALSE,FALSE,0
172,pluto,NPC\npc_pidellio.mesh,NPC\npc_pidellio.tpack,0,FALSE,FALSE,0
173,post,NPC\post.mesh,NPC\post.tpack,0,FALSE,FALSE,0
174,raouf,NPC\npc_snow_store.mesh,NPC\npc_snow_store.tpack,0,FALSE,FALSE,0
175,rasharon,NPC\npc_rasharon.mesh,NPC\npc_rasharon.tpack,0,FALSE,FALSE,0
176,raymond,NPC\npc_calix.mesh,NPC\npc_calix.tpack,0,FALSE,FALSE,0
177,ricardo,NPC\npc-capital_guard.mesh,NPC\npc-capital_guard.tpack,0,FALSE,FALSE,0
178,ricca,NPC\npc_pidellio.mesh,NPC\npc_pidellio.tpack,0,FALSE,FALSE,0
179,robert,NPC\npc_guardsman.mesh,NPC\npc_guardsman.tpack,0,FALSE,FALSE,0
180,robo,NPC\npc_lobo.mesh,NPC\npc_lobo.tpack,0,FALSE,FALSE,0
181,sabine,NPC\npc_sonia.mesh,NPC\npc_sonia.tpack,0,FALSE,FALSE,0
182,salvatore,NPC\npc_hold.mesh,NPC\npc_hold.tpack,0,FALSE,FALSE,0
183,sanson,NPC\npc_pidellio.mesh,NPC\npc_pidellio.tpack,0,FALSE,FALSE,0
184,sealed_gate,NPC\npc_pythondoor_02.mesh,NPC\npc_pythondoor_02.tpack,0,FALSE,FALSE,0
185,sealed_gate_exit,NPC\npc_pythondoor_02.mesh,NPC\npc_pythondoor_02.tpack,0,FALSE,FALSE,0
186,secret_gate,NPC\npc_pythondoor_02.mesh,NPC\npc_pythondoor_02.tpack,0,FALSE,FALSE,0
187,secret_gate_exit,NPC\npc_pythondoor_02.mesh,NPC\npc_pythondoor_02.tpack,0,FALSE,FALSE,0
188,simba,NPC\npc_pidellio.mesh,NPC\npc_pidellio.tpack,0,FALSE,FALSE,0
189,solomon,NPC\npc_solomon.mesh,NPC\npc_solomon.tpack,0,FALSE,FALSE,0
190,sonia,NPC\npc_sonia.mesh,NPC\npc_sonia.tpack,0,FALSE,FALSE,0
191,stephan,NPC\npc_guardsman.mesh,NPC\npc_guardsman.tpack,0,FALSE,FALSE,0
192,sylvester,NPC\npc_baron.mesh,NPC\npc_baron.tpack,0,FALSE,FALSE,0
193,tanesia,NPC\npc_tanesia.mesh,NPC\npc_tanesia.tpack,0,FALSE,FALSE,0
194,tanjiawa,NPC\npc_guardsman.mesh,NPC\npc_guardsman.tpack,0,FALSE,FALSE,0
195,thuban,NPC\npc_thuban.mesh,NPC\npc_thuban.tpack,0,FALSE,FALSE,0
196,tinto,NPC\npc_capital_keep.mesh,NPC\npc_capital_keep.tpack,0,FALSE,FALSE,0
197,tishbite,NPC\npc_tishbite.mesh,NPC\npc_tishbite.tpack,0,FALSE,FALSE,0
198,tristan,NPC\npc_calix.mesh,NPC\npc_calix.tpack,0,FALSE,FALSE,0
199,valencia,NPC\npc_pidellio.mesh,NPC\npc_pidellio.tpack,0,FALSE,FALSE,0
200,valerie,NPC\npc_amie.mesh,NPC\npc_amie.tpack,0,FALSE,FALSE,0
201,varuna,NPC\npc_varuna.mesh,NPC\npc_varuna.tpack,0,FALSE,FALSE,0
202,verdi,NPC\npc_verdi.mesh,NPC\npc_verdi.tpack,0,FALSE,FALSE,0
203,victoria,NPC\npc_victoria.mesh,NPC\npc_victoria.tpack,0,FALSE,FALSE,0
204,vielt,NPC\npc_guardsman.mesh,NPC\npc_guardsman.tpack,0,FALSE,FALSE,0
205,vincent,NPC\npc_calix.mesh,NPC\npc_calix.tpack,0,FALSE,FALSE,0
206,vurabo,NPC\npc_burado.mesh,NPC\npc_burado.tpack,0,FALSE,FALSE,0
207,waldo,NPC\npc_guardsman.mesh,NPC\npc_guardsman.tpack,0,FALSE,FALSE,0
208,wallace,NPC\npc_duncan.mesh,NPC\npc_duncan.tpack,0,FALSE,FALSE,0
209,woody,NPC\npc_baron.mesh,NPC\npc_baron.tpack,0,FALSE,FALSE,0
210,yachi,NPC\npc_yachee.mesh,NPC\npc_yachee.tpack,0,FALSE,FALSE,0
211,yuki,NPC\npc_yhki.mesh,NPC\npc_yhki.tpack,0,FALSE,FALSE,0
212,yusquenie,NPC\npc_kues.mesh,NPC\npc_kues.tpack,0,FALSE,FALSE,0
213,zaviere,NPC\npc_calix.mesh,NPC\npc_calix.tpack,0,FALSE,FALSE,0
214,zemaraim,NPC\npc_zemaraim.mesh,NPC\npc_zemaraim.tpack,0,FALSE,FALSE,0
215,portal_deka,Object\Etc\gate_portal_01.mesh,Object\Etc\gate_portal_01.tpack,0,FALSE,FALSE,0
216,maze_gate,NPC\npc_pythonbelow_door.mesh,NPC\npc_pythonbelow_door.tpack,0,FALSE,FALSE,0
217,elifea_enter,NPC\npc_bossroom-exit_01.mesh,NPC\npc_bossroom-exit_01.tpack,0,FALSE,FALSE,0
218,elifea_exit,NPC\npc_bossroom-exit_01.mesh,NPC\npc_bossroom-exit_01.tpack,0,FALSE,FALSE,0
219,b_quest_board_01,NPC\npc_board.mesh,NPC\npc_board.tpack,0,FALSE,FALSE,0
220,l_quest_board_01,NPC\npc_board.mesh,NPC\npc_board.tpack,0,FALSE,FALSE,0
221,p_quest_board_02,NPC\npc_board.mesh,NPC\npc_board.tpack,0,FALSE,FALSE,0
222,d_quest_board_03,NPC\npc_board.mesh,NPC\npc_board.tpack,0,FALSE,FALSE,0
223,tatiana,NPC\npc_sonia.mesh,NPC\npc_sonia.tpack,0,FALSE,FALSE,0
224,naste,NPC\npc_luxy.mesh,NPC\npc_luxy.tpack,0,FALSE,FALSE,0
225,viracocha,NPC\NPC_BGW_skillmaster.mesh,NPC\NPC_BGW_skillmaster.tpack,0,FALSE,FALSE,0
226,kilu,NPC\npc_sonia.mesh,NPC\npc_sonia.tpack,0,FALSE,FALSE,0
227,poia,NPC\npc_luxy.mesh,NPC\npc_luxy.tpack,0,FALSE,FALSE,0
228,natos,NPC\NPC_BGW_skillmaster.mesh,NPC\NPC_BGW_skillmaster.tpack,0,FALSE,FALSE,0
229,siege,NPC\npc_war_port_01.mesh,NPC\npc_war_port_01.tpack,7,FALSE,FALSE,0
230,siege_return,NPC\npc_war_port_01.mesh,NPC\npc_war_port_01.tpack,7,FALSE,FALSE,0
231,siegnpc,NPC\npc_calix.mesh,NPC\npc_calix.tpack,0,FALSE,FALSE,0
232,c_quest_board,NPC\npc_board.mesh,NPC\npc_board.tpack,0,FALSE,FALSE,0
233,siege_repair,NPC\npc_calix.mesh,NPC\npc_calix.tpack,0,FALSE,FALSE,0
234,t_quest_board,NPC\npc_board.mesh,NPC\npc_board.tpack,0,FALSE,FALSE,0
235,juto,NPC\NPC_war_zuto_01.mesh,NPC\NPC_war_zuto_01.tpack,0,FALSE,FALSE,0
236,reezena,NPC\NPC_indun_helper.mesh,NPC\NPC_indun_helper.tpack,4,FALSE,FALSE,0
237,reezena1,NPC\NPC_indun_helper.mesh,NPC\NPC_indun_helper.tpack,5,FALSE,FALSE,0
238,small_lever,NPC\NPC_in_lever_02.mesh,NPC\NPC_in_lever_02.tpack,0,FALSE,FALSE,0
239,altar2,NPC\NPC_in_altar_02.mesh,NPC\NPC_in_altar_02.tpack,0,FALSE,FALSE,0
240,reezena2,NPC\NPC_indun_helper.mesh,NPC\NPC_indun_helper.tpack,6,FALSE,FALSE,0
241,in_gate,NPC\npc_indun-gate_02.mesh,NPC\npc_indun-gate_02.tpack,2,FALSE,FALSE,0
242,in_gate2,NPC\npc_indun-gate_01.mesh,NPC\npc_indun-gate_01.tpack,3,FALSE,FALSE,0
243,corpse,Object\junk\npc_klaus_dead3.mesh,Object\junk\npc_klaus_dead3.tpack,0,FALSE,FALSE,0
244,leonhardt,NPC\Leonhardt.mesh,NPC\Leonhardt.tpack,0,FALSE,FALSE,0
245,lorenzo,NPC\Lorenzo.mesh,NPC\Lorenzo.tpack,0,FALSE,FALSE,0
246,bastian,NPC\Leonhardt.mesh,NPC\Leonhardt.tpack,0,FALSE,FALSE,0
247,verdi,NPC\npc_verdi.mesh,NPC\npc_verdi.tpack,0,FALSE,FALSE,0
248,gibeon,NPC\npc_calix.mesh,NPC\npc_calix.tpack,0,FALSE,FALSE,0
249,door_1,NPC\NPC_in_door_01.mesh,NPC\NPC_in_door_01.tpack,0,FALSE,FALSE,0
250,door_2,NPC\NPC_in_door_02.mesh,NPC\NPC_in_door_02.tpack,0,FALSE,FALSE,0
251,lever,NPC\NPC_in_lever_01.mesh,NPC\NPC_in_lever_01.tpack,0,FALSE,FALSE,0
252,altar_2,NPC\NPC_in_altar_01.mesh,NPC\NPC_in_altar_01.tpack,0,FALSE,FALSE,0
253,in_gate_2,NPC\npc_indun-gate_01.mesh,NPC\npc_indun-gate_01.tpack,3,FALSE,FALSE,0
254,maze_a,NPC\npc_indun-gate_01.mesh,NPC\npc_indun-gate_01.tpack,3,FALSE,FALSE,0
255,maze_m,NPC\npc_indun-gate_01.mesh,NPC\npc_indun-gate_01.tpack,3,FALSE,FALSE,0
256,box_1,Monster\mon_Treasurebox_01.mesh,Monster\mon_Treasurebox_01.tpack,0,FALSE,FALSE,0
257,gate_1,NPC\NPC_picking.mesh,NPC\NPC_picking.tpack,0,FALSE,FALSE,0
258,door_3,NPC\NPC_in_door_03.mesh,NPC\NPC_in_door_03.tpack,0,FALSE,FALSE,0
259,baldur,NPC\npc_yod.mesh,NPC\npc_yod.tpack,0,FALSE,FALSE,0
260,rocky,NPC\npc_yod.mesh,NPC\npc_yod.tpack,0,FALSE,FALSE,0
261,r_quest_board,NPC\npc_board.mesh,NPC\npc_board.tpack,0,FALSE,FALSE,0
262,sergio,NPC\npc_sergio.mesh,NPC\npc_sergio.tpack,0,FALSE,FALSE,0
263,jose,NPC\npc_sergio.mesh,NPC\npc_sergio.tpack,0,FALSE,FALSE,0
264,room-door,Brick\pb_room-door_01.mesh,Brick\pb_room-door_01.tpack,0,FALSE,FALSE,0
265,training_stone,NPC\NPC_stone_01.mesh,NPC\NPC_stone_01.tpack,0,FALSE,FALSE,0
266,underground_door,Object\Building\pb_waterway_02.mesh,Object\Building\pb_waterway_02.tpack,0,FALSE,FALSE,0
267,ishtar,NPC\NPC_Ishtar.mesh,NPC\NPC_Ishtar.tpack,0,FALSE,FALSE,0
268,stacy,NPC\NPC_Stacy.mesh,NPC\NPC_Stacy.tpack,0,FALSE,FALSE,0
269,pan,NPC\NPC_Pan.mesh,NPC\NPC_Pan.tpack,0,FALSE,FALSE,0
270,merrill,NPC\NPC_Merril.mesh,NPC\NPC_Merril.tpack,0,FALSE,FALSE,0
271,richard,NPC\NPC_rechard.mesh,NPC\NPC_rechard.tpack,0,FALSE,FALSE,0
272,taylor,NPC\NPC_Taylor.mesh,NPC\NPC_Taylor.tpack,0,FALSE,FALSE,0
273,lock_gear,NPC\npc_lockger_01.mesh,NPC\npc_lockger_01.tpack,0,FALSE,FALSE,0
274,ladder,NPC\NPC_ladder_01.mesh,NPC\NPC_in_door_01.tpack,0,FALSE,FALSE,0
275,stairs_1,NPC\sh_stair_picking_01.mesh,NPC\sh_stair_picking_01.tpack,0,FALSE,FALSE,0
276,stairs_2,NPC\sh_stair_picking_01.mesh,NPC\sh_stair_picking_01.tpack,0,FALSE,FALSE,0
277,stairs_3,NPC\sh_stair_picking_01.mesh,NPC\sh_stair_picking_01.tpack,0,FALSE,FALSE,0
278,stairs_4,NPC\sh_stair_picking_01.mesh,NPC\sh_stair_picking_01.tpack,0,FALSE,FALSE,0
279,stairs_5,NPC\sh_stair_picking_01.mesh,NPC\sh_stair_picking_01.tpack,0,FALSE,FALSE,0
280,stairs_6,NPC\sh_stair_picking_01.mesh,NPC\sh_stair_picking_01.tpack,0,FALSE,FALSE,0
281,stairs_7,NPC\sh_stair_picking_01.mesh,NPC\sh_stair_picking_01.tpack,0,FALSE,FALSE,0
282,stairs_8,NPC\sh_stair_picking_01.mesh,NPC\sh_stair_picking_01.tpack,0,FALSE,FALSE,0
283,karon_3nddoor,NPC\NPC_in_lever_02.mesh,NPC\NPC_in_lever_02.tpack,0,FALSE,FALSE,0
284,karon_2door,NPC\NPC_in_lever_02.mesh,NPC\NPC_in_lever_02.tpack,0,FALSE,FALSE,0
285,karon_c2door,NPC\NPC_in_lever_02.mesh,NPC\NPC_in_lever_02.tpack,0,FALSE,FALSE,0
286,pw_desk,NPC\NPC_desk_memo.mesh,NPC\NPC_desk_memo.tpack,0,FALSE,FALSE,0
287,pw_pipe,NPC\NPC_pipe_01.mesh,NPC\NPC_pipe_01.tpack,0,FALSE,FALSE,0
288,key_desk,NPC\NPC_desk_key.mesh,NPC\NPC_desk_key.tpack,0,FALSE,FALSE,0
289,karon_door,NPC\npc_transport_ship_door_02.mesh,NPC\npc_transport_ship_door_02.tpack,0,FALSE,FALSE,0
290,seal_candle,NPC\NPC_in_lever_01.mesh,NPC\NPC_in_lever_01.tpack,0,FALSE,FALSE,0
291,nun_door,NPC\nun_bigdoor_01.mesh,NPC\nun_bigdoor_01.tpack,0,FALSE,FALSE,0
292,captain_door,NPC\NPC_captaindoor.mesh,NPC\NPC_captaindoor.tpack,0,FALSE,FALSE,0
293,spider_goddess,NPC\nun_spider_goddess_01.mesh,NPC\nun_spider_goddess_01.tpack,0,FALSE,FALSE,0
294,goddess_chair,NPC\npc_stonchair_01.mesh,NPC\npc_stonchair_01.tpack,0,FALSE,FALSE,0
295,prison_door,BRICK\sh_door_03.mesh,BRICK\sh_door_03.tpack,0,FALSE,FALSE,0
296,tes,NPC\NPC_Grina.mesh,NPC\NPC_Grina.tpack,0,FALSE,FALSE,0
297,grina,NPC\NPC_Grina.mesh,NPC\NPC_Grina.tpack,0,FALSE,FALSE,0
298,suppllydepot,NPC\NPC_warmaterial_01.mesh,NPC\NPC_warmaterial_01.tpack,0,FALSE,FALSE,0
299,slatelever,NPC\NPC_in_lever_02.mesh,NPC\NPC_in_lever_02.tpack,0,FALSE,FALSE,0
300,slate,NPC\NPC_sealingstone.mesh,NPC\NPC_sealingstone.tpack,0,FALSE,FALSE,0
301,magicbook,NPC\NPC_bookboard_01.mesh,NPC\NPC_bookboard_01.tpack,0,FALSE,FALSE,0
302,secretwall,BRICK\hiddenbrick_dp_snake_pillar_01.mesh,BRICK\hiddenbrick_dp_snake_pillar_01.tpack,0,FALSE,FALSE,0
303,deekin,NPC\npc_oscar.mesh,NPC\NPC_Deekin.tpack,0,FALSE,FALSE,0
304,herpes,NPC\Leonhardt.mesh,NPC\NPC_Herpes.tpack,0,FALSE,FALSE,0
305,imoen,NPC\NPC_Grina.mesh,NPC\NPC_Imoen.tpack,0,FALSE,FALSE,0
306,dupre,NPC\NPC_Dupre.mesh,NPC\NPC_Dupre_violet2.tpack,0,FALSE,FALSE,0
307,olson,NPC\NPC_Dupre.mesh,NPC\NPC_Dupre_brown.tpack,0,FALSE,FALSE,0
308,shamino,NPC\NPC_Dupre.mesh,NPC\NPC_Dupre.tpack,0,FALSE,FALSE,0
309,kiba,NPC\NPC_Dupre.mesh,NPC\NPC_Dupre_violet.tpack,0,FALSE,FALSE,0
310,iolo,NPC\NPC_Dupre.mesh,NPC\NPC_Dupre_yellow.tpack,0,FALSE,FALSE,0
311,fahn,NPC\NPC_Dupre.mesh,NPC\NPC_Dupre_black.tpack,0,FALSE,FALSE,0
312,heap_earth,NPC\npc_sandheap_01.mesh,NPC\npc_sandheap_01.tpack,0,FALSE,FALSE,0
313,npc_warmaterial_01,NPC\npc_warmaterial_01.mesh,NPC\npc_warmaterial_01.tpack,0,FALSE,FALSE,0
314,mystra,NPC\mystra.mesh,NPC\mystra.tpack,0,FALSE,FALSE,0
315,naima,NPC\npc_naima.mesh,NPC\npc_naima.tpack,0,FALSE,FALSE,0
316,kors,NPC\npc_kors.mesh,NPC\npc_kors.tpack,0,FALSE,FALSE,0
317,sky_gate,NPC\hl_stone_spire_01.mesh,NPC\hl_stone_spire_01.tpack,0,FALSE,FALSE,0
318,manuel,NPC\NPC_Manuel.mesh,NPC\NPC_Manuel.tpack,0,FALSE,FALSE,0
319,hl_irondoor,NPC\NPC_hl_irondoor.mesh,NPC\NPC_hl_irondoor.tpack,0,FALSE,FALSE,0
320,gisele,NPC\npc_naima.mesh,NPC\npc_naima.tpack,0,FALSE,FALSE,0
321,chain_seal,NPC\hl_chain_npc.mesh,NPC\hl_chain_npc.tpack,0,FALSE,FALSE,0
322,out_gate,NPC\ws_castle-exit-NPC.mesh,NPC\ws_castle-exit-NPC.tpack,0,FALSE,FALSE,0
323,smallstone_seal,NPC\hl_smallstone_npc.mesh,NPC\hl_smallstone_npc.tpack,0,FALSE,FALSE,0
324,npc_avatar_of_hellion,NPC\NPC_Avatar_of_Hellion.mesh,NPC\NPC_Avatar_of_Hellion.tpack,0,FALSE,FALSE,0
325,npc_undo_mazokie,NPC\NPC_Undo_Mazokie.mesh,NPC\NPC_Undo_Mazokie.tpack,0,FALSE,FALSE,0
326,npc_floatobject,NPC\npc_floatobject.mesh,NPC\npc_floatobject.tpack,0,FALSE,FALSE,0
327,p_quest_board_06,NPC\npc_board.mesh,NPC\npc_board.tpack,0,FALSE,FALSE,0
328,portal_deka_hidden,BRICK\hiddenbrick_dp_snake_pillar_01.mesh,BRICK\hiddenbrick_dp_snake_pillar_01.tpack,0,FALSE,FALSE,0
329,pache,NPC\NPC_Pache.mesh,NPC\NPC_Pache.tpack,0,FALSE,FALSE,0
330,doorlever,NPC\NPC_cf_lever_01.mesh,NPC\NPC_cf_lever_01.tpack,0,FALSE,FALSE,0
331,unknownstatue_m,NPC\NPC_cf_indunstatue.mesh,NPC\NPC_cf_indunstatue.tpack,0,FALSE,FALSE,0
332,sphinx,NPC\NPC_re_sphinx.mesh,NPC\NPC_re_sphinx.tpack,0,FALSE,FALSE,0
333,unknownstatue_w,NPC\NPC_cf_indunstatue_w.mesh,NPC\NPC_cf_indunstatue_w.tpack,0,FALSE,FALSE,0
334,karon_c_quest_board,NPC\NPC_re_treasurebox.mesh,NPC\NPC_re_treasurebox.tpack,0,FALSE,FALSE,0
335,udet,NPC\NPC_Wolff.mesh,NPC\NPC_Wolff.tpack,0,FALSE,FALSE,0
336,galland,NPC\NPC_Galland.mesh,NPC\NPC_Galland.tpack,0,FALSE,FALSE,0
337,dolke,NPC\NPC_Dolke.mesh,NPC\NPC_Dolke.tpack,0,FALSE,FALSE,0
338,loadrion,NPC\NPC_loadrion.mesh,NPC\NPC_loadrion.tpack,0,FALSE,FALSE,0
339,lozen,NPC\NPC_Dupre.mesh,NPC\NPC_Dupre_red.tpack,0,FALSE,FALSE,0
340,maia,NPC\NPC_Maia.mesh,NPC\NPC_Maia.tpack,0,FALSE,FALSE,0
341,lucy,NPC\npc_sonia.mesh,NPC\npc_sonia.tpack,0,FALSE,FALSE,0
342,tanya,NPC\npc_luxy.mesh,NPC\npc_luxy.tpack,0,FALSE,FALSE,0
343,ainu,NPC\NPC_Maia.mesh,NPC\NPC_Maia.tpack,0,FALSE,FALSE,0
344,nean,NPC\npc_sonia.mesh,NPC\npc_sonia.tpack,0,FALSE,FALSE,0
345,rose,NPC\npc_luxy.mesh,NPC\npc_luxy.tpack,0,FALSE,FALSE,0
346,peter,NPC\NPC_Peter.mesh,NPC\NPC_Peter.tpack,0,FALSE,FALSE,0
347,victor,NPC\NPC_Bigtor.mesh,NPC\NPC_Bigtor.tpack,0,FALSE,FALSE,0
348,volken,NPC\NPC_Bigtor.mesh,NPC\NPC_Bigtor.tpack,0,FALSE,FALSE,0
349,muras,NPC\NPC_Bigtor.mesh,NPC\NPC_Morgun.tpack,0,FALSE,FALSE,0
350,rondo,NPC\NPC_Bigtor.mesh,NPC\NPC_Morgun.tpack,0,FALSE,FALSE,0
351,gazro,NPC\NPC_Agency.mesh,NPC\NPC_Agency.tpack,0,FALSE,FALSE,0
352,belro,NPC\NPC_Agency.mesh,NPC\NPC_Agency.tpack,0,FALSE,FALSE,0
353,hun,NPC\NPC_Agency.mesh,NPC\NPC_Agency.tpack,0,FALSE,FALSE,0
354,ason,NPC\NPC_Agency.mesh,NPC\NPC_Agency.tpack,0,FALSE,FALSE,0
355,vess,NPC\NPC_Agency.mesh,NPC\NPC_Agency.tpack,0,FALSE,FALSE,0
356,dolpe,NPC\NPC_Agency.mesh,NPC\NPC_Agency.tpack,0,FALSE,FALSE,0
357,ray,NPC\NPC_Agency.mesh,NPC\NPC_Agency.tpack,0,FALSE,FALSE,0
358,brank,NPC\NPC_Agency.mesh,NPC\NPC_Agency.tpack,0,FALSE,FALSE,0
359,morgun,NPC\npc_guardsman.mesh,NPC\npc_guardsman.tpack,0,FALSE,FALSE,0
360,wayber,NPC\npc_guardsman.mesh,NPC\npc_guardsman.tpack,0,FALSE,FALSE,0
361,genta,NPC\npc_blacksmith.mesh,NPC\npc_blacksmith.tpack,0,FALSE,FALSE,0
362,dabennu,NPC\NPC_Dolke.mesh,NPC\NPC_Dolke.tpack,0,FALSE,FALSE,0
363,potal_ds_npc_a,NPC\npc_pythonbelow_door.mesh,NPC\npc_pythonbelow_door.tpack,0,FALSE,FALSE,0
364,doorlever,NPC\NPC_in_lever_01.mesh,NPC\NPC_in_lever_01.tpack,0,FALSE,FALSE,0
365,reezena,NPC\NPC_indun_helper.mesh,NPC\NPC_indun_helper.tpack,0,FALSE,FALSE,0
366,maze_gate2,NPC\npc_pythonbelow_door.mesh,NPC\npc_pythonbelow_door.tpack,0,FALSE,FALSE,0
367,entria,NPC\npc_yod.mesh,NPC\npc_yod.tpack,0,FALSE,FALSE,0
368,sadron,NPC\NPC_SADRON.mesh,NPC\NPC_SADRON.tpack,0,FALSE,FALSE,0
369,heidi,NPC\NPC_HEIDI.mesh,NPC\NPC_HEIDI.tpack,0,FALSE,FALSE,0
370,audrina,NPC\NPC_AUDRINA.mesh,NPC\NPC_AUDRINA.tpack,0,FALSE,FALSE,0
371,stenree,NPC\NPC_Stenree.mesh,NPC\NPC_Stenree.tpack,0,FALSE,FALSE,0
372,ds_gate,NPC\npc_pythonbelow_door.mesh,NPC\npc_pythonbelow_door.tpack,0,FALSE,FALSE,0
373,chef_joongsin,NPC\NPC_chef.mesh,NPC\NPC_chef.tpack,0,FALSE,FALSE,0
374,lauren,NPC\NPC_Lauren.mesh,NPC\NPC_Lauren.tpack,0,FALSE,FALSE,0
375,buruzum,NPC\NPC_Buruzum.mesh,NPC\NPC_Buruzum.tpack,0,FALSE,FALSE,0
376,morchant,NPC\NPC_Morchant.mesh,NPC\NPC_Morchant.tpack,0,FALSE,FALSE,0
377,a_quest_board_01,NPC\npc_board.mesh,NPC\npc_board.tpack,0,FALSE,FALSE,0
378,bainadar,NPC\NPC_BAINADAR.mesh,NPC\NPC_BAINADAR.tpack,0,FALSE,FALSE,0
379,mainstone,NPC\NPC_eg_mainstone.mesh,NPC\NPC_eg_mainstone.tpack,0,FALSE,FALSE,0
380,jesica,NPC\NPC_Jesica.mesh,NPC\NPC_Jesica.tpack,0,FALSE,FALSE,0
381,tomb_stone,NPC\NPC_TOMBSTONE.mesh,NPC\NPC_TOMBSTONE.tpack,0,FALSE,FALSE,0
382,mirden,NPC\NPC_Grina.mesh,NPC\NPC_Grina.tpack,0,FALSE,FALSE,0
383,michell,NPC\NPC_Grina.mesh,NPC\NPC_Grina.tpack,0,FALSE,FALSE,0
384,orphina,Brick\ORPHINA.mesh,Brick\ORPHINA2.tpack,0,FALSE,FALSE,0
385,npc_d_potalstone,NPC\NPC_d_portalstone.mesh,NPC\NPC_TOMBSTONE.tpack,0,FALSE,FALSE,0
386,darua,NPC\NPC_Darua.mesh,NPC\NPC_Darua.tpack,0,FALSE,FALSE,0
387,bader,Monster\Hell_GhostNight.mesh,NPC\NPC_Bader.tpack,0,FALSE,FALSE,0
388,bs,Object\Etc\Back_Manuel_01.mesh,Object\Etc\Back_Manuel_01.tpack,0,FALSE,FALSE,0
389,hyun,NPC\s_centercircle_a01.mesh,NPC\NPC_TOMBSTONE.tpack,0,FALSE,FALSE,0
390,darua_book,NPC\s_a_table_01_npc.mesh,NPC\NPC_TOMBSTONE.tpack,0,FALSE,FALSE,0
391,black_dragon_gate,NPC\npc_human_size.mesh,NPC\NPC_TOMBSTONE.tpack,0,FALSE,FALSE,0
392,tenkar,Monster\tentacle.mesh,Monster\tentacle.tpack,0,FALSE,FALSE,0
393,abyss_lever,NPC\NPC_s_in_sealpiller.mesh,NPC\NPC_TOMBSTONE.tpack,0,FALSE,FALSE,0
394,abici,Monster\vassago.mesh,Monster\vassago.tpack,0,FALSE,FALSE,0
395,deadman,Monster\eagerhand.mesh,Monster\eagerhand.tpack,0,FALSE,FALSE,0
396,stormbain,Monster\Geb.mesh,Monster\Geb.tpack,0,FALSE,FALSE,0
397,solon,Monster\Vadjra.mesh,Monster\Vadjra.tpack,0,FALSE,FALSE,0
398,ellon,Monster\Pyron.mesh,Monster\Pyron.tpack,0,FALSE,FALSE,0
399,salon,Monster\Grieve_Manes.mesh,Monster\Lament_Manes.tpack,0,FALSE,FALSE,0
400,carlsberg,NPC\NPC_CARLSBERG.mesh,NPC\NPC_CARLSBERG.tpack,0,FALSE,FALSE,0
401,hyun_01,Object\Building_extra\s_in_sealpiller_middle.mesh,Object\Building_extra\s_in_sealpiller_middle.tpack,0,FALSE,FALSE,0
402,darkseal_bossgate,NPC\npc_pb_bossroom_exit_01.mesh,NPC\npc_pb_bossroom_exit_01.tpack,0,FALSE,FALSE,0
403,towerindun_1fboss,Brick\to_underboss_statue.mesh,Brick\to_underboss_statue.tpack,0,FALSE,FALSE,0
404,potal_enter,NPC\potal_enter.mesh,NPC\NPC_TOMBSTONE.tpack,0,FALSE,FALSE,0
405,cruiser,NPC\NPC_CARLSBERG.mesh,NPC\NPC_Cruiser.tpack,0,FALSE,FALSE,0
406,nill,Monster\aeshma_hunter.mesh,Monster\aeshma_hunter.tpack,0,FALSE,FALSE,0
407,yansen,Monster\aeshma_fighter.mesh,Monster\aeshma_fighter.tpack,0,FALSE,FALSE,0
408,in_gate2,NPC\npc_indun-gate_01.mesh,NPC\npc_indun-gate_01.tpack,3,FALSE,FALSE,0
409,in_gate2,NPC\npc_indun-gate_01.mesh,NPC\npc_indun-gate_01.tpack,3,FALSE,FALSE,0
410,reezena,NPC\NPC_indun_helper.mesh,NPC\NPC_indun_helper.tpack,4,FALSE,FALSE,0
411,reezena,NPC\NPC_indun_helper.mesh,NPC\NPC_indun_helper.tpack,4,FALSE,FALSE,0
412,hl_bpotal,NPC\NPC_hl_bpotal.mesh,NPC\NPC_TOMBSTONE.tpack,0,FALSE,FALSE,0
413,hl_bpotal,NPC\NPC_hl_bpotal.mesh,NPC\NPC_TOMBSTONE.tpack,0,FALSE,FALSE,0
414,dauto,NPC\NPC_Dauto.mesh,NPC\NPC_Dauto.tpack,0,FALSE,FALSE,0
415,maneuver,NPC\NPC_Maneuver.mesh,NPC\NPC_Maneuver.tpack,0,FALSE,FALSE,0
416,logi,NPC\NPC_Logi.mesh,NPC\NPC_Logi.tpack,0,FALSE,FALSE,0
417,sneak,NPC\NPC_Sneak.mesh,NPC\NPC_Sneak.tpack,0,FALSE,FALSE,0
418,fa_besuck_01,Npc\npc_fa_besuck_01.mesh,Npc\npc_fa_besuck_01.tpack,0,FALSE,FALSE,0
418,dragon_jewel_eye,npc\NPC_dragon_jewel_eye.mesh,NPC\NPC_TOMBSTONE.tpack,0,FALSE,FALSE,0
419,delios,NPC\NPC_Dupre.mesh,NPC\NPC_Dupre_cyan.tpack,0,FALSE,FALSE,0
420,leonard,NPC\npc_blake.mesh,NPC\npc_blake02.tpack,0,FALSE,FALSE,0
421,lawrence,NPC\Leonhardt.mesh,NPC\leonhardt02.tpack,0,FALSE,FALSE,0
422,ferdianand,NPC\NPC_Undo_Mazokie.mesh,NPC\NPC_Undo_Mazokie02.tpack,0,FALSE,FALSE,0
423,undo_statue,Object\Building\cl_undo_mazokie_stone.mesh,Object\Building\cl_undo_mazokie_stone.tpack,0,FALSE,FALSE,0
424,al_gambler,npc\NPC_Al_Gambler.mesh,npc\NPC_Al_Gambler.tpack,0,FALSE,FALSE,0
424,nilson,NPC\npc_icecastle.mesh,NPC\npc_icecastle_violet2.tpack,0,FALSE,FALSE,0
425,wolf1left,Object\Building_extra\dp2_wolfhand_01.mesh,Object\Building_extra\dp2_wolfhand_01.tpack,0,FALSE,FALSE,0
426,wolf1right,Object\Building_extra\dp2_wolfhand_01.mesh,Object\Building_extra\dp2_wolfhand_01.tpack,0,FALSE,FALSE,0
427,lever1,NPC\NPC_in_lever_02.mesh,NPC\NPC_in_lever_02.tpack,0,FALSE,FALSE,0
428,wolf2left,Object\Building_extra\dp2_wolfhand_01.mesh,Object\Building_extra\dp2_wolfhand_01.tpack,0,FALSE,FALSE,0
429,wolf2right,Object\Building_extra\dp2_wolfhand_01.mesh,Object\Building_extra\dp2_wolfhand_01.tpack,0,FALSE,FALSE,0
430,lever2,NPC\NPC_in_lever_02.mesh,NPC\NPC_in_lever_02.tpack,0,FALSE,FALSE,0
431,asra,Object\Building_extra\dp2_asla.mesh,Object\Building_extra\dp2_asla.tpack,0,FALSE,FALSE,0
432,koen,NPC\npc_icecastle.mesh,NPC\npc_icecastle_brown.tpack,0,FALSE,FALSE,0
433,murk,NPC\npc_icecastle.mesh,NPC\npc_icecastle_blue.tpack,0,FALSE,FALSE,0
434,cloud,NPC\npc_icecastle.mesh,NPC\npc_icecastle_violet.tpack,0,FALSE,FALSE,0
435,yonsi,NPC\npc_icecastle.mesh,NPC\npc_icecastle_yellow.tpack,0,FALSE,FALSE,0
436,elrio,NPC\npc_icecastle.mesh,NPC\npc_icecastle_grey.tpack,0,FALSE,FALSE,0
437,benson,NPC\npc_icecastle.mesh,NPC\npc_icecastle_red.tpack,0,FALSE,FALSE,0
438,rodios,NPC\npc_icecastle.mesh,NPC\npc_icecastle_cyan.tpack,0,FALSE,FALSE,0
439,sarina,NPC\NPC_Grina.mesh,NPC\NPC_Imoen.tpack,0,FALSE,FALSE,0
440,kyra,NPC\NPC_Skillmaster_Concerra.mesh,NPC\NPC_Skillmaster_Concerra.tpack,0,FALSE,FALSE,0
441,leslie,NPC\npc_skillmaster_Segeuriper.mesh,NPC\npc_skillmaster_Segeuriper.tpack,0,FALSE,FALSE,0
442,justin,NPC\NPC_Justin.mesh,NPC\NPC_Justin.tpack,0,FALSE,FALSE,0
443,nomada,NPC\NPC_bodyguard_knight.mesh,NPC\NPC_bodyguard_knight.tpack,0,FALSE,FALSE,0
444,matereu,NPC\NPC_Mater.mesh,NPC\NPC_Mater.tpack,0,FALSE,FALSE,0
445,sochiuse,NPC\npc_human_bigsize.mesh,NPC\NPC_TOMBSTONE.tpack,0,FALSE,FALSE,0
446,sochiuse_effect,NPC\NPC_bodyguard_knight.mesh,NPC\NPC_bodyguard_knight.tpack,0,FALSE,FALSE,0
447,vinaelle_paray,NPC\NPC_Vinaelle_Faray.mesh,NPC\NPC_Vinaelle_Faray.tpack,0,FALSE,FALSE,0
448,priest_man,Monster\Drabiss_volk.mesh,Monster\Drabiss_volk.tpack,0,FALSE,FALSE,0
449,priest_woman,NPC\NPC_Tempus.mesh,Monster\Tempus.tpack,0,FALSE,FALSE,0
450,dravis_guard,NPC\NPC_Drabiss_Warrior.mesh,Monster\Drabiss_Warrior.tpack,0,FALSE,FALSE,0
451,tempexDele,NPC\NPC_Drabiss_Warrior.mesh,Monster\Drabiss_Warrior.tpack,0,FALSE,FALSE,0
452,drahn,NPC\npc_dr_an.mesh,NPC\npc_dr_an.tpack,0,FALSE,FALSE,0
453,rudolph,NPC\NPC_RUDOLPH.mesh,NPC\NPC_RUDOLPH.tpack,0,FALSE,FALSE,0
454,zite,npc\NPC_ZITE.mesh,npc\NPC_ZITE.tpack,0,FALSE,FALSE,0
455,valentine,NPC\NPC_Valentine.mesh,NPC\NPC_Valentine.tpack,0,FALSE,FALSE,0
456,cathy,NPC\NPC_KATHY.mesh,NPC\NPC_KATHY.tpack,0,FALSE,FALSE,0
457,yukata,Item\Costume\ARC_EQU_C_YUKATA.mesh,Item\Costume\NPC_ARC_EQU_C_YUKATA.tpack,0,FALSE,FALSE,0
458,hapi,NPC\NPC_indun_helper.mesh,NPC\NPC_indun_helper.tpack,6,FALSE,FALSE,0
459,jakhan,NPC\npc_dr_an.mesh,NPC\npc_dr_an.tpack,0,FALSE,FALSE,0
460,garion_choi,NPC\npc_garion_choi.mesh,NPC\npc_garion_choi.tpack,0,FALSE,FALSE,0
461,eva_riana,npc\NPC_EVA_RIANA.mesh,npc\NPC_EVA_RIANA.tpack,0,FALSE,FALSE,0
462,ciena_otin,npc\NPC_CIENA_OTIN.mesh,npc\NPC_CIENA_OTIN.tpack,0,FALSE,FALSE,0
463,rombart_genzo,npc\NPC_ROMBART_GENZO.mesh,npc\NPC_ROMBART_GENZO.tpack,0,FALSE,FALSE,0
464,kambila_batu,npc\NPC_KAMBILA_BATU.mesh,npc\NPC_KAMBILA_BATU.tpack,0,FALSE,FALSE,0
465,tamala,npc\NPC_TAMALA.mesh,npc\NPC_TAMALA.tpack,0,FALSE,FALSE,0
466,incar_wing,npc\NPC_INCAR_WING.mesh,npc\NPC_INCAR_WING.tpack,0,FALSE,FALSE,0
467,python_indun,Monster\py_statue_l_01.mesh,Monster\py_statue_l_01.tpack,0,FALSE,FALSE,0
468,falldown,Monster\Decayed_Progressor.mesh,Monster\Decayed_Progressor.tpack,0,FALSE,FALSE,0
469,rondow,NPC\NPC_SOUL_OF_RONDOW.mesh,NPC\NPC_SOUL_OF_RONDOW.tpack,0,FALSE,FALSE,0
470,barrel,NPC\ml_pub_barrel_01.mesh,NPC\ml_pub_barrel_01.tpack,0,FALSE,FALSE,0
471,grill,NPC\ml_pub_grill.mesh,NPC\ml_pub_grill.tpack,0,FALSE,FALSE,0
472,wedding,NPC\NPC_WEDDING.mesh,NPC\NPC_WEDDING.tpack,0,FALSE,FALSE,0
473,torah,NPC\NPC_Mitera_priest_Torah.mesh,NPC\NPC_Mitera_priest_Torah.tpack,0,FALSE,FALSE,0
474,m_resi,NPC\NPC_Mitera_resident.mesh,NPC\NPC_Mitera_resident.tpack,0,FALSE,FALSE,0
475,w_resi,NPC\NPC_Mitera_W_resident.mesh,NPC\NPC_Mitera_W_resident.tpack,0,FALSE,FALSE,0
476,ranelin,NPC\NPC_Dragon_Knight.mesh,NPC\NPC_Dragon_Knight.tpack,0,FALSE,FALSE,0
477,elin,NPC\NPC_elin.mesh,NPC\NPC_elin.tpack,0,FALSE,FALSE,0
478,priest,NPC\NPC_Mitera_pries.mesh,NPC\NPC_Mitera_pries.tpack,0,FALSE,FALSE,0
479,priest2,NPC\NPC_Mitera_pries_2.mesh,NPC\NPC_Mitera_pries_2.tpack,0,FALSE,FALSE,0
480,pnan_m,NPC\NPC_refugee_man.mesh,NPC\NPC_refugee_man.tpack,0,FALSE,FALSE,0
481,pnan_w,NPC\NPC_refugee_woman.mesh,NPC\NPC_refugee_woman.tpack,0,FALSE,FALSE,0
482,pnan_c,NPC\NPC_refugee_boy.mesh,NPC\NPC_refugee_boy.tpack,0,FALSE,FALSE,0
483,m_soldeier,NPC\NPC_Mitera_soldier.mesh,NPC\NPC_Mitera_soldier.tpack,0,FALSE,FALSE,0
484,garion,NPC\NPC_Dragon_Knight_GARION.mesh,NPC\NPC_Dragon_Knight_GARION.tpack,0,FALSE,FALSE,0
485,deer,Monster\Event_mob01.mesh,Monster\Event_mob01.tpack,0,FALSE,FALSE,0
486,dead_record,Monster\Dragon_Knight.skel,Monster\Dragon_Knight.tpack,0,FALSE,FALSE,0
487,deer_eff,Monster\Event_mob01.mesh,Monster\Event_mob01.tpack,469,FALSE,FALSE,0
489,hurt,NPC\NPC_Mitera_soldier_02_2.mesh,NPC\NPC_Mitera_soldier_02_2.tpack,0,FALSE,FALSE,0
490,hurt_lie,NPC\NPC_Mitera_soldier_02_1.mesh,NPC\NPC_Mitera_soldier_02_1.tpack,0,FALSE,FALSE,0
491,karon_santa,Monster\Karon_Santa.mesh,Monster\Karon_Santa_green.tpack,0,FALSE,FALSE,0
492,meister,NPC\NPC_CHANGE_JOB.mesh,NPC\NPC_CHANGE_JOB.tpack,0,FALSE,FALSE,0
493,darse_acato_enter,NPC\NPC_CHANGE_JOB_WEAPON.mesh,NPC\NPC_CHANGE_JOB_WEAPON.tpack,0,FALSE,FALSE,0
494,avt_knight,Item\Costume\SWD_EQU_C008.mesh,Item\Costume\SWD_EQU_C008.tpack,0,FALSE,FALSE,0
495,avt_hunter,Item\Costume\ARC_EQU_C008.mesh,Item\Costume\ARC_EQU_C008.tpack,0,FALSE,FALSE,0
496,avt_magician,Item\Costume\SOR_EQU_C008.mesh,Item\Costume\SOR_EQU_C008.tpack,0,FALSE,FALSE,0
497,avt_summoner,Item\Costume\SUM_EQU_C008.mesh,Item\Costume\SUM_EQU_C008.tpack,0,FALSE,FALSE,0
498,avt_segnalle,Item\Costume\HIL_EQU_C008.mesh,Item\Costume\HIL_EQU_C008.tpack,0,FALSE,FALSE,0
499,avt_warrior,Item\Costume\WAR_EQU_C008.mesh,Item\Costume\WAR_EQU_C008.tpack,0,FALSE,FALSE,0
500,avt_aloken,Item\Costume\ALO_EQU_C008.mesh,Item\Costume\ALO_EQU_C008.tpack,0,FALSE,FALSE,0
501,avt_female_summoner,Item\Costume\WSU_EQU_C008.mesh,Item\Costume\WSU_EQU_C008.tpack,0,FALSE,FALSE,0
502,avt_male_segnalle,Item\Costume\MSE_EQU_C008.mesh,Item\Costume\MSE_EQU_C008.tpack,0,FALSE,FALSE,0
503,avt_male_magician,Item\Costume\BWZ_EQU_C008.mesh,Item\Costume\BWZ_EQU_C008.tpack,0,FALSE,FALSE,0
504,avt_female_warrior,Item\Costume\HWA_EQU_C008.mesh,Item\Costume\HWA_EQU_C008.tpack,0,FALSE,FALSE,0
505,avt_female_knight,Item\Costume\drg_equ_cos_008.mesh,Item\Costume\drg_equ_cos_008.tpack,0,FALSE,FALSE,0
506,football,NPC\NPC_football.mesh,Monster\pet_football.tpack,0,FALSE,FALSE,0
507,dragon_egg_effect,NPC\NPC_DRAGON_EGG.mesh,NPC\NPC_TOMBSTONE.tpack,0,FALSE,FALSE,0
508,dragon_knight,npc\NPC_DRG.mesh,npc\NPC_DRG.tpack,0,FALSE,FALSE,0
509,legend_knight,Item\Armor\AWK\SWD_AWK_02.mesh,Item\Armor\AWK\SWD_AWK_02.tpack,0,FALSE,FALSE,0
510,legend_hunter,Item\Armor\AWK\ARC_AWK_02.mesh,Item\Armor\AWK\ARC_AWK_02.tpack,0,FALSE,FALSE,0
511,legend_magician,Item\Armor\AWK\SOR_AWK_02.mesh,Item\Armor\AWK\SOR_AWK_02.tpack,0,FALSE,FALSE,0
512,legend_summoner,Item\Armor\AWK\SUM_AWK_02.mesh,Item\Armor\AWK\SUM_AWK_02.tpack,0,FALSE,FALSE,0
513,legend_segnalle,Item\Armor\AWK\HIL_AWK_02.mesh,Item\Armor\AWK\HIL_AWK_02.tpack,0,FALSE,FALSE,0
514,legend_warrior,Item\Armor\AWK\WAR_AWK_02.mesh,Item\Armor\AWK\WAR_AWK_02.tpack,0,FALSE,FALSE,0
515,legend_aloken,Item\Armor\AWK\ALO_AWK_02.mesh,Item\Armor\AWK\ALO_AWK_02.tpack,0,FALSE,FALSE,0
516,legend_female_summoner,Item\Armor\AWK\WSU_AWK_02.mesh,Item\Armor\AWK\WSU_AWK_02.tpack,0,FALSE,FALSE,0
517,legend_male_segnalle,Item\Armor\AWK\MSE_AWK_02.mesh,Item\Armor\AWK\MSE_AWK_02.tpack,0,FALSE,FALSE,0
518,legend_male_magician,Item\Armor\AWK\BWZ_AWK_02.mesh,Item\Armor\AWK\BWZ_AWK_02.tpack,0,FALSE,FALSE,0
519,legend_female_warrior,Item\Armor\AWK\HWA_AWK_02.mesh,Item\Armor\AWK\HWA_AWK_02.tpack,0,FALSE,FALSE,0
520,legend_female_knight,Item\Armor\AWK\DRG_AWK_02.mesh,Item\Armor\AWK\DRG_AWK_02.tpack,0,FALSE,FALSE,0
