<window>
	name			stateseting
	enable			true
	visible			true
	layer			20
	rect			0 0 644 374
	modal			true
	layertype		normal
	<panel>
		id			pan_state
		enable		true
		visible		true
		layer		103
		rect		0 0  322 374
		<image>
			key		0
			screen	State
			index	4
		</image>
		<label>
			id			lbl_title
			enable		true
			visible		true
			layer		50
			align		center
			rect		119 13 80 14
			<title>
				color		ffffffff
				fontIndex	4
				text2 		270 30
			</title>
		</label>
		<button>
			id			btn_exit
			enable		true
			visible		true
			layer		100
			type		0
			rect		298 13 15 15

			sound  0
			<image>
				key		0
				screen	etc_01
				index		315

			</image>
			<image>
				key		over
				screen	etc_01
				index		316

			</image>
			<image>
				key		down
				screen	etc_01
				index		317

			</image>
		</button>
		<label>
			id			lbl_tagStr
			enable		true
			visible		true
			layer		101
			align 		center
			rect		22 37 45 14
			<title>
				color		ffffffff
				fontIndex	4
				text2 		270 7
			</title>
		</label>
		<label>
			id			lbl_str
			enable		true
			visible		true
			layer		101
			align 		center
			rect		22 56 45 14
			<title>
				color		ffffffff
				fontIndex	2
			</title>
		</label>
		<label>
			id			lbl_str_add
			enable		true
			visible		true
			layer		101
			rect		25 80 45 14
			<title>
				color		ffffffff
				fontIndex	2
			</title>
		</label>
		<button>
			id			btn_str_up
			enable		true
			visible		true
			layer		100
			type		0
			rect		68 53 12 12
			<image>
				key		0
				screen	etc_01
				index	19
			</image>
			<image>
				key		over
				screen	etc_01
				index	20
			</image>
			<image>
				key		down
				screen	etc_01
				index	21
			</image>
			<image>
				key		disable
				screen	etc_01
				index	18
			</image>
		</button>
		<button>
			id			btn_str_down
			enable		true
			visible		true
			layer		100
			type		0
			rect		68 65 12 12
			<image>
				key		0
				screen	etc_01
				index	15
			</image>
			<image>
				key		over
				screen	etc_01
				index	16
			</image>
			<image>
				key		down
				screen	etc_01
				index	17
			</image>
			<image>
				key		disable
				screen	etc_01
				index	14
			</image>
		</button>
		
		<label>
			id			lbl_tagDex
			enable		true
			visible		true
			layer		101
			align 		center
			rect		92 35 45 14
			<title>
				color		ffffffff
				fontIndex	4
				text2 		270 8
			</title>
		</label>
		<label>
			id			lbl_dex
			enable		true
			visible		true
			layer		101
			align 		center
			rect		92 55 45 14
			<title>
				color		ffffffff
				fontIndex	2
			</title>
		</label>
		<label>
			id			lbl_dex_add
			enable		true
			visible		true
			layer		101
			rect		94 80 45 14
			<title>
				color		ffffffff
				fontIndex	2
			</title>
		</label>
		<button>
			id			btn_dex_up
			enable		true
			visible		true
			layer		100
			type		0
			rect		139 53 12 12
			<image>
				key		0
				screen	etc_01
				index	19
			</image>
			<image>
				key		over
				screen	etc_01
				index	20
			</image>
			<image>
				key		down
				screen	etc_01
				index	21
			</image>
			<image>
				key		disable
				screen	etc_01
				index	18
			</image>
		</button>
		<button>
			id			btn_dex_down
			enable		true
			visible		true
			layer		100
			type		0
			rect		139 65 12 12
			<image>
				key		0
				screen	etc_01
				index	15
			</image>
			<image>
				key		over
				screen	etc_01
				index	16
			</image>
			<image>
				key		down
				screen	etc_01
				index	17
			</image>
			<image>
				key		disable
				screen	etc_01
				index	14
			</image>
		</button>
		
		<label>
			id			lbl_tagCon
			enable		true
			visible		true
			layer		101
			align 		center
			rect		169 37 45 14
			<title>
				color		ffffffff
				fontIndex	4
				text2 		270 9
			</title>
		</label>
		<label>
			id			lbl_con
			enable		true
			visible		true
			layer		101
			align 		center
			rect		169 56 45 14
			<title>
				color		ffffffff
				fontIndex	2
			</title>
		</label>
		<label>
			id			lbl_con_add
			enable		true
			visible		true
			layer		101
			rect		169 80 45 14
			<title>
				color		ffffffff
				fontIndex	2
			</title>
		</label>
		<button>
			id			btn_con_up
			enable		true
			visible		true
			layer		100
			type		0
			rect		215 53 12 12
			<image>
				key		0
				screen	etc_01
				index	19
			</image>
			<image>
				key		over
				screen	etc_01
				index	20
			</image>
			<image>
				key		down
				screen	etc_01
				index	21
			</image>
			<image>
				key		disable
				screen	etc_01
				index	18
			</image>
		</button>
		<button>
			id			btn_con_down
			enable		true
			visible		true
			layer		100
			type		0
			rect		215 65 12 12
			<image>
				key		0
				screen	etc_01
				index	15
			</image>
			<image>
				key		over
				screen	etc_01
				index	16
			</image>
			<image>
				key		down
				screen	etc_01
				index	17
			</image>
			<image>
				key		disable
				screen	etc_01
				index	14
			</image>
		</button>
		
		<label>
			id			lbl_tagSpr
			enable		true
			visible		true
			layer		101
			align 		center
			rect		244 37 45 14
			<title>
				color		ffffffff
				fontIndex	4
				text2 		270 10
			</title>
		</label>
		<label>
			id			lbl_spr
			enable		true
			visible		true
			layer		101
			align 		center
			rect		244 56 45 14
			<title>
				color		ffffffff
				fontIndex	2
			</title>
		</label>
		<label>
			id			lbl_spr_add
			enable		true
			visible		true
			layer		101
			rect		244 80 45 14
			<title>
				color		ffffffff
				fontIndex	2
			</title>
		</label>
		<button>
			id			btn_spr_up
			enable		true
			visible		true
			layer		100
			type		0
			rect		289 53 12 12
			<image>
				key		0
				screen	etc_01
				index	19
			</image>
			<image>
				key		over
				screen	etc_01
				index	20
			</image>
			<image>
				key		down
				screen	etc_01
				index	21
			</image>
			<image>
				key		disable
				screen	etc_01
				index	18
			</image>
		</button>
		<button>
			id			btn_spr_down
			enable		true
			visible		true
			layer		100
			type		0
			rect		289 65 12 12
			<image>
				key		0
				screen	etc_01
				index	15
			</image>
			<image>
				key		over
				screen	etc_01
				index	16
			</image>
			<image>
				key		down
				screen	etc_01
				index	17
			</image>
			<image>
				key		disable
				screen	etc_01
				index	14
			</image>
		</button>
		
		<label>
			id			lbl_tagStatPoint
			enable		true
			visible		true
			layer		101
			rect		96 105 74 14
			<title>
				color		ffffffff
				fontIndex	4
				text2 		270 31
			</title>
		</label>
		<label>
			id			lbl_statpoint
			enable		true
			visible		true
			layer		101
			align 		center
			rect		165 105 48 14
			<title>
				color		ffffffff
				fontIndex	2
			</title>
		</label>
		
		<label>
			id			lbl_tagPreview
			enable		true
			visible		true
			layer		101
			rect		123 140 83 14
			<title>
				color		ffffffff
				fontIndex	4
				text2 		270 32
			</title>
		</label>
		<label>
			id			lbl_tagHp
			enable		true
			visible		true
			layer		101
			align		right
			rect		23 159 65 15
			<title>
				color		ffffffff
				fontIndex	4
				text2 		270 18
			</title>
		</label>
		<label>
			id			lbl_hp_before
			enable		true
			visible		true
			layer		101
			rect		94 158 85 14
			<title>
				color		ffffffff
				fontIndex	2
			</title>
		</label>
		<label>
			id			lbl_hp_after
			enable		true
			visible		true
			layer		101
			rect		197 158 85 14
			<title>
				color		ffffffff
				fontIndex	2
			</title>
		</label>
		
		<label>
			id			lbl_tagMp
			enable		true
			visible		true
			layer		101
			align		right
			rect		23 185 65 15
			<title>
				color		ffffffff
				fontIndex	4
				text2 		270 19
			</title>
		</label>
		<label>
			id			lbl_mp_before
			enable		true
			visible		true
			layer		101
			rect		94 184 85 14
			<title>
				color		ffffffff
				fontIndex	2
			</title>
		</label>
		<label>
			id			lbl_mp_after
			enable		true
			visible		true
			layer		101
			rect		197 184 65 15
			<title>
				color		ffffffff
				fontIndex	2
			</title>
		</label>
		
		<label>
			id			lbl_tagShield
			enable		true
			visible		true
			layer		101
			align		right
			rect		23 210 65 15
			<title>
				color		ffffffff
				fontIndex	4
				text2 		270 26
			</title>
		</label>
		<label>
			id			lbl_shield_before
			enable		true
			visible		true
			layer		101
			rect		94 209 85 14
			<title>
				color		ffffffff
				fontIndex	2
			</title>
		</label>
		<label>
			id			lbl_shield_after
			enable		true
			visible		true
			layer		101
			rect		197 209 85 14
			<title>
				color		ffffffff
				fontIndex	2
			</title>
		</label>
		
		<label>
			id			lbl_tagMeleeDamage
			enable		true
			visible		true
			layer		101
			align		right
			rect		23 234 65 15
			<title>
				color		ffffffff
				fontIndex	4
				text2 		270 12
			</title>
		</label>
		<label>
			id			lbl_Meleedamage_before
			enable		true
			visible		true
			layer		101
			rect		94 234 85 14
			<title>
				color		ffffffff
				fontIndex	2
			</title>
		</label>
		<label>
			id			lbl_Meleedamage_after
			enable		true
			visible		true
			layer		101
			rect		197 234 85 14
			<title>
				color		ffffffff
				fontIndex	2
			</title>
		</label>

		<label>
			id			lbl_tagRangeDamage
			enable		true
			visible		true
			layer		101
			align		right
			rect		16 260 66 15
			<title>
				color		ffffffff
				fontIndex	4
				text2 		270 38
			</title>
		</label>
		<label>
			id			lbl_Rangedamage_before
			enable		true
			visible		true
			layer		101
			rect		94 260 85 14
			<title>
				color		ffffffff
				fontIndex	2
			</title>
		</label>
		<label>
			id			lbl_Rangedamage_after
			enable		true
			visible		true
			layer		101
			rect		197 260 85 14
			<title>
				color		ffffffff
				fontIndex	2
			</title>
		</label>
		
		<label>
			id			lbl_tagMagicDamage
			enable		true
			visible		true
			layer		101
			align		right
			rect		23 285 65 15
			<title>
				color		ffffffff
				fontIndex	4
				text2 		270 13
			</title>
		</label>
		<label>
			id			lbl_magicdamage_before
			enable		true
			visible		true
			layer		101
			rect		94 285 85 14
			<title>
				color		ffffffff
				fontIndex	2
			</title>
		</label>
		<label>
			id			lbl_magicdamage_after
			enable		true
			visible		true
			layer		101
			rect		197 285 85 14
			<title>
				color		ffffffff
				fontIndex	2
			</title>
		</label>
		
		<label>
			id			lbl_tagDefense
			enable		true
			visible		true
			layer		101
			align		right
			rect		23 310 65 15
			<title>
				color		ffffffff
				fontIndex	4
				text2 		270 14
			</title>
		</label>
		<label>
			id			lbl_defense_before
			enable		true
			visible		true
			layer		101
			rect		94 310 85 14
			<title>
				color		ffffffff
				fontIndex	2
			</title>
		</label>
		<label>
			id			lbl_defense_after
			enable		true
			visible		true
			layer		101
			rect		197 310 85 14
			<title>
				color		ffffffff
				fontIndex	2
			</title>
		</label>
				
		<button>
			id			btn_apply
			enable		true
			visible		true
			layer		100
			align 		center
			rect		136 340 50 20
			<title>
				state			none
				color			ff929292
				fontIndex		4
				position 		0 3
				text2 			270 33		
			</title>
			<title>
				state			over
				color			ff76f856
				fontIndex		4
				position		0 3
			</title>
			<title>
				state			down
				color			ff929292
				fontIndex		4
				position 		2 4
			</title>
			<title>
				state			blink
				color			FFFFFFFF
				fontIndex		4
			</title>
			<image>
				key				none
				screen			State
				index			13
			</image>
			<image>
				key				over
				screen			State
				index			14
			</image>
			<image>
				key				down
				screen			State
				index			15
			</image>
		</button>
		
	</panel>
</window>