Option Type,Type,Code,Job,Change Option
RESIST_FIRE_ADD,0,0,1111-1111-1111-1111-1111-1111-1111-1111,POSITIVE_FIRERESIST_ADD
RESIST_ICE_ADD,0,0,1111-1111-1111-1111-1111-1111-1111-1111,POSITIVE_ICERESIST_ADD
RESIST_LIGHTNING_ADD,0,0,1111-1111-1111-1111-1111-1111-1111-1111,POSITIVE_LIGHTNINHRESIST_ADD
RESIST_POISON_ADD,0,0,1111-1111-1111-1111-1111-1111-1111-1111,POSITIVE_POISONRESIST_ADD
RESIST_CURSE_ADD,0,0,1111-1111-1111-1111-1111-1111-1111-1111,POSITIVE_CURSERESIST_ADD
DEFENSE_MIN_ADD,0,0,1111-1111-1111-1111-1111-1111-1111-1111,DEFENSE_MIN_ADD
RESIST_MELEE_ADD,0,0,1111-1111-1111-1111-1111-1111-1111-1111,DEFENSE_MUL
RESIST_ALL_ADD,0,0,1111-1111-1111-1111-1111-1111-1111-1111,POSITIVE_ALLRESIST_ADD
SPEED_MOVE_MUL,0,0,1111-1111-1111-1111-1111-1111-1111-1111,SPEED_MOVE_MUL
HP_MAX_ADD,0,0,1111-1111-1111-1111-1111-1111-1111-1111,HP_MAX_ADD
HP_RECOVERY_ADD,0,0,1111-1111-1111-1111-1111-1111-1111-1111,HP_RECOVERY_ADD
MP_MAX_ADD,0,0,1111-1111-1111-1111-1111-1111-1111-1111,MP_MAX_ADD
MP_RECOVERY_ADD,0,0,1111-1111-1111-1111-1111-1111-1111-1111,MP_RECOVERY_ADD
PC_DAMAGE_FIRERESIST_MUL,0,0,1111-1111-1111-1111-1111-1111-1111-1111,PC_DAMAGE_FIRERESIST_ADD
PC_DAMAGE_ICERESIST_MUL,0,0,1111-1111-1111-1111-1111-1111-1111-1111,PC_DAMAGE_ICERESIST_ADD
PC_DAMAGE_CURSERESIST_MUL,0,0,1111-1111-1111-1111-1111-1111-1111-1111,PC_DAMAGE_CURSERESIST_ADD
PC_DAMAGE_POSIONRESIST_MUL,0,0,1111-1111-1111-1111-1111-1111-1111-1111,PC_DAMAGE_POSIONRESIST_ADD
PC_DAMAGE_LIGHTINGRESIST_MUL,0,0,1111-1111-1111-1111-1111-1111-1111-1111,PC_DAMAGE_LIGHTINGRESIST_ADD
PC_DAMAGE_ARMOR_ADD,0,0,1111-1111-1111-1111-1111-1111-1111-1111,PC_DAMAGE_ARMOR_ADD
SHIELD_MAX_ADD,0,0,1111-1111-1111-1111-1111-1111-1111-1111,SHIELD_MAX_ADD
PC_DAMAGE_ALLPHYSICSRESIST_MUL,0,0,1111-1111-1111-1111-1111-1111-1111-1111,PC_DAMAGE_ARMOR_ADD
PC_DAMAGE_ALLMAGICRESIST_MUL,0,0,1111-1111-1111-1111-1111-1111-1111-1111,PC_DAMAGE_ALLMAGICRESIST_ADD
DEFENSE_DEFEATRATE_MUL,0,0,1111-1111-1111-1111-1111-1111-1111-1111,DEFENSE_DEFEATRATE_MUL
SHIELD_RECOVERY_ADD,0,0,1111-1111-1111-1111-1111-1111-1111-1111,SHIELD_RECOVERY_ADD
RATING_CRITICAL_SUB,0,0,1111-1111-1111-1111-1111-1111-1111-1111,RATING_CRITICAL_SUB
PC_DAMAGE_DAMAGE_ADD,0,0,1111-1111-1111-1111-1111-1111-1111-1111,PC_DAMAGE_DAMAGE_ADD
PC_DAMAGE_DAMAGE_MUL,0,0,1111-1111-1111-1111-1111-1111-1111-1111,PC_DAMAGE_DAMAGE_MUL
RATING_BLOCKING_ADD,0,0,1111-1111-1111-1111-1111-1111-1111-1111,BALANCE_BLOCKING_ADD
RATING_CRITICAL_ADD,0,0,1111-1111-1111-1111-1111-1111-1111-1111,BALANCE_DEATHBLOW_ADD
DAMAGERATE_CRITICAL_ADD,0,0,1111-1111-1111-1111-1111-1111-1111-1111,BALANCE_VITALITY_ADD
DAMAGE_MINPHYSICAL_ADD,5,4,1000-0000-0000-0000-0000-0000-0000-0000,DAMAGE_MINPHYSICAL_ADD
DAMAGE_MINMAGICAL_ADD,5,4,1000-0000-0000-0000-0000-0000-0000-0000,DAMAGE_MINPHYSICAL_ADD
DAMAGERATE_FIRE_ADD,5,4,1000-0000-0000-0000-0000-0000-0000-0000,DAMAGERATE_FIRE_ADD
DAMAGERATE_ICE_ADD,5,4,1000-0000-0000-0000-0000-0000-0000-0000,DAMAGERATE_ICE_ADD
DAMAGERATE_LIGHTNING_ADD,5,4,1000-0000-0000-0000-0000-0000-0000-0000,DAMAGERATE_LIGHTNING_ADD
DAMAGERATE_POISON_ADD,5,4,1000-0000-0000-0000-0000-0000-0000-0000,DAMAGERATE_POISON_ADD
DAMAGERATE_CURSE_ADD,5,4,1000-0000-0000-0000-0000-0000-0000-0000,DAMAGERATE_CURSE_ADD
DAMAGERATE_CRITICAL_ADD,5,4,1000-0000-0000-0000-0000-0000-0000-0000,BALANCE_VITALITY_ADD
SPEED_ATTACK_MUL,5,4,1000-0000-0000-0000-0000-0000-0000-0000,DAMAGE_MINPHYSICAL_ADD
DAMAGE_PHYSICAL_MUL,5,4,1000-0000-0000-0000-0000-0000-0000-0000,DAMAGE_PHYSICAL_MUL
DAMAGE_MINPHYSICAL_ADD,5,4,0100-0000-0000-0000-0000-0000-0000-0000,RANGE_DAMAGE_MINRANGECAL_ADD
DAMAGE_MINMAGICAL_ADD,5,4,0100-0000-0000-0000-0000-0000-0000-0000,RANGE_DAMAGE_MINRANGECAL_ADD
DAMAGERATE_FIRE_ADD,5,4,0100-0000-0000-0000-0000-0000-0000-0000,DAMAGERATE_FIRE_ADD
DAMAGERATE_ICE_ADD,5,4,0100-0000-0000-0000-0000-0000-0000-0000,DAMAGERATE_ICE_ADD
DAMAGERATE_LIGHTNING_ADD,5,4,0100-0000-0000-0000-0000-0000-0000-0000,DAMAGERATE_LIGHTNING_ADD
DAMAGERATE_POISON_ADD,5,4,0100-0000-0000-0000-0000-0000-0000-0000,DAMAGERATE_POISON_ADD
DAMAGERATE_CURSE_ADD,5,4,0100-0000-0000-0000-0000-0000-0000-0000,DAMAGERATE_CURSE_ADD
DAMAGERATE_CRITICAL_ADD,5,4,0100-0000-0000-0000-0000-0000-0000-0000,BALANCE_VITALITY_ADD
SPEED_ATTACK_MUL,5,4,0100-0000-0000-0000-0000-0000-0000-0000,RANGE_DAMAGE_MINRANGECAL_ADD
DAMAGE_PHYSICAL_MUL,5,4,0100-0000-0000-0000-0000-0000-0000-0000,RANGE_DAMAGE_RANGECAL_MUL
DAMAGE_MINPHYSICAL_ADD,5,4,0010-0000-0000-0000-0000-0000-0000-0000,DAMAGE_MINMAGICAL_ADD
DAMAGE_MINMAGICAL_ADD,5,4,0010-0000-0000-0000-0000-0000-0000-0000,DAMAGE_MINMAGICAL_ADD
DAMAGERATE_FIRE_ADD,5,4,0010-0000-0000-0000-0000-0000-0000-0000,DAMAGERATE_FIRE_ADD
DAMAGERATE_ICE_ADD,5,4,0010-0000-0000-0000-0000-0000-0000-0000,DAMAGERATE_ICE_ADD
DAMAGERATE_LIGHTNING_ADD,5,4,0010-0000-0000-0000-0000-0000-0000-0000,DAMAGERATE_LIGHTNING_ADD
DAMAGERATE_POISON_ADD,5,4,0010-0000-0000-0000-0000-0000-0000-0000,DAMAGERATE_POISON_ADD
DAMAGERATE_CURSE_ADD,5,4,0010-0000-0000-0000-0000-0000-0000-0000,DAMAGERATE_CURSE_ADD
DAMAGERATE_CRITICAL_ADD,5,4,0010-0000-0000-0000-0000-0000-0000-0000,BALANCE_VITALITY_ADD
SPEED_ATTACK_MUL,5,4,0010-0000-0000-0000-0000-0000-0000-0000,DAMAGE_MINMAGICAL_ADD
DAMAGE_MAGICAL_MUL,5,4,0010-0000-0000-0000-0000-0000-0000-0000,DAMAGE_MAGICAL_MUL
DAMAGE_MINPHYSICAL_ADD,5,4,0001-0000-0000-0000-0000-0000-0000-0000,DAMAGE_MINPHYSICAL_ADD
DAMAGE_MINMAGICAL_ADD,5,4,0001-0000-0000-0000-0000-0000-0000-0000,DAMAGE_MINMAGICAL_ADD
DAMAGERATE_FIRE_ADD,5,4,0001-0000-0000-0000-0000-0000-0000-0000,DAMAGERATE_FIRE_ADD
DAMAGERATE_ICE_ADD,5,4,0001-0000-0000-0000-0000-0000-0000-0000,DAMAGERATE_ICE_ADD
DAMAGERATE_LIGHTNING_ADD,5,4,0001-0000-0000-0000-0000-0000-0000-0000,DAMAGERATE_LIGHTNING_ADD
DAMAGERATE_POISON_ADD,5,4,0001-0000-0000-0000-0000-0000-0000-0000,DAMAGERATE_POISON_ADD
DAMAGERATE_CURSE_ADD,5,4,0001-0000-0000-0000-0000-0000-0000-0000,DAMAGERATE_CURSE_ADD
SPEED_ATTACK_MUL,5,4,0001-0000-0000-0000-0000-0000-0000-0000,DAMAGEADD_POISON_ADD
DAMAGERATE_CRITICAL_ADD,5,4,0001-0000-0000-0000-0000-0000-0000-0000,BALANCE_VITALITY_ADD
DAMAGE_MAGICAL_MUL,5,4,0001-0000-0000-0000-0000-0000-0000-0000,DAMAGE_MAGICAL_MUL
DAMAGE_PHYSICAL_MUL,5,4,0001-0000-0000-0000-0000-0000-0000-0000,DAMAGE_PHYSICAL_MUL
DAMAGE_MINPHYSICAL_ADD,5,4,0000-1000-0000-0000-0000-0000-0000-0000,RANGE_DAMAGE_MINRANGECAL_ADD
DAMAGE_MINMAGICAL_ADD,5,4,0000-1000-0000-0000-0000-0000-0000-0000,DAMAGE_MINMAGICAL_ADD
DAMAGERATE_FIRE_ADD,5,4,0000-1000-0000-0000-0000-0000-0000-0000,DAMAGERATE_FIRE_ADD
DAMAGERATE_ICE_ADD,5,4,0000-1000-0000-0000-0000-0000-0000-0000,DAMAGERATE_ICE_ADD
DAMAGERATE_LIGHTNING_ADD,5,4,0000-1000-0000-0000-0000-0000-0000-0000,DAMAGERATE_LIGHTNING_ADD
DAMAGERATE_POISON_ADD,5,4,0000-1000-0000-0000-0000-0000-0000-0000,DAMAGERATE_POISON_ADD
DAMAGERATE_CURSE_ADD,5,4,0000-1000-0000-0000-0000-0000-0000-0000,DAMAGERATE_CURSE_ADD
DAMAGERATE_CRITICAL_ADD,5,4,0000-1000-0000-0000-0000-0000-0000-0000,BALANCE_VITALITY_ADD
SPEED_ATTACK_MUL,5,4,0000-1000-0000-0000-0000-0000-0000-0000,DAMAGEADD_CURSE_ADD
DAMAGEADD_CURSE_ADD,5,4,0000-1000-0000-0000-0000-0000-0000-0000,DAMAGEADD_CURSE_ADD
DAMAGE_MINPHYSICAL_ADD,5,4,0000-0100-0000-0000-0000-0000-0000-0000,DAMAGE_MINPHYSICAL_ADD
DAMAGE_MINMAGICAL_ADD,5,4,0000-0100-0000-0000-0000-0000-0000-0000,DAMAGE_MINPHYSICAL_ADD
DAMAGERATE_FIRE_ADD,5,4,0000-0100-0000-0000-0000-0000-0000-0000,DAMAGERATE_FIRE_ADD
DAMAGERATE_ICE_ADD,5,4,0000-0100-0000-0000-0000-0000-0000-0000,DAMAGERATE_ICE_ADD
DAMAGERATE_LIGHTNING_ADD,5,4,0000-0100-0000-0000-0000-0000-0000-0000,DAMAGERATE_LIGHTNING_ADD
DAMAGERATE_POISON_ADD,5,4,0000-0100-0000-0000-0000-0000-0000-0000,DAMAGERATE_POISON_ADD
DAMAGERATE_CURSE_ADD,5,4,0000-0100-0000-0000-0000-0000-0000-0000,DAMAGERATE_CURSE_ADD
DAMAGERATE_CRITICAL_ADD,5,4,0000-0100-0000-0000-0000-0000-0000-0000,BALANCE_VITALITY_ADD
SPEED_ATTACK_MUL,5,4,0000-0100-0000-0000-0000-0000-0000-0000,DAMAGE_MINPHYSICAL_ADD
DAMAGE_PHYSICAL_MUL,5,4,0000-0100-0000-0000-0000-0000-0000-0000,DAMAGE_PHYSICAL_MUL
DAMAGE_MINPHYSICAL_ADD,5,4,0000-0010-0000-0000-0000-0000-0000-0000,RANGE_DAMAGE_MINRANGECAL_ADD
DAMAGE_MINMAGICAL_ADD,5,4,0000-0010-0000-0000-0000-0000-0000-0000,RANGE_DAMAGE_MINRANGECAL_ADD
DAMAGERATE_FIRE_ADD,5,4,0000-0010-0000-0000-0000-0000-0000-0000,DAMAGERATE_FIRE_ADD
DAMAGERATE_ICE_ADD,5,4,0000-0010-0000-0000-0000-0000-0000-0000,DAMAGERATE_ICE_ADD
DAMAGERATE_LIGHTNING_ADD,5,4,0000-0010-0000-0000-0000-0000-0000-0000,DAMAGERATE_LIGHTNING_ADD
DAMAGERATE_POISON_ADD,5,4,0000-0010-0000-0000-0000-0000-0000-0000,DAMAGERATE_POISON_ADD
DAMAGERATE_CURSE_ADD,5,4,0000-0010-0000-0000-0000-0000-0000-0000,DAMAGERATE_CURSE_ADD
DAMAGERATE_CRITICAL_ADD,5,4,0000-0010-0000-0000-0000-0000-0000-0000,BALANCE_VITALITY_ADD
SPEED_ATTACK_MUL,5,4,0000-0010-0000-0000-0000-0000-0000-0000,RANGE_DAMAGE_MINRANGECAL_ADD
DAMAGE_PHYSICAL_MUL,5,4,0000-0010-0000-0000-0000-0000-0000-0000,RANGE_DAMAGE_RANGECAL_MUL
SPEED_ATTACK_MUL,4,0,1111-1111-1111-1111-1111-1111-1111-1111,DAMAGE_MINPHYSICAL_ADD
RATING_CRITICAL_ADD,4,0,1111-1111-1111-1111-1111-1111-1111-1111,BALANCE_DEATHBLOW_ADD
RATING_BLOCKING_ADD,4,0,1111-1111-1111-1111-1111-1111-1111-1111,BALANCE_BLOCKING_ADD
DAMAGE_MINPHYSICAL_ADD,4,0,1111-1111-1111-1111-1111-1111-1111-1111,DAMAGE_MINPHYSICAL_ADD
SPEED_ATTACK_MUL,4,1,1000-0000-0000-0000-0000-0000-0000-0000,DAMAGE_MINPHYSICAL_ADD
RATING_CRITICAL_ADD,4,1,1000-0000-0000-0000-0000-0000-0000-0000,BALANCE_DEATHBLOW_ADD
RATING_BLOCKING_ADD,4,1,1000-0000-0000-0000-0000-0000-0000-0000,BALANCE_BLOCKING_ADD
DAMAGE_MINPHYSICAL_ADD,4,1,1000-0000-0000-0000-0000-0000-0000-0000,DAMAGE_MINPHYSICAL_ADD
SPEED_ATTACK_MUL,4,2,1000-0000-0000-0000-0000-0000-0000-0000,DAMAGE_MINPHYSICAL_ADD
RATING_CRITICAL_ADD,4,2,1000-0000-0000-0000-0000-0000-0000-0000,BALANCE_DEATHBLOW_ADD
RATING_BLOCKING_ADD,4,2,1000-0000-0000-0000-0000-0000-0000-0000,BALANCE_BLOCKING_ADD
DAMAGE_MINPHYSICAL_ADD,4,2,1000-0000-0000-0000-0000-0000-0000-0000,DAMAGE_MINPHYSICAL_ADD
SPEED_ATTACK_MUL,4,6,1000-0000-0000-0000-0000-0000-0000-0000,DAMAGE_MINPHYSICAL_ADD
RATING_CRITICAL_ADD,4,6,1000-0000-0000-0000-0000-0000-0000-0000,BALANCE_DEATHBLOW_ADD
RATING_BLOCKING_ADD,4,6,1000-0000-0000-0000-0000-0000-0000-0000,BALANCE_BLOCKING_ADD
DAMAGE_MINPHYSICAL_ADD,4,6,1000-0000-0000-0000-0000-0000-0000-0000,DAMAGE_MINPHYSICAL_ADD
SPEED_ATTACK_MUL,4,7,1000-0000-0000-0000-0000-0000-0000-0000,DAMAGE_MINPHYSICAL_ADD
RATING_CRITICAL_ADD,4,7,1000-0000-0000-0000-0000-0000-0000-0000,BALANCE_DEATHBLOW_ADD
RATING_BLOCKING_ADD,4,7,1000-0000-0000-0000-0000-0000-0000-0000,BALANCE_BLOCKING_ADD
DAMAGE_MINPHYSICAL_ADD,4,7,1000-0000-0000-0000-0000-0000-0000-0000,DAMAGE_MINPHYSICAL_ADD
SPEED_ATTACK_MUL,4,8,1000-0000-0000-0000-0000-0000-0000-0000,DAMAGE_MINPHYSICAL_ADD
RATING_CRITICAL_ADD,4,8,1000-0000-0000-0000-0000-0000-0000-0000,BALANCE_DEATHBLOW_ADD
RATING_BLOCKING_ADD,4,8,1000-0000-0000-0000-0000-0000-0000-0000,BALANCE_BLOCKING_ADD
DAMAGE_MINPHYSICAL_ADD,4,8,1000-0000-0000-0000-0000-0000-0000-0000,DAMAGE_MINPHYSICAL_ADD
SPEED_ATTACK_MUL,4,9,1000-0000-0000-0000-0000-0000-0000-0000,DAMAGE_MINPHYSICAL_ADD
RATING_CRITICAL_ADD,4,9,1000-0000-0000-0000-0000-0000-0000-0000,BALANCE_DEATHBLOW_ADD
RATING_BLOCKING_ADD,4,9,1000-0000-0000-0000-0000-0000-0000-0000,BALANCE_BLOCKING_ADD
DAMAGE_MINPHYSICAL_ADD,4,9,1000-0000-0000-0000-0000-0000-0000-0000,DAMAGE_MINPHYSICAL_ADD
SPEED_ATTACK_MUL,4,20,0000-0100-0000-0000-0000-0000-0000-0000,DAMAGE_MINPHYSICAL_ADD
RATING_CRITICAL_ADD,4,20,0000-0100-0000-0000-0000-0000-0000-0000,BALANCE_DEATHBLOW_ADD
RATING_BLOCKING_ADD,4,20,0000-0100-0000-0000-0000-0000-0000-0000,BALANCE_BLOCKING_ADD
DAMAGE_MINPHYSICAL_ADD,4,20,0000-0100-0000-0000-0000-0000-0000-0000,DAMAGE_MINPHYSICAL_ADD
DAMAGE_MINPHYSICAL_ADD,4,17,0001-0000-0000-0000-0000-0000-0000-0000,DAMAGE_MINPHYSICAL_ADD
DAMAGE_MINMAGICAL_ADD,4,17,0001-0000-0000-0000-0000-0000-0000-0000,DAMAGEADD_POISON_ADD
SPEED_ATTACK_MUL,4,17,0001-0000-0000-0000-0000-0000-0000-0000,DAMAGE_MINPHYSICAL_ADD
RATING_CRITICAL_ADD,4,17,0001-0000-0000-0000-0000-0000-0000-0000,BALANCE_DEATHBLOW_ADD
RATING_BLOCKING_ADD,4,17,0001-0000-0000-0000-0000-0000-0000-0000,BALANCE_BLOCKING_ADD
DAMAGEADD_POISON_ADD,4,17,0001-0000-0000-0000-0000-0000-0000-0000,DAMAGEADD_POISON_ADD
DAMAGE_MINPHYSICAL_ADD,4,10,0100-0000-0000-0000-0000-0000-0000-0000,RANGE_DAMAGE_MINRANGECAL_ADD
SPEED_ATTACK_MUL,4,10,0100-0000-0000-0000-0000-0000-0000-0000,RANGE_DAMAGE_MINRANGECAL_ADD
DAMAGERATE_CRITICAL_ADD,4,10,0100-0000-0000-0000-0000-0000-0000-0000,BALANCE_VITALITY_ADD
RATING_CRITICAL_ADD,4,10,0100-0000-0000-0000-0000-0000-0000-0000,BALANCE_DEATHBLOW_ADD
RATING_BLOCKING_ADD,4,10,0100-0000-0000-0000-0000-0000-0000-0000,RANGE_DAMAGE_MINRANGECAL_ADD
DAMAGE_MINPHYSICAL_ADD,4,11,0100-0000-0000-0000-0000-0000-0000-0000,RANGE_DAMAGE_MINRANGECAL_ADD
SPEED_ATTACK_MUL,4,11,0100-0000-0000-0000-0000-0000-0000-0000,RANGE_DAMAGE_MINRANGECAL_ADD
RATING_CRITICAL_ADD,4,11,0100-0000-0000-0000-0000-0000-0000-0000,BALANCE_DEATHBLOW_ADD
RATING_BLOCKING_ADD,4,11,0100-0000-0000-0000-0000-0000-0000-0000,RANGE_DAMAGE_MINRANGECAL_ADD
DAMAGE_MINPHYSICAL_ADD,4,22,0000-0010-0000-0000-0000-0000-0000-0000,RANGE_DAMAGE_MINRANGECAL_ADD
SPEED_ATTACK_MUL,4,22,0000-0010-0000-0000-0000-0000-0000-0000,RANGE_DAMAGE_MINRANGECAL_ADD
RATING_CRITICAL_ADD,4,22,0000-0010-0000-0000-0000-0000-0000-0000,BALANCE_DEATHBLOW_ADD
RATING_BLOCKING_ADD,4,22,0000-0010-0000-0000-0000-0000-0000-0000,RANGE_DAMAGE_MINRANGECAL_ADD
DAMAGE_MINPHYSICAL_ADD,4,18,0000-1000-0000-0000-0000-0000-0000-0000,DAMAGE_MINMAGICAL_ADD
DAMAGE_MINMAGICAL_ADD,4,18,0000-1000-0000-0000-0000-0000-0000-0000,DAMAGE_MINMAGICAL_ADD
DAMAGEADD_CURSE_ADD,4,18,0000-1000-0000-0000-0000-0000-0000-0000,DAMAGEADD_CURSE_ADD
RATING_CRITICAL_ADD,4,18,0000-1000-0000-0000-0000-0000-0000-0000,BALANCE_DEATHBLOW_ADD
SPEED_ATTACK_MUL,4,18,0000-1000-0000-0000-0000-0000-0000-0000,DAMAGEADD_CURSE_ADD
DAMAGE_MINPHYSICAL_ADD,4,13,0010-0000-0000-0000-0000-0000-0000-0000,DAMAGE_MINMAGICAL_ADD
DAMAGE_MINMAGICAL_ADD,4,13,0010-0000-0000-0000-0000-0000-0000-0000,DAMAGE_MINMAGICAL_ADD
DAMAGEADD_FIRE_ADD,4,13,0010-0000-0000-0000-0000-0000-0000-0000,DAMAGEADD_FIRE_ADD
DAMAGEADD_LIGHTNING_ADD,4,13,0010-0000-0000-0000-0000-0000-0000-0000,DAMAGEADD_LIGHTNING_ADD
DAMAGEADD_CURSE_ADD,4,13,0010-0000-0000-0000-0000-0000-0000-0000,DAMAGE_MINMAGICAL_ADD
DAMAGEADD_ICE_ADD,4,13,0010-0000-0000-0000-0000-0000-0000-0000,DAMAGEADD_ICE_ADD
DAMAGEADD_POISON_ADD,4,13,0010-0000-0000-0000-0000-0000-0000-0000,DAMAGE_MINMAGICAL_ADD
DAMAGE_MINPHYSICAL_ADD,4,12,0011-0000-0000-0000-0000-0000-0000-0000,DAMAGE_MINMAGICAL_ADD
DAMAGE_MINMAGICAL_ADD,4,12,0011-0000-0000-0000-0000-0000-0000-0000,DAMAGE_MINMAGICAL_ADD
DAMAGERATE_CRITICAL_ADD,4,12,0011-0000-0000-0000-0000-0000-0000-0000,BALANCE_VITALITY_ADD
DAMAGEADD_FIRE_ADD,4,12,0011-0000-0000-0000-0000-0000-0000-0000,DAMAGE_MINMAGICAL_ADD
DAMAGEADD_LIGHTNING_ADD,4,12,0011-0000-0000-0000-0000-0000-0000-0000,DAMAGE_MINMAGICAL_ADD
DAMAGEADD_CURSE_ADD,4,12,0011-0000-0000-0000-0000-0000-0000-0000,DAMAGE_MINMAGICAL_ADD
DAMAGEADD_ICE_ADD,4,12,0011-0000-0000-0000-0000-0000-0000-0000,DAMAGE_MINMAGICAL_ADD
DAMAGEADD_POISON_ADD,4,12,0011-0000-0000-0000-0000-0000-0000-0000,DAMAGEADD_POISON_ADD
DEFENSE_MIN_ADD,4,14,1000-0000-0000-0000-0000-0000-0000-0000,DEFENSE_MIN_ADD
RESIST_ICE_ADD,4,14,1000-0000-0000-0000-0000-0000-0000-0000,POSITIVE_ALLRESIST_ADD
RESIST_LIGHTNING_ADD,4,14,1000-0000-0000-0000-0000-0000-0000-0000,POSITIVE_ALLRESIST_ADD
DAMAGEADD_FIRE_ADD,4,14,1000-0000-0000-0000-0000-0000-0000-0000,POSITIVE_ALLRESIST_ADD
RESIST_CURSE_ADD,4,14,1000-0000-0000-0000-0000-0000-0000-0000,POSITIVE_ALLRESIST_ADD
RESIST_POISON_ADD,4,14,1000-0000-0000-0000-0000-0000-0000-0000,POSITIVE_ALLRESIST_ADD
RATING_BLOCKING_ADD,4,14,1000-0000-0000-0000-0000-0000-0000-0000,BALANCE_BLOCKING_ADD
RESIST_ALL_ADD,4,14,1000-0000-0000-0000-0000-0000-0000-0000,POSITIVE_ALLRESIST_ADD
DEFENSE_MIN_ADD,4,21,0000-0010-0000-0000-0000-0000-0000-0000,DEFENSE_MIN_ADD
RESIST_ICE_ADD,4,21,0000-0010-0000-0000-0000-0000-0000-0000,POSITIVE_ALLRESIST_ADD
RESIST_LIGHTNING_ADD,4,21,0000-0010-0000-0000-0000-0000-0000-0000,POSITIVE_ALLRESIST_ADD
DAMAGEADD_FIRE_ADD,4,21,0000-0010-0000-0000-0000-0000-0000-0000,POSITIVE_ALLRESIST_ADD
RESIST_CURSE_ADD,4,21,0000-0010-0000-0000-0000-0000-0000-0000,POSITIVE_ALLRESIST_ADD
RESIST_POISON_ADD,4,21,0000-0010-0000-0000-0000-0000-0000-0000,POSITIVE_ALLRESIST_ADD
RATING_BLOCKING_ADD,4,21,0000-0010-0000-0000-0000-0000-0000-0000,BALANCE_BLOCKING_ADD
RESIST_ALL_ADD,4,21,0000-0010-0000-0000-0000-0000-0000-0000,POSITIVE_ALLRESIST_ADD
