0,1,1,6
0,2,7,22
0,3,23,34
0,4,35,46
0,5,47,59
0,6,60,68
0,7,69,80
0,8,81,92
0,9,93,110
0,10,111,190
1,1,1,16
1,2,17,29
1,3,30,42
1,4,43,54
1,5,55,66
1,6,67,78
1,7,79,90
1,8,91,105
1,9,106,112
1,10,113,190
2,1,1,13
2,2,14,26
2,3,27,39
2,4,40,51
2,5,52,63
2,6,64,75
2,7,76,87
2,8,88,99
2,9,100,114
2,10,115,190
3,1,1,14
3,2,15,27
3,3,28,37
3,4,38,49
3,5,50,62
3,6,63,76
3,7,77,88
3,8,89,101
3,9,102,131
3,10,132,190
4,1,1,15
4,2,16,23
4,3,24,35
4,4,36,47
4,5,48,60
4,6,61,77
4,7,78,89
4,8,90,103
4,9,104,133
4,10,134,190
