Level Cap,Melee Decrease Rate,Magic Decrease Rate,Elemenet Decrease Rate,All Resist Rate,Miss Rate,Blocking Rate,Guard Rate,Melee Decrease Rate,Magic Decrease Rate,Elemenet Decrease Rate,All Resist Rate,Miss Rate,Blocking Rate,Guard Rate
230,30,30,30,25,25,15,20,75,75,75,30,30,30,45
229,30,30,30,25,25,15,20,75,75,75,30,30,30,45
228,30,30,30,25,25,15,20,75,75,75,30,30,30,45
227,30,30,30,25,25,15,20,75,75,75,30,30,30,45
226,30,30,30,25,25,15,20,75,75,75,30,30,30,45
225,30,30,30,25,25,15,20,75,75,75,30,30,30,45
224,30,30,30,25,25,15,20,75,75,75,30,30,30,45
223,30,30,30,25,25,15,20,75,75,75,30,30,30,45
222,30,30,30,25,25,15,20,75,75,75,30,30,30,45
221,30,30,30,25,25,15,20,75,75,75,30,30,30,45
220,30,30,30,25,25,15,20,75,75,75,30,30,30,45
219,30,30,30,25,25,15,20,75,75,75,30,30,30,45
218,30,30,30,25,25,15,20,75,75,75,30,30,30,45
217,30,30,30,25,25,15,20,75,75,75,30,30,30,45
216,30,30,30,25,25,15,20,75,75,75,30,30,30,45
215,30,30,30,25,25,15,20,75,75,75,30,30,30,45
214,30,30,30,25,25,15,20,75,75,75,30,30,30,45
213,30,30,30,25,25,15,20,75,75,75,30,30,30,45
212,30,30,30,25,25,15,20,75,75,75,30,30,30,45
211,30,30,30,25,25,15,20,75,75,75,30,30,30,45
210,30,30,30,25,25,15,20,75,75,75,30,30,30,45
209,30,30,30,25,25,15,20,75,75,75,30,30,30,45
208,30,30,30,25,25,15,20,75,75,75,30,30,30,45
207,30,30,30,25,25,15,20,75,75,75,30,30,30,45
206,30,30,30,25,25,15,20,75,75,75,30,30,30,45
205,30,30,30,25,25,15,20,75,75,75,30,30,30,45
204,30,30,30,25,25,15,20,75,75,75,30,30,30,45
203,30,30,30,25,25,15,20,75,75,75,30,30,30,45
202,30,30,30,25,25,15,20,75,75,75,30,30,30,45
201,30,30,30,25,25,15,20,75,75,75,30,30,30,45
200,30,30,30,25,25,15,20,75,75,75,30,30,30,45
199,30,30,30,25,25,15,20,75,75,75,30,30,30,45
198,30,30,30,25,25,15,20,75,75,75,30,30,30,45
197,30,30,30,25,25,15,20,75,75,75,30,30,30,45
196,30,30,30,25,25,15,20,75,75,75,30,30,30,45
195,30,30,30,25,25,15,20,75,75,75,30,30,30,45
194,30,30,30,25,25,15,20,75,75,75,30,30,30,45
193,30,30,30,25,25,15,20,75,75,75,30,30,30,45
192,30,30,30,25,25,15,20,75,75,75,30,30,30,45
191,30,30,30,25,25,15,20,75,75,75,30,30,30,45
190,30,30,30,25,25,15,20,75,75,75,30,30,30,45
189,30,30,30,25,25,15,20,75,75,75,30,30,30,45
188,30,30,30,25,25,15,20,75,75,75,30,30,30,45
187,30,30,30,25,25,15,20,75,75,75,30,30,30,45
186,30,30,30,25,25,15,20,75,75,75,30,30,30,45
185,30,30,30,25,25,15,20,75,75,75,30,30,30,45
184,30,30,30,25,25,15,20,75,75,75,30,30,30,45
183,30,30,30,25,25,15,20,75,75,75,30,30,30,45
182,30,30,30,25,25,15,20,75,75,75,30,30,30,45
181,30,30,30,25,25,15,20,75,75,75,30,30,30,45
180,30,30,30,25,25,15,20,75,75,75,30,30,30,45
179,30,30,30,25,25,15,20,75,75,75,30,30,30,45
178,30,30,30,25,25,15,20,75,75,75,30,30,30,45
177,30,30,30,25,25,15,20,75,75,75,30,30,30,45
176,30,30,30,25,25,15,20,75,75,75,30,30,30,45
175,30,30,30,25,25,15,20,75,75,75,30,30,30,45
174,30,30,30,25,25,15,20,75,75,75,30,30,30,45
173,30,30,30,25,25,15,20,75,75,75,30,30,30,45
172,30,30,30,25,25,15,20,75,75,75,30,30,30,45
171,30,30,30,25,25,15,20,75,75,75,30,30,30,45
170,30,30,30,25,25,15,20,75,75,75,30,30,30,45
169,30,30,30,25,25,15,20,75,75,75,30,30,30,45
168,30,30,30,25,25,15,20,75,75,75,30,30,30,45
167,30,30,30,25,25,15,20,75,75,75,30,30,30,45
166,30,30,30,25,25,15,20,75,75,75,30,30,30,45
165,30,30,30,25,25,15,20,75,75,75,30,30,30,45
164,30,30,30,25,25,15,20,75,75,75,30,30,30,45
163,30,30,30,25,25,15,20,75,75,75,30,30,30,45
162,30,30,30,25,25,15,20,75,75,75,30,30,30,45
161,30,30,30,25,25,15,20,75,75,75,30,30,30,45
160,30,30,30,25,25,15,20,75,75,75,30,30,30,45
159,30,30,30,25,25,15,20,75,75,75,30,30,30,45
158,30,30,30,25,25,15,20,75,75,75,30,30,30,45
157,30,30,30,25,25,15,20,75,75,75,30,30,30,45
156,30,30,30,25,25,15,20,75,75,75,30,30,30,45
155,30,30,30,25,25,15,20,75,75,75,30,30,30,45
154,30,30,30,25,25,15,20,75,75,75,30,30,30,45
153,30,30,30,25,25,15,20,75,75,75,30,30,30,45
152,30,30,30,25,25,15,20,75,75,75,30,30,30,45
151,30,30,30,25,25,15,20,75,75,75,30,30,30,45
150,30,30,30,25,25,15,20,75,75,75,30,30,30,45
149,30,30,30,25,25,15,20,75,75,75,30,30,30,45
148,30,30,30,25,25,15,20,75,75,75,30,30,30,45
147,30,30,30,25,25,15,20,75,75,75,30,30,30,45
146,30,30,30,25,25,15,20,75,75,75,30,30,30,45
145,30,30,30,25,25,15,20,75,75,75,30,30,30,45
144,30,30,30,25,25,15,20,75,75,75,30,30,30,45
143,30,30,30,25,25,15,20,75,75,75,30,30,30,45
142,30,30,30,25,25,15,20,75,75,75,30,30,30,45
141,30,30,30,25,25,15,20,75,75,75,30,30,30,45
140,30,30,30,25,25,15,20,75,75,75,30,30,30,45
139,30,30,30,25,25,15,20,75,75,75,30,30,30,45
138,30,30,30,25,25,15,20,75,75,75,30,30,30,45
137,30,30,30,25,25,15,20,75,75,75,30,30,30,45
136,30,30,30,25,25,15,20,75,75,75,30,30,30,45
135,30,30,30,25,25,15,20,75,75,75,30,30,30,45
134,30,30,30,25,25,15,20,75,75,75,30,30,30,45
133,30,30,30,25,25,15,20,75,75,75,30,30,30,45
132,30,30,30,25,25,15,20,75,75,75,30,30,30,45
131,30,30,30,25,25,15,20,75,75,75,30,30,30,45
130,30,30,30,25,25,15,20,75,75,75,30,30,30,45
129,30,30,30,25,25,15,20,75,75,75,30,30,30,45
128,30,30,30,25,25,15,20,75,75,75,30,30,30,45
127,30,30,30,25,25,15,20,75,75,75,30,30,30,45
126,30,30,30,25,25,15,20,75,75,75,30,30,30,45
125,30,30,30,25,25,15,20,75,75,75,30,30,30,45
124,30,30,30,25,25,15,20,75,75,75,30,30,30,45
123,30,30,30,25,25,15,20,75,75,75,30,30,30,45
122,30,30,30,25,25,15,20,75,75,75,30,30,30,45
121,30,30,30,25,25,15,20,75,75,75,30,30,30,45
120,30,30,30,25,25,15,20,75,75,75,30,30,30,45
119,30,30,30,25,25,15,20,75,75,75,30,30,30,45
118,30,30,30,25,25,15,20,75,75,75,30,30,30,45
117,30,30,30,25,25,15,20,75,75,75,30,30,30,45
116,30,30,30,25,25,15,20,75,75,75,30,30,30,45
115,30,30,30,25,25,15,20,75,75,75,30,30,30,45
114,30,30,30,25,25,15,20,75,75,75,30,30,30,45
113,30,30,30,25,25,15,20,75,75,75,30,30,30,45
112,30,30,30,25,25,15,20,75,75,75,30,30,30,45
111,30,30,30,25,25,15,20,75,75,75,30,30,30,45
110,30,30,30,25,25,15,20,75,75,75,30,30,30,45
109,30,30,30,25,25,15,20,75,75,75,30,30,30,45
108,30,30,30,25,25,15,20,75,75,75,30,30,30,45
107,30,30,30,25,25,15,20,75,75,75,30,30,30,45
106,30,30,30,25,25,15,20,75,75,75,30,30,30,45
105,30,30,30,25,25,15,20,75,75,75,30,30,30,45
104,30,30,30,25,25,15,20,75,75,75,30,30,30,45
103,30,30,30,25,25,15,20,75,75,75,30,30,30,45
102,30,30,30,25,25,15,20,75,75,75,30,30,30,45
101,30,30,30,25,25,15,20,75,75,75,30,30,30,45
100,30,30,30,25,25,15,20,75,75,75,30,30,30,45
99,30,30,30,25,25,15,20,75,75,75,30,30,30,45
98,30,30,30,25,25,15,20,75,75,75,30,30,30,45
97,30,30,30,25,25,15,20,75,75,75,30,30,30,45
96,30,30,30,25,25,15,20,75,75,75,30,30,30,45
95,30,30,30,25,25,15,20,75,75,75,30,30,30,45
94,30,30,30,25,25,15,20,75,75,75,30,30,30,45
93,30,30,30,25,25,15,20,75,75,75,30,30,30,45
92,30,30,30,25,25,15,20,75,75,75,30,30,30,45
91,30,30,30,25,25,15,20,75,75,75,30,30,30,45
90,30,30,30,25,25,15,20,75,75,75,30,30,30,45
89,30,30,30,25,25,15,20,75,75,75,30,30,30,45
88,30,30,30,25,25,15,20,75,75,75,30,30,30,45
87,30,30,30,25,25,15,20,75,75,75,30,30,30,45
86,30,30,30,25,25,15,20,75,75,75,30,30,30,45
85,30,30,30,25,25,15,20,75,75,75,30,30,30,45
84,30,30,30,25,25,15,20,75,75,75,30,30,30,45
83,30,30,30,25,25,15,20,75,75,75,30,30,30,45
82,30,30,30,25,25,15,20,75,75,75,30,30,30,45
81,30,30,30,25,25,15,20,75,75,75,30,30,30,45
80,30,30,30,25,25,15,20,75,75,75,30,30,30,45
79,30,30,30,25,25,15,20,75,75,75,30,30,30,45
78,30,30,30,25,25,15,20,75,75,75,30,30,30,45
77,30,30,30,25,25,15,20,75,75,75,30,30,30,45
76,30,30,30,25,25,15,20,75,75,75,30,30,30,45
75,30,30,30,25,25,15,20,75,75,75,30,30,30,45
74,30,30,30,25,25,15,20,75,75,75,30,30,30,45
73,30,30,30,25,25,15,20,75,75,75,30,30,30,45
72,30,30,30,25,25,15,20,75,75,75,30,30,30,45
71,30,30,30,25,25,15,20,75,75,75,30,30,30,45
70,30,30,30,25,25,15,20,75,75,75,30,30,30,45
69,30,30,30,25,25,15,20,75,75,75,30,30,30,45
68,30,30,30,25,25,15,20,75,75,75,30,30,30,45
67,30,30,30,25,25,15,20,75,75,75,30,30,30,45
66,30,30,30,25,25,15,20,75,75,75,30,30,30,45
65,30,30,30,25,25,15,20,75,75,75,30,30,30,45
64,30,30,30,25,25,15,20,75,75,75,30,30,30,45
63,30,30,30,25,25,15,20,75,75,75,30,30,30,45
62,30,30,30,25,25,15,20,75,75,75,30,30,30,45
61,30,30,30,25,25,15,20,75,75,75,30,30,30,45
60,30,30,30,25,25,15,20,75,75,75,30,30,30,45
59,30,30,30,25,25,15,20,75,75,75,30,30,30,45
58,30,30,30,25,25,15,20,75,75,75,30,30,30,45
57,30,30,30,25,25,15,20,75,75,75,30,30,30,45
56,30,30,30,25,25,15,20,75,75,75,30,30,30,45
55,30,30,30,25,25,15,20,75,75,75,30,30,30,45
54,30,30,30,25,25,15,20,75,75,75,30,30,30,45
53,30,30,30,25,25,15,20,75,75,75,30,30,30,45
52,30,30,30,25,25,15,20,75,75,75,30,30,30,45
51,30,30,30,25,25,15,20,75,75,75,30,30,30,45
50,30,30,30,25,25,15,20,75,75,75,30,30,30,45
49,30,30,30,25,25,15,20,75,75,75,30,30,30,45
48,30,30,30,25,25,15,20,75,75,75,30,30,30,45
47,30,30,30,25,25,15,20,75,75,75,30,30,30,45
46,30,30,30,25,25,15,20,75,75,75,30,30,30,45
45,30,30,30,25,25,15,20,75,75,75,30,30,30,45
44,30,30,30,25,25,15,20,75,75,75,30,30,30,45
43,30,30,30,25,25,15,20,75,75,75,30,30,30,45
42,30,30,30,25,25,15,20,75,75,75,30,30,30,45
41,30,30,30,25,25,15,20,75,75,75,30,30,30,45
40,30,30,30,25,25,15,20,75,75,75,30,30,30,45
39,30,30,30,25,25,15,20,75,75,75,30,30,30,45
38,30,30,30,25,25,15,20,75,75,75,30,30,30,45
37,30,30,30,25,25,15,20,75,75,75,30,30,30,45
36,30,30,30,25,25,15,20,75,75,75,30,30,30,45
35,30,30,30,25,25,15,20,75,75,75,30,30,30,45
34,30,30,30,25,25,15,20,75,75,75,30,30,30,45
33,30,30,30,25,25,15,20,75,75,75,30,30,30,45
32,30,30,30,25,25,15,20,75,75,75,30,30,30,45
31,30,30,30,25,25,15,20,75,75,75,30,30,30,45
30,30,30,30,25,25,15,20,75,75,75,30,30,30,45
29,30,30,30,25,25,15,20,75,75,75,30,30,30,45
28,30,30,30,25,25,15,20,75,75,75,30,30,30,45
27,30,30,30,25,25,15,20,75,75,75,30,30,30,45
26,30,30,30,25,25,15,20,75,75,75,30,30,30,45
25,30,30,30,25,25,15,20,75,75,75,30,30,30,45
24,30,30,30,25,25,15,20,75,75,75,30,30,30,45
23,30,30,30,25,25,15,20,75,75,75,30,30,30,45
22,30,30,30,25,25,15,20,75,75,75,30,30,30,45
21,30,30,30,25,25,15,20,75,75,75,30,30,30,45
20,30,30,30,25,25,15,20,75,75,75,30,30,30,45
19,30,30,30,25,25,15,20,75,75,75,30,30,30,45
18,30,30,30,25,25,15,20,75,75,75,30,30,30,45
17,30,30,30,25,25,15,20,75,75,75,30,30,30,45
16,30,30,30,25,25,15,20,75,75,75,30,30,30,45
15,30,30,30,25,25,15,20,75,75,75,30,30,30,45
14,30,30,30,25,25,15,20,75,75,75,30,30,30,45
13,30,30,30,25,25,15,20,75,75,75,30,30,30,45
12,30,30,30,25,25,15,20,75,75,75,30,30,30,45
11,30,30,30,25,25,15,20,75,75,75,30,30,30,45
10,30,30,30,25,25,15,20,75,75,75,30,30,30,45
9,30,30,30,25,25,15,20,75,75,75,30,30,30,45
8,30,30,30,25,25,15,20,75,75,75,30,30,30,45
7,30,30,30,25,25,15,20,75,75,75,30,30,30,45
6,30,30,30,25,25,15,20,75,75,75,30,30,30,45
5,30,30,30,25,25,15,20,75,75,75,30,30,30,45
4,30,30,30,25,25,15,20,75,75,75,30,30,30,45
3,30,30,30,25,25,15,20,75,75,75,30,30,30,45
2,30,30,30,25,25,15,20,75,75,75,30,30,30,45
1,30,30,30,25,25,15,20,75,75,75,30,30,30,45
0,30,30,30,25,25,15,20,75,75,75,30,30,30,45
-1,30,30,30,25,25,15,20,75,75,75,30,30,30,45
-2,30,30,30,25,25,15,20,75,75,75,30,30,30,45
-3,30,30,30,25,25,15,20,75,75,75,30,30,30,45
-4,30,30,30,25,25,15,20,75,75,75,30,30,30,45
-5,30,30,30,25,25,15,20,75,75,75,30,30,30,45
-6,30,30,30,25,25,15,20,75,75,75,30,30,30,45
-7,30,30,30,25,25,15,20,75,75,75,30,30,30,45
-8,30,30,30,25,25,15,20,75,75,75,30,30,30,45
-9,30,30,30,25,25,15,20,75,75,75,30,30,30,45
-10,30,30,30,25,25,15,20,75,75,75,30,30,30,45
-11,30,30,30,25,25,15,20,75,75,75,30,30,30,45
-12,30,30,30,25,25,15,20,75,75,75,30,30,30,45
-13,30,30,30,25,25,15,20,75,75,75,30,30,30,45
-14,30,30,30,25,25,15,20,75,75,75,30,30,30,45
-15,30,30,30,25,25,15,20,75,75,75,30,30,30,45
-16,30,30,30,25,25,15,20,75,75,75,30,30,30,45
-17,30,30,30,25,25,15,20,75,75,75,30,30,30,45
-18,30,30,30,25,25,15,20,75,75,75,30,30,30,45
-19,30,30,30,25,25,15,20,75,75,75,30,30,30,45
-20,30,30,30,25,25,15,20,75,75,75,30,30,30,45
-21,30,30,30,25,25,15,20,75,75,75,30,30,30,45
-22,30,30,30,25,25,15,20,75,75,75,30,30,30,45
-23,30,30,30,25,25,15,20,75,75,75,30,30,30,45
-24,30,30,30,25,25,15,20,75,75,75,30,30,30,45
-25,30,30,30,25,25,15,20,75,75,75,30,30,30,45
-26,30,30,30,25,25,15,20,75,75,75,30,30,30,45
-27,30,30,30,25,25,15,20,75,75,75,30,30,30,45
-28,30,30,30,25,25,15,20,75,75,75,30,30,30,45
-29,30,30,30,25,25,15,20,75,75,75,30,30,30,45
-30,30,30,30,25,25,15,20,75,75,75,30,30,30,45
-31,30,30,30,25,25,15,20,75,75,75,30,30,30,45
-32,30,30,30,25,25,15,20,75,75,75,30,30,30,45
-33,30,30,30,25,25,15,20,75,75,75,30,30,30,45
-34,30,30,30,25,25,15,20,75,75,75,30,30,30,45
-35,30,30,30,25,25,15,20,75,75,75,30,30,30,45
-36,30,30,30,25,25,15,20,75,75,75,30,30,30,45
-37,30,30,30,25,25,15,20,75,75,75,30,30,30,45
-38,30,30,30,25,25,15,20,75,75,75,30,30,30,45
-39,30,30,30,25,25,15,20,75,75,75,30,30,30,45
-40,30,30,30,25,25,15,20,75,75,75,30,30,30,45
-41,30,30,30,25,25,15,20,75,75,75,30,30,30,45
-42,30,30,30,25,25,15,20,75,75,75,30,30,30,45
-43,30,30,30,25,25,15,20,75,75,75,30,30,30,45
-44,30,30,30,25,25,15,20,75,75,75,30,30,30,45
-45,30,30,30,25,25,15,20,75,75,75,30,30,30,45
-46,30,30,30,25,25,15,20,75,75,75,30,30,30,45
-47,30,30,30,25,25,15,20,75,75,75,30,30,30,45
-48,30,30,30,25,25,15,20,75,75,75,30,30,30,45
-49,30,30,30,25,25,15,20,75,75,75,30,30,30,45
-50,30,30,30,25,25,15,20,75,75,75,30,30,30,45
-51,30,30,30,25,25,15,20,75,75,75,30,30,30,45
-52,30,30,30,25,25,15,20,75,75,75,30,30,30,45
-53,30,30,30,25,25,15,20,75,75,75,30,30,30,45
-54,30,30,30,25,25,15,20,75,75,75,30,30,30,45
-55,30,30,30,25,25,15,20,75,75,75,30,30,30,45
-56,30,30,30,25,25,15,20,75,75,75,30,30,30,45
-57,30,30,30,25,25,15,20,75,75,75,30,30,30,45
-58,30,30,30,25,25,15,20,75,75,75,30,30,30,45
-59,30,30,30,25,25,15,20,75,75,75,30,30,30,45
-60,30,30,30,25,25,15,20,75,75,75,30,30,30,45
-61,30,30,30,25,25,15,20,75,75,75,30,30,30,45
-62,30,30,30,25,25,15,20,75,75,75,30,30,30,45
-63,30,30,30,25,25,15,20,75,75,75,30,30,30,45
-64,30,30,30,25,25,15,20,75,75,75,30,30,30,45
-65,30,30,30,25,25,15,20,75,75,75,30,30,30,45
-66,30,30,30,25,25,15,20,75,75,75,30,30,30,45
-67,30,30,30,25,25,15,20,75,75,75,30,30,30,45
-68,30,30,30,25,25,15,20,75,75,75,30,30,30,45
-69,30,30,30,25,25,15,20,75,75,75,30,30,30,45
-70,30,30,30,25,25,15,20,75,75,75,30,30,30,45
-71,30,30,30,25,25,15,20,75,75,75,30,30,30,45
-72,30,30,30,25,25,15,20,75,75,75,30,30,30,45
-73,30,30,30,25,25,15,20,75,75,75,30,30,30,45
-74,30,30,30,25,25,15,20,75,75,75,30,30,30,45
-75,30,30,30,25,25,15,20,75,75,75,30,30,30,45
-76,30,30,30,25,25,15,20,75,75,75,30,30,30,45
-77,30,30,30,25,25,15,20,75,75,75,30,30,30,45
-78,30,30,30,25,25,15,20,75,75,75,30,30,30,45
-79,30,30,30,25,25,15,20,75,75,75,30,30,30,45
-80,30,30,30,25,25,15,20,75,75,75,30,30,30,45
-81,30,30,30,25,25,15,20,75,75,75,30,30,30,45
-82,30,30,30,25,25,15,20,75,75,75,30,30,30,45
-83,30,30,30,25,25,15,20,75,75,75,30,30,30,45
-84,30,30,30,25,25,15,20,75,75,75,30,30,30,45
-85,30,30,30,25,25,15,20,75,75,75,30,30,30,45
-86,30,30,30,25,25,15,20,75,75,75,30,30,30,45
-87,30,30,30,25,25,15,20,75,75,75,30,30,30,45
-88,30,30,30,25,25,15,20,75,75,75,30,30,30,45
-89,30,30,30,25,25,15,20,75,75,75,30,30,30,45
-90,30,30,30,25,25,15,20,75,75,75,30,30,30,45
-91,30,30,30,25,25,15,20,75,75,75,30,30,30,45
-92,30,30,30,25,25,15,20,75,75,75,30,30,30,45
-93,30,30,30,25,25,15,20,75,75,75,30,30,30,45
-94,30,30,30,25,25,15,20,75,75,75,30,30,30,45
-95,30,30,30,25,25,15,20,75,75,75,30,30,30,45
-96,30,30,30,25,25,15,20,75,75,75,30,30,30,45
-97,30,30,30,25,25,15,20,75,75,75,30,30,30,45
-98,30,30,30,25,25,15,20,75,75,75,30,30,30,45
-99,30,30,30,25,25,15,20,75,75,75,30,30,30,45
-100,30,30,30,25,25,15,20,75,75,75,30,30,30,45
-101,30,30,30,25,25,15,20,75,75,75,30,30,30,45
-102,30,30,30,25,25,15,20,75,75,75,30,30,30,45
-103,30,30,30,25,25,15,20,75,75,75,30,30,30,45
-104,30,30,30,25,25,15,20,75,75,75,30,30,30,45
-105,30,30,30,25,25,15,20,75,75,75,30,30,30,45
-106,30,30,30,25,25,15,20,75,75,75,30,30,30,45
-107,30,30,30,25,25,15,20,75,75,75,30,30,30,45
-108,30,30,30,25,25,15,20,75,75,75,30,30,30,45
-109,30,30,30,25,25,15,20,75,75,75,30,30,30,45
-110,30,30,30,25,25,15,20,75,75,75,30,30,30,45
-111,30,30,30,25,25,15,20,75,75,75,30,30,30,45
-112,30,30,30,25,25,15,20,75,75,75,30,30,30,45
-113,30,30,30,25,25,15,20,75,75,75,30,30,30,45
-114,30,30,30,25,25,15,20,75,75,75,30,30,30,45
-115,30,30,30,25,25,15,20,75,75,75,30,30,30,45
-116,30,30,30,25,25,15,20,75,75,75,30,30,30,45
-117,30,30,30,25,25,15,20,75,75,75,30,30,30,45
-118,30,30,30,25,25,15,20,75,75,75,30,30,30,45
-119,30,30,30,25,25,15,20,75,75,75,30,30,30,45
-120,30,30,30,25,25,15,20,75,75,75,30,30,30,45
-121,30,30,30,25,25,15,20,75,75,75,30,30,30,45
-122,30,30,30,25,25,15,20,75,75,75,30,30,30,45
-123,30,30,30,25,25,15,20,75,75,75,30,30,30,45
-124,30,30,30,25,25,15,20,75,75,75,30,30,30,45
-125,30,30,30,25,25,15,20,75,75,75,30,30,30,45
-126,30,30,30,25,25,15,20,75,75,75,30,30,30,45
-127,30,30,30,25,25,15,20,75,75,75,30,30,30,45
-128,30,30,30,25,25,15,20,75,75,75,30,30,30,45
-129,30,30,30,25,25,15,20,75,75,75,30,30,30,45
-130,30,30,30,25,25,15,20,75,75,75,30,30,30,45
-131,30,30,30,25,25,15,20,75,75,75,30,30,30,45
-132,30,30,30,25,25,15,20,75,75,75,30,30,30,45
-133,30,30,30,25,25,15,20,75,75,75,30,30,30,45
-134,30,30,30,25,25,15,20,75,75,75,30,30,30,45
-135,30,30,30,25,25,15,20,75,75,75,30,30,30,45
-136,30,30,30,25,25,15,20,75,75,75,30,30,30,45
-137,30,30,30,25,25,15,20,75,75,75,30,30,30,45
-138,30,30,30,25,25,15,20,75,75,75,30,30,30,45
-139,30,30,30,25,25,15,20,75,75,75,30,30,30,45
-140,30,30,30,25,25,15,20,75,75,75,30,30,30,45
-141,30,30,30,25,25,15,20,75,75,75,30,30,30,45
-142,30,30,30,25,25,15,20,75,75,75,30,30,30,45
-143,30,30,30,25,25,15,20,75,75,75,30,30,30,45
-144,30,30,30,25,25,15,20,75,75,75,30,30,30,45
-145,30,30,30,25,25,15,20,75,75,75,30,30,30,45
-146,30,30,30,25,25,15,20,75,75,75,30,30,30,45
-147,30,30,30,25,25,15,20,75,75,75,30,30,30,45
-148,30,30,30,25,25,15,20,75,75,75,30,30,30,45
-149,30,30,30,25,25,15,20,75,75,75,30,30,30,45
-150,30,30,30,25,25,15,20,75,75,75,30,30,30,45
-151,30,30,30,25,25,15,20,75,75,75,30,30,30,45
-152,30,30,30,25,25,15,20,75,75,75,30,30,30,45
-153,30,30,30,25,25,15,20,75,75,75,30,30,30,45
-154,30,30,30,25,25,15,20,75,75,75,30,30,30,45
-155,30,30,30,25,25,15,20,75,75,75,30,30,30,45
-156,30,30,30,25,25,15,20,75,75,75,30,30,30,45
-157,30,30,30,25,25,15,20,75,75,75,30,30,30,45
-158,30,30,30,25,25,15,20,75,75,75,30,30,30,45
-159,30,30,30,25,25,15,20,75,75,75,30,30,30,45
-160,30,30,30,25,25,15,20,75,75,75,30,30,30,45
-161,30,30,30,25,25,15,20,75,75,75,30,30,30,45
-162,30,30,30,25,25,15,20,75,75,75,30,30,30,45
-163,30,30,30,25,25,15,20,75,75,75,30,30,30,45
-164,30,30,30,25,25,15,20,75,75,75,30,30,30,45
-165,30,30,30,25,25,15,20,75,75,75,30,30,30,45
-166,30,30,30,25,25,15,20,75,75,75,30,30,30,45
-167,30,30,30,25,25,15,20,75,75,75,30,30,30,45
-168,30,30,30,25,25,15,20,75,75,75,30,30,30,45
-169,30,30,30,25,25,15,20,75,75,75,30,30,30,45
-170,30,30,30,25,25,15,20,75,75,75,30,30,30,45
-171,30,30,30,25,25,15,20,75,75,75,30,30,30,45
-172,30,30,30,25,25,15,20,75,75,75,30,30,30,45
-173,30,30,30,25,25,15,20,75,75,75,30,30,30,45
-174,30,30,30,25,25,15,20,75,75,75,30,30,30,45
-175,30,30,30,25,25,15,20,75,75,75,30,30,30,45
-176,30,30,30,25,25,15,20,75,75,75,30,30,30,45
-177,30,30,30,25,25,15,20,75,75,75,30,30,30,45
-178,30,30,30,25,25,15,20,75,75,75,30,30,30,45
-179,30,30,30,25,25,15,20,75,75,75,30,30,30,45
-180,30,30,30,25,25,15,20,75,75,75,30,30,30,45
-181,30,30,30,25,25,15,20,75,75,75,30,30,30,45
-182,30,30,30,25,25,15,20,75,75,75,30,30,30,45
-183,30,30,30,25,25,15,20,75,75,75,30,30,30,45
-184,30,30,30,25,25,15,20,75,75,75,30,30,30,45
-185,30,30,30,25,25,15,20,75,75,75,30,30,30,45
-186,30,30,30,25,25,15,20,75,75,75,30,30,30,45
-187,30,30,30,25,25,15,20,75,75,75,30,30,30,45
-188,30,30,30,25,25,15,20,75,75,75,30,30,30,45
-189,30,30,30,25,25,15,20,75,75,75,30,30,30,45
-190,30,30,30,25,25,15,20,75,75,75,30,30,30,45
-191,30,30,30,25,25,15,20,75,75,75,30,30,30,45
-192,30,30,30,25,25,15,20,75,75,75,30,30,30,45
-193,30,30,30,25,25,15,20,75,75,75,30,30,30,45
-194,30,30,30,25,25,15,20,75,75,75,30,30,30,45
-195,30,30,30,25,25,15,20,75,75,75,30,30,30,45
-196,30,30,30,25,25,15,20,75,75,75,30,30,30,45
-197,30,30,30,25,25,15,20,75,75,75,30,30,30,45
-198,30,30,30,25,25,15,20,75,75,75,30,30,30,45
-199,30,30,30,25,25,15,20,75,75,75,30,30,30,45
-200,30,30,30,25,25,15,20,75,75,75,30,30,30,45
-201,30,30,30,25,25,15,20,75,75,75,30,30,30,45
-202,30,30,30,25,25,15,20,75,75,75,30,30,30,45
-203,30,30,30,25,25,15,20,75,75,75,30,30,30,45
-204,30,30,30,25,25,15,20,75,75,75,30,30,30,45
-205,30,30,30,25,25,15,20,75,75,75,30,30,30,45
-206,30,30,30,25,25,15,20,75,75,75,30,30,30,45
-207,30,30,30,25,25,15,20,75,75,75,30,30,30,45
-208,30,30,30,25,25,15,20,75,75,75,30,30,30,45
-209,30,30,30,25,25,15,20,75,75,75,30,30,30,45
-210,30,30,30,25,25,15,20,75,75,75,30,30,30,45
-211,30,30,30,25,25,15,20,75,75,75,30,30,30,45
-212,30,30,30,25,25,15,20,75,75,75,30,30,30,45
-213,30,30,30,25,25,15,20,75,75,75,30,30,30,45
-214,30,30,30,25,25,15,20,75,75,75,30,30,30,45
-215,30,30,30,25,25,15,20,75,75,75,30,30,30,45
-216,30,30,30,25,25,15,20,75,75,75,30,30,30,45
-217,30,30,30,25,25,15,20,75,75,75,30,30,30,45
-218,30,30,30,25,25,15,20,75,75,75,30,30,30,45
-219,30,30,30,25,25,15,20,75,75,75,30,30,30,45
-220,30,30,30,25,25,15,20,75,75,75,30,30,30,45
-221,30,30,30,25,25,15,20,75,75,75,30,30,30,45
-222,30,30,30,25,25,15,20,75,75,75,30,30,30,45
-223,30,30,30,25,25,15,20,75,75,75,30,30,30,45
-224,30,30,30,25,25,15,20,75,75,75,30,30,30,45
-225,30,30,30,25,25,15,20,75,75,75,30,30,30,45
-226,30,30,30,25,25,15,20,75,75,75,30,30,30,45
-227,30,30,30,25,25,15,20,75,75,75,30,30,30,45
-228,30,30,30,25,25,15,20,75,75,75,30,30,30,45
-229,30,30,30,25,25,15,20,75,75,75,30,30,30,45
-230,30,30,30,25,25,15,20,75,75,75,30,30,30,45
