Level Cap,Melee Decrease Rate,Magic Decrease Rate,Elemenet Decrease Rate,All Resist Rate,Miss Rate,Blocking Rate,Guard Rate,Melee Decrease Rate,Magic Decrease Rate,Elemenet Decrease Rate,All Resist Rate,Miss Rate,Blocking Rate,Guard Rate
230,30,30,30,25,25,0,0,75,75,75,15,30,30,30
229,30,30,30,25,25,0,0,75,75,75,15,30,30,30
228,30,30,30,25,25,0,0,75,75,75,15,30,30,30
227,30,30,30,25,25,0,0,75,75,75,15,30,30,30
226,30,30,30,25,25,0,0,75,75,75,15,30,30,30
225,30,30,30,25,25,0,0,75,75,75,15,30,30,30
224,30,30,30,25,25,0,0,75,75,75,15,30,30,30
223,30,30,30,25,25,0,0,75,75,75,15,30,30,30
222,30,30,30,25,25,0,0,75,75,75,15,30,30,30
221,30,30,30,25,25,0,0,75,75,75,15,30,30,30
220,30,30,30,25,25,0,0,75,75,75,15,30,30,30
219,30,30,30,25,25,0,0,75,75,75,15,30,30,30
218,30,30,30,25,25,0,0,75,75,75,15,30,30,30
217,30,30,30,25,25,0,0,75,75,75,15,30,30,30
216,30,30,30,25,25,0,0,75,75,75,15,30,30,30
215,30,30,30,25,25,0,0,75,75,75,15,30,30,30
214,30,30,30,25,25,0,0,75,75,75,15,30,30,30
213,30,30,30,25,25,0,0,75,75,75,15,30,30,30
212,30,30,30,25,25,0,0,75,75,75,15,30,30,30
211,30,30,30,25,25,0,0,75,75,75,15,30,30,30
210,30,30,30,25,25,0,0,75,75,75,15,30,30,30
209,30,30,30,25,25,0,0,75,75,75,15,30,30,30
208,30,30,30,25,25,0,0,75,75,75,15,30,30,30
207,30,30,30,25,25,0,0,75,75,75,15,30,30,30
206,30,30,30,25,25,0,0,75,75,75,15,30,30,30
205,30,30,30,25,25,0,0,75,75,75,15,30,30,30
204,30,30,30,25,25,0,0,75,75,75,15,30,30,30
203,30,30,30,25,25,0,0,75,75,75,15,30,30,30
202,30,30,30,25,25,0,0,75,75,75,15,30,30,30
201,30,30,30,25,25,0,0,75,75,75,15,30,30,30
200,30,30,30,25,25,0,0,75,75,75,15,30,30,30
199,30,30,30,25,25,0,0,75,75,75,15,30,30,30
198,30,30,30,25,25,0,0,75,75,75,15,30,30,30
197,30,30,30,25,25,0,0,75,75,75,15,30,30,30
196,30,30,30,25,25,0,0,75,75,75,15,30,30,30
195,30,30,30,25,25,0,0,75,75,75,15,30,30,30
194,30,30,30,25,25,0,0,75,75,75,15,30,30,30
193,30,30,30,25,25,0,0,75,75,75,15,30,30,30
192,30,30,30,25,25,0,0,75,75,75,15,30,30,30
191,30,30,30,25,25,0,0,75,75,75,15,30,30,30
190,30,30,30,25,25,0,0,75,75,75,15,30,30,30
189,30,30,30,25,25,0,0,75,75,75,15,30,30,30
188,30,30,30,25,25,0,0,75,75,75,15,30,30,30
187,30,30,30,25,25,0,0,75,75,75,15,30,30,30
186,30,30,30,25,25,0,0,75,75,75,15,30,30,30
185,30,30,30,25,25,0,0,75,75,75,15,30,30,30
184,30,30,30,25,25,0,0,75,75,75,15,30,30,30
183,30,30,30,25,25,0,0,75,75,75,15,30,30,30
182,30,30,30,25,25,0,0,75,75,75,15,30,30,30
181,30,30,30,25,25,0,0,75,75,75,15,30,30,30
180,30,30,30,25,25,0,0,75,75,75,15,30,30,30
179,30,30,30,25,25,0,0,75,75,75,15,30,30,30
178,30,30,30,25,25,0,0,75,75,75,15,30,30,30
177,30,30,30,25,25,0,0,75,75,75,15,30,30,30
176,30,30,30,25,25,0,0,75,75,75,15,30,30,30
175,30,30,30,25,25,0,0,75,75,75,15,30,30,30
174,30,30,30,25,25,0,0,75,75,75,15,30,30,30
173,30,30,30,25,25,0,0,75,75,75,15,30,30,30
172,30,30,30,25,25,0,0,75,75,75,15,30,30,30
171,30,30,30,25,25,0,0,75,75,75,15,30,30,30
170,30,30,30,25,25,0,0,75,75,75,15,30,30,30
169,30,30,30,25,25,0,0,75,75,75,15,30,30,30
168,30,30,30,25,25,0,0,75,75,75,15,30,30,30
167,30,30,30,25,25,0,0,75,75,75,15,30,30,30
166,30,30,30,25,25,0,0,75,75,75,15,30,30,30
165,30,30,30,25,25,0,0,75,75,75,15,30,30,30
164,30,30,30,25,25,0,0,75,75,75,15,30,30,30
163,30,30,30,25,25,0,0,75,75,75,15,30,30,30
162,30,30,30,25,25,0,0,75,75,75,15,30,30,30
161,30,30,30,25,25,0,0,75,75,75,15,30,30,30
160,30,30,30,25,25,0,0,75,75,75,15,30,30,30
159,30,30,30,25,25,0,0,75,75,75,15,30,30,30
158,30,30,30,25,25,0,0,75,75,75,15,30,30,30
157,30,30,30,25,25,0,0,75,75,75,15,30,30,30
156,30,30,30,25,25,0,0,75,75,75,15,30,30,30
155,30,30,30,25,25,0,0,75,75,75,15,30,30,30
154,30,30,30,25,25,0,0,75,75,75,15,30,30,30
153,30,30,30,25,25,0,0,75,75,75,15,30,30,30
152,30,30,30,25,25,0,0,75,75,75,15,30,30,30
151,30,30,30,25,25,0,0,75,75,75,15,30,30,30
150,30,30,30,25,25,0,0,75,75,75,15,30,30,30
149,30,30,30,25,25,0,0,75,75,75,15,30,30,30
148,30,30,30,25,25,0,0,75,75,75,15,30,30,30
147,30,30,30,25,25,0,0,75,75,75,15,30,30,30
146,30,30,30,25,25,0,0,75,75,75,15,30,30,30
145,30,30,30,25,25,0,0,75,75,75,15,30,30,30
144,30,30,30,25,25,0,0,75,75,75,15,30,30,30
143,30,30,30,25,25,0,0,75,75,75,15,30,30,30
142,30,30,30,25,25,0,0,75,75,75,15,30,30,30
141,30,30,30,25,25,0,0,75,75,75,15,30,30,30
140,30,30,30,25,25,0,0,75,75,75,15,30,30,30
139,30,30,30,25,25,0,0,75,75,75,15,30,30,30
138,30,30,30,25,25,0,0,75,75,75,15,30,30,30
137,30,30,30,25,25,0,0,75,75,75,15,30,30,30
136,30,30,30,25,25,0,0,75,75,75,15,30,30,30
135,30,30,30,25,25,0,0,75,75,75,15,30,30,30
134,30,30,30,25,25,0,0,75,75,75,15,30,30,30
133,30,30,30,25,25,0,0,75,75,75,15,30,30,30
132,30,30,30,25,25,0,0,75,75,75,15,30,30,30
131,30,30,30,25,25,0,0,75,75,75,15,30,30,30
130,30,30,30,25,25,0,0,75,75,75,15,30,30,30
129,30,30,30,25,25,0,0,75,75,75,15,30,30,30
128,30,30,30,25,25,0,0,75,75,75,15,30,30,30
127,30,30,30,25,25,0,0,75,75,75,15,30,30,30
126,30,30,30,25,25,0,0,75,75,75,15,30,30,30
125,30,30,30,25,25,0,0,75,75,75,15,30,30,30
124,30,30,30,25,25,0,0,75,75,75,15,30,30,30
123,30,30,30,25,25,0,0,75,75,75,15,30,30,30
122,30,30,30,25,25,0,0,75,75,75,15,30,30,30
121,30,30,30,25,25,0,0,75,75,75,15,30,30,30
120,30,30,30,25,25,0,0,75,75,75,15,30,30,30
119,30,30,30,25,25,0,0,75,75,75,15,30,29.75,29.75
118,30,30,30,25,25,0,0,75,75,75,15,30,29.5,29.5
117,30,30,30,25,25,0,0,75,75,75,15,30,29.25,29.25
116,30,30,30,25,25,0,0,75,75,75,15,30,29,29
115,30,30,30,25,25,0,0,75,75,75,15,30,28.75,28.75
114,30,30,30,25,25,0,0,75,75,75,15,30,28.5,28.5
113,30,30,30,25,25,0,0,75,75,75,15,30,28.25,28.25
112,30,30,30,25,25,0,0,75,75,75,15,30,28,28
111,30,30,30,25,25,0,0,75,75,75,15,30,27.75,27.75
110,30,30,30,25,25,0,0,75,75,75,15,30,27.5,27.5
109,30,30,30,25,25,0,0,75,75,75,15,30,27.25,27.25
108,30,30,30,25,25,0,0,75,75,75,15,30,27,27
107,30,30,30,25,25,0,0,75,75,75,15,30,26.75,26.75
106,30,30,30,25,25,0,0,75,75,75,15,30,26.5,26.5
105,30,30,30,25,25,0,0,75,75,75,15,30,26.25,26.25
104,30,30,30,25,25,0,0,75,75,75,15,30,26,26
103,30,30,30,25,25,0,0,75,75,75,15,30,25.75,25.75
102,30,30,30,25,25,0,0,75,75,75,15,30,25.5,25.5
101,30,30,30,25,25,0,0,75,75,75,15,30,25.25,25.25
100,30,30,30,25,25,0,0,75,75,75,15,30,25,25
99,29.7,30,30,25,24.75,0,0,75,75,75,15,30,24.75,24.75
98,29.4,30,30,25,24.5,0,0,75,75,75,15,30,24.5,24.5
97,29.1,30,30,25,24.25,0,0,75,75,75,15,30,24.25,24.25
96,28.8,30,30,25,24,0,0,75,75,75,15,30,24,24
95,28.5,30,30,25,23.75,0,0,75,75,75,15,30,23.75,23.75
94,28.2,30,30,25,23.5,0,0,75,75,75,15,30,23.5,23.5
93,27.9,30,30,25,23.25,0,0,75,75,75,15,30,23.25,23.25
92,27.6,30,30,25,23,0,0,75,75,75,15,30,23,23
91,27.3,30,30,25,22.75,0,0,75,75,75,15,30,22.75,22.75
90,27,30,30,25,22.5,0,0,75,75,75,15,30,22.5,22.5
89,26.7,30,30,25,22.25,0,0,75,75,75,15,30,22.25,22.25
88,26.4,30,30,25,22,0,0,75,75,75,15,30,22,22
87,26.1,30,30,25,21.75,0,0,75,75,75,15,30,21.75,21.75
86,25.8,30,30,25,21.5,0,0,75,75,75,15,30,21.5,21.5
85,25.5,29.75,29.75,25,21.25,0,0,75,75,75,15,30,21.25,21.25
84,25.2,29.4,29.4,25,21,0,0,75,75,75,15,30,21,21
83,24.9,29.05,29.05,25,20.75,0,0,75,75,75,15,30,20.75,20.75
82,24.6,28.7,28.7,25,20.5,0,0,75,75,75,15,30,20.5,20.5
81,24.3,28.35,28.35,25,20.25,0,0,75,75,75,15,30,20.25,20.25
80,24,28,28,25,20,0,0,75,75,75,15,30,20,20
79,23.7,27.65,27.65,25,19.75,0,0,75,75,75,15,30,19.75,19.75
78,23.4,27.3,27.3,25,19.5,0,0,75,75,75,15,30,19.5,19.5
77,23.1,26.95,26.95,25,19.25,0,0,75,75,75,15,30,19.25,19.25
76,22.8,26.6,26.6,25,19,0,0,75,75,75,15,30,19,19
75,22.5,26.25,26.25,25,18.75,0,0,75,75,75,15,30,18.75,18.75
74,22.2,25.9,25.9,25,18.5,0,0,75,75,75,14.8,30,18.5,18.5
73,21.9,25.55,25.55,25,18.25,0,0,75,75,75,14.6,30,18.25,18.25
72,21.6,25.2,25.2,25,18,0,0,75,75,75,14.4,30,18,18
71,21.3,24.85,24.85,25,17.75,0,0,75,75,75,14.2,30,17.75,17.75
70,21,24.5,24.5,25,17.5,0,0,75,75,75,14,30,17.5,17.5
69,20.7,24.15,24.15,25,17.25,0,0,75,75,75,13.8,30,17.25,17.25
68,20.4,23.8,23.8,25,17,0,0,75,75,75,13.6,30,17,17
67,20.1,23.45,23.45,25,16.75,0,0,75,75,75,13.4,30,16.75,16.75
66,19.8,23.1,23.1,25,16.5,0,0,75.82,75.82,75.82,13.2,30,16.5,16.5
65,19.5,22.75,22.75,25,16.25,0,0,74.05,74.05,74.05,13,30,16.25,16.25
64,19.2,22.4,22.4,25,16,0,0,72.3,72.3,72.3,12.8,30,16,16
63,18.9,22.05,22.05,25,15.75,0,0,70.57,70.57,70.57,12.6,30,15.75,15.75
62,18.6,21.7,21.7,25,15.5,0,0,68.86,68.86,68.86,12.4,30,15.5,15.5
61,18.3,21.35,21.35,25,15.25,0,0,67.17,67.17,67.17,12.2,30,15.25,15.25
60,18,21,21,25,15,0,0,65.5,65.5,65.5,12,30,15,15
59,17.7,20.65,20.65,25,14.75,0,0,63.85,63.85,63.85,11.8,29.5,14.75,14.75
58,17.4,20.3,20.3,25,14.5,0,0,62.22,62.22,62.22,11.6,29,14.5,14.5
57,17.1,19.95,19.95,25,14.25,0,0,60.61,60.61,60.61,11.4,28.5,14.25,14.25
56,16.8,19.6,19.6,25,14,0,0,59.02,59.02,59.02,11.2,28,14,14
55,16.5,19.25,19.25,25,13.75,0,0,57.45,57.45,57.45,11,27.5,13.75,13.75
54,16.2,18.9,18.9,25,13.5,0,0,55.9,55.9,55.9,10.8,27,13.5,13.5
53,15.9,18.55,18.55,25,13.25,0,0,54.37,54.37,54.37,10.6,26.5,13.25,13.25
52,15.6,18.2,18.2,25,13,0,0,52.86,52.86,52.86,10.4,26,13,13
51,15.3,17.85,17.85,25,12.75,0,0,51.37,51.37,51.37,10.2,25.5,12.75,12.75
50,15,17.5,17.5,25,12.5,0,0,49.9,49.9,49.9,10,25,12.5,12.5
49,14.7,17.15,17.15,24.5,12.25,0,0,48.45,48.45,48.45,9.8,24.5,12.25,12.25
48,14.4,16.8,16.8,24,12,0,0,47.02,47.02,47.02,9.6,24,12,12
47,14.1,16.45,16.45,23.5,11.75,0,0,45.61,45.61,45.61,9.4,23.5,11.75,11.75
46,13.8,16.1,16.1,23,11.5,0,0,44.22,44.22,44.22,9.2,23,11.5,11.5
45,13.5,15.75,15.75,22.5,11.25,0,0,42.85,42.85,42.85,9,22.5,11.25,11.25
44,13.2,15.4,15.4,22,11,0,0,41.5,41.5,41.5,8.8,22,11,11
43,12.9,15.05,15.05,21.5,10.75,0,0,40.17,40.17,40.17,8.6,21.5,10.75,10.75
42,12.6,14.7,14.7,21,10.5,0,0,38.86,38.86,38.86,8.4,21,10.5,10.5
41,12.3,14.35,14.35,20.5,10.25,0,0,37.57,37.57,37.57,8.2,20.5,10.25,10.25
40,12,14,14,20,10,0,0,36.3,36.3,36.3,8,20,10,10
39,11.7,13.65,13.65,19.5,9.75,0,0,35.05,35.05,35.05,7.8,19.5,9.75,9.75
38,11.4,13.3,13.3,19,9.5,0,0,33.82,33.82,33.82,7.6,19,9.5,9.5
37,11.1,12.95,12.95,18.5,9.25,0,0,32.61,32.61,32.61,7.4,18.5,9.25,9.25
36,10.8,12.6,12.6,18,9,0,0,31.42,31.42,31.42,7.2,18,9,9
35,10.5,12.25,12.25,17.5,8.75,0,0,30.25,30.25,30.25,7,17.5,8.75,8.75
34,10.2,11.9,11.9,17,8.5,0,0,29.1,29.1,29.1,6.8,17,8.5,8.5
33,9.9,11.55,11.55,16.5,8.25,0,0,27.97,27.97,27.97,6.6,16.5,8.25,8.25
32,9.6,11.2,11.2,16,8,0,0,26.86,26.86,26.86,6.4,16,8,8
31,9.3,10.85,10.85,15.5,7.75,0,0,25.77,25.77,25.77,6.2,15.5,7.75,7.75
30,9,10.5,10.5,15,7.5,0,0,24.7,24.7,24.7,6,15,7.5,7.5
29,8.7,10.15,10.15,14.5,7.25,0,0,23.65,23.65,23.65,5.8,14.5,7.25,7.25
28,8.4,9.8,9.8,14,7,0,0,22.62,22.62,22.62,5.6,14,7,7
27,8.1,9.45,9.45,13.5,6.75,0,0,21.61,21.61,21.61,5.4,13.5,6.75,6.75
26,7.8,9.1,9.1,13,6.5,0,0,20.62,20.62,20.62,5.2,13,6.5,6.5
25,7.5,8.75,8.75,12.5,6.25,0,0,19.65,19.65,19.65,5,12.5,6.25,6.25
24,7.2,8.4,8.4,12,6,0,0,18.7,18.7,18.7,4.8,12,6,6
23,6.9,8.05,8.05,11.5,5.75,0,0,17.77,17.77,17.77,4.6,11.5,5.75,5.75
22,6.6,7.7,7.7,11,5.5,0,0,16.86,16.86,16.86,4.4,11,5.5,5.5
21,6.3,7.35,7.35,10.5,5.25,0,0,15.97,15.97,15.97,4.2,10.5,5.25,5.25
20,6,7,7,10,5,0,0,15.1,15.1,15.1,4,10,5,5
19,5.7,6.65,6.65,9.5,4.75,0,0,14.25,14.25,14.25,3.8,9.5,4.75,4.75
18,5.4,6.3,6.3,9,4.5,0,0,13.5,13.5,13.5,3.6,9,4.5,4.5
17,5.1,5.95,5.95,8.5,4.25,0,0,12.75,12.75,12.75,3.4,8.5,4.25,4.25
16,4.8,5.6,5.6,8,4,0,0,12,12,12,3.2,8,4,4
15,4.5,5.25,5.25,7.5,3.75,0,0,11.25,11.25,11.25,3,7.5,3.75,3.75
14,4.2,4.9,4.9,7,3.5,0,0,10.5,10.5,10.5,2.8,7,3.5,3.5
13,3.9,4.55,4.55,6.5,3.25,0,0,9.75,9.75,9.75,2.6,6.5,3.25,3.25
12,3.6,4.2,4.2,6,3,0,0,9,9,9,2.4,6,3,3
11,3.3,3.85,3.85,5.5,2.75,0,0,8.25,8.25,8.25,2.2,5.5,2.75,2.75
10,3,3.5,3.5,5,2.5,0,0,7.5,7.5,7.5,2,5,2.5,2.5
9,2.7,3.15,3.15,4.5,2.25,0,0,6.75,6.75,6.75,1.8,4.5,2.25,2.25
8,2.4,2.8,2.8,4,2,0,0,6,6,6,1.6,4,2,2
7,2.1,2.45,2.45,3.5,1.75,0,0,5.25,5.25,5.25,1.4,3.5,1.75,1.75
6,1.8,2.1,2.1,3,1.5,0,0,4.5,4.5,4.5,1.2,3,1.5,1.5
5,1.5,1.75,1.75,2.5,1.25,0,0,3.75,3.75,3.75,1,2.5,1.25,1.25
4,1.2,1.4,1.4,2,1,0,0,3,3,3,0.8,2,1,1
3,0.9,1.05,1.05,1.5,0.75,0,0,2.25,2.25,2.25,0.6,1.5,0.75,0.75
2,0.6,0.7,0.7,1,0.5,0,0,1.5,1.5,1.5,0.4,1,0.5,0.5
1,0.3,0.35,0.35,0.5,0.25,0,0,0.75,0.75,0.75,0.2,0.5,0.25,0.25
0,0,0,0,0,0,0,0,0,0,0,0,0,0,0
-1,-0.3,-0.25,-0.25,-0.1,-0.15,0,0,0.25,0.25,0.25,-0.25,-0.25,-0.05,-0.35
-2,-0.6,-0.5,-0.5,-0.2,-0.3,0,0,0.5,0.5,0.5,-0.5,-0.5,-0.1,-0.7
-3,-0.9,-0.75,-0.75,-0.3,-0.45,0,0,0.75,0.75,0.75,-0.75,-0.75,-0.15,-1.05
-4,-1.2,-1,-1,-0.4,-0.6,0,0,0.9,0.9,0.9,-1,-1,-0.2,-1.4
-5,-1.5,-1.25,-1.25,-0.5,-0.75,0,0,1.05,1.05,1.05,-1.25,-1.25,-0.25,-1.75
-6,-1.8,-1.5,-1.5,-0.6,-0.9,0,0,1.1,1.1,1.1,-1.5,-1.5,-0.3,-2.1
-7,-2.1,-1.75,-1.75,-0.7,-1.05,0,0,1.15,1.15,1.15,-1.75,-1.75,-0.35,-2.45
-8,-2.4,-2,-2,-0.8,-1.2,0,0,1.1,1.1,1.1,-2,-2,-0.4,-2.8
-9,-2.7,-2.25,-2.25,-0.9,-1.35,0,0,1.05,1.05,1.05,-2.25,-2.25,-0.45,-3.15
-10,-3,-2.5,-2.5,-1,-1.5,0,0,0.9,0.9,0.9,-2.5,-2.5,-0.5,-3.5
-11,-3.3,-2.75,-2.75,-1.1,-1.65,0,0,0.75,0.75,0.75,-2.75,-2.75,-0.55,-3.85
-12,-3.6,-3,-3,-1.2,-1.8,0,0,0.5,0.5,0.5,-3,-3,-0.6,-4.2
-13,-3.9,-3.25,-3.25,-1.3,-1.95,0,0,0.25,0.25,0.25,-3.25,-3.25,-0.65,-4.55
-14,-4.2,-3.5,-3.5,-1.4,-2.1,0,0,0,0,0,-3.5,-3.5,-0.7,-4.9
-15,-4.5,-3.75,-3.75,-1.5,-2.25,0,0,-0.35,-0.35,-0.35,-3.75,-3.75,-0.75,-5.25
-16,-4.8,-4,-4,-1.6,-2.4,0,0,-0.7,-0.7,-0.7,-4,-4,-0.8,-5.6
-17,-5.1,-4.25,-4.25,-1.7,-2.55,0,0,-1.05,-1.05,-1.05,-4.25,-4.25,-0.85,-5.95
-18,-5.4,-4.5,-4.5,-1.8,-2.7,0,0,-1.5,-1.5,-1.5,-4.5,-4.5,-0.9,-6.3
-19,-5.7,-4.75,-4.75,-1.9,-2.85,0,0,-1.95,-1.95,-1.95,-4.75,-4.75,-0.95,-6.65
-20,-6,-5,-5,-2,-3,0,0,-2.4,-2.4,-2.4,-5,-5,-1,-7
-21,-6.3,-5.25,-5.25,-2.1,-3.15,0,0,-2.95,-2.95,-2.95,-5.25,-5.25,-1.05,-7.35
-22,-6.6,-5.5,-5.5,-2.2,-3.3,0,0,-3.6,-3.6,-3.6,-5.5,-5.5,-1.1,-7.7
-23,-6.9,-5.75,-5.75,-2.3,-3.45,0,0,-4.35,-4.35,-4.35,-5.75,-5.75,-1.15,-8.05
-24,-7.2,-6,-6,-2.4,-3.6,0,0,-5.2,-5.2,-5.2,-6,-6,-1.2,-8.4
-25,-7.5,-6.25,-6.25,-2.5,-3.75,0,0,-6.15,-6.15,-6.15,-6.25,-6.25,-1.25,-8.75
-26,-7.8,-6.5,-6.5,-2.6,-3.9,0,0,-7.2,-7.2,-7.2,-6.5,-6.5,-1.3,-9.1
-27,-8.1,-6.75,-6.75,-2.7,-4.05,0,0,-8.35,-8.35,-8.35,-6.75,-6.75,-1.35,-9.45
-28,-8.4,-7,-7,-2.8,-4.2,0,0,-9.6,-9.6,-9.6,-7,-7,-1.4,-9.8
-29,-8.7,-7.25,-7.25,-2.9,-4.35,0,0,-11.35,-11.35,-11.35,-7.25,-7.25,-1.45,-10.15
-30,-9,-7.5,-7.5,-3,-4.5,0,0,-13.6,-13.6,-13.6,-7.5,-7.5,-1.5,-10.5
-31,-9.3,-7.75,-7.75,-3.1,-4.65,0,0,-16.35,-16.35,-16.35,-7.75,-7.75,-1.55,-10.85
-32,-9.6,-8,-8,-3.2,-4.8,0,0,-20.6,-20.6,-20.6,-8,-8,-1.6,-11.2
-33,-9.9,-8.25,-8.25,-3.3,-4.95,0,0,-26.35,-26.35,-26.35,-8.25,-8.25,-1.65,-11.55
-34,-10.2,-8.5,-8.5,-3.4,-5.1,0,0,-33.6,-33.6,-33.6,-8.5,-8.5,-1.7,-11.9
-35,-10.5,-8.75,-8.75,-3.5,-5.25,0,0,-42.35,-42.35,-42.35,-8.75,-8.75,-1.75,-12.25
-36,-10.8,-9,-9,-3.6,-5.4,0,0,-52.6,-52.6,-52.6,-9,-9,-1.8,-12.6
-37,-11.1,-9.25,-9.25,-3.7,-5.55,0,0,-64.35,-64.35,-64.35,-9.25,-9.25,-1.85,-12.95
-38,-11.4,-9.5,-9.5,-3.8,-5.7,0,0,-77.6,-77.6,-77.6,-9.5,-9.5,-1.9,-13.3
-39,-11.7,-9.75,-9.75,-3.9,-5.85,0,0,-92.35,-92.35,-92.35,-9.75,-9.75,-1.95,-13.65
-40,-12,-10,-10,-4,-6,0,0,-108.6,-108.6,-108.6,-10,-10,-2,-14
-41,-12.3,-10.25,-10.25,-4.1,-6.15,0,0,-126.35,-126.35,-126.35,-10.25,-10.25,-2.05,-14.35
-42,-12.6,-10.5,-10.5,-4.2,-6.3,0,0,-145.6,-145.6,-145.6,-10.5,-10.5,-2.1,-14.7
-43,-12.9,-10.75,-10.75,-4.3,-6.45,0,0,-166.35,-166.35,-166.35,-10.75,-10.75,-2.15,-15.05
-44,-13.2,-11,-11,-4.4,-6.6,0,0,-188.6,-188.6,-188.6,-11,-11,-2.2,-15.4
-45,-13.5,-11.25,-11.25,-4.5,-6.75,0,0,-212.35,-212.35,-212.35,-11.25,-11.25,-2.25,-15.75
-46,-13.8,-11.5,-11.5,-4.6,-6.9,0,0,-237.6,-237.6,-237.6,-11.5,-11.5,-2.3,-16.1
-47,-14.1,-11.75,-11.75,-4.7,-7.05,0,0,-264.35,-264.35,-264.35,-11.75,-11.75,-2.35,-16.45
-48,-14.4,-12,-12,-4.8,-7.2,0,0,-292.6,-292.6,-292.6,-12,-12,-2.4,-16.8
-49,-14.7,-12.25,-12.25,-4.9,-7.35,0,0,-322.35,-322.35,-322.35,-12.25,-12.25,-2.45,-17.15
-50,-15,-12.5,-12.5,-5,-7.5,0,0,-353.6,-353.6,-353.6,-12.5,-12.5,-2.5,-17.5
-51,-15.3,-12.75,-12.75,-5.1,-7.65,0,0,-386.35,-386.35,-386.35,-12.75,-12.75,-2.55,-17.85
-52,-15.6,-13,-13,-5.2,-7.8,0,0,-420.6,-420.6,-420.6,-13,-13,-2.6,-18.2
-53,-15.9,-13.25,-13.25,-5.3,-7.95,0,0,-456.35,-456.35,-456.35,-13.25,-13.25,-2.65,-18.55
-54,-16.2,-13.5,-13.5,-5.4,-8.1,0,0,-493.6,-493.6,-493.6,-13.5,-13.5,-2.7,-18.9
-55,-16.5,-13.75,-13.75,-5.5,-8.25,0,0,-532.35,-532.35,-532.35,-13.75,-13.75,-2.75,-19.25
-56,-16.8,-14,-14,-5.6,-8.4,0,0,-572.6,-572.6,-572.6,-14,-14,-2.8,-19.6
-57,-17.1,-14.25,-14.25,-5.7,-8.55,0,0,-614.35,-614.35,-614.35,-14.25,-14.25,-2.85,-19.95
-58,-17.4,-14.5,-14.5,-5.8,-8.7,0,0,-657.6,-657.6,-657.6,-14.5,-14.5,-2.9,-20.3
-59,-17.7,-14.75,-14.75,-5.9,-8.85,0,0,-702.35,-702.35,-702.35,-14.75,-14.75,-2.95,-20.65
-60,-18,-15,-15,-6,-9,0,0,-748.6,-748.6,-748.6,-15,-15,-3,-21
-61,-18.3,-15.25,-15.25,-6.1,-9.15,0,0,-796.35,-796.35,-796.35,-15.25,-15.25,-3.05,-21.35
-62,-18.6,-15.5,-15.5,-6.2,-9.3,0,0,-845.6,-845.6,-845.6,-15.5,-15.5,-3.1,-21.7
-63,-18.9,-15.75,-15.75,-6.3,-9.45,0,0,-800,-800,-800,-15.75,-15.75,-3.15,-22.05
-64,-19.2,-16,-16,-6.4,-9.6,0,0,-800,-800,-800,-16,-16,-3.2,-22.4
-65,-19.5,-16.25,-16.25,-6.5,-9.75,0,0,-800,-800,-800,-16.25,-16.25,-3.25,-22.75
-66,-19.8,-16.5,-16.5,-6.6,-9.9,0,0,-800,-800,-800,-16.5,-16.5,-3.3,-23.1
-67,-20.1,-16.75,-16.75,-6.7,-10.05,0,0,-800,-800,-800,-16.75,-16.75,-3.35,-23.45
-68,-20.4,-17,-17,-6.8,-10.2,0,0,-800,-800,-800,-17,-17,-3.4,-23.8
-69,-20.7,-17.25,-17.25,-6.9,-10.35,0,0,-800,-800,-800,-17.25,-17.25,-3.45,-24.15
-70,-21,-17.5,-17.5,-7,-10.5,0,0,-800,-800,-800,-17.5,-17.5,-3.5,-24.5
-71,-21.3,-17.75,-17.75,-7.1,-10.65,0,0,-800,-800,-800,-17.75,-17.75,-3.55,-24.85
-72,-21.6,-18,-18,-7.2,-10.8,0,0,-800,-800,-800,-18,-18,-3.6,-25
-73,-21.9,-18.25,-18.25,-7.3,-10.95,0,0,-800,-800,-800,-18.25,-18.25,-3.65,-25
-74,-22.2,-18.5,-18.5,-7.4,-11.1,0,0,-800,-800,-800,-18.5,-18.5,-3.7,-25
-75,-22.5,-18.75,-18.75,-7.5,-11.25,0,0,-800,-800,-800,-18.75,-18.75,-3.75,-25
-76,-22.8,-19,-19,-7.6,-11.4,0,0,-800,-800,-800,-19,-19,-3.8,-25
-77,-23.1,-19.25,-19.25,-7.7,-11.55,0,0,-800,-800,-800,-19.25,-19.25,-3.85,-25
-78,-23.4,-19.5,-19.5,-7.8,-11.7,0,0,-800,-800,-800,-19.5,-19.5,-3.9,-25
-79,-23.7,-19.75,-19.75,-7.9,-11.85,0,0,-800,-800,-800,-19.75,-19.75,-3.95,-25
-80,-24,-20,-20,-8,-12,0,0,-800,-800,-800,-20,-20,-4,-25
-81,-24.3,-20.25,-20.25,-8.1,-12.15,0,0,-800,-800,-800,-20,-20,-4.05,-25
-82,-24.6,-20.5,-20.5,-8.2,-12.3,0,0,-800,-800,-800,-20,-20,-4.1,-25
-83,-24.9,-20.75,-20.75,-8.3,-12.45,0,0,-800,-800,-800,-20,-20,-4.15,-25
-84,-25.2,-21,-21,-8.4,-12.6,0,0,-800,-800,-800,-20,-20,-4.2,-25
-85,-25.5,-21.25,-21.25,-8.5,-12.75,0,0,-800,-800,-800,-20,-20,-4.25,-25
-86,-25.8,-21.5,-21.5,-8.6,-12.9,0,0,-800,-800,-800,-20,-20,-4.3,-25
-87,-26.1,-21.75,-21.75,-8.7,-13.05,0,0,-800,-800,-800,-20,-20,-4.35,-25
-88,-26.4,-22,-22,-8.8,-13.2,0,0,-800,-800,-800,-20,-20,-4.4,-25
-89,-26.7,-22.25,-22.25,-8.9,-13.35,0,0,-800,-800,-800,-20,-20,-4.45,-25
-90,-27,-22.5,-22.5,-9,-13.5,0,0,-800,-800,-800,-20,-20,-4.5,-25
-91,-27.3,-22.75,-22.75,-9.1,-13.65,0,0,-800,-800,-800,-20,-20,-4.55,-25
-92,-27.6,-23,-23,-9.2,-13.8,0,0,-800,-800,-800,-20,-20,-4.6,-25
-93,-27.9,-23.25,-23.25,-9.3,-13.95,0,0,-800,-800,-800,-20,-20,-4.65,-25
-94,-28.2,-23.5,-23.5,-9.4,-14.1,0,0,-800,-800,-800,-20,-20,-4.7,-25
-95,-28.5,-23.75,-23.75,-9.5,-14.25,0,0,-800,-800,-800,-20,-20,-4.75,-25
-96,-28.8,-24,-24,-9.6,-14.4,0,0,-800,-800,-800,-20,-20,-4.8,-25
-97,-29.1,-24.25,-24.25,-9.7,-14.55,0,0,-800,-800,-800,-20,-20,-4.85,-25
-98,-29.4,-24.5,-24.5,-9.8,-14.7,0,0,-800,-800,-800,-20,-20,-4.9,-25
-99,-29.7,-24.75,-24.75,-9.9,-14.85,0,0,-800,-800,-800,-20,-20,-4.95,-25
-100,-30,-25,-25,-10,-15,0,0,-800,-800,-800,-20,-20,-5,-25
-101,-30,-25.25,-25.25,-10.1,-15,0,0,-800,-800,-800,-20,-20,-5.05,-25
-102,-30,-25.5,-25.5,-10.2,-15,0,0,-800,-800,-800,-20,-20,-5.1,-25
-103,-30,-25.75,-25.75,-10.3,-15,0,0,-800,-800,-800,-20,-20,-5.15,-25
-104,-30,-26,-26,-10.4,-15,0,0,-800,-800,-800,-20,-20,-5.2,-25
-105,-30,-26.25,-26.25,-10.5,-15,0,0,-800,-800,-800,-20,-20,-5.25,-25
-106,-30,-26.5,-26.5,-10.6,-15,0,0,-800,-800,-800,-20,-20,-5.3,-25
-107,-30,-26.75,-26.75,-10.7,-15,0,0,-800,-800,-800,-20,-20,-5.35,-25
-108,-30,-27,-27,-10.8,-15,0,0,-800,-800,-800,-20,-20,-5.4,-25
-109,-30,-27.25,-27.25,-10.9,-15,0,0,-800,-800,-800,-20,-20,-5.45,-25
-110,-30,-27.5,-27.5,-11,-15,0,0,-800,-800,-800,-20,-20,-5.5,-25
-111,-30,-27.75,-27.75,-11.1,-15,0,0,-800,-800,-800,-20,-20,-5.55,-25
-112,-30,-28,-28,-11.2,-15,0,0,-800,-800,-800,-20,-20,-5.6,-25
-113,-30,-28.25,-28.25,-11.3,-15,0,0,-800,-800,-800,-20,-20,-5.65,-25
-114,-30,-28.5,-28.5,-11.4,-15,0,0,-800,-800,-800,-20,-20,-5.7,-25
-115,-30,-28.75,-28.75,-11.5,-15,0,0,-800,-800,-800,-20,-20,-5.75,-25
-116,-30,-29,-29,-11.6,-15,0,0,-800,-800,-800,-20,-20,-5.8,-25
-117,-30,-29.25,-29.25,-11.7,-15,0,0,-800,-800,-800,-20,-20,-5.85,-25
-118,-30,-29.5,-29.5,-11.8,-15,0,0,-800,-800,-800,-20,-20,-5.9,-25
-119,-30,-29.75,-29.75,-11.9,-15,0,0,-800,-800,-800,-20,-20,-5.95,-25
-120,-30,-30,-30,-12,-15,0,0,-800,-800,-800,-20,-20,-6,-25
-121,-30,-30,-30,-12.1,-15,0,0,-800,-800,-800,-20,-20,-6.05,-25
-122,-30,-30,-30,-12.2,-15,0,0,-800,-800,-800,-20,-20,-6.1,-25
-123,-30,-30,-30,-12.3,-15,0,0,-800,-800,-800,-20,-20,-6.15,-25
-124,-30,-30,-30,-12.4,-15,0,0,-800,-800,-800,-20,-20,-6.2,-25
-125,-30,-30,-30,-12.5,-15,0,0,-800,-800,-800,-20,-20,-6.25,-25
-126,-30,-30,-30,-12.6,-15,0,0,-800,-800,-800,-20,-20,-6.3,-25
-127,-30,-30,-30,-12.7,-15,0,0,-800,-800,-800,-20,-20,-6.35,-25
-128,-30,-30,-30,-12.8,-15,0,0,-800,-800,-800,-20,-20,-6.4,-25
-129,-30,-30,-30,-12.9,-15,0,0,-800,-800,-800,-20,-20,-6.45,-25
-130,-30,-30,-30,-13,-15,0,0,-800,-800,-800,-20,-20,-6.5,-25
-131,-30,-30,-30,-13.1,-15,0,0,-800,-800,-800,-20,-20,-6.55,-25
-132,-30,-30,-30,-13.2,-15,0,0,-800,-800,-800,-20,-20,-6.6,-25
-133,-30,-30,-30,-13.3,-15,0,0,-800,-800,-800,-20,-20,-6.65,-25
-134,-30,-30,-30,-13.4,-15,0,0,-800,-800,-800,-20,-20,-6.7,-25
-135,-30,-30,-30,-13.5,-15,0,0,-800,-800,-800,-20,-20,-6.75,-25
-136,-30,-30,-30,-13.6,-15,0,0,-800,-800,-800,-20,-20,-6.8,-25
-137,-30,-30,-30,-13.7,-15,0,0,-800,-800,-800,-20,-20,-6.85,-25
-138,-30,-30,-30,-13.8,-15,0,0,-800,-800,-800,-20,-20,-6.9,-25
-139,-30,-30,-30,-13.9,-15,0,0,-800,-800,-800,-20,-20,-6.95,-25
-140,-30,-30,-30,-14,-15,0,0,-800,-800,-800,-20,-20,-7,-25
-141,-30,-30,-30,-14.1,-15,0,0,-800,-800,-800,-20,-20,-7.05,-25
-142,-30,-30,-30,-14.2,-15,0,0,-800,-800,-800,-20,-20,-7.1,-25
-143,-30,-30,-30,-14.3,-15,0,0,-800,-800,-800,-20,-20,-7.15,-25
-144,-30,-30,-30,-14.4,-15,0,0,-800,-800,-800,-20,-20,-7.2,-25
-145,-30,-30,-30,-14.5,-15,0,0,-800,-800,-800,-20,-20,-7.25,-25
-146,-30,-30,-30,-14.6,-15,0,0,-800,-800,-800,-20,-20,-7.3,-25
-147,-30,-30,-30,-14.7,-15,0,0,-800,-800,-800,-20,-20,-7.35,-25
-148,-30,-30,-30,-14.8,-15,0,0,-800,-800,-800,-20,-20,-7.4,-25
-149,-30,-30,-30,-14.9,-15,0,0,-800,-800,-800,-20,-20,-7.45,-25
-150,-30,-30,-30,-15,-15,0,0,-800,-800,-800,-20,-20,-7.5,-25
-151,-30,-30,-30,-15.1,-15,0,0,-800,-800,-800,-20,-20,-7.55,-25
-152,-30,-30,-30,-15.2,-15,0,0,-800,-800,-800,-20,-20,-7.6,-25
-153,-30,-30,-30,-15.3,-15,0,0,-800,-800,-800,-20,-20,-7.65,-25
-154,-30,-30,-30,-15.4,-15,0,0,-800,-800,-800,-20,-20,-7.7,-25
-155,-30,-30,-30,-15.5,-15,0,0,-800,-800,-800,-20,-20,-7.75,-25
-156,-30,-30,-30,-15.6,-15,0,0,-800,-800,-800,-20,-20,-7.8,-25
-157,-30,-30,-30,-15.7,-15,0,0,-800,-800,-800,-20,-20,-7.85,-25
-158,-30,-30,-30,-15.8,-15,0,0,-800,-800,-800,-20,-20,-7.9,-25
-159,-30,-30,-30,-15.9,-15,0,0,-800,-800,-800,-20,-20,-7.95,-25
-160,-30,-30,-30,-16,-15,0,0,-800,-800,-800,-20,-20,-8,-25
-161,-30,-30,-30,-16.1,-15,0,0,-800,-800,-800,-20,-20,-8.05,-25
-162,-30,-30,-30,-16.2,-15,0,0,-800,-800,-800,-20,-20,-8.1,-25
-163,-30,-30,-30,-16.3,-15,0,0,-800,-800,-800,-20,-20,-8.15,-25
-164,-30,-30,-30,-16.4,-15,0,0,-800,-800,-800,-20,-20,-8.2,-25
-165,-30,-30,-30,-16.5,-15,0,0,-800,-800,-800,-20,-20,-8.25,-25
-166,-30,-30,-30,-16.6,-15,0,0,-800,-800,-800,-20,-20,-8.3,-25
-167,-30,-30,-30,-16.7,-15,0,0,-800,-800,-800,-20,-20,-8.35,-25
-168,-30,-30,-30,-16.8,-15,0,0,-800,-800,-800,-20,-20,-8.4,-25
-169,-30,-30,-30,-16.9,-15,0,0,-800,-800,-800,-20,-20,-8.45,-25
-170,-30,-30,-30,-17,-15,0,0,-800,-800,-800,-20,-20,-8.5,-25
-171,-30,-30,-30,-17.1,-15,0,0,-800,-800,-800,-20,-20,-8.55,-25
-172,-30,-30,-30,-17.2,-15,0,0,-800,-800,-800,-20,-20,-8.6,-25
-173,-30,-30,-30,-17.3,-15,0,0,-800,-800,-800,-20,-20,-8.65,-25
-174,-30,-30,-30,-17.4,-15,0,0,-800,-800,-800,-20,-20,-8.7,-25
-175,-30,-30,-30,-17.5,-15,0,0,-800,-800,-800,-20,-20,-8.75,-25
-176,-30,-30,-30,-17.6,-15,0,0,-800,-800,-800,-20,-20,-8.8,-25
-177,-30,-30,-30,-17.7,-15,0,0,-800,-800,-800,-20,-20,-8.85,-25
-178,-30,-30,-30,-17.8,-15,0,0,-800,-800,-800,-20,-20,-8.9,-25
-179,-30,-30,-30,-17.9,-15,0,0,-800,-800,-800,-20,-20,-8.95,-25
-180,-30,-30,-30,-18,-15,0,0,-800,-800,-800,-20,-20,-9,-25
-181,-30,-30,-30,-18.1,-15,0,0,-800,-800,-800,-20,-20,-9.05,-25
-182,-30,-30,-30,-18.2,-15,0,0,-800,-800,-800,-20,-20,-9.1,-25
-183,-30,-30,-30,-18.3,-15,0,0,-800,-800,-800,-20,-20,-9.15,-25
-184,-30,-30,-30,-18.4,-15,0,0,-800,-800,-800,-20,-20,-9.2,-25
-185,-30,-30,-30,-18.5,-15,0,0,-800,-800,-800,-20,-20,-9.25,-25
-186,-30,-30,-30,-18.6,-15,0,0,-800,-800,-800,-20,-20,-9.3,-25
-187,-30,-30,-30,-18.7,-15,0,0,-800,-800,-800,-20,-20,-9.35,-25
-188,-30,-30,-30,-18.8,-15,0,0,-800,-800,-800,-20,-20,-9.4,-25
-189,-30,-30,-30,-18.9,-15,0,0,-800,-800,-800,-20,-20,-9.45,-25
-190,-30,-30,-30,-19,-15,0,0,-800,-800,-800,-20,-20,-9.5,-25
-191,-30,-30,-30,-19.1,-15,0,0,-800,-800,-800,-20,-20,-9.55,-25
-192,-30,-30,-30,-19.2,-15,0,0,-800,-800,-800,-20,-20,-9.6,-25
-193,-30,-30,-30,-19.3,-15,0,0,-800,-800,-800,-20,-20,-9.65,-25
-194,-30,-30,-30,-19.4,-15,0,0,-800,-800,-800,-20,-20,-9.7,-25
-195,-30,-30,-30,-19.5,-15,0,0,-800,-800,-800,-20,-20,-9.75,-25
-196,-30,-30,-30,-19.6,-15,0,0,-800,-800,-800,-20,-20,-9.8,-25
-197,-30,-30,-30,-19.7,-15,0,0,-800,-800,-800,-20,-20,-9.85,-25
-198,-30,-30,-30,-19.8,-15,0,0,-800,-800,-800,-20,-20,-9.9,-25
-199,-30,-30,-30,-19.9,-15,0,0,-800,-800,-800,-20,-20,-9.95,-25
-200,-30,-30,-30,-20,-15,0,0,-800,-800,-800,-20,-20,-10,-25
-201,-30,-30,-30,-20,-15,0,0,-800,-800,-800,-20,-20,-10,-25
-202,-30,-30,-30,-20,-15,0,0,-800,-800,-800,-20,-20,-10,-25
-203,-30,-30,-30,-20,-15,0,0,-800,-800,-800,-20,-20,-10,-25
-204,-30,-30,-30,-20,-15,0,0,-800,-800,-800,-20,-20,-10,-25
-205,-30,-30,-30,-20,-15,0,0,-800,-800,-800,-20,-20,-10,-25
-206,-30,-30,-30,-20,-15,0,0,-800,-800,-800,-20,-20,-10,-25
-207,-30,-30,-30,-20,-15,0,0,-800,-800,-800,-20,-20,-10,-25
-208,-30,-30,-30,-20,-15,0,0,-800,-800,-800,-20,-20,-10,-25
-209,-30,-30,-30,-20,-15,0,0,-800,-800,-800,-20,-20,-10,-25
-210,-30,-30,-30,-20,-15,0,0,-800,-800,-800,-20,-20,-10,-25
-211,-30,-30,-30,-20,-15,0,0,-800,-800,-800,-20,-20,-10,-25
-212,-30,-30,-30,-20,-15,0,0,-800,-800,-800,-20,-20,-10,-25
-213,-30,-30,-30,-20,-15,0,0,-800,-800,-800,-20,-20,-10,-25
-214,-30,-30,-30,-20,-15,0,0,-800,-800,-800,-20,-20,-10,-25
-215,-30,-30,-30,-20,-15,0,0,-800,-800,-800,-20,-20,-10,-25
-216,-30,-30,-30,-20,-15,0,0,-800,-800,-800,-20,-20,-10,-25
-217,-30,-30,-30,-20,-15,0,0,-800,-800,-800,-20,-20,-10,-25
-218,-30,-30,-30,-20,-15,0,0,-800,-800,-800,-20,-20,-10,-25
-219,-30,-30,-30,-20,-15,0,0,-800,-800,-800,-20,-20,-10,-25
-220,-30,-30,-30,-20,-15,0,0,-800,-800,-800,-20,-20,-10,-25
-221,-30,-30,-30,-20,-15,0,0,-800,-800,-800,-20,-20,-10,-25
-222,-30,-30,-30,-20,-15,0,0,-800,-800,-800,-20,-20,-10,-25
-223,-30,-30,-30,-20,-15,0,0,-800,-800,-800,-20,-20,-10,-25
-224,-30,-30,-30,-20,-15,0,0,-800,-800,-800,-20,-20,-10,-25
-225,-30,-30,-30,-20,-15,0,0,-800,-800,-800,-20,-20,-10,-25
-226,-30,-30,-30,-20,-15,0,0,-800,-800,-800,-20,-20,-10,-25
-227,-30,-30,-30,-20,-15,0,0,-800,-800,-800,-20,-20,-10,-25
-228,-30,-30,-30,-20,-15,0,0,-800,-800,-800,-20,-20,-10,-25
-229,-30,-30,-30,-20,-15,0,0,-800,-800,-800,-20,-20,-10,-25
-230,-30,-30,-30,-20,-15,0,0,-800,-800,-800,-20,-20,-10,-25
