<window>
	name			guildNameWnd
	enable			true
	visible			true
	modal 			true
	layer			100
	position 		center center
	rect			-116 -78 116 79
	titlerect		0 0 211 24

	<panel>
		id			pan_back
		enable		true
		visible		true
		layer		1
		rect		0  0 232 157
		<image>
				key	none
				screen	etc_01
				index	1
		</image>
		
		<label>
			id			lbl_title
			enable		true
			visible		true
			layer		60
			rect		28 2 174 14
			align 		center
			<title>
				color		ffffffff
				fontIndex	4
				text2 		100 50
			</title>
		</label>
		<button>
			id			btn_exit
			enable		true
			visible		true
			layer		100
			rect		211 3 15 15
			<image>
				key		none
				screen	etc_01
				index		315

			</image>
			<image>
				key		over
				screen	etc_01
				index		316

			</image>
			<image>
				key		down
				screen	etc_01
				index		317

			</image>
		</button>
	</panel>
	<textbox>
		id			textbox
		enable		true
		visible		true
		layer		100
		rect		0 40 232 90
		lineheight	14
		margin		0 0
		fonttype	2
		color		FFFFFFFF
	</textbox>

	<button>
		id			btn_yes
		enable		true
		visible		true
		align 		center
		layer		100
		rect		37 132 57 19
		<image>
				key		none
				screen	etc_01
				index	2
		</image>
		<title>
			state 		none
			color		ff929292
			fontIndex	2
			position	0 3
			text2		2000 15
		</title>
		<title>
			state 		over
			color		ffffffff
			fontIndex	2
			position	0 3
		</title>
		<title>
			state 		down
			color		ff929292
			fontIndex	2
			position	0 4
		</title>
	</button>	

	<button>
		id			btn_no
		enable		true
		visible		true
		align 		center
		layer		100
		rect		138 132 57 19
		<image>
				key		none
				screen	etc_01
				index	2
		</image>
		<title>
			state 		none
			color		ff929292
			fontIndex	2
			position	0 3
			text2		2000 23
		</title>
		<title>
			state 		over
			color		ffffffff
			fontIndex	2
			position	0 3
		</title>
		<title>
			state 		down
			color		ff929292
			fontIndex	2
			position	0 4
		</title>
	</button>	
	
</window>