<window>
	name			char_cloning
	modal 			true
	enable			true
	visible			true
	layer			110
	rect			0 0 232 157
	titlerect		0 0 211 24
	alwaysontop		true

	<panel>
		id			pan_bg
		enable		false
		visible		true
		layer		10
		rect		0  0 232 157
		<image>
				key	none
				screen	etc_01
				index	1
		</image>
		
		<label>
			id			lbl_title
			enable		true
			visible		true
			layer		60
			rect		28 2 174 14
			align 		center
			<title>
				color		ffffffff
				fontIndex	4
				text2 		100 101
			</title>
		</label>
		<button>
			id			btn_exit
			enable		true
			visible		true
			layer		100
			rect		211 3 13 13
			<image>
				key		none
				screen	etc_01
				index	3
			</image>
			<image>
				key		over
				screen	etc_01
				index	4
			</image>
			<image>
				key		down
				screen	etc_01
				index	5
			</image>
		</button>
	</panel>
	
	<label>
		id			lbl_text
		enable		true
		visible		true
		layer		60
		rect		0 35 232 34
		lineheight 	17
		multiline 	true
		<title>
			color		ffffffff
			fontIndex	2
		</title>
	</label>
	
	<button>
		id			btn_yes
		enable		true
		visible		true
		layer		100
		rect		37 132 57 19
		<image>
				key		none
				screen	etc_01
				index	2
		</image>
		<title>
			state 		none
			color		ff929292
			fontIndex	4
			position	16 3
			text2		2000 22
		</title>
		<title>
			state 		over
			color		ffffffff
			fontIndex	4
			position	16 3
		</title>
		<title>
			state 		down
			color		ff929292
			fontIndex	4
			position	17 4
		</title>
	</button>	

	<button>
		id			btn_no
		enable		true
		visible		true
		layer		100
		rect		138 132 57 19
		<image>
				key		none
				screen	etc_01
				index	2
		</image>
		<title>
			state 		none
			color		ff929292
			fontIndex	4
			position	16 3
			text2		2000 14
		</title>
		<title>
			state 		over
			color		ffffffff
			fontIndex	4
			position	16 3
		</title>
		<title>
			state 		down
			color		ff929292
			fontIndex	4
			position	17 4
		</title>
	</button>	
</window>