<window>
	name			partyinvitation_msgbox
	enable			true
	visible			true
	modal 			true
	layer			110
	rect			0  0 232 157
	titlerect		70 0 211 24
	alwaysontop		true

	<panel>
		id		pan_back
		enable		true
		visible		true
		layer		1
		rect		0  0 232 157
		<image>
				key	none
				screen	etc_01
				index	1
		</image>
		<label>
			id			lbl_title
			enable		true
			visible		true
			layer		60
			rect		28 2 174 14
			align 		center
			<title>
				color		ffffffff
				fontIndex	4
				text2 		100 12
			</title>
		</label>
		<button>
			id			btn_exit
			enable		true
			visible		true
			layer		100
			rect		211 3 13 13
			<image>
				key		none
				screen	etc_01
				index	3
			</image>
			<image>
				key		over
				screen	etc_01
				index	4
			</image>
			<image>
				key		down
				screen	etc_01
				index	5
			</image>
		</button>		
	</panel>

	<panel>
		id		pan_notifylabel
		enable		true
		visible		true
		layer		50
		align		center
		rect		50 64 180 14	
		<title>
				color		ffffffff
				fontIndex	3
				position	0 0				
				text2 		1001 119
		</title>				
	</panel>

	<button>
		id		btn_yes
		enable		true
		visible		true
		layer		100
		rect		37 132 57 19
		<image>
			key			0
			screen		etc_01
			index		2
		</image>
		<title>
			state 		none
			color		ff929292
			fontIndex	2
			position	23 4
			text2		2000 5
		</title>
		<title>
			state 		over
			color		ffffffff
			fontIndex	2
			position	23 4
		</title>
		<title>
			state 		down
			color		ff929292
			fontIndex	2
			position	24 5
		</title>
	</button>	

	<button>
		id		btn_no
		enable		true
		visible		true
		layer		100
		align		center
		rect		138 132 57 19
		<image>
			key			0
			screen		etc_01
			index		2
		</image>
		<title>
			state 		none
			color		ff929292
			fontIndex	2
			text2		2000 6
			position	1 4
		</title>
		<title>
			state 		over
			color		ffffffff
			fontIndex	2
			position	1 4
		</title>
		<title>
			state 		down
			color		ff929292
			fontIndex	2
			position	2 5
		</title>
	</button>	
	
</window>