MapIndex,147,,,,
,,,,,
CallIndex,MonsterIndex,X,Y,Cell,Count
1,5500,256,271,0,1
2,5501,256,271,0,1
3,5502,256,271,0,1
4,5503,256,271,0,1
5,5508,272,288,3,1
5,5508,272,272,3,1
5,5508,272,256,3,1
5,5508,256,256,3,1
5,5508,240,255,3,1
5,5508,240,288,3,1
5,5508,256,287,3,1
6,5508,272,279,3,1
6,5508,264,287,3,1
6,5508,272,263,3,1
6,5508,264,255,3,1
6,5508,248,255,3,1
6,5508,240,263,3,1
6,5508,240,279,3,1
6,5508,248,287,3,1
7,5509,239,255,0,1
7,5509,238,288,0,1
7,5509,271,288,0,1
7,5509,271,255,0,1
