BrickUID,BrickIndex,Revival,RegenCycle,Direction,Location_X,Location_Y,IsCreate
101,36859,0,0,0,357.791,354.441,1
102,36861,0,0,155,359.107,347.708,1
103,36862,0,0,180,358.99,340.984,1
104,36832,0,0,90,350.259,347.476,1
105,36865,0,0,122,322.635,358.786,1
106,36865,0,0,170,318.463,353.154,1
107,36865,0,0,310,295.066,359.235,1
108,36865,0,0,242,298.729,359.22,1
109,36865,0,0,25,290.711,326.865,1
110,36865,0,0,347,290.497,322.721,1
111,36865,0,0,50,305.09,306.315,1
112,36865,0,0,62,326.588,311.255,1
113,36866,0,0,115,329.513,352.033,1
114,36866,0,0,82,305.695,359.454,1
115,36866,0,0,317,295.637,308.077,1
116,36866,0,0,231,319.907,308.399,1
117,36867,0,0,270,192.79,343.968,1
118,36869,0,0,172,217.956,259.091,0
119,36869,0,0,172,218.078,280.958,0
120,36869,0,0,172,239.888,259.091,0
121,36869,0,0,172,239.888,280.958,0
122,36870,0,0,183,217.956,259.091,0
123,36870,0,0,183,218.078,280.958,0
124,36870,0,0,183,239.888,259.091,0
125,36870,0,0,183,239.888,280.958,0
126,36871,0,0,350,217.956,259.091,0
127,36871,0,0,350,218.078,280.958,0
128,36871,0,0,350,239.888,259.091,0
129,36871,0,0,350,239.888,280.958,0
130,36872,0,0,133,217.956,259.091,0
131,36872,0,0,133,218.078,280.958,0
132,36872,0,0,133,239.888,259.091,0
133,36872,0,0,133,239.888,280.958,0
134,36873,0,0,0,231.521,237.184,0
135,36873,0,0,0,228.427,237.187,0
136,36873,0,0,0,224.807,237.185,0
137,36873,0,0,0,221.712,237.18,0
138,36874,0,0,0,231.51,237.18,0
139,36874,0,0,0,228.42,237.18,0
140,36874,0,0,0,224.8,237.18,0
141,36874,0,0,0,221.71,237.18,0
142,36875,0,0,0,231.51,237.18,0
143,36875,0,0,0,228.42,237.18,0
144,36875,0,0,0,224.8,237.18,0
145,36875,0,0,0,221.71,237.18,0
146,36876,0,0,0,231.51,237.18,0
147,36876,0,0,0,228.42,237.18,0
148,36876,0,0,0,224.8,237.18,0
149,36876,0,0,0,221.71,237.18,0
150,36877,0,0,89,229,270,1
151,36878,0,0,90,252.091,152.27,1
152,36878,0,0,90,259,152.51,0
153,36879,0,0,180,336.12,62.071,1
154,36868,0,0,62,140.556,326.435,1
155,36868,0,0,241,140.162,327.255,1
156,36868,0,0,30,156.089,317.7,1
157,36868,0,0,290,141.722,334.447,1
158,36868,0,0,37,148.94,323.18,1
159,36868,0,0,113,151.927,346.839,1
160,36868,0,0,139,161.752,351.237,1
161,36868,0,0,126,155.749,348.568,1
162,36868,0,0,125,163.45,334.04,1
163,36868,0,0,191,150.378,340.659,1
164,36868,0,0,294,152.787,336.003,1
165,36868,0,0,263,150.655,330.185,1
166,36868,0,0,212,141.499,321.221,1
167,36868,0,0,350,146.264,328.954,1
168,36868,0,0,326,143.966,331.703,1
169,36868,0,0,154,147.372,337.884,1
170,36868,0,0,347,145.033,341.285,1
171,36868,0,0,117,162.311,329.275,1
172,36868,0,0,144,142.313,321.171,1
173,36868,0,0,254,147.829,317.38,1
174,36868,0,0,261,148.92,315.086,1
175,36868,0,0,172,149.506,314.991,1
176,36868,0,0,145,149.197,316.026,1
177,36868,0,0,256,163.89,321.906,1
178,36868,0,0,44,147.761,317.189,1
179,36868,0,0,227,179.54,296.359,1
180,36868,0,0,55,168.812,298.322,1
181,36868,0,0,48,172.47,309.326,1
182,36868,0,0,269,175.737,302.275,1
183,36868,0,0,78,170.896,291.989,1
184,36880,0,0,0,308.05,199.94,0
185,36880,0,0,0,308.115,207.837,0
186,36880,0,0,0,308.039,216.048,0
187,36880,0,0,0,308.217,223.902,0
188,36880,0,0,0,308.069,232.024,0
189,36880,0,0,0,307.922,240.064,0
190,36880,0,0,0,308.037,247.795,0
191,36880,0,0,0,308,257,0
192,36880,0,0,0,312,196,0
193,36880,0,0,0,312,204,0
194,36880,0,0,0,312,212,0
195,36880,0,0,0,312,220,0
196,36880,0,0,0,312,228,0
197,36880,0,0,0,312,236,0
198,36880,0,0,0,312,244,0
199,36880,0,0,0,312,252,0
200,36880,0,0,0,316,200,0
201,36880,0,0,0,316,208,0
202,36880,0,0,0,316,216,0
203,36880,0,0,0,316,224,0
204,36880,0,0,0,316,232,0
205,36880,0,0,0,316,240,0
206,36880,0,0,0,316,248,0
207,36880,0,0,0,316,256,0
208,36880,0,0,0,320,196,0
209,36880,0,0,0,320,204,0
210,36880,0,0,0,320,212,0
211,36880,0,0,0,320,220,0
212,36880,0,0,0,320,228,0
213,36880,0,0,0,320,236,0
214,36880,0,0,0,320,244,0
215,36880,0,0,0,320,252,0
216,36880,0,0,0,324,200,0
217,36880,0,0,0,324,208,0
218,36880,0,0,0,324,216,0
219,36880,0,0,0,324,224,0
220,36880,0,0,0,324,232,0
221,36880,0,0,0,324,240,0
222,36880,0,0,0,324,248,0
223,36880,0,0,0,324,256,0
224,36880,0,0,0,328,196,0
225,36880,0,0,0,328,204,0
226,36880,0,0,0,328,212,0
227,36880,0,0,0,328,220,0
228,36880,0,0,0,328,228,0
229,36880,0,0,0,328,236,0
230,36880,0,0,0,328,244,0
231,36880,0,0,0,328,252,0
232,36880,0,0,0,332,200,0
233,36880,0,0,0,332,208,0
234,36880,0,0,0,332,216,0
235,36880,0,0,0,332,224,0
236,36880,0,0,0,332,232,0
237,36880,0,0,0,332,240,0
238,36880,0,0,0,332,248,0
239,36880,0,0,0,332,256,0
240,36880,0,0,0,336,196,0
241,36880,0,0,0,336,204,0
242,36880,0,0,0,336,212,0
243,36880,0,0,0,336,220,0
244,36880,0,0,0,336,228,0
245,36880,0,0,0,336,236,0
246,36880,0,0,0,336,244,0
247,36880,0,0,0,336,252,0
248,36880,0,0,0,340,200,0
249,36880,0,0,0,340,208,0
250,36880,0,0,0,340,216,0
251,36880,0,0,0,340,224,0
252,36880,0,0,0,340,232,0
253,36880,0,0,0,340,240,0
254,36880,0,0,0,340,248,0
255,36880,0,0,0,340,256,0
256,36880,0,0,0,344,196,0
257,36880,0,0,0,344,204,0
258,36880,0,0,0,344,212,0
259,36880,0,0,0,344,220,0
260,36880,0,0,0,344,228,0
261,36880,0,0,0,344,236,0
262,36880,0,0,0,344,244,0
263,36880,0,0,0,344,252,0
264,36880,0,0,0,348,200,0
265,36880,0,0,0,348,208,0
266,36880,0,0,0,348,216,0
267,36880,0,0,0,348,224,0
268,36880,0,0,0,348,232,0
269,36880,0,0,0,348,240,0
270,36880,0,0,0,348,248,0
271,36880,0,0,0,348,256,0
272,36880,0,0,0,352,196,0
273,36880,0,0,0,352,204,0
274,36880,0,0,0,352,212,0
275,36880,0,0,0,352,220,0
276,36880,0,0,0,352,228,0
277,36880,0,0,0,352,236,0
278,36880,0,0,0,352,244,0
279,36880,0,0,0,352,252,0
280,36880,0,0,0,356,200,0
281,36880,0,0,0,356,208,0
282,36880,0,0,0,356,216,0
283,36880,0,0,0,356,224,0
284,36880,0,0,0,356,232,0
285,36880,0,0,0,356,240,0
286,36880,0,0,0,356,248,0
287,36880,0,0,0,356,256,0
288,36880,0,0,0,360,196,0
289,36880,0,0,0,360,204,0
290,36880,0,0,0,360,212,0
291,36880,0,0,0,360,220,0
292,36880,0,0,0,360,228,0
293,36880,0,0,0,360,236,0
294,36880,0,0,0,360,244,0
295,36880,0,0,0,360,252,0
296,36880,0,0,0,364,200,0
297,36880,0,0,0,364,208,0
298,36880,0,0,0,364,216,0
299,36880,0,0,0,364,224,0
300,36880,0,0,0,364,232,0
301,36880,0,0,0,364,240,0
302,36880,0,0,0,364,248,0
303,36880,0,0,0,364,256,0
304,36878,0,0,93,207.673,152.338,1
305,36881,0,0,169,232.753,151.871,1
306,36882,0,0,0,254.128,155.485,1
