EVENT,CURRENT_STATE,NEXT_STATE,NEXT_MODE
UNDER_ATTACK,REST,RAGE,RANGE_ATTACK
UNDER_ATTACK,FEAR,RAGE,RANGE_ATTACK
UNDER_ATTACK,UNCARING,RAGE,RANGE_ATTACK
UNDER_ATTACK,ANNOYED,RAGE,RANGE_ATTACK
UNDER_ATTACK,RAGE,BERSERK,RANGE_ATTACK
UNDER_ATTACK,BERSERK,BERSERK,RANGE_ATTACK
DEFEAT,REST,BERSERK,RANGE_ATTACK
DEFEAT,FEAR,RAGE,RANGE_ATTACK
DEFEAT,UNCARING,BERSERK,RANGE_ATTACK
DEFEAT,ANNOYED,BERSERK,RANGE_ATTACK
DEFEAT,RAGE,BERSERK,RANGE_ATTACK
DEFEAT,BERSERK,BERSERK,RANGE_ATTACK
BLOCKING,REST,RAGE,RANGE_ATTACK
BLOCKING,FEAR,RAGE,RANGE_ATTACK
BLOCKING,UNCARING,RAGE,RANGE_ATTACK
BLOCKING,ANNOYED,BERSERK,RANGE_ATTACK
BLOCKING,RAGE,BERSERK,RANGE_ATTACK
BLOCKING,BERSERK,RAGE,RANGE_ATTACK
BLOCKED,REST,RAGE,RANGE_ATTACK
BLOCKED,FEAR,BERSERK,RANGE_ATTACK
BLOCKED,UNCARING,RAGE,RANGE_ATTACK
BLOCKED,ANNOYED,BERSERK,RANGE_ATTACK
BLOCKED,RAGE,BERSERK,RANGE_ATTACK
BLOCKED,BERSERK,RAGE,RANGE_ATTACK
SLIDE,REST,RAGE,RANGE_ATTACK
SLIDE,FEAR,BERSERK,RANGE_ATTACK
SLIDE,UNCARING,RAGE,RANGE_ATTACK
SLIDE,ANNOYED,BERSERK,RANGE_ATTACK
SLIDE,RAGE,BERSERK,RANGE_ATTACK
SLIDE,BERSERK,RAGE,RANGE_ATTACK
HEALED,REST,REST,EXPLORE
HEALED,FEAR,REST,EXPLORE
HEALED,UNCARING,REST,EXPLORE
HEALED,ANNOYED,REST,EXPLORE
HEALED,RAGE,REST,EXPLORE
HEALED,BERSERK,REST,EXPLORE
DEAD,REST,REST,EXPLORE
DEAD,FEAR,REST,EXPLORE
DEAD,UNCARING,REST,EXPLORE
DEAD,ANNOYED,REST,EXPLORE
DEAD,RAGE,REST,EXPLORE
DEAD,BERSERK,REST,EXPLORE
REVIVE,REST,REST,EXPLORE
REVIVE,FEAR,REST,EXPLORE
REVIVE,UNCARING,REST,EXPLORE
REVIVE,ANNOYED,REST,EXPLORE
REVIVE,RAGE,REST,EXPLORE
REVIVE,BERSERK,REST,EXPLORE
SIGHT_IN,REST,ANNOYED,EXPLORE
SIGHT_IN,FEAR,ANNOYED,EXPLORE
SIGHT_IN,UNCARING,ANNOYED,EXPLORE
SIGHT_IN,ANNOYED,ANNOYED,EXPLORE
SIGHT_IN,RAGE,ANNOYED,EXPLORE
SIGHT_IN,BERSERK,ANNOYED,EXPLORE
SIGHT_OUT,REST,FEAR,EXPLORE
SIGHT_OUT,FEAR,FEAR,EXPLORE
SIGHT_OUT,UNCARING,FEAR,EXPLORE
SIGHT_OUT,ANNOYED,FEAR,EXPLORE
SIGHT_OUT,RAGE,FEAR,EXPLORE
SIGHT_OUT,BERSERK,FEAR,EXPLORE
PERSUIT_IN,REST,ANNOYED,EXPLORE
PERSUIT_IN,FEAR,ANNOYED,EXPLORE
PERSUIT_IN,UNCARING,ANNOYED,EXPLORE
PERSUIT_IN,ANNOYED,ANNOYED,EXPLORE
PERSUIT_IN,RAGE,RAGE,PERSUIT
PERSUIT_IN,BERSERK,BERSERK,PERSUIT
PERSUIT_OUT,REST,UNCARING,EXPLORE
PERSUIT_OUT,FEAR,UNCARING,EXPLORE
PERSUIT_OUT,UNCARING,UNCARING,EXPLORE
PERSUIT_OUT,ANNOYED,UNCARING,EXPLORE
PERSUIT_OUT,RAGE,UNCARING,EXPLORE
PERSUIT_OUT,BERSERK,UNCARING,EXPLORE
RANGE_ATTACK_IN,REST,ANNOYED,EXPLORE
RANGE_ATTACK_IN,FEAR,ANNOYED,EXPLORE
RANGE_ATTACK_IN,UNCARING,ANNOYED,EXPLORE
RANGE_ATTACK_IN,ANNOYED,ANNOYED,EXPLORE
RANGE_ATTACK_IN,RAGE,RAGE,RANGE_ATTACK
RANGE_ATTACK_IN,BERSERK,BERSERK,RANGE_ATTACK
RANGE_ATTACK_OUT,REST,FEAR,EXPLORE
RANGE_ATTACK_OUT,FEAR,FEAR,EXPLORE
RANGE_ATTACK_OUT,UNCARING,FEAR,EXPLORE
RANGE_ATTACK_OUT,ANNOYED,FEAR,EXPLORE
RANGE_ATTACK_OUT,RAGE,BERSERK,PERSUIT
RANGE_ATTACK_OUT,BERSERK,BERSERK,PERSUIT
RANGE_ATTACK_IN,REST,BERSERK,EXPLORE
RANGE_ATTACK_IN,FEAR,BERSERK,EXPLORE
RANGE_ATTACK_IN,UNCARING,BERSERK,EXPLORE
RANGE_ATTACK_IN,ANNOYED,BERSERK,EXPLORE
RANGE_ATTACK_IN,RAGE,BERSERK,EXPLORE
RANGE_ATTACK_IN,BERSERK,BERSERK,EXPLORE
RANGE_ATTACK_OUT,REST,UNCARING,EXPLORE
RANGE_ATTACK_OUT,FEAR,UNCARING,EXPLORE
RANGE_ATTACK_OUT,UNCARING,UNCARING,EXPLORE
RANGE_ATTACK_OUT,ANNOYED,UNCARING,EXPLORE
RANGE_ATTACK_OUT,RAGE,UNCARING,EXPLORE
RANGE_ATTACK_OUT,BERSERK,UNCARING,EXPLORE
MASTER_UNDER_ATTACK,REST,BERSERK,RANGE_ATTACK
MASTER_UNDER_ATTACK,FEAR,BERSERK,RANGE_ATTACK
MASTER_UNDER_ATTACK,UNCARING,BERSERK,RANGE_ATTACK
MASTER_UNDER_ATTACK,ANNOYED,BERSERK,RANGE_ATTACK
MASTER_UNDER_ATTACK,RAGE,BERSERK,RANGE_ATTACK
MASTER_UNDER_ATTACK,BERSERK,BERSERK,RANGE_ATTACK
MASTER_DEFEAT,REST,RAGE,RANGE_ATTACK
MASTER_DEFEAT,FEAR,RAGE,RANGE_ATTACK
MASTER_DEFEAT,UNCARING,RAGE,RANGE_ATTACK
MASTER_DEFEAT,ANNOYED,RAGE,RANGE_ATTACK
MASTER_DEFEAT,RAGE,RAGE,RANGE_ATTACK
MASTER_DEFEAT,BERSERK,RAGE,RANGE_ATTACK
MASTER_BLOCKING,REST,RAGE,RANGE_ATTACK
MASTER_BLOCKING,FEAR,RAGE,RANGE_ATTACK
MASTER_BLOCKING,UNCARING,RAGE,RANGE_ATTACK
MASTER_BLOCKING,ANNOYED,RAGE,RANGE_ATTACK
MASTER_BLOCKING,RAGE,RAGE,RANGE_ATTACK
MASTER_BLOCKING,BERSERK,RAGE,RANGE_ATTACK
MASTER_BLOCKED,REST,RAGE,RANGE_ATTACK
MASTER_BLOCKED,FEAR,RAGE,RANGE_ATTACK
MASTER_BLOCKED,UNCARING,RAGE,RANGE_ATTACK
MASTER_BLOCKED,ANNOYED,RAGE,RANGE_ATTACK
MASTER_BLOCKED,RAGE,RAGE,RANGE_ATTACK
MASTER_BLOCKED,BERSERK,RAGE,RANGE_ATTACK
MASTER_SLIDE,REST,RAGE,RANGE_ATTACK
MASTER_SLIDE,FEAR,RAGE,RANGE_ATTACK
MASTER_SLIDE,UNCARING,RAGE,RANGE_ATTACK
MASTER_SLIDE,ANNOYED,RAGE,RANGE_ATTACK
MASTER_SLIDE,RAGE,RAGE,RANGE_ATTACK
MASTER_SLIDE,BERSERK,BERSERK,RANGE_ATTACK
MASTER_FOLLOW_RANGE,REST,FEAR,EXPLORE
MASTER_FOLLOW_RANGE,FEAR,FEAR,EXPLORE
MASTER_FOLLOW_RANGE,UNCARING,FEAR,EXPLORE
MASTER_FOLLOW_RANGE,ANNOYED,FEAR,EXPLORE
MASTER_FOLLOW_RANGE,RAGE,FEAR,EXPLORE
MASTER_FOLLOW_RANGE,BERSERK,FEAR,EXPLORE
MASTER_WARP_RANGE,REST,FEAR,EXPLORE
MASTER_WARP_RANGE,FEAR,FEAR,EXPLORE
MASTER_WARP_RANGE,UNCARING,FEAR,EXPLORE
MASTER_WARP_RANGE,ANNOYED,FEAR,EXPLORE
MASTER_WARP_RANGE,RAGE,FEAR,EXPLORE
MASTER_WARP_RANGE,BERSERK,FEAR,EXPLORE
COMPULSION_UNDERATTACK,REST,BERSERK,RANGE_ATTACK
COMPULSION_UNDERATTACK,FEAR,BERSERK,RANGE_ATTACK
COMPULSION_UNDERATTACK,UNCARING,BERSERK,RANGE_ATTACK
COMPULSION_UNDERATTACK,ANNOYED,BERSERK,RANGE_ATTACK
COMPULSION_UNDERATTACK,RAGE,BERSERK,RANGE_ATTACK
COMPULSION_UNDERATTACK,BERSERK,BERSERK,RANGE_ATTACK
COMPULSION_STOP,REST,UNCARING,EXPLORE
COMPULSION_STOP,FEAR,UNCARING,EXPLORE
COMPULSION_STOP,UNCARING,UNCARING,EXPLORE
COMPULSION_STOP,ANNOYED,UNCARING,EXPLORE
COMPULSION_STOP,RAGE,UNCARING,EXPLORE
COMPULSION_STOP,BERSERK,UNCARING,EXPLORE
