BrickUID,BrickIndex,Revival,RegenCycle,Direction,Location_X,Location_Y,IsCreate
301,35001,0,0,90,275.863,339.955,1
302,35002,0,0,90,372.015,339.992,1
303,35003,0,0,0,323.984,388.041,1
304,35004,0,0,90,372.077,403.932,1
305,35005,0,0,270,275.924,404.176,1
306,35006,0,0,180,324.088,452.198,1
307,35007,0,0,269,260.539,123.051,1
308,35008,0,0,180,285.409,83.692,1
309,35009,0,0,180,308.473,83.762,1
310,35010,0,0,270,339.033,118.518,1
311,35011,0,0,269,338.962,144.415,1
312,35012,0,0,0,377.994,59.113,1
313,35013,0,0,90,410.369,73.979,1
314,35013,0,0,90,391.234,123.048,1
