MapIndex,565,,,,
,,,,,
CallIndex,MonsterIndex,X,Y,Cell,Count
1,60040,419,460,0,1
1,60040,429,457,0,1
1,60040,424,456,0,1
1,60040,418,453,0,1
1,60038,427,451,0,1
1,60038,423,449,0,1
1,60038,426,447,0,1
1,60038,428,444,0,1
1,60031,420,446,0,1
1,60031,419,442,0,1
2,60040,427,438,0,1
2,60040,422,439,0,1
2,60040,421,432,0,1
2,60040,428,432,0,1
2,60038,430,428,0,1
2,60038,424,426,0,1
2,60038,431,422,0,1
2,60038,433,419,0,1
2,60031,431,418,0,1
2,60031,427,425,0,1
3,60040,437,410,0,1
3,60040,439,410,0,1
3,60040,440,406,0,1
3,60040,443,407,0,1
3,60038,443,401,0,1
3,60038,448,402,0,1
3,60038,447,398,0,1
3,60038,453,398,0,1
3,60031,450,393,0,1
3,60031,456,396,0,1
4,60040,452,391,0,1
4,60040,458,393,0,1
4,60040,456,388,0,1
4,60040,462,388,0,1
4,60038,461,385,0,1
4,60038,466,387,0,1
4,60038,464,380,0,1
4,60038,471,381,0,1
4,60031,468,378,0,1
4,60031,471,377,0,1
5,60040,471,368,0,1
5,60040,477,372,0,1
5,60040,474,362,0,1
5,60040,485,366,0,1
5,60038,488,357,0,1
5,60038,481,360,0,1
5,60038,477,355,0,1
5,60038,485,349,0,1
5,60031,482,345,0,1
5,60031,480,350,0,1
6,60040,477,341,0,1
6,60040,481,339,0,1
6,60040,475,337,0,1
6,60040,473,330,0,1
6,60038,480,330,0,1
6,60038,478,335,0,1
6,60038,475,326,0,1
6,60038,479,326,0,1
6,60031,474,321,0,1
6,60031,479,320,0,1
7,60040,471,313,0,1
7,60040,479,311,0,1
7,60040,474,305,0,1
7,60040,469,304,0,1
7,60038,472,297,0,1
7,60038,468,295,0,1
7,60038,464,287,0,1
7,60038,468,283,0,1
7,60031,468,290,0,1
7,60031,461,283,0,1
8,60040,467,275,0,1
8,60040,459,278,0,1
8,60040,463,272,0,1
8,60040,456,271,0,1
8,60038,461,267,0,1
8,60038,459,275,0,1
8,60038,452,267,0,1
8,60038,449,258,0,1
8,60031,457,255,0,1
8,60031,454,261,0,1
9,60040,450,245,0,1
9,60040,446,236,0,1
9,60040,462,230,0,1
9,60040,454,226,0,1
9,60038,470,221,0,1
9,60038,455,216,0,1
9,60038,474,211,0,1
9,60038,458,203,0,1
9,60031,478,203,0,1
9,60031,466,205,0,1
10,60040,458,191,0,1
10,60040,478,190,0,1
10,60040,470,187,0,1
10,60040,456,181,0,1
10,60038,479,177,0,1
10,60038,467,168,0,1
10,60038,460,175,0,1
10,60038,475,174,0,1
10,60031,466,180,0,1
10,60031,454,172,0,1
11,60030,450,158,0,1
12,60036,436,180,0,1
12,60036,420,181,0,1
12,60036,428,181,0,1
12,60036,415,197,0,1
12,60037,434,198,0,1
12,60037,426,192,0,1
12,60037,425,201,0,1
12,60037,420,203,0,1
12,60034,421,218,0,1
12,60034,433,214,0,1
13,60036,430,208,0,1
13,60036,424,212,0,1
13,60036,421,229,0,1
13,60036,433,224,0,1
13,60037,425,221,0,1
13,60037,427,233,0,1
13,60037,420,239,0,1
13,60037,432,240,0,1
13,60034,433,192,0,1
13,60034,417,190,0,1
14,60036,427,258,0,1
14,60036,439,256,0,1
14,60036,432,258,0,1
14,60036,428,267,0,1
14,60037,440,264,0,1
14,60037,435,269,0,1
14,60037,437,279,0,1
14,60037,441,271,0,1
14,60034,434,275,0,1
14,60034,444,278,0,1
15,60036,440,285,0,1
15,60036,448,282,0,1
15,60036,443,289,0,1
15,60036,423,254,0,1
15,60037,430,253,0,1
15,60037,436,251,0,1
15,60037,445,295,0,1
15,60037,449,290,0,1
15,60034,452,286,0,1
15,60034,433,265,0,1
16,60036,449,304,0,1
16,60036,458,300,0,1
16,60036,453,304,0,1
16,60036,458,306,0,1
16,60037,451,310,0,1
16,60037,454,308,0,1
16,60037,451,314,0,1
16,60037,460,310,0,1
16,60034,455,315,0,1
16,60034,453,324,0,1
17,60036,462,318,0,1
17,60036,456,321,0,1
17,60036,454,330,0,1
17,60036,465,326,0,1
17,60037,460,326,0,1
17,60037,457,332,0,1
17,60037,461,330,0,1
17,60037,463,334,0,1
17,60034,455,338,0,1
17,60034,464,340,0,1
18,60036,455,352,0,1
18,60036,465,353,0,1
18,60036,459,352,0,1
18,60036,461,358,0,1
18,60037,462,354,0,1
18,60037,464,361,0,1
18,60037,461,369,0,1
18,60037,457,366,0,1
18,60034,460,364,0,1
18,60034,453,360,0,1
19,60036,453,356,0,1
19,60036,458,357,0,1
19,60036,456,363,0,1
19,60036,447,366,0,1
19,60037,436,376,0,1
19,60037,442,377,0,1
19,60037,449,378,0,1
19,60037,449,371,0,1
19,60034,451,366,0,1
19,60034,454,373,0,1
20,60036,429,382,0,1
20,60036,440,389,0,1
20,60036,432,389,0,1
20,60036,429,386,0,1
20,60037,429,399,0,1
20,60037,421,404,0,1
20,60037,426,395,0,1
20,60037,420,389,0,1
20,60034,415,386,0,1
20,60034,420,385,0,1
21,60036,426,390,0,1
21,60036,421,397,0,1
21,60036,418,406,0,1
21,60036,417,412,0,1
21,60037,407,414,0,1
21,60037,402,409,0,1
21,60037,402,398,0,1
21,60037,408,392,0,1
21,60034,409,401,0,1
21,60034,411,406,0,1
22,60029,368,385,0,1
23,60033,344,344,0,1
23,60035,349,341,0,1
23,60039,343,334,0,1
23,60033,348,333,0,1
23,60035,339,328,0,1
23,60039,350,328,0,1
23,60033,344,330,0,1
23,60035,353,318,0,1
23,60039,353,325,0,1
23,60035,343,321,0,1
24,60033,335,323,0,1
24,60035,328,318,0,1
24,60039,324,313,0,1
24,60033,331,312,0,1
24,60035,339,313,0,1
24,60039,346,316,0,1
24,60033,355,314,0,1
24,60035,360,313,0,1
24,60039,345,311,0,1
24,60035,336,310,0,1
25,60033,325,301,0,1
25,60035,331,301,0,1
25,60039,337,301,0,1
25,60033,344,302,0,1
25,60035,351,302,0,1
25,60039,356,304,0,1
25,60033,349,294,0,1
25,60035,341,292,0,1
25,60039,330,292,0,1
25,60035,330,287,0,1
26,60033,342,286,0,1
26,60035,350,286,0,1
26,60039,356,284,0,1
26,60033,335,294,0,1
26,60035,327,283,0,1
26,60039,334,282,0,1
26,60033,344,280,0,1
26,60035,352,279,0,1
26,60039,358,278,0,1
26,60035,331,275,0,1
27,60033,332,264,0,1
27,60035,336,267,0,1
27,60039,344,269,0,1
27,60033,345,263,0,1
27,60035,339,270,0,1
27,60039,340,261,0,1
27,60033,339,264,0,1
27,60035,334,259,0,1
27,60039,345,255,0,1
27,60035,339,254,0,1
28,60033,332,255,0,1
28,60035,328,256,0,1
28,60039,348,252,0,1
28,60033,334,246,0,1
28,60035,343,245,0,1
28,60039,349,245,0,1
28,60033,338,248,0,1
28,60035,336,238,0,1
28,60039,348,237,0,1
28,60035,341,240,0,1
29,60033,343,220,0,1
29,60035,354,220,0,1
29,60039,349,220,0,1
29,60033,346,223,0,1
29,60035,345,207,0,1
29,60039,357,207,0,1
29,60033,354,213,0,1
29,60035,345,214,0,1
29,60039,350,204,0,1
29,60035,356,192,0,1
30,60033,346,193,0,1
30,60035,345,201,0,1
30,60039,356,198,0,1
30,60033,351,211,0,1
30,60035,350,194,0,1
30,60039,348,188,0,1
30,60033,356,186,0,1
30,60035,351,186,0,1
30,60039,350,199,0,1
30,60035,347,181,0,1
31,60033,340,166,0,1
31,60035,345,161,0,1
31,60039,341,159,0,1
31,60033,354,161,0,1
31,60035,353,168,0,1
31,60039,347,173,0,1
31,60033,338,175,0,1
31,60035,331,164,0,1
31,60039,332,178,0,1
31,60035,334,171,0,1
32,60033,334,184,0,1
32,60035,338,186,0,1
32,60039,335,196,0,1
32,60033,332,192,0,1
32,60035,337,194,0,1
32,60039,328,205,0,1
32,60033,332,206,0,1
32,60035,330,201,0,1
32,60039,332,215,0,1
32,60035,327,213,0,1
33,60033,324,221,0,1
33,60035,329,222,0,1
33,60039,328,226,0,1
33,60033,322,226,0,1
33,60035,324,226,0,1
33,60039,326,232,0,1
33,60033,325,229,0,1
33,60035,322,231,0,1
33,60039,319,233,0,1
33,60035,325,236,0,1
34,60033,318,239,0,1
34,60035,322,236,0,1
34,60039,324,243,0,1
34,60033,321,240,0,1
34,60035,317,243,0,1
34,60039,322,245,0,1
34,60033,317,249,0,1
34,60035,320,250,0,1
34,60039,315,257,0,1
34,60035,317,261,0,1
35,60028,267,250,0,1
36,60032,250,156,0,1
36,60036,259,157,0,1
36,60033,262,152,0,1
36,60032,257,142,0,1
36,60036,252,142,0,1
36,60033,253,150,0,1
36,60032,256,148,0,1
36,60036,256,154,0,1
36,60033,246,155,0,1
36,60036,248,147,0,1
37,60032,247,140,0,1
37,60036,241,155,0,1
37,60033,242,147,0,1
37,60032,243,139,0,1
37,60036,244,151,0,1
37,60033,245,143,0,1
37,60032,263,145,0,1
37,60036,238,154,0,1
37,60033,239,144,0,1
37,60036,240,138,0,1
38,60032,234,127,0,1
38,60036,229,152,0,1
38,60033,229,142,0,1
38,60032,231,134,0,1
38,60036,228,125,0,1
38,60033,224,136,0,1
38,60032,222,149,0,1
38,60036,216,150,0,1
38,60033,217,142,0,1
38,60036,218,134,0,1
39,60032,220,129,0,1
39,60036,221,122,0,1
39,60033,217,118,0,1
39,60032,213,129,0,1
39,60036,211,138,0,1
39,60033,208,150,0,1
39,60032,206,145,0,1
39,60036,207,137,0,1
39,60033,208,128,0,1
39,60036,211,122,0,1
40,60032,198,152,0,1
40,60036,198,146,0,1
40,60033,198,136,0,1
40,60032,199,128,0,1
40,60036,199,119,0,1
40,60033,202,116,0,1
40,60032,194,114,0,1
40,60036,190,111,0,1
40,60033,185,119,0,1
40,60036,181,128,0,1
41,60032,175,130,0,1
41,60036,177,137,0,1
41,60033,183,146,0,1
41,60032,189,153,0,1
41,60036,189,146,0,1
41,60033,190,134,0,1
41,60032,190,127,0,1
41,60036,191,120,0,1
41,60033,185,133,0,1
41,60036,183,142,0,1
42,60032,164,138,0,1
42,60036,169,143,0,1
42,60033,174,147,0,1
42,60032,177,149,0,1
42,60036,169,139,0,1
42,60033,162,146,0,1
42,60032,165,153,0,1
42,60036,169,152,0,1
42,60033,172,157,0,1
42,60036,168,164,0,1
43,60032,162,161,0,1
43,60036,157,158,0,1
43,60033,158,153,0,1
43,60032,157,167,0,1
43,60036,160,172,0,1
43,60033,151,163,0,1
43,60032,153,171,0,1
43,60036,155,175,0,1
43,60033,146,170,0,1
43,60036,149,178,0,1
44,60032,130,178,0,1
44,60036,136,182,0,1
44,60033,140,185,0,1
44,60032,145,189,0,1
44,60036,141,198,0,1
44,60033,132,197,0,1
44,60032,133,190,0,1
44,60036,138,193,0,1
44,60033,132,209,0,1
44,60036,136,202,0,1
45,60032,137,211,0,1
45,60036,131,221,0,1
45,60033,136,227,0,1
45,60032,132,235,0,1
45,60036,137,237,0,1
45,60033,134,245,0,1
45,60032,139,246,0,1
45,60036,135,253,0,1
45,60033,139,253,0,1
45,60036,138,261,0,1
46,60032,135,270,0,1
46,60036,140,271,0,1
46,60033,132,276,0,1
46,60032,135,279,0,1
46,60036,142,278,0,1
46,60033,147,287,0,1
46,60032,136,290,0,1
46,60036,141,286,0,1
46,60033,142,295,0,1
46,60036,131,302,0,1
47,60032,136,297,0,1
47,60036,134,305,0,1
47,60033,136,316,0,1
47,60032,143,321,0,1
47,60036,156,313,0,1
47,60033,145,311,0,1
47,60032,140,310,0,1
47,60036,140,303,0,1
47,60033,134,295,0,1
47,60036,145,292,0,1
48,60027,163,406,0,1
49,60046,434,468,0,1
49,60046,428,454,0,1
49,60046,419,445,0,1
49,60046,428,433,0,1
49,60046,428,421,0,1
49,60046,439,410,0,1
49,60046,443,402,0,1
49,60046,454,397,0,1
49,60046,462,382,0,1
49,60046,475,374,0,1
50,60046,485,353,0,1
50,60046,480,346,0,1
50,60046,480,333,0,1
50,60046,472,319,0,1
50,60046,476,300,0,1
50,60046,465,288,0,1
50,60046,464,267,0,1
50,60046,446,250,0,1
50,60046,457,241,0,1
50,60046,451,224,0,1
51,60046,473,217,0,1
51,60046,454,204,0,1
51,60046,478,194,0,1
51,60046,458,187,0,1
51,60046,477,175,0,1
51,60046,460,172,0,1
52,60048,425,176,0,1
52,60048,416,196,0,1
52,60048,433,196,0,1
52,60048,427,212,0,1
52,60048,419,234,0,1
52,60048,433,231,0,1
52,60048,430,248,0,1
52,60048,429,265,0,1
52,60048,440,261,0,1
52,60048,439,274,0,1
53,60048,441,291,0,1
53,60048,453,285,0,1
53,60048,452,297,0,1
53,60048,450,314,0,1
53,60048,462,313,0,1
53,60048,457,325,0,1
53,60048,454,333,0,1
53,60048,464,333,0,1
53,60048,460,343,0,1
53,60048,453,355,0,1
54,60048,465,355,0,1
54,60048,455,366,0,1
54,60048,442,371,0,1
54,60048,448,382,0,1
54,60048,436,384,0,1
54,60048,422,386,0,1
54,60048,429,400,0,1
54,60048,415,400,0,1
54,60048,398,401,0,1
54,60048,403,416,0,1
55,60046,334,324,0,1
55,60046,349,323,0,1
55,60046,329,299,0,1
55,60046,349,293,0,1
55,60046,336,276,0,1
55,60046,354,277,0,1
55,60046,333,255,0,1
55,60046,347,252,0,1
55,60046,339,232,0,1
55,60046,353,229,0,1
56,60046,351,205,0,1
56,60046,346,185,0,1
56,60046,358,182,0,1
56,60046,345,173,0,1
56,60046,334,185,0,1
56,60046,331,207,0,1
56,60046,324,230,0,1
56,60046,320,241,0,1
56,60046,316,259,0,1
56,60046,311,279,0,1
57,60047,339,306,0,1
57,60047,342,282,0,1
57,60047,341,244,0,1
57,60047,350,216,0,1
57,60047,353,190,0,1
57,60047,355,158,0,1
57,60047,335,197,0,1
57,60047,327,219,0,1
57,60047,312,270,0,1
57,60047,332,164,0,1
58,60048,252,215,0,1
58,60048,258,199,0,1
58,60048,252,183,0,1
58,60048,268,155,0,1
58,60048,249,141,0,1
58,60048,232,154,0,1
58,60048,221,130,0,1
58,60048,204,141,0,1
58,60048,180,131,0,1
58,60048,165,160,0,1
59,60048,137,167,0,1
59,60048,137,191,0,1
59,60048,134,210,0,1
59,60048,135,234,0,1
59,60048,137,257,0,1
59,60048,140,280,0,1
59,60048,139,302,0,1
59,60048,139,318,0,1
59,60048,158,316,0,1
59,60048,195,124,0,1
60,60049,145,311,0,1
60,60049,137,291,0,1
60,60049,135,270,0,1
60,60049,135,222,0,1
60,60049,140,178,0,1
60,60049,155,160,0,1
60,60049,187,141,0,1
60,60049,191,139,0,1
60,60049,210,128,0,1
60,60049,232,144,0,1
61,5754,368,380,0,1
61,5754,368,390,0,1
62,60023,360,387,0,1
62,60023,366,380,0,1
63,60023,376,393,0,1
63,60023,357,374,0,1
64,6113,274,278,0,1
64,6113,262,274,0,1
64,6113,288,270,0,1
64,6113,294,256,0,1
64,6113,290,241,0,1
64,6113,282,232,0,1
64,6113,267,229,0,1
64,6113,256,237,0,1
64,6113,250,246,0,1
64,6113,250,263,0,1
65,8062,271,267,0,1
65,8062,284,253,0,1
65,8062,259,250,0,1
65,8062,272,240,0,1
65,8062,261,243,0,1
65,8062,280,263,0,1
65,8062,278,245,0,1
65,8062,265,261,0,1
65,8062,267,249,0,1
65,8062,276,259,0,1
66,8062,272,268,0,1
66,8062,272,260,0,1
66,8062,270,246,0,1
66,8062,269,239,0,1
66,8062,284,254,0,1
66,8062,277,253,0,1
66,8062,264,252,0,1
66,8062,257,248,0,1
66,8062,262,243,0,1
66,8062,280,264,0,1
67,8063,154,417,0,1
67,8063,154,394,0,1
67,8063,171,394,0,1
67,8063,173,420,0,1
67,8063,164,415,0,1
67,8063,157,406,0,1
67,8063,165,399,0,1
67,8063,171,409,0,1
67,8063,164,409,0,1
67,8063,149,426,0,1
68,8063,180,429,0,1
67,8063,150,390,0,1
68,8063,178,392,0,1
69,8063,147,426,0,1
69,8063,154,428,0,1
69,8063,164,428,0,1
69,8063,172,425,0,1
69,8063,182,427,0,1
69,8063,181,417,0,1
69,8063,183,405,0,1
69,8063,181,397,0,1
69,8063,177,392,0,1
69,8063,170,392,0,1
70,8063,164,392,0,1
70,8063,156,393,0,1
70,8063,148,394,0,1
70,8063,147,401,0,1
70,8063,147,408,0,1
70,8063,146,419,0,1
71,8063,181,394,0,1
71,8063,145,394,0,1
71,8063,181,428,0,1
71,8063,146,425,0,1
71,8063,164,427,0,1
71,8063,162,395,0,1
71,8063,164,412,0,1
71,8063,143,412,0,1
71,8063,184,413,0,1
71,8063,173,421,0,1
72,8063,173,401,0,1
72,8063,155,420,0,1
72,8063,155,404,0,1
72,8063,157,432,0,1
72,8063,154,392,0,1
72,8063,172,392,0,1
72,8063,176,432,0,1
72,8063,142,419,0,1
72,8063,143,401,0,1
72,8063,174,412,0,1
72,8063,154,412,0,1
73,60051,176,426,0,1
73,60051,178,419,0,1
73,60051,179,412,0,1
73,60051,179,404,0,1
73,60051,180,396,0,1
73,60051,174,396,0,1
73,60051,167,396,0,1
73,60051,161,396,0,1
73,60051,156,396,0,1
73,60051,152,396,0,1
74,60051,152,401,0,1
74,60051,152,407,0,1
74,60051,152,413,0,1
74,60051,152,418,0,1
74,60051,152,423,0,1
74,60051,152,427,0,1
74,60051,158,427,0,1
74,60051,164,427,0,1
74,60051,170,426,0,1
75,60051,183,430,0,1
75,60051,175,425,0,1
75,60051,168,419,0,1
75,60051,162,413,0,1
75,60051,156,406,0,1
75,60051,152,400,0,1
75,60051,147,394,0,1
75,60051,143,391,0,1
75,60051,145,426,0,1
75,60051,150,422,0,1
76,60051,157,417,0,1
76,60051,184,392,0,1
76,60051,181,396,0,1
76,60051,175,401,0,1
76,60051,171,406,0,1
76,60051,168,409,0,1
77,60051,186,433,0,1
77,60051,178,433,0,1
77,60051,167,433,0,1
77,60051,156,433,0,1
77,60051,148,429,0,1
77,60051,142,426,0,1
77,60051,140,420,0,1
77,60051,140,414,0,1
77,60051,140,408,0,1
77,60051,141,402,0,1
78,60051,141,395,0,1
78,60051,141,390,0,1
78,60051,148,390,0,1
78,60051,155,391,0,1
78,60051,164,391,0,1
78,60051,170,391,0,1
78,60051,177,391,0,1
78,60051,185,391,0,1
78,60051,185,396,0,1
78,60051,186,401,0,1
79,60051,186,408,0,1
79,60051,185,415,0,1
79,60051,185,424,0,1
