Index,StartDelay,EndDelay
62001,4000,4000
62002,4000,4000
62003,4000,4000
62004,4000,4000
62005,4000,4000
62006,4000,4000
62007,4000,4000
62008,4000,4000
62009,4000,4000
62010,4000,4000
62011,4000,4000
62012,4000,4000
62013,4000,4000
62014,4000,4000
62015,4000,4000
62016,4000,4000
62017,4000,4000
62018,4000,4000
62501,4000,4000
62502,4000,4000
62503,4000,4000
62504,4000,4000
62505,4000,4000
62506,4000,4000
62507,4000,4000
62508,4000,4000
62509,4000,4000
62510,4000,4000
62511,4000,4000
62512,4000,4000
62513,4000,4000
62514,4000,4000
62515,4000,4000
62516,4000,4000
62517,4000,4000
62518,4000,4000
62519,4000,4000
62520,4000,4000
62531,4000,4000
62532,4000,4000
62533,4000,4000
62534,4000,4000
62537,4000,4000
62538,4000,4000
62539,4000,4000
62540,4000,4000
62541,4000,4000
62542,4000,4000
62543,4000,4000
62544,4000,4000
62545,4000,4000
62546,4000,4000
62547,4000,4000
62548,4000,4000
62549,4000,4000
62550,4000,4000
62551,4000,4000
62552,4000,4000
62553,4000,4000
62554,4000,4000
