Type,Value,Description
dwMAXAggro,2500000,Max Hostility Parameter (100,000 ~ 40,000,000,000)
dwFirstAggroValue,7500,First Hostility Bonus
dwAggroKeepingTick,30000,Hostility Duration
byMonsterAggroList,36,Number of Hostility Actions (1 ~ 36)
byPCAggroList,36,Number of Hostility Actions (1 ~ 36)
byAggroChangePercent,20,Percentage of diverting a monster's Hostility from Target 0 
byOwnershipWeight,120,Bonus for Target 0 who has priority over aggravated monster (Unit: %, must be at least 100 to receive this bonus)
