레벨,인덱스,타입,설명,민,맥스
1,10001,RESIST_FIRE_ADD,파이어 레지스트 +%,1,1
1,10002,RESIST_ICE_ADD,아이스 레지스트 +%,1,1
1,10003,RESIST_LIGHTNING_ADD,라이트닝 레지스트 +%,1,1
1,10004,RESIST_POISON_ADD,포이즌 레지스트 +%,1,1
1,10005,RESIST_CURSE_ADD,커즈 레지스트 +%,1,1
1,10006,RESIST_POISON_ADD,포이즌 레지스트 +%,1,1
1,10007,DEFENSE_MIN_ADD,방어력 +,5,12
2,10021,RESIST_FIRE_ADD,파이어 레지스트 +%,1,2
2,10022,RESIST_ICE_ADD,아이스 레지스트 +%,1,2
2,10023,RESIST_LIGHTNING_ADD,라이트닝 레지스트 +%,1,2
2,10024,RESIST_POISON_ADD,포이즌 레지스트 +%,1,2
2,10025,RESIST_CURSE_ADD,커즈 레지스트 +%,1,2
2,10026,RESIST_POISON_ADD,포이즌 레지스트 +%,1,2
2,10027,DEFENSE_MIN_ADD,방어력 +,7,15
21,10401,RESIST_FIRE_ADD,파이어 레지스트 +%,1,1
21,10402,RESIST_ICE_ADD,아이스 레지스트 +%,1,1
21,10403,RESIST_LIGHTNING_ADD,라이트닝 레지스트 +%,1,1
21,10404,RESIST_POISON_ADD,포이즌 레지스트 +%,1,1
21,10405,RESIST_CURSE_ADD,커즈 레지스트 +%,1,1
21,10406,RESIST_POISON_ADD,포이즌 레지스트 +%,1,1
21,10407,DEFENSE_MIN_ADD,방어력 +,5,12
21,10408,SPEED_MOVE_MUL,이동 속도 +%,1,2
22,10421,RESIST_FIRE_ADD,파이어 레지스트 +%,1,2
22,10422,RESIST_ICE_ADD,아이스 레지스트 +%,1,2
22,10423,RESIST_LIGHTNING_ADD,라이트닝 레지스트 +%,1,2
22,10424,RESIST_POISON_ADD,포이즌 레지스트 +%,1,2
22,10425,RESIST_CURSE_ADD,커즈 레지스트 +%,1,2
22,10426,RESIST_POISON_ADD,포이즌 레지스트 +%,1,2
22,10427,DEFENSE_MIN_ADD,방어력 +,7,15
22,10428,SPEED_MOVE_MUL,이동 속도 +%,2,3
41,10801,DAMAGE_PHYSICAL_MUL,물리 공격력 +%,1,1
41,10802,DAMAGE_MINPHYSICAL_ADD,물리 공격력 +,12,17
41,10803,DAMAGE_MINPHYSICAL_ADD,물리 공격력 +,12,17
41,10804,DAMAGE_MINPHYSICAL_ADD,물리 공격력 +,12,17
41,10805,DAMAGE_MINPHYSICAL_ADD,물리 공격력 +,12,17
41,10806,DAMAGERATE_CRITICAL_ADD,크리티컬 공격력 +%,2,3
41,10807,DAMAGERATE_CRITICAL_ADD,크리티컬 공격력 +%,2,3
42,10821,DAMAGE_PHYSICAL_MUL,물리 공격력 +%,1,1
42,10822,DAMAGE_MINPHYSICAL_ADD,물리 공격력 +,17,24
42,10823,DAMAGE_MINPHYSICAL_ADD,물리 공격력 +,17,24
42,10824,DAMAGE_MINPHYSICAL_ADD,물리 공격력 +,17,24
42,10825,DAMAGE_MINPHYSICAL_ADD,물리 공격력 +,17,24
42,10826,DAMAGERATE_CRITICAL_ADD,크리티컬 공격력 +%,3,4
42,10827,DAMAGERATE_CRITICAL_ADD,크리티컬 공격력 +%,3,4
61,11201,RESIST_FIRE_ADD,파이어 레지스트 +%,1,1
61,11202,RESIST_ICE_ADD,아이스 레지스트 +%,1,1
61,11203,RESIST_LIGHTNING_ADD,라이트닝 레지스트 +%,1,1
61,11204,RESIST_POISON_ADD,포이즌 레지스트 +%,1,1
61,11205,RESIST_CURSE_ADD,커즈 레지스트 +%,1,1
61,11206,RESIST_POISON_ADD,포이즌 레지스트 +%,1,1
61,11207,DEFENSE_MIN_ADD,방어력 +,14,24
61,11208,RESIST_ALL_ADD,모든 속성 저항력 증가 +,1,1
62,11221,RESIST_FIRE_ADD,파이어 레지스트 +%,1,2
62,11222,RESIST_ICE_ADD,아이스 레지스트 +%,1,2
62,11223,RESIST_LIGHTNING_ADD,라이트닝 레지스트 +%,1,2
62,11224,RESIST_POISON_ADD,포이즌 레지스트 +%,1,2
62,11225,RESIST_CURSE_ADD,커즈 레지스트 +%,1,2
62,11226,RESIST_POISON_ADD,포이즌 레지스트 +%,1,2
62,11227,DEFENSE_MIN_ADD,방어력 +,19,31
62,11228,RESIST_ALL_ADD,모든 속성 저항력 증가 +,1,1
81,11601,HP_MAX_ADD,최대 HP +,130,186
81,11602,HP_RECOVERY_ADD,HP 회복력 +,1,2
81,11603,MP_MAX_ADD,최대 MP +,57,82
81,11604,MP_RECOVERY_ADD,MP 회복력 +,1,2
82,11621,HP_MAX_ADD,최대 HP +,190,246
82,11622,HP_RECOVERY_ADD,HP 회복력 +,2,3
82,11623,MP_MAX_ADD,최대 MP +,84,108
82,11624,MP_RECOVERY_ADD,MP 회복력 +,2,3
101,12001,RESIST_FIRE_ADD,파이어 레지스트 +%,1,1
101,12002,RESIST_ICE_ADD,아이스 레지스트 +%,1,1
101,12003,RESIST_LIGHTNING_ADD,라이트닝 레지스트 +%,1,1
101,12004,RESIST_POISON_ADD,포이즌 레지스트 +%,1,1
101,12005,RESIST_CURSE_ADD,커즈 레지스트 +%,1,1
101,12006,RESIST_POISON_ADD,포이즌 레지스트 +%,1,1
101,12007,DEFENSE_MIN_ADD,방어력 +,5,12
102,12021,RESIST_FIRE_ADD,파이어 레지스트 +%,1,2
102,12022,RESIST_ICE_ADD,아이스 레지스트 +%,1,2
102,12023,RESIST_LIGHTNING_ADD,라이트닝 레지스트 +%,1,2
102,12024,RESIST_POISON_ADD,포이즌 레지스트 +%,1,2
102,12025,RESIST_CURSE_ADD,커즈 레지스트 +%,1,2
102,12026,RESIST_POISON_ADD,포이즌 레지스트 +%,1,2
102,12027,DEFENSE_MIN_ADD,방어력 +,7,15
121,12401,RESIST_FIRE_ADD,파이어 레지스트 +%,1,1
121,12402,RESIST_ICE_ADD,아이스 레지스트 +%,1,1
121,12403,RESIST_LIGHTNING_ADD,라이트닝 레지스트 +%,1,1
121,12404,RESIST_POISON_ADD,포이즌 레지스트 +%,1,1
121,12405,RESIST_CURSE_ADD,커즈 레지스트 +%,1,1
121,12406,RESIST_POISON_ADD,포이즌 레지스트 +%,1,1
121,12407,DEFENSE_MIN_ADD,방어력 +,5,12
121,12408,SPEED_MOVE_MUL,이동 속도 +%,1,2
122,12421,RESIST_FIRE_ADD,파이어 레지스트 +%,1,2
122,12422,RESIST_ICE_ADD,아이스 레지스트 +%,1,2
122,12423,RESIST_LIGHTNING_ADD,라이트닝 레지스트 +%,1,2
122,12424,RESIST_POISON_ADD,포이즌 레지스트 +%,1,2
122,12425,RESIST_CURSE_ADD,커즈 레지스트 +%,1,2
122,12426,RESIST_POISON_ADD,포이즌 레지스트 +%,1,2
122,12427,DEFENSE_MIN_ADD,방어력 +,7,15
122,12428,SPEED_MOVE_MUL,이동 속도 +%,2,3
141,12801,DAMAGE_PHYSICAL_MUL,물리 공격력 +%,1,1
141,12802,DAMAGE_MINPHYSICAL_ADD,물리 공격력 +,12,17
141,12803,DAMAGE_MINPHYSICAL_ADD,물리 공격력 +,12,17
141,12804,DAMAGE_MINPHYSICAL_ADD,물리 공격력 +,12,17
141,12805,DAMAGE_MINPHYSICAL_ADD,물리 공격력 +,12,17
141,12806,DAMAGERATE_CRITICAL_ADD,크리티컬 공격력 +%,2,3
141,12807,DAMAGERATE_CRITICAL_ADD,크리티컬 공격력 +%,2,3
142,12821,DAMAGE_PHYSICAL_MUL,물리 공격력 +%,1,1
142,12822,DAMAGE_MINPHYSICAL_ADD,물리 공격력 +,17,24
142,12823,DAMAGE_MINPHYSICAL_ADD,물리 공격력 +,17,24
142,12824,DAMAGE_MINPHYSICAL_ADD,물리 공격력 +,17,24
142,12825,DAMAGE_MINPHYSICAL_ADD,물리 공격력 +,17,24
142,12826,DAMAGERATE_CRITICAL_ADD,크리티컬 공격력 +%,2,3
142,12827,DAMAGERATE_CRITICAL_ADD,크리티컬 공격력 +%,3,4
161,13201,RESIST_FIRE_ADD,파이어 레지스트 +%,1,1
161,13202,RESIST_ICE_ADD,아이스 레지스트 +%,1,1
161,13203,RESIST_LIGHTNING_ADD,라이트닝 레지스트 +%,1,1
161,13204,RESIST_POISON_ADD,포이즌 레지스트 +%,1,1
161,13205,RESIST_CURSE_ADD,커즈 레지스트 +%,1,1
161,13206,RESIST_POISON_ADD,포이즌 레지스트 +%,1,1
161,13207,DEFENSE_MIN_ADD,방어력 +,14,24
161,13208,RESIST_ALL_ADD,모든 속성 저항력 증가 +,1,1
162,13221,RESIST_FIRE_ADD,파이어 레지스트 +%,1,2
162,13222,RESIST_ICE_ADD,아이스 레지스트 +%,1,2
162,13223,RESIST_LIGHTNING_ADD,라이트닝 레지스트 +%,1,2
162,13224,RESIST_POISON_ADD,포이즌 레지스트 +%,1,2
162,13225,RESIST_CURSE_ADD,커즈 레지스트 +%,1,2
162,13226,RESIST_POISON_ADD,포이즌 레지스트 +%,1,2
162,13227,DEFENSE_MIN_ADD,방어력 +,19,31
162,13228,RESIST_ALL_ADD,모든 속성 저항력 증가 +,1,1
181,13601,HP_MAX_ADD,최대 HP +,130,186
181,13602,HP_RECOVERY_ADD,HP 회복력 +,1,2
181,13603,MP_MAX_ADD,최대 MP +,57,82
181,13604,MP_RECOVERY_ADD,MP 회복력 +,1,2
182,13621,HP_MAX_ADD,최대 HP +,190,246
182,13622,HP_RECOVERY_ADD,HP 회복력 +,2,3
182,13623,MP_MAX_ADD,최대 MP +,84,108
182,13624,MP_RECOVERY_ADD,MP 회복력 +,2,3
201,14001,RESIST_FIRE_ADD,파이어 레지스트 +%,1,1
201,14002,RESIST_ICE_ADD,아이스 레지스트 +%,1,1
201,14003,RESIST_LIGHTNING_ADD,라이트닝 레지스트 +%,1,1
201,14004,RESIST_POISON_ADD,포이즌 레지스트 +%,1,1
201,14005,RESIST_CURSE_ADD,커즈 레지스트 +%,1,1
201,14006,RESIST_POISON_ADD,포이즌 레지스트 +%,1,1
201,14007,DEFENSE_MIN_ADD,방어력 +,5,12
202,14021,RESIST_FIRE_ADD,파이어 레지스트 +%,1,2
202,14022,RESIST_ICE_ADD,아이스 레지스트 +%,1,2
202,14023,RESIST_LIGHTNING_ADD,라이트닝 레지스트 +%,1,2
202,14024,RESIST_POISON_ADD,포이즌 레지스트 +%,1,2
202,14025,RESIST_CURSE_ADD,커즈 레지스트 +%,1,2
202,14026,RESIST_POISON_ADD,포이즌 레지스트 +%,1,2
202,14027,DEFENSE_MIN_ADD,방어력 +,7,15
221,14401,RESIST_FIRE_ADD,파이어 레지스트 +%,1,1
221,14402,RESIST_ICE_ADD,아이스 레지스트 +%,1,1
221,14403,RESIST_LIGHTNING_ADD,라이트닝 레지스트 +%,1,1
221,14404,RESIST_POISON_ADD,포이즌 레지스트 +%,1,1
221,14405,RESIST_CURSE_ADD,커즈 레지스트 +%,1,1
221,14406,RESIST_POISON_ADD,포이즌 레지스트 +%,1,1
221,14407,DEFENSE_MIN_ADD,방어력 +,5,12
221,14408,SPEED_MOVE_MUL,이동 속도 +%,1,2
222,14421,RESIST_FIRE_ADD,파이어 레지스트 +%,1,2
222,14422,RESIST_ICE_ADD,아이스 레지스트 +%,1,2
222,14423,RESIST_LIGHTNING_ADD,라이트닝 레지스트 +%,1,2
222,14424,RESIST_POISON_ADD,포이즌 레지스트 +%,1,2
222,14425,RESIST_CURSE_ADD,커즈 레지스트 +%,1,2
222,14426,RESIST_POISON_ADD,포이즌 레지스트 +%,1,2
222,14427,DEFENSE_MIN_ADD,방어력 +,7,15
222,14428,SPEED_MOVE_MUL,이동 속도 +%,2,3
241,14801,DAMAGE_MAGICAL_MUL,마법 공격력 +%,1,1
241,14802,DAMAGE_MINMAGICAL_ADD,마법 공격력 +,11,15
241,14803,DAMAGE_MINMAGICAL_ADD,마법 공격력 +,11,15
241,14804,DAMAGE_MINMAGICAL_ADD,마법 공격력 +,11,15
241,14805,DAMAGE_MINMAGICAL_ADD,마법 공격력 +,11,15
241,14806,DAMAGERATE_CRITICAL_ADD,크리티컬 공격력 +%,2,3
241,14807,DAMAGERATE_CRITICAL_ADD,크리티컬 공격력 +%,2,3
242,14821,DAMAGE_MAGICAL_MUL,마법 공격력 +%,1,1
242,14822,DAMAGE_MINMAGICAL_ADD,마법 공격력 +,16,21
242,14823,DAMAGE_MINMAGICAL_ADD,마법 공격력 +,16,21
242,14824,DAMAGE_MINMAGICAL_ADD,마법 공격력 +,16,21
242,14825,DAMAGE_MINMAGICAL_ADD,마법 공격력 +,16,21
242,14826,DAMAGERATE_CRITICAL_ADD,크리티컬 공격력 +%,2,3
242,14827,DAMAGERATE_CRITICAL_ADD,크리티컬 공격력 +%,3,4
261,15201,RESIST_FIRE_ADD,파이어 레지스트 +%,1,1
261,15202,RESIST_ICE_ADD,아이스 레지스트 +%,1,1
261,15203,RESIST_LIGHTNING_ADD,라이트닝 레지스트 +%,1,1
261,15204,RESIST_POISON_ADD,포이즌 레지스트 +%,1,1
261,15205,RESIST_CURSE_ADD,커즈 레지스트 +%,1,1
261,15206,RESIST_POISON_ADD,포이즌 레지스트 +%,1,1
261,15207,DEFENSE_MIN_ADD,방어력 +,14,24
261,15208,RESIST_ALL_ADD,모든 속성 저항력 증가 +,1,1
262,15221,RESIST_FIRE_ADD,파이어 레지스트 +%,1,2
262,15222,RESIST_ICE_ADD,아이스 레지스트 +%,1,2
262,15223,RESIST_LIGHTNING_ADD,라이트닝 레지스트 +%,1,2
262,15224,RESIST_POISON_ADD,포이즌 레지스트 +%,1,2
262,15225,RESIST_CURSE_ADD,커즈 레지스트 +%,1,2
262,15226,RESIST_POISON_ADD,포이즌 레지스트 +%,1,2
262,15227,DEFENSE_MIN_ADD,방어력 +,19,31
262,15228,RESIST_ALL_ADD,모든 속성 저항력 증가 +,1,1
281,15601,HP_MAX_ADD,최대 HP +,130,186
281,15602,HP_RECOVERY_ADD,HP 회복력 +,1,2
281,15603,MP_MAX_ADD,최대 MP +,57,82
281,15604,MP_RECOVERY_ADD,MP 회복력 +,1,2
282,15621,HP_MAX_ADD,최대 HP +,190,246
282,15622,HP_RECOVERY_ADD,HP 회복력 +,2,3
282,15623,MP_MAX_ADD,최대 MP +,84,108
282,15624,MP_RECOVERY_ADD,MP 회복력 +,2,3
301,16001,RESIST_FIRE_ADD,파이어 레지스트 +%,1,1
301,16002,RESIST_ICE_ADD,아이스 레지스트 +%,1,1
301,16003,RESIST_LIGHTNING_ADD,라이트닝 레지스트 +%,1,1
301,16004,RESIST_POISON_ADD,포이즌 레지스트 +%,1,1
301,16005,RESIST_CURSE_ADD,커즈 레지스트 +%,1,1
301,16006,RESIST_POISON_ADD,포이즌 레지스트 +%,1,1
301,16007,DEFENSE_MIN_ADD,방어력 +,5,12
302,16021,RESIST_FIRE_ADD,파이어 레지스트 +%,1,2
302,16022,RESIST_ICE_ADD,아이스 레지스트 +%,1,2
302,16023,RESIST_LIGHTNING_ADD,라이트닝 레지스트 +%,1,2
302,16024,RESIST_POISON_ADD,포이즌 레지스트 +%,1,2
302,16025,RESIST_CURSE_ADD,커즈 레지스트 +%,1,2
302,16026,RESIST_POISON_ADD,포이즌 레지스트 +%,1,2
302,16027,DEFENSE_MIN_ADD,방어력 +,7,15
321,16401,RESIST_FIRE_ADD,파이어 레지스트 +%,1,1
321,16402,RESIST_ICE_ADD,아이스 레지스트 +%,1,1
321,16403,RESIST_LIGHTNING_ADD,라이트닝 레지스트 +%,1,1
321,16404,RESIST_POISON_ADD,포이즌 레지스트 +%,1,1
321,16405,RESIST_CURSE_ADD,커즈 레지스트 +%,1,1
321,16406,RESIST_POISON_ADD,포이즌 레지스트 +%,1,1
321,16407,DEFENSE_MIN_ADD,방어력 +,5,12
321,16408,SPEED_MOVE_MUL,이동 속도 +%,1,2
322,16421,RESIST_FIRE_ADD,파이어 레지스트 +%,1,2
322,16422,RESIST_ICE_ADD,아이스 레지스트 +%,1,2
322,16423,RESIST_LIGHTNING_ADD,라이트닝 레지스트 +%,1,2
322,16424,RESIST_POISON_ADD,포이즌 레지스트 +%,1,2
322,16425,RESIST_CURSE_ADD,커즈 레지스트 +%,1,2
322,16426,RESIST_POISON_ADD,포이즌 레지스트 +%,1,2
322,16427,DEFENSE_MIN_ADD,방어력 +,7,15
322,16428,SPEED_MOVE_MUL,이동 속도 +%,2,3
341,16801,DAMAGE_MAGICAL_MUL,마법 공격력 +%,1,1
341,16802,DAMAGE_PHYSICAL_MUL,물리 공격력 +%,1,1
341,16803,DAMAGE_MINMAGICAL_ADD,마법 공격력 +,11,15
341,16804,DAMAGE_MINMAGICAL_ADD,마법 공격력 +,11,15
341,16805,DAMAGE_MINPHYSICAL_ADD,물리 공격력 +,12,17
341,16806,DAMAGE_MINPHYSICAL_ADD,물리 공격력 +,12,17
341,16807,DAMAGERATE_CRITICAL_ADD,크리티컬 공격력 +%,1,1
341,16808,DAMAGERATE_CRITICAL_ADD,크리티컬 공격력 +%,1,1
342,16821,DAMAGE_MAGICAL_MUL,마법 공격력 +%,1,1
342,16822,DAMAGE_PHYSICAL_MUL,물리 공격력 +%,1,1
342,16823,DAMAGE_MINMAGICAL_ADD,마법 공격력 +,16,21
342,16824,DAMAGE_MINMAGICAL_ADD,마법 공격력 +,16,21
342,16825,DAMAGE_MINPHYSICAL_ADD,물리 공격력 +,17,24
342,16826,DAMAGE_MINPHYSICAL_ADD,물리 공격력 +,17,24
342,16827,DAMAGERATE_CRITICAL_ADD,크리티컬 공격력 +%,1,1
342,16828,DAMAGERATE_CRITICAL_ADD,크리티컬 공격력 +%,1,1
361,17201,RESIST_FIRE_ADD,파이어 레지스트 +%,1,1
361,17202,RESIST_ICE_ADD,아이스 레지스트 +%,1,1
361,17203,RESIST_LIGHTNING_ADD,라이트닝 레지스트 +%,1,1
361,17204,RESIST_POISON_ADD,포이즌 레지스트 +%,1,1
361,17205,RESIST_CURSE_ADD,커즈 레지스트 +%,1,1
361,17206,RESIST_POISON_ADD,포이즌 레지스트 +%,1,1
361,17207,DEFENSE_MIN_ADD,방어력 +,14,24
361,17208,RESIST_ALL_ADD,모든 속성 저항력 증가 +,1,1
362,17221,RESIST_FIRE_ADD,파이어 레지스트 +%,1,2
362,17222,RESIST_ICE_ADD,아이스 레지스트 +%,1,2
362,17223,RESIST_LIGHTNING_ADD,라이트닝 레지스트 +%,1,2
362,17224,RESIST_POISON_ADD,포이즌 레지스트 +%,1,2
362,17225,RESIST_CURSE_ADD,커즈 레지스트 +%,1,2
362,17226,RESIST_POISON_ADD,포이즌 레지스트 +%,1,2
362,17227,DEFENSE_MIN_ADD,방어력 +,19,31
362,17228,RESIST_ALL_ADD,모든 속성 저항력 증가 +,1,1
381,17601,HP_MAX_ADD,최대 HP +,130,186
381,17602,HP_RECOVERY_ADD,HP 회복력 +,1,2
381,17603,MP_MAX_ADD,최대 MP +,57,82
381,17604,MP_RECOVERY_ADD,MP 회복력 +,1,2
382,17621,HP_MAX_ADD,최대 HP +,190,246
382,17622,HP_RECOVERY_ADD,HP 회복력 +,2,3
382,17623,MP_MAX_ADD,최대 MP +,84,108
382,17624,MP_RECOVERY_ADD,MP 회복력 +,2,3
401,18001,RESIST_FIRE_ADD,파이어 레지스트 +%,1,1
401,18002,RESIST_ICE_ADD,아이스 레지스트 +%,1,1
401,18003,RESIST_LIGHTNING_ADD,라이트닝 레지스트 +%,1,1
401,18004,RESIST_POISON_ADD,포이즌 레지스트 +%,1,1
401,18005,RESIST_CURSE_ADD,커즈 레지스트 +%,1,1
401,18006,RESIST_POISON_ADD,포이즌 레지스트 +%,1,1
401,18007,DEFENSE_MIN_ADD,방어력 +,5,12
402,18021,RESIST_FIRE_ADD,파이어 레지스트 +%,1,2
402,18022,RESIST_ICE_ADD,아이스 레지스트 +%,1,2
402,18023,RESIST_LIGHTNING_ADD,라이트닝 레지스트 +%,1,2
402,18024,RESIST_POISON_ADD,포이즌 레지스트 +%,1,2
402,18025,RESIST_CURSE_ADD,커즈 레지스트 +%,1,2
402,18026,RESIST_POISON_ADD,포이즌 레지스트 +%,1,2
402,18027,DEFENSE_MIN_ADD,방어력 +,7,15
421,18401,RESIST_FIRE_ADD,파이어 레지스트 +%,1,1
421,18402,RESIST_ICE_ADD,아이스 레지스트 +%,1,1
421,18403,RESIST_LIGHTNING_ADD,라이트닝 레지스트 +%,1,1
421,18404,RESIST_POISON_ADD,포이즌 레지스트 +%,1,1
421,18405,RESIST_CURSE_ADD,커즈 레지스트 +%,1,1
421,18406,RESIST_POISON_ADD,포이즌 레지스트 +%,1,1
421,18407,DEFENSE_MIN_ADD,방어력 +,5,12
421,18408,SPEED_MOVE_MUL,이동 속도 +%,1,2
422,18421,RESIST_FIRE_ADD,파이어 레지스트 +%,1,2
422,18422,RESIST_ICE_ADD,아이스 레지스트 +%,1,2
422,18423,RESIST_LIGHTNING_ADD,라이트닝 레지스트 +%,1,2
422,18424,RESIST_POISON_ADD,포이즌 레지스트 +%,1,2
422,18425,RESIST_CURSE_ADD,커즈 레지스트 +%,1,2
422,18426,RESIST_POISON_ADD,포이즌 레지스트 +%,1,2
422,18427,DEFENSE_MIN_ADD,방어력 +,7,15
422,18428,SPEED_MOVE_MUL,이동 속도 +%,2,3
441,18801,DAMAGERATE_CURSE_ADD,커즈 공격력 +%,1,1
441,18802,DAMAGE_MINMAGICAL_ADD,마법 공격력 +,11,15
441,18803,DAMAGE_MINMAGICAL_ADD,마법 공격력 +,11,15
441,18804,DAMAGEADD_CURSE_ADD,속성 추가 공격력 CURSE +,12,17
441,18805,DAMAGEADD_CURSE_ADD,속성 추가 공격력 CURSE +,12,17
441,18806,DAMAGERATE_CRITICAL_ADD,크리티컬 공격력 +%,1,1
441,18807,DAMAGERATE_CRITICAL_ADD,크리티컬 공격력 +%,1,1
442,18821,DAMAGERATE_CURSE_ADD,커즈 공격력 +%,1,1
442,18822,DAMAGE_MINMAGICAL_ADD,마법 공격력 +,16,21
442,18823,DAMAGE_MINMAGICAL_ADD,마법 공격력 +,16,21
442,18824,DAMAGEADD_CURSE_ADD,속성 추가 공격력 CURSE +,17,24
442,18825,DAMAGEADD_CURSE_ADD,속성 추가 공격력 CURSE +,17,24
442,18826,DAMAGERATE_CRITICAL_ADD,크리티컬 공격력 +%,1,1
442,18827,DAMAGERATE_CRITICAL_ADD,크리티컬 공격력 +%,1,1
461,19201,RESIST_FIRE_ADD,파이어 레지스트 +%,1,1
461,19202,RESIST_ICE_ADD,아이스 레지스트 +%,1,1
461,19203,RESIST_LIGHTNING_ADD,라이트닝 레지스트 +%,1,1
461,19204,RESIST_POISON_ADD,포이즌 레지스트 +%,1,1
461,19205,RESIST_CURSE_ADD,커즈 레지스트 +%,1,1
461,19206,RESIST_POISON_ADD,포이즌 레지스트 +%,1,1
461,19207,DEFENSE_MIN_ADD,방어력 +,14,24
461,19208,RESIST_ALL_ADD,모든 속성 저항력 증가 +,1,1
462,19221,RESIST_FIRE_ADD,파이어 레지스트 +%,1,2
462,19222,RESIST_ICE_ADD,아이스 레지스트 +%,1,2
462,19223,RESIST_LIGHTNING_ADD,라이트닝 레지스트 +%,1,2
462,19224,RESIST_POISON_ADD,포이즌 레지스트 +%,1,2
462,19225,RESIST_CURSE_ADD,커즈 레지스트 +%,1,2
462,19226,RESIST_POISON_ADD,포이즌 레지스트 +%,1,2
462,19227,DEFENSE_MIN_ADD,방어력 +,19,31
462,19228,RESIST_ALL_ADD,모든 속성 저항력 증가 +,1,1
481,19601,HP_MAX_ADD,최대 HP +,130,186
481,19602,HP_RECOVERY_ADD,HP 회복력 +,1,2
481,19603,MP_MAX_ADD,최대 MP +,57,82
481,19604,MP_RECOVERY_ADD,MP 회복력 +,1,2
482,19621,HP_MAX_ADD,최대 HP +,190,246
482,19622,HP_RECOVERY_ADD,HP 회복력 +,2,3
482,19623,MP_MAX_ADD,최대 MP +,84,108
482,19624,MP_RECOVERY_ADD,MP 회복력 +,2,3
501,20001,RESIST_FIRE_ADD,파이어 레지스트 +%,1,1
501,20002,RESIST_ICE_ADD,아이스 레지스트 +%,1,1
501,20003,RESIST_LIGHTNING_ADD,라이트닝 레지스트 +%,1,1
501,20004,RESIST_POISON_ADD,포이즌 레지스트 +%,1,1
501,20005,RESIST_CURSE_ADD,커즈 레지스트 +%,1,1
501,20006,RESIST_POISON_ADD,포이즌 레지스트 +%,1,1
501,20007,DEFENSE_MIN_ADD,방어력 +,5,12
502,20021,RESIST_FIRE_ADD,파이어 레지스트 +%,1,2
502,20022,RESIST_ICE_ADD,아이스 레지스트 +%,1,2
502,20023,RESIST_LIGHTNING_ADD,라이트닝 레지스트 +%,1,2
502,20024,RESIST_POISON_ADD,포이즌 레지스트 +%,1,2
502,20025,RESIST_CURSE_ADD,커즈 레지스트 +%,1,2
502,20026,RESIST_POISON_ADD,포이즌 레지스트 +%,1,2
502,20027,DEFENSE_MIN_ADD,방어력 +,7,15
521,20401,RESIST_FIRE_ADD,파이어 레지스트 +%,1,1
521,20402,RESIST_ICE_ADD,아이스 레지스트 +%,1,1
521,20403,RESIST_LIGHTNING_ADD,라이트닝 레지스트 +%,1,1
521,20404,RESIST_POISON_ADD,포이즌 레지스트 +%,1,1
521,20405,RESIST_CURSE_ADD,커즈 레지스트 +%,1,1
521,20406,RESIST_POISON_ADD,포이즌 레지스트 +%,1,1
521,20407,DEFENSE_MIN_ADD,방어력 +,5,12
521,20408,SPEED_MOVE_MUL,이동 속도 +%,1,2
522,20421,RESIST_FIRE_ADD,파이어 레지스트 +%,1,2
522,20422,RESIST_ICE_ADD,아이스 레지스트 +%,1,2
522,20423,RESIST_LIGHTNING_ADD,라이트닝 레지스트 +%,1,2
522,20424,RESIST_POISON_ADD,포이즌 레지스트 +%,1,2
522,20425,RESIST_CURSE_ADD,커즈 레지스트 +%,1,2
522,20426,RESIST_POISON_ADD,포이즌 레지스트 +%,1,2
522,20427,DEFENSE_MIN_ADD,방어력 +,7,15
522,20428,SPEED_MOVE_MUL,이동 속도 +%,2,3
541,20801,DAMAGE_PHYSICAL_MUL,물리 공격력 +%,1,1
541,20802,DAMAGE_MINPHYSICAL_ADD,물리 공격력 +,12,17
541,20803,DAMAGE_MINPHYSICAL_ADD,물리 공격력 +,12,17
541,20804,DAMAGE_MINPHYSICAL_ADD,물리 공격력 +,12,17
541,20805,DAMAGE_MINPHYSICAL_ADD,물리 공격력 +,12,17
541,20806,DAMAGERATE_CRITICAL_ADD,크리티컬 공격력 +%,2,3
541,20807,DAMAGERATE_CRITICAL_ADD,크리티컬 공격력 +%,2,3
542,20821,DAMAGE_PHYSICAL_MUL,물리 공격력 +%,1,1
542,20822,DAMAGE_MINPHYSICAL_ADD,물리 공격력 +,17,24
542,20823,DAMAGE_MINPHYSICAL_ADD,물리 공격력 +,17,24
542,20824,DAMAGE_MINPHYSICAL_ADD,물리 공격력 +,17,24
542,20825,DAMAGE_MINPHYSICAL_ADD,물리 공격력 +,17,24
542,20826,DAMAGERATE_CRITICAL_ADD,크리티컬 공격력 +%,3,4
542,20827,DAMAGERATE_CRITICAL_ADD,크리티컬 공격력 +%,3,4
561,21201,RESIST_FIRE_ADD,파이어 레지스트 +%,1,1
561,21202,RESIST_ICE_ADD,아이스 레지스트 +%,1,1
561,21203,RESIST_LIGHTNING_ADD,라이트닝 레지스트 +%,1,1
561,21204,RESIST_POISON_ADD,포이즌 레지스트 +%,1,1
561,21205,RESIST_CURSE_ADD,커즈 레지스트 +%,1,1
561,21206,RESIST_POISON_ADD,포이즌 레지스트 +%,1,1
561,21207,DEFENSE_MIN_ADD,방어력 +,14,24
561,21208,RESIST_ALL_ADD,모든 속성 저항력 증가 +,1,1
562,21221,RESIST_FIRE_ADD,파이어 레지스트 +%,1,2
562,21222,RESIST_ICE_ADD,아이스 레지스트 +%,1,2
562,21223,RESIST_LIGHTNING_ADD,라이트닝 레지스트 +%,1,2
562,21224,RESIST_POISON_ADD,포이즌 레지스트 +%,1,2
562,21225,RESIST_CURSE_ADD,커즈 레지스트 +%,1,2
562,21226,RESIST_POISON_ADD,포이즌 레지스트 +%,1,2
562,21227,DEFENSE_MIN_ADD,방어력 +,19,31
562,21228,RESIST_ALL_ADD,모든 속성 저항력 증가 +,1,1
581,21601,HP_MAX_ADD,최대 HP +,130,186
581,21602,HP_RECOVERY_ADD,HP 회복력 +,1,2
581,21603,MP_MAX_ADD,최대 MP +,57,82
581,21604,MP_RECOVERY_ADD,MP 회복력 +,1,2
582,21621,HP_MAX_ADD,최대 HP +,190,246
582,21622,HP_RECOVERY_ADD,HP 회복력 +,2,3
582,21623,MP_MAX_ADD,최대 MP +,84,108
582,21624,MP_RECOVERY_ADD,MP 회복력 +,2,3
601,22001,DEFENSE_MIN_ADD,방어력 +,9,17
601,22002,RESIST_MELEE_ADD,피지컬 레지스트 +%,1,1
601,22003,RESIST_ALL_ADD,모든 속성 저항력 증가 +,1,1
601,22004,RESIST_ALL_ADD,모든 속성 저항력 증가 +,1,1
611,22201,DEFENSE_MIN_ADD,방어력 +,9,17
611,22202,SPEED_MOVE_MUL,이동 속도 +%,1,2
611,22203,RESIST_ALL_ADD,모든 속성 저항력 증가 +,1,1
611,22204,RESIST_ALL_ADD,모든 속성 저항력 증가 +,1,1
621,22401,DAMAGE_PHYSICAL_MUL,물리 공격력 +%,1,2
621,22402,DAMAGERATE_CRITICAL_ADD,크리티컬 공격력 +%,4,5
621,22403,DAMAGERATE_CRITICAL_ADD,크리티컬 공격력 +%,4,5
631,22601,DEFENSE_MIN_ADD,방어력 +,25,35
631,22602,DEFENSE_MIN_ADD,방어력 +,25,35
631,22603,RESIST_ALL_ADD,모든 속성 저항력 증가 +,1,1
631,22604,RESIST_ALL_ADD,모든 속성 저항력 증가 +,1,1
641,22801,HP_MAX_ADD,최대 HP +,250,307
641,22802,MP_MAX_ADD,최대 MP +,110,135
641,22803,MP_MAX_ADD,최대 MP +,110,135
651,23001,DEFENSE_MIN_ADD,방어력 +,9,17
651,23002,RESIST_MELEE_ADD,피지컬 레지스트 +%,1,1
651,23003,RESIST_ALL_ADD,모든 속성 저항력 증가 +,1,1
651,23004,RESIST_ALL_ADD,모든 속성 저항력 증가 +,1,1
661,23201,DEFENSE_MIN_ADD,방어력 +,9,17
661,23202,SPEED_MOVE_MUL,이동 속도 +%,1,2
661,23203,RESIST_ALL_ADD,모든 속성 저항력 증가 +,1,1
661,23204,RESIST_ALL_ADD,모든 속성 저항력 증가 +,1,1
671,23401,DAMAGE_PHYSICAL_MUL,물리 공격력 +%,1,2
671,23402,DAMAGERATE_CRITICAL_ADD,크리티컬 공격력 +%,4,5
671,23403,DAMAGERATE_CRITICAL_ADD,크리티컬 공격력 +%,4,5
681,23601,DEFENSE_MIN_ADD,방어력 +,25,35
681,23602,DEFENSE_MIN_ADD,방어력 +,25,35
681,23603,RESIST_ALL_ADD,모든 속성 저항력 증가 +,1,1
681,23604,RESIST_ALL_ADD,모든 속성 저항력 증가 +,1,1
691,23801,HP_MAX_ADD,최대 HP +,250,307
691,23802,MP_MAX_ADD,최대 MP +,110,135
691,23803,MP_MAX_ADD,최대 MP +,110,135
701,24001,DEFENSE_MIN_ADD,방어력 +,9,17
701,24002,RESIST_MELEE_ADD,피지컬 레지스트 +%,1,1
701,24003,RESIST_ALL_ADD,모든 속성 저항력 증가 +,1,1
701,24004,RESIST_ALL_ADD,모든 속성 저항력 증가 +,1,1
711,24201,DEFENSE_MIN_ADD,방어력 +,9,17
711,24202,SPEED_MOVE_MUL,이동 속도 +%,1,2
711,24203,RESIST_ALL_ADD,모든 속성 저항력 증가 +,1,1
711,24204,RESIST_ALL_ADD,모든 속성 저항력 증가 +,1,1
721,24401,DAMAGE_MAGICAL_MUL,마법 공격력 +%,1,2
721,24402,DAMAGERATE_CRITICAL_ADD,크리티컬 공격력 +%,4,5
721,24403,DAMAGERATE_CRITICAL_ADD,크리티컬 공격력 +%,4,5
731,24601,DEFENSE_MIN_ADD,방어력 +,25,35
731,24602,DEFENSE_MIN_ADD,방어력 +,25,35
731,24603,RESIST_ALL_ADD,모든 속성 저항력 증가 +,1,1
731,24604,RESIST_ALL_ADD,모든 속성 저항력 증가 +,1,1
741,24801,HP_MAX_ADD,최대 HP +,250,307
741,24802,MP_MAX_ADD,최대 MP +,110,135
741,24803,MP_MAX_ADD,최대 MP +,110,135
751,25001,DEFENSE_MIN_ADD,방어력 +,9,17
751,25002,RESIST_MELEE_ADD,피지컬 레지스트 +%,1,1
751,25003,RESIST_ALL_ADD,모든 속성 저항력 증가 +,1,1
751,25004,RESIST_ALL_ADD,모든 속성 저항력 증가 +,1,1
761,25201,DEFENSE_MIN_ADD,방어력 +,9,17
761,25202,SPEED_MOVE_MUL,이동 속도 +%,1,2
761,25203,RESIST_ALL_ADD,모든 속성 저항력 증가 +,1,1
761,25204,RESIST_ALL_ADD,모든 속성 저항력 증가 +,1,1
771,25401,DAMAGE_MAGICAL_MUL,마법 공격력 +%,1,2
771,25402,DAMAGE_PHYSICAL_MUL,물리 공격력 +%,1,2
771,25403,DAMAGERATE_CRITICAL_ADD,크리티컬 공격력 +%,4,5
771,25404,DAMAGERATE_CRITICAL_ADD,크리티컬 공격력 +%,4,5
781,25601,DEFENSE_MIN_ADD,방어력 +,25,35
781,25602,DEFENSE_MIN_ADD,방어력 +,25,35
781,25603,RESIST_ALL_ADD,모든 속성 저항력 증가 +,1,1
781,25604,RESIST_ALL_ADD,모든 속성 저항력 증가 +,1,1
791,25801,HP_MAX_ADD,최대 HP +,250,307
791,25802,MP_MAX_ADD,최대 MP +,110,135
791,25803,MP_MAX_ADD,최대 MP +,110,135
801,26001,DEFENSE_MIN_ADD,방어력 +,9,17
801,26002,RESIST_MELEE_ADD,피지컬 레지스트 +%,1,1
801,26003,RESIST_ALL_ADD,모든 속성 저항력 증가 +,1,1
801,26004,RESIST_ALL_ADD,모든 속성 저항력 증가 +,1,1
811,26201,DEFENSE_MIN_ADD,방어력 +,9,17
811,26202,SPEED_MOVE_MUL,이동 속도 +%,1,2
811,26203,RESIST_ALL_ADD,모든 속성 저항력 증가 +,1,1
811,26204,RESIST_ALL_ADD,모든 속성 저항력 증가 +,1,1
821,26401,DAMAGERATE_CURSE_ADD,커즈 공격력 +%,1,2
821,26402,DAMAGERATE_CRITICAL_ADD,크리티컬 공격력 +%,4,5
821,26403,DAMAGERATE_CRITICAL_ADD,크리티컬 공격력 +%,4,5
831,26601,DEFENSE_MIN_ADD,방어력 +,25,35
831,26602,DEFENSE_MIN_ADD,방어력 +,25,35
831,26603,RESIST_ALL_ADD,모든 속성 저항력 증가 +,1,1
831,26604,RESIST_ALL_ADD,모든 속성 저항력 증가 +,1,1
841,26801,HP_MAX_ADD,최대 HP +,250,307
841,26802,MP_MAX_ADD,최대 MP +,110,135
841,26803,MP_MAX_ADD,최대 MP +,110,135
851,27001,DEFENSE_MIN_ADD,방어력 +,9,17
851,27002,RESIST_MELEE_ADD,피지컬 레지스트 +%,1,1
851,27003,RESIST_ALL_ADD,모든 속성 저항력 증가 +,1,1
851,27004,RESIST_ALL_ADD,모든 속성 저항력 증가 +,1,1
861,27201,DEFENSE_MIN_ADD,방어력 +,9,17
861,27202,SPEED_MOVE_MUL,이동 속도 +%,1,2
861,27203,RESIST_ALL_ADD,모든 속성 저항력 증가 +,1,1
861,27204,RESIST_ALL_ADD,모든 속성 저항력 증가 +,1,1
871,27401,DAMAGE_PHYSICAL_MUL,물리 공격력 +%,1,2
871,27402,DAMAGERATE_CRITICAL_ADD,크리티컬 공격력 +%,4,5
871,27403,DAMAGERATE_CRITICAL_ADD,크리티컬 공격력 +%,4,5
881,27601,DEFENSE_MIN_ADD,방어력 +,25,35
881,27602,DEFENSE_MIN_ADD,방어력 +,25,35
881,27603,RESIST_ALL_ADD,모든 속성 저항력 증가 +,1,1
881,27604,RESIST_ALL_ADD,모든 속성 저항력 증가 +,1,1
891,27801,HP_MAX_ADD,최대 HP +,250,307
891,27802,MP_MAX_ADD,최대 MP +,110,135
891,27803,MP_MAX_ADD,최대 MP +,110,135
1701,28001,DEFENSE_MIN_ADD,방어력 +,9,17
1701,28002,RESIST_MELEE_ADD,피지컬 레지스트 +%,1,1
1701,28003,RESIST_ALL_ADD,모든 속성 저항력 증가 +,1,1
1701,28004,RESIST_ALL_ADD,모든 속성 저항력 증가 +,1,1
1711,28201,DEFENSE_MIN_ADD,방어력 +,9,17
1711,28202,SPEED_MOVE_MUL,이동 속도 +%,1,2
1711,28203,RESIST_ALL_ADD,모든 속성 저항력 증가 +,1,1
1711,28204,RESIST_ALL_ADD,모든 속성 저항력 증가 +,1,1
1721,28401,DAMAGE_PHYSICAL_MUL,물리 공격력 +%,1,2
1721,28402,DAMAGERATE_CRITICAL_ADD,크리티컬 공격력 +%,4,5
1721,28403,DAMAGERATE_CRITICAL_ADD,크리티컬 공격력 +%,4,5
1731,28601,DEFENSE_MIN_ADD,방어력 +,25,35
1731,28602,DEFENSE_MIN_ADD,방어력 +,25,35
1731,28603,RESIST_ALL_ADD,모든 속성 저항력 증가 +,1,1
1731,28604,RESIST_ALL_ADD,모든 속성 저항력 증가 +,1,1
1741,28801,HP_MAX_ADD,최대 HP +,250,307
1741,28802,MP_MAX_ADD,최대 MP +,110,135
1741,28803,MP_MAX_ADD,최대 MP +,110,135
1751,29001,PC_DAMAGE_ARMOR_ADD,DK 방어력+,17,25
1751,29002,PC_DAMAGE_ALLPHYSICSRESIST_MUL,DK 모든 물리 저항력 %,1,2
1751,29003,PC_DAMAGE_ALLMAGICRESIST_MUL,DK 모든 마법 저항력 %,1,2
1751,29004,PC_DAMAGE_ALLMAGICRESIST_MUL,DK 모든 마법 저항력 %,1,2
1751,29005,SHIELD_MAX_ADD,최대 PK 쉴드 +,190,250
1751,29006,SHIELD_MAX_ADD,최대 PK 쉴드 +,190,250
1761,29201,PC_DAMAGE_ARMOR_ADD,DK 방어력+,17,25
1761,29202,SPEED_MOVE_MUL,이동 속도 +%,1,2
1761,29203,RATING_CRITICAL_SUB,크리티컬 저항%,2,3
1761,29204,SHIELD_MAX_ADD,최대 PK 쉴드 +,250,310
1761,29205,DEFENSE_DEFEATRATE_MUL,디피트 발생율 감소 +%,2,3
1761,29206,DEFENSE_DEFEATRATE_MUL,디피트 발생율 감소 +%,2,3
1771,29401,PC_DAMAGE_DAMAGE_MUL,DK 공격력 %,1,2
1771,29402,DAMAGERATE_CRITICAL_ADD,크리티컬 공격력 +%,4,5
1771,29403,RATING_CRITICAL_SUB,크리티컬 저항%,2,3
1771,29404,SHIELD_MAX_ADD,최대 PK 쉴드 +,220,280
1771,29405,SHIELD_MAX_ADD,최대 PK 쉴드 +,220,280
1781,29601,PC_DAMAGE_ARMOR_ADD,DK 방어력+,35,45
1781,29602,PC_DAMAGE_ARMOR_ADD,DK 방어력+,35,45
1781,29603,PC_DAMAGE_ALLMAGICRESIST_MUL,DK 모든 마법 저항력 %,1,2
1781,29604,PC_DAMAGE_ALLMAGICRESIST_MUL,DK 모든 마법 저항력 %,1,2
1781,29605,SHIELD_MAX_ADD,최대 PK 쉴드 +,190,250
1781,29606,SHIELD_MAX_ADD,최대 PK 쉴드 +,190,250
1791,29801,HP_MAX_ADD,최대 HP +,310,370
1791,29802,MP_MAX_ADD,최대 MP +,140,170
1791,29803,SHIELD_MAX_ADD,최대 PK 쉴드 +,290,350
1791,29804,SHIELD_MAX_ADD,최대 PK 쉴드 +,290,350
1801,43001,RESIST_FIRE_ADD,파이어 레지스트 +%,1,1
1801,43002,RESIST_ICE_ADD,아이스 레지스트 +%,1,1
1801,43003,RESIST_LIGHTNING_ADD,라이트닝 레지스트 +%,1,1
1801,43004,RESIST_POISON_ADD,포이즌 레지스트 +%,1,1
1801,43005,RESIST_CURSE_ADD,커즈 레지스트 +%,1,1
1801,43006,RESIST_POISON_ADD,포이즌 레지스트 +%,1,1
1801,43007,DEFENSE_MIN_ADD,방어력 +,5,12
1802,43021,RESIST_FIRE_ADD,파이어 레지스트 +%,1,2
1802,43022,RESIST_ICE_ADD,아이스 레지스트 +%,1,2
1802,43023,RESIST_LIGHTNING_ADD,라이트닝 레지스트 +%,1,2
1802,43024,RESIST_POISON_ADD,포이즌 레지스트 +%,1,2
1802,43025,RESIST_CURSE_ADD,커즈 레지스트 +%,1,2
1802,43026,RESIST_POISON_ADD,포이즌 레지스트 +%,1,2
1802,43027,DEFENSE_MIN_ADD,방어력 +,7,15
1821,43401,RESIST_FIRE_ADD,파이어 레지스트 +%,1,1
1821,43402,RESIST_ICE_ADD,아이스 레지스트 +%,1,1
1821,43403,RESIST_LIGHTNING_ADD,라이트닝 레지스트 +%,1,1
1821,43404,RESIST_POISON_ADD,포이즌 레지스트 +%,1,1
1821,43405,RESIST_CURSE_ADD,커즈 레지스트 +%,1,1
1821,43406,RESIST_POISON_ADD,포이즌 레지스트 +%,1,1
1821,43407,DEFENSE_MIN_ADD,방어력 +,5,12
1821,43408,SPEED_MOVE_MUL,이동 속도 +%,1,2
1822,43421,RESIST_FIRE_ADD,파이어 레지스트 +%,1,2
1822,43422,RESIST_ICE_ADD,아이스 레지스트 +%,1,2
1822,43423,RESIST_LIGHTNING_ADD,라이트닝 레지스트 +%,1,2
1822,43424,RESIST_POISON_ADD,포이즌 레지스트 +%,1,2
1822,43425,RESIST_CURSE_ADD,커즈 레지스트 +%,1,2
1822,43426,RESIST_POISON_ADD,포이즌 레지스트 +%,1,2
1822,43427,DEFENSE_MIN_ADD,방어력 +,7,15
1822,43428,SPEED_MOVE_MUL,이동 속도 +%,2,3
1841,43801,DAMAGE_PHYSICAL_MUL,물리 공격력 +%,1,1
1841,43802,DAMAGE_MINPHYSICAL_ADD,물리 공격력 +,12,17
1841,43803,DAMAGE_MINPHYSICAL_ADD,물리 공격력 +,12,17
1841,43804,DAMAGE_MINPHYSICAL_ADD,물리 공격력 +,12,17
1841,43805,DAMAGE_MINPHYSICAL_ADD,물리 공격력 +,12,17
1841,43806,DAMAGERATE_CRITICAL_ADD,크리티컬 공격력 +%,2,3
1841,43807,DAMAGERATE_CRITICAL_ADD,크리티컬 공격력 +%,2,3
1842,43821,DAMAGE_PHYSICAL_MUL,물리 공격력 +%,1,1
1842,43822,DAMAGE_MINPHYSICAL_ADD,물리 공격력 +,17,24
1842,43823,DAMAGE_MINPHYSICAL_ADD,물리 공격력 +,17,24
1842,43824,DAMAGE_MINPHYSICAL_ADD,물리 공격력 +,17,24
1842,43825,DAMAGE_MINPHYSICAL_ADD,물리 공격력 +,17,24
1842,43826,DAMAGERATE_CRITICAL_ADD,크리티컬 공격력 +%,3,4
1842,43827,DAMAGERATE_CRITICAL_ADD,크리티컬 공격력 +%,3,4
1861,44201,RESIST_FIRE_ADD,파이어 레지스트 +%,1,1
1861,44202,RESIST_ICE_ADD,아이스 레지스트 +%,1,1
1861,44203,RESIST_LIGHTNING_ADD,라이트닝 레지스트 +%,1,1
1861,44204,RESIST_POISON_ADD,포이즌 레지스트 +%,1,1
1861,44205,RESIST_CURSE_ADD,커즈 레지스트 +%,1,1
1861,44206,RESIST_POISON_ADD,포이즌 레지스트 +%,1,1
1861,44207,DEFENSE_MIN_ADD,방어력 +,14,24
1861,44208,RESIST_ALL_ADD,모든 속성 저항력 증가 +,1,1
1862,44221,RESIST_FIRE_ADD,파이어 레지스트 +%,1,2
1862,44222,RESIST_ICE_ADD,아이스 레지스트 +%,1,2
1862,44223,RESIST_LIGHTNING_ADD,라이트닝 레지스트 +%,1,2
1862,44224,RESIST_POISON_ADD,포이즌 레지스트 +%,1,2
1862,44225,RESIST_CURSE_ADD,커즈 레지스트 +%,1,2
1862,44226,RESIST_POISON_ADD,포이즌 레지스트 +%,1,2
1862,44227,DEFENSE_MIN_ADD,방어력 +,19,31
1862,44228,RESIST_ALL_ADD,모든 속성 저항력 증가 +,1,1
1881,44601,HP_MAX_ADD,최대 HP +,130,186
1881,44602,HP_RECOVERY_ADD,HP 회복력 +,1,2
1881,44603,MP_MAX_ADD,최대 MP +,57,82
1881,44604,MP_RECOVERY_ADD,MP 회복력 +,1,2
1882,44621,HP_MAX_ADD,최대 HP +,190,246
1882,44622,HP_RECOVERY_ADD,HP 회복력 +,2,3
1882,44623,MP_MAX_ADD,최대 MP +,84,108
1882,44624,MP_RECOVERY_ADD,MP 회복력 +,2,3
1901,45001,PC_DAMAGE_FIRERESIST_MUL,DK 파이어 저항력%,2,3
1901,45002,PC_DAMAGE_ICERESIST_MUL,DK 아이스 저항력%,2,3
1901,45003,PC_DAMAGE_CURSERESIST_MUL,DK 커즈 저항력%,2,3
1901,45004,PC_DAMAGE_POSIONRESIST_MUL,DK 포이즌 저항력%,2,3
1901,45005,PC_DAMAGE_LIGHTINGRESIST_MUL,DK 라이트닝 저항력%,2,3
1901,45006,PC_DAMAGE_ARMOR_ADD,DK 방어력+,12,20
1901,45007,SHIELD_MAX_ADD,최대 PK 쉴드 +,130,190
1901,45008,SHIELD_MAX_ADD,최대 PK 쉴드 +,130,190
1902,45021,PC_DAMAGE_FIRERESIST_MUL,DK 파이어 저항력%,3,4
1902,45022,PC_DAMAGE_ICERESIST_MUL,DK 아이스 저항력%,3,4
1902,45023,PC_DAMAGE_CURSERESIST_MUL,DK 커즈 저항력%,3,4
1902,45024,PC_DAMAGE_POSIONRESIST_MUL,DK 포이즌 저항력%,3,4
1902,45025,PC_DAMAGE_LIGHTINGRESIST_MUL,DK 라이트닝 저항력%,3,4
1902,45026,PC_DAMAGE_ARMOR_ADD,DK 방어력+,15,23
1902,45027,SHIELD_MAX_ADD,최대 PK 쉴드 +,160,220
1902,45028,SHIELD_MAX_ADD,최대 PK 쉴드 +,160,220
1921,45401,PC_DAMAGE_ARMOR_ADD,DK 방어력+,12,20
1921,45402,RATING_CRITICAL_SUB,크리티컬 저항%,1,1
1921,45403,SHIELD_MAX_ADD,최대 PK 쉴드 +,190,250
1921,45404,DEFENSE_DEFEATRATE_MUL,디피트 발생율 감소 +%,1,1
1921,45405,SPEED_MOVE_MUL,이동 속도 +%,1,2
1922,45421,PC_DAMAGE_ARMOR_ADD,DK 방어력+,15,23
1922,45422,RATING_CRITICAL_SUB,크리티컬 저항%,1,2
1922,45423,SHIELD_MAX_ADD,최대 PK 쉴드 +,220,280
1922,45424,DEFENSE_DEFEATRATE_MUL,디피트 발생율 감소 +%,1,2
1922,45425,SPEED_MOVE_MUL,이동 속도 +%,2,3
1941,45801,PC_DAMAGE_DAMAGE_MUL,DK 공격력 %,1,1
1941,45802,PC_DAMAGE_DAMAGE_ADD,DK 공격력 +,17,22
1941,45803,RATING_CRITICAL_SUB,크리티컬 저항%,1,1
1941,45804,DAMAGERATE_CRITICAL_ADD,크리티컬 공격력 +%,2,3
1941,45805,SHIELD_MAX_ADD,최대 PK 쉴드 +,160,220
1941,45806,SHIELD_MAX_ADD,최대 PK 쉴드 +,160,220
1942,45821,PC_DAMAGE_DAMAGE_MUL,DK 공격력 %,1,1
1942,45822,PC_DAMAGE_DAMAGE_ADD,DK 공격력 +,24,29
1942,45823,RATING_CRITICAL_SUB,크리티컬 저항%,1,2
1942,45824,DAMAGERATE_CRITICAL_ADD,크리티컬 공격력 +%,3,4
1942,45825,SHIELD_MAX_ADD,최대 PK 쉴드 +,190,250
1942,45826,SHIELD_MAX_ADD,최대 PK 쉴드 +,190,250
1961,46201,PC_DAMAGE_FIRERESIST_MUL,DK 파이어 저항력%,2,3
1961,46202,PC_DAMAGE_ICERESIST_MUL,DK 아이스 저항력%,2,3
1961,46203,PC_DAMAGE_CURSERESIST_MUL,DK 커즈 저항력%,2,3
1961,46204,PC_DAMAGE_POSIONRESIST_MUL,DK 포이즌 저항력%,2,3
1961,46205,PC_DAMAGE_LIGHTINGRESIST_MUL,DK 라이트닝 저항력%,2,3
1961,46206,PC_DAMAGE_ARMOR_ADD,DK 방어력+,24,34
1961,46207,SHIELD_MAX_ADD,최대 PK 쉴드 +,130,190
1961,46208,SHIELD_MAX_ADD,최대 PK 쉴드 +,130,190
1962,46221,PC_DAMAGE_FIRERESIST_MUL,DK 파이어 저항력%,3,4
1962,46222,PC_DAMAGE_ICERESIST_MUL,DK 아이스 저항력%,3,4
1962,46223,PC_DAMAGE_CURSERESIST_MUL,DK 커즈 저항력%,3,4
1962,46224,PC_DAMAGE_POSIONRESIST_MUL,DK 포이즌 저항력%,3,4
1962,46225,PC_DAMAGE_LIGHTINGRESIST_MUL,DK 라이트닝 저항력%,3,4
1962,46226,PC_DAMAGE_ARMOR_ADD,DK 방어력+,31,41
1962,46227,SHIELD_MAX_ADD,최대 PK 쉴드 +,160,220
1962,46228,SHIELD_MAX_ADD,최대 PK 쉴드 +,160,220
1981,46601,HP_MAX_ADD,최대 HP +,190,250
1981,46602,HP_RECOVERY_ADD,HP 회복력 +,1,2
1981,46603,MP_MAX_ADD,최대 MP +,90,120
1981,46604,MP_RECOVERY_ADD,MP 회복력 +,1,2
1981,46605,SHIELD_MAX_ADD,최대 PK 쉴드 +,230,290
1981,46606,SHIELD_RECOVERY_ADD,PK 쉴드 회복력 +,10,30
1981,46607,SHIELD_RECOVERY_ADD,PK 쉴드 회복력 +,10,30
1982,46621,HP_MAX_ADD,최대 HP +,250,310
1982,46622,HP_RECOVERY_ADD,HP 회복력 +,2,3
1982,46623,MP_MAX_ADD,최대 MP +,120,150
1982,46624,MP_RECOVERY_ADD,MP 회복력 +,2,3
1982,46625,SHIELD_MAX_ADD,최대 PK 쉴드 +,260,320
1982,46626,SHIELD_RECOVERY_ADD,PK 쉴드 회복력 +,30,50
1982,46627,SHIELD_RECOVERY_ADD,PK 쉴드 회복력 +,30,50
