<window>
	name			dungeontime
	enable			true
	visible			true
	layer			100
	rect			10 100 190 313
	<panel>
		id		pan_time_1
		enable		true
		visible		false
		layer		100
		rect		0 0 179 31
		<image>
			key	0
			screen	indun
			index	2
		</image>
		<textbox>
			id		textbox_time_1
			enable		true
			visible		true
			layer		100
			rect		5 5 168 20
			lineheight	16
			margin		10 5
			fonttype	2
			color		FFFFFFFF
		</textbox>
	</panel>
	<panel>
		id		pan_time_2
		enable		true
		visible		false
		layer		100
		rect		0 33 179 31
		<image>
			key	0
			screen	indun
			index	2
		</image>
		<textbox>
			id		textbox_time_2
			enable		true
			visible		true
			layer		100
			rect		5 5 168 20
			lineheight	16
			margin		10 5
			fonttype	2
			color		FFFFFFFF
		</textbox>
	</panel>
	<panel>
		id		pan_time_3
		enable		true
		visible		false
		layer		100
		rect		0 66 179 31
		<image>
			key	0
			screen	indun
			index	2
		</image>
		<textbox>
			id		textbox_time_3
			enable		true
			visible		true
			layer		100
			rect		5 5 168 20
			lineheight	16
			margin		10 5
			fonttype	2
			color		FFFFFFFF
		</textbox>
	</panel>
</window>