Creature,WINGRIDER,,,,,,,,,,,,,,
Index,70018,,,,,,,,,,,,,,
Skeleton,Wing\wing_new_01_xsma.skel,,,,,,,,,,,,,,
,,,,,,,,,,,,,,,
Style,Action,Index,Animation,Start_Inter,End_Inter,TimeLength,Swing,Strike,Timing,Split,Timing2,Freeze,Effect,CancelTime,DefaultAction
0,STAND,0,wing_new_01_xsma_stand.anim,4,1,1,0,0,0,0,0,0,0,0,1
0,STAND,1,wing_new_01_xsma_stand.anim,4,1,1,0,0,0,0,0,0,0,0,1
0,STAND,2,wing_new_01_xsma_stand.anim,4,1,1,0,0,0,0,0,0,0,0,1
0,STAND,3,wing_new_01_xsma_stand.anim,4,1,1,0,0,0,0,0,0,0,0,1
0,MOVE,0,wing_new_01_xsma_run.anim,4,1,1,0,0,0,0,0,0,0,0,1
0,MOVE,1,wing_new_01_xsma_run.anim,4,1,0.93,0,0,0,0,0,0,0,0,1
0,OPENMARKET,0,wing_new_01_xsma_stand.anim,4,1,4,0,0,0,0,0,0,0,0,1
0,OPENMARKET,1,wing_new_01_xsma_stand.anim,4,1,4,0,0,0,0,0,0,0,0,1
0,CLOSEMARKET,0,wing_new_01_xsma_stand.anim,4,1,4,0,0,0,0,0,0,0,0,1
1,STAND,0,wing_new_01_xsma_stand.anim,4,1,1,0,0,0,0,0,0,0,0,1
1,STAND,1,wing_new_01_xsma_stand.anim,4,1,1,0,0,0,0,0,0,0,0,1
1,MOVE,0,wing_new_01_xsma_run.anim,4,1,1,0,0,0,0,0,0,0,0,1
1,MOVE,1,wing_new_01_xsma_run.anim,4,1,0.93,0,0,0,0,0,0,0,0,1
1,OPENMARKET,0,wing_new_01_xsma_stand.anim,4,1,4,0,0,0,0,0,0,0,0,1
1,OPENMARKET,1,wing_new_01_xsma_stand.anim,4,1,4,0,0,0,0,0,0,0,0,1
1,CLOSEMARKET,0,wing_new_01_xsma_stand.anim,4,1,4,0,0,0,0,0,0,0,0,1
2,STAND,0,wing_new_01_xsma_stand.anim,4,1,1,0,0,0,0,0,0,0,0,1
2,STAND,1,wing_new_01_xsma_stand.anim,4,1,1,0,0,0,0,0,0,0,0,1
2,MOVE,0,wing_new_01_xsma_run.anim,4,1,1,0,0,0,0,0,0,0,0,1
2,MOVE,1,wing_new_01_xsma_run.anim,4,1,0.93,0,0,0,0,0,0,0,0,1
2,OPENMARKET,0,wing_new_01_xsma_stand.anim,4,1,4,0,0,0,0,0,0,0,0,1
2,OPENMARKET,1,wing_new_01_xsma_stand.anim,4,1,4,0,0,0,0,0,0,0,0,1
2,CLOSEMARKET,0,wing_new_01_xsma_stand.anim,4,1,4,0,0,0,0,0,0,0,0,1
9,STAND,0,wing_new_01_xsma_stand.anim,4,1,1,0,0,0,0,0,0,0,0,1
9,STAND,1,wing_new_01_xsma_stand.anim,4,1,1,0,0,0,0,0,0,0,0,1
9,MOVE,0,wing_new_01_xsma_run.anim,4,1,1,0,0,0,0,0,0,0,0,1
9,MOVE,1,wing_new_01_xsma_run.anim,4,1,0.93,0,0,0,0,0,0,0,0,1
9,OPENMARKET,0,wing_new_01_xsma_stand.anim,4,1,4,0,0,0,0,0,0,0,0,1
9,OPENMARKET,1,wing_new_01_xsma_stand.anim,4,1,4,0,0,0,0,0,0,0,0,1
9,CLOSEMARKET,0,wing_new_01_xsma_stand.anim,4,1,4,0,0,0,0,0,0,0,0,1
11,STAND,0,wing_new_01_xsma_stand.anim,4,1,1,0,0,0,0,0,0,0,0,1
11,STAND,1,wing_new_01_xsma_stand.anim,4,1,1,0,0,0,0,0,0,0,0,1
11,MOVE,0,wing_new_01_xsma_run.anim,4,1,1,0,0,0,0,0,0,0,0,1
11,MOVE,1,wing_new_01_xsma_run.anim,4,1,0.93,0,0,0,0,0,0,0,0,1
11,OPENMARKET,0,wing_new_01_xsma_stand.anim,4,1,4,0,0,0,0,0,0,0,0,1
11,OPENMARKET,1,wing_new_01_xsma_stand.anim,4,1,4,0,0,0,0,0,0,0,0,1
11,CLOSEMARKET,0,wing_new_01_xsma_stand.anim,4,1,4,0,0,0,0,0,0,0,0,1
23,STAND,0,wing_new_01_xsma_stand.anim,4,1,1,0,0,0,0,0,0,0,0,1
23,STAND,1,wing_new_01_xsma_stand.anim,4,1,1,0,0,0,0,0,0,0,0,1
23,MOVE,0,wing_new_01_xsma_run.anim,4,1,1,0,0,0,0,0,0,0,0,1
23,MOVE,1,wing_new_01_xsma_run.anim,4,1,0.93,0,0,0,0,0,0,0,0,1
23,OPENMARKET,0,wing_new_01_xsma_stand.anim,4,1,4,0,0,0,0,0,0,0,0,1
23,OPENMARKET,1,wing_new_01_xsma_stand.anim,4,1,4,0,0,0,0,0,0,0,0,1
23,CLOSEMARKET,0,wing_new_01_xsma_stand.anim,4,1,4,0,0,0,0,0,0,0,0,1
23,OPENFISHING,0,wing_new_01_xsma_stand.anim,4,1,1,0,0,0,0,0,0,0,0,1
23,OPENFISHING,1,wing_new_01_xsma_stand.anim,4,1,1,0,0,0,0,0,0,0,0,1
23,CLOSEFISHING,0,wing_new_01_xsma_stand.anim,4,1,1,0,0,0,0,0,0,0,0,1
23,CLOSEFISHING,1,wing_new_01_xsma_stand.anim,4,1,1,0,0,0,0,0,0,0,0,1
23,CLOSEFISHING,2,wing_new_01_xsma_stand.anim,4,1,1,0,0,0,0,0,0,0,0,1
23,FISHFIGHTING,0,wing_new_01_xsma_stand.anim,4,1,1,0,0,0,0,0,0,0,0,1
23,FISHFIGHTING,1,wing_new_01_xsma_stand.anim,4,1,1,0,0,0,0,0,0,0,0,1
