Creature,-6608,,,,,,,,,,,,,,,,
Index,1689143,,,,,,,,,,,,,,,,
Skeleton,\nslaLJSdJVZdHFXd\NSLdZUd56dXRF3xpjq,,,,,,,,,,,,,,,,
,,,,,,,,,,,,,,,,,
Style,Action,Index,Animation,Start_Inter,End_Inter,TimeLength,Swing,Strike,Timing,Split,Timing2,Freeze,Effect,CancelTime,DefaultAction,Intersect,Through
<,UVCPF,0,OzksbGxsuxb]otmbNOReMKTeKW[eIGYe]OTMe[Ve67eXOJKeYZGTJ4gtos,?,B,E,0,0,0,0,0,0,0,0
<,UVCPF,-16376,OzksbGxsuxb]otmbNOReMKTeKW[eIGYe]OTMe[Ve67eXOJKeYZGTJ4gtos,?,B,E,0,0,0,0,0,0,0,0
<,UVCPF,-20470,OzksbGxsuxb]otmbNOReMKTeKW[eIGYe]OTMe[Ve67eXOJKeYZGTJ4gtos,?,B,E,0,0,0,0,0,0,0,0
<,UVCPF,-24564,OzksbGxsuxb]otmbNOReMKTeKW[eIGYe]OTMe[Ve67eXOJKeYZGTJ4gtos,?,B,E,0,0,0,0,0,0,0,0
<,OQXG,0,OzksbGxsuxb]otmbNOReMKTeKW[eIGYe]OTMe[Ve67eXOJKe]GRQ4gtos,?,B,E,0,0,0,0,0,0,0,0
<,OQXG,-16376,OzksbGxsuxb]otmbNOReMKTeKW[eIGYe]OTMe[Ve67eXOJKeX[T4gtos,?,B,D,0,0,0,0,0,0,0,0
<,QRGPOCTMGV,0,OzksbGxsuxb]otmbNOReMKTeKW[eIGYe]OTMe[Ve67eYOZ4gtos,?,B,G,0,0,0,0,0,0,0,0
<,QRGPOCTMGV,-16376,OzksbGxsuxb]otmbNOReMKTeKW[eIGYe]OTMe[Ve67eYOZ4gtos,?,B,G,0,0,0,0,0,0,0,0
<,ENQUGOCTMGV,0,OzksbGxsuxb]otmbNOReMKTeKW[eIGYe]OTMe[Ve67eYOZ4gtos,?,B,G,0,0,0,0,0,0,0,0
=,UVCPF,0,OzksbGxsuxb]otmbNOReMKTeKW[eIGYe]OTMe[Ve67eXOJKeYZGTJ4gtos,?,B,E,0,0,0,0,0,0,0,0
=,UVCPF,-16376,OzksbGxsuxb]otmbNOReMKTeKW[eIGYe]OTMe[Ve67eXOJKeYZGTJ4gtos,?,B,E,0,0,0,0,0,0,0,0
=,OQXG,0,OzksbGxsuxb]otmbNOReMKTeKW[eIGYe]OTMe[Ve67eXOJKe]GRQ4gtos,?,B,E,0,0,0,0,0,0,0,0
=,OQXG,-16376,OzksbGxsuxb]otmbNOReMKTeKW[eIGYe]OTMe[Ve67eXOJKeX[T4gtos,?,B,D,0,0,0,0,0,0,0,0
=,QRGPOCTMGV,0,OzksbGxsuxb]otmbNOReMKTeKW[eIGYe]OTMe[Ve67eYOZ4gtos,?,B,G,0,0,0,0,0,0,0,0
=,QRGPOCTMGV,-16376,OzksbGxsuxb]otmbNOReMKTeKW[eIGYe]OTMe[Ve67eYOZ4gtos,?,B,G,0,0,0,0,0,0,0,0
=,ENQUGOCTMGV,0,OzksbGxsuxb]otmbNOReMKTeKW[eIGYe]OTMe[Ve67eYOZ4gtos,?,B,G,0,0,0,0,0,0,0,0
>,UVCPF,0,OzksbGxsuxb]otmbNOReMKTeKW[eIGYe]OTMe[Ve67eXOJKeYZGTJ4gtos,?,B,E,0,0,0,0,0,0,0,0
>,UVCPF,-16376,OzksbGxsuxb]otmbNOReMKTeKW[eIGYe]OTMe[Ve67eXOJKeYZGTJ4gtos,?,B,E,0,0,0,0,0,0,0,0
>,OQXG,0,OzksbGxsuxb]otmbNOReMKTeKW[eIGYe]OTMe[Ve67eXOJKe]GRQ4gtos,?,B,E,0,0,0,0,0,0,0,0
>,OQXG,-16376,OzksbGxsuxb]otmbNOReMKTeKW[eIGYe]OTMe[Ve67eXOJKeX[T4gtos,?,B,D,0,0,0,0,0,0,0,0
>,QRGPOCTMGV,0,OzksbGxsuxb]otmbNOReMKTeKW[eIGYe]OTMe[Ve67eYOZ4gtos,?,B,G,0,0,0,0,0,0,0,0
>,QRGPOCTMGV,-16376,OzksbGxsuxb]otmbNOReMKTeKW[eIGYe]OTMe[Ve67eYOZ4gtos,?,B,G,0,0,0,0,0,0,0,0
>,ENQUGOCTMGV,0,OzksbGxsuxb]otmbNOReMKTeKW[eIGYe]OTMe[Ve67eYOZ4gtos,?,B,G,0,0,0,0,0,0,0,0
>2,UVCPF,0,OzksbGxsuxb]otmbNOReMKTeKW[eIGYe]OTMe[Ve67eXOJKeYZGTJ4gtos,?,B,E,0,0,0,0,0,0,0,0
>2,UVCPF,-16376,OzksbGxsuxb]otmbNOReMKTeKW[eIGYe]OTMe[Ve67eXOJKeYZGTJ4gtos,?,B,E,0,0,0,0,0,0,0,0
>2,OQXG,0,OzksbGxsuxb]otmbNOReMKTeKW[eIGYe]OTMe[Ve67eXOJKe]GRQ4gtos,?,B,E,0,0,0,0,0,0,0,0
>2,OQXG,-16376,OzksbGxsuxb]otmbNOReMKTeKW[eIGYe]OTMe[Ve67eXOJKeX[T4gtos,?,B,D,0,0,0,0,0,0,0,0
>2,QRGPOCTMGV,0,OzksbGxsuxb]otmbNOReMKTeKW[eIGYe]OTMe[Ve67eYOZ4gtos,?,B,G,0,0,0,0,0,0,0,0
>2,QRGPOCTMGV,-16376,OzksbGxsuxb]otmbNOReMKTeKW[eIGYe]OTMe[Ve67eYOZ4gtos,?,B,G,0,0,0,0,0,0,0,0
>2,ENQUGOCTMGV,0,OzksbGxsuxb]otmbNOReMKTeKW[eIGYe]OTMe[Ve67eYOZ4gtos,?,B,G,0,0,0,0,0,0,0,0
>3,UVCPF,0,OzksbGxsuxb]otmbNOReMKTeKW[eIGYe]OTMe[Ve67eXOJKeYZGTJ4gtos,?,B,E,0,0,0,0,0,0,0,0
>3,UVCPF,-16376,OzksbGxsuxb]otmbNOReMKTeKW[eIGYe]OTMe[Ve67eXOJKeYZGTJ4gtos,?,B,E,0,0,0,0,0,0,0,0
>3,OQXG,0,OzksbGxsuxb]otmbNOReMKTeKW[eIGYe]OTMe[Ve67eXOJKe]GRQ4gtos,?,B,E,0,0,0,0,0,0,0,0
>3,OQXG,-16376,OzksbGxsuxb]otmbNOReMKTeKW[eIGYe]OTMe[Ve67eXOJKeX[T4gtos,?,B,D,0,0,0,0,0,0,0,0
>3,QRGPOCTMGV,0,OzksbGxsuxb]otmbNOReMKTeKW[eIGYe]OTMe[Ve67eYOZ4gtos,?,B,G,0,0,0,0,0,0,0,0
>3,QRGPOCTMGV,-16376,OzksbGxsuxb]otmbNOReMKTeKW[eIGYe]OTMe[Ve67eYOZ4gtos,?,B,G,0,0,0,0,0,0,0,0
>3,ENQUGOCTMGV,0,OzksbGxsuxb]otmbNOReMKTeKW[eIGYe]OTMe[Ve67eYOZ4gtos,?,B,G,0,0,0,0,0,0,0,0
>3,HKUJHKIJVKPI,0,OzksbGxsuxb]otmbNOReMKTeKW[eIGYe]OTMe[Ve67eXOJKeYZGTJ4gtos,?,B,E,0,0,0,0,0,0,0,0
>3,HKUJHKIJVKPI,-16376,OzksbGxsuxb]otmbNOReMKTeKW[eIGYe]OTMe[Ve67eXOJKeYZGTJ4gtos,?,B,E,0,0,0,0,0,0,0,0
>3,QRGPHKUJKPI,0,OzksbGxsuxb]otmbNOReMKTeKW[eIGYe]OTMe[Ve67eXOJKeYZGTJ4gtos,?,B,E,0,0,0,0,0,0,0,0
>3,QRGPHKUJKPI,-16376,OzksbGxsuxb]otmbNOReMKTeKW[eIGYe]OTMe[Ve67eXOJKeYZGTJ4gtos,?,B,E,0,0,0,0,0,0,0,0
>3,ENQUGHKUJKPI,0,OzksbGxsuxb]otmbNOReMKTeKW[eIGYe]OTMe[Ve67eXOJKeYZGTJ4gtos,?,B,E,0,0,0,0,0,0,0,0
>3,ENQUGHKUJKPI,-16376,OzksbGxsuxb]otmbNOReMKTeKW[eIGYe]OTMe[Ve67eXOJKeYZGTJ4gtos,?,B,E,0,0,0,0,0,0,0,0
>3,ENQUGHKUJKPI,-20470,OzksbGxsuxb]otmbNOReMKTeKW[eIGYe]OTMe[Ve67eXOJKeYZGTJ4gtos,?,B,E,0,0,0,0,0,0,0,0
>3,ENQUGHKUJKPI,-20470,OzksbGxsuxb]otmbNOReMKTeKW[eIGYe]OTMe[Ve67eXOJKeYZGTJ4gtos,?,B,E,0,0,0,0,0,0,0,0
