Creature,-6608,,,,,,,,,,,,,,,,
Index,1689163,,,,,,,,,,,,,,,,
Skeleton,\nslaLJSdJVZdHFXd\NSLd5>dXRF3xpjq,,,,,,,,,,,,,,,,
,,,,,,,,,,,,,,,,,
Style,Action,Index,Animation,Start_Inter,End_Inter,TimeLength,Swing,Strike,Timing,Split,Timing2,Freeze,Effect,CancelTime,DefaultAction,Intersect,Through
<,UVCPF,0,OzksbGxsuxb]otmbGRUeMKTeKW[eIGYe]OTMe6?eTUTeYZGTJ4gtos,@,B,F,0,0,0,0,0,0,0,0
<,UVCPF,-16376,OzksbGxsuxb]otmbGRUeMKTeKW[eIGYe]OTMe6?eTUTeYZGTJ4gtos,@,B,F,0,0,0,0,0,0,0,0
<,UVCPF,-20470,OzksbGxsuxb]otmbGRUeMKTeKW[eIGYe]OTMe6?eTUTeYZGTJ4gtos,@,B,F,0,0,0,0,0,0,0,0
<,UVCPF,-24564,OzksbGxsuxb]otmbGRUeMKTeKW[eIGYe]OTMe6?eTUTeYZGTJ4gtos,@,B,F,0,0,0,0,0,0,0,0
<,OQXG,0,OzksbGxsuxb]otmbGRUeMKTeKW[eIGYe]OTMe6?eXOJKe]GRQ4gtos,@,B,D,0,0,0,0,0,0,0,0
<,OQXG,-16376,OzksbGxsuxb]otmbGRUeMKTeKW[eIGYe]OTMe6?eXOJKeX[T4gtos,@,B,D,0,0,0,0,0,0,0,0
<,QRGPOCTMGV,0,OzksbGxsuxb]otmbGRUeMKTeKW[eIGYe]OTMe6?eYOZJU]T4gtos,<,B,D.5,0,0,0,0,0,0,0,0
<,QRGPOCTMGV,-16376,OzksbGxsuxb]otmbGRUeMKTeKW[eIGYe]OTMe6?eYOZJU]T4gtos,<,B,D.5,0,0,0,0,0,0,0,0
<,ENQUGOCTMGV,0,OzksbGxsuxb]otmbGRUeMKTeKW[eIGYe]OTMe6?eYOZJU]T4gtos,<,B,D.5,0,0,0,0,0,0,0,0
=,UVCPF,0,OzksbGxsuxb]otmbGRUeMKTeKW[eIGYe]OTMe6?eTUTeYZGTJ4gtos,@,B,E,0,0,0,0,0,0,0,0
=,UVCPF,-16376,OzksbGxsuxb]otmbGRUeMKTeKW[eIGYe]OTMe6?eTUTeYZGTJ4gtos,@,B,G,0,0,0,0,0,0,0,0
=,OQXG,0,OzksbGxsuxb]otmbGRUeMKTeKW[eIGYe]OTMe6?eXOJKe]GRQ4gtos,@,B,D,0,0,0,0,0,0,0,0
=,OQXG,-16376,OzksbGxsuxb]otmbGRUeMKTeKW[eIGYe]OTMe6?eXOJKeX[T4gtos,@,B,D,0,0,0,0,0,0,0,0
=,QRGPOCTMGV,0,OzksbGxsuxb]otmbGRUeMKTeKW[eIGYe]OTMe6?eYOZJU]T4gtos,<,B,D.5,0,0,0,0,0,0,0,0
=,QRGPOCTMGV,-16376,OzksbGxsuxb]otmbGRUeMKTeKW[eIGYe]OTMe6?eYOZJU]T4gtos,<,B,D.5,0,0,0,0,0,0,0,0
=,ENQUGOCTMGV,0,OzksbGxsuxb]otmbGRUeMKTeKW[eIGYe]OTMe6?eYOZJU]T4gtos,<,B,D.5,0,0,0,0,0,0,0,0
>,UVCPF,0,OzksbGxsuxb]otmbGRUeMKTeKW[eIGYe]OTMe6?eTUTeYZGTJ4gtos,@,B,D,0,0,0,0,0,0,0,0
>,UVCPF,-16376,OzksbGxsuxb]otmbGRUeMKTeKW[eIGYe]OTMe6?eTUTeYZGTJ4gtos,@,B,G.1,0,0,0,0,0,0,0,0
>,OQXG,0,OzksbGxsuxb]otmbGRUeMKTeKW[eIGYe]OTMe6?eXOJKe]GRQ4gtos,@,B,D,0,0,0,0,0,0,0,0
>,OQXG,-16376,OzksbGxsuxb]otmbGRUeMKTeKW[eIGYe]OTMe6?eXOJKeX[T4gtos,@,B,D,0,0,0,0,0,0,0,0
>,QRGPOCTMGV,0,OzksbGxsuxb]otmbGRUeMKTeKW[eIGYe]OTMe6?eYOZJU]T4gtos,<,B,D.5,0,0,0,0,0,0,0,0
>,QRGPOCTMGV,-16376,OzksbGxsuxb]otmbGRUeMKTeKW[eIGYe]OTMe6?eYOZJU]T4gtos,<,B,D.5,0,0,0,0,0,0,0,0
>,ENQUGOCTMGV,0,OzksbGxsuxb]otmbGRUeMKTeKW[eIGYe]OTMe6?eYOZJU]T4gtos,<,B,D.5,0,0,0,0,0,0,0,0
>3,UVCPF,0,OzksbGxsuxb]otmbGRUeMKTeKW[eIGYe]OTMe6?eTUTeYZGTJ4gtos,@,B,E,0,0,0,0,0,0,0,0
>3,UVCPF,-16376,OzksbGxsuxb]otmbGRUeMKTeKW[eIGYe]OTMe6?eTUTeYZGTJ4gtos,@,B,E,0,0,0,0,0,0,0,0
>3,OQXG,0,OzksbGxsuxb]otmbGRUeMKTeKW[eIGYe]OTMe6?eXOJKe]GRQ4gtos,@,B,D,0,0,0,0,0,0,0,0
>3,OQXG,-16376,OzksbGxsuxb]otmbGRUeMKTeKW[eIGYe]OTMe6?eXOJKeX[T4gtos,@,B,D,0,0,0,0,0,0,0,0
>3,QRGPOCTMGV,0,OzksbGxsuxb]otmbGRUeMKTeKW[eIGYe]OTMe6?eYOZJU]T4gtos,<,B,D.5,0,0,0,0,0,0,0,0
>3,QRGPOCTMGV,-16376,OzksbGxsuxb]otmbGRUeMKTeKW[eIGYe]OTMe6?eYOZJU]T4gtos,<,B,D.5,0,0,0,0,0,0,0,0
>3,ENQUGOCTMGV,0,OzksbGxsuxb]otmbGRUeMKTeKW[eIGYe]OTMe6?eYOZJU]T4gtos,<,B,D.5,0,0,0,0,0,0,0,0
>3,HKUJHKIJVKPI,0,OzksbGxsuxb]otmbGRUeMKTeKW[eIGYe]OTMe6?eTUTeYZGTJ4gtos,<,B,D,0,0,0,0,0,0,0,0
>3,HKUJHKIJVKPI,-16376,OzksbGxsuxb]otmbGRUeMKTeKW[eIGYe]OTMe6?eTUTeYZGTJ4gtos,<,B,D,0,0,0,0,0,0,0,0
>3,QRGPHKUJKPI,0,OzksbGxsuxb]otmbGRUeMKTeKW[eIGYe]OTMe6?eTUTeYZGTJ4gtos,?,B,E,0,0,0,0,0,0,0,0
>3,QRGPHKUJKPI,-16376,OzksbGxsuxb]otmbGRUeMKTeKW[eIGYe]OTMe6?eTUTeYZGTJ4gtos,?,B,E,0,0,0,0,0,0,0,0
>3,ENQUGHKUJKPI,0,OzksbGxsuxb]otmbGRUeMKTeKW[eIGYe]OTMe6?eTUTeYZGTJ4gtos,?,B,G,0,0,0,0,0,0,0,0
>3,ENQUGHKUJKPI,-16376,OzksbGxsuxb]otmbGRUeMKTeKW[eIGYe]OTMe6?eTUTeYZGTJ4gtos,?,B,F,0,0,0,0,0,0,0,0
>3,ENQUGHKUJKPI,-20470,OzksbGxsuxb]otmbGRUeMKTeKW[eIGYe]OTMe6?eTUTeYZGTJ4gtos,?,B,F,0,0,0,0,0,0,0,0
>5,UVCPF,0,OzksbGxsuxb]otmbGRUeMKTeKW[eIGYe]OTMe6?eYVXeYZGTJ4gtos,@,B,D,0,0,0,0,0,0,0,0
>5,UVCPF,-16376,OzksbGxsuxb]otmbGRUeMKTeKW[eIGYe]OTMe6?eYVXeYZGTJ4gtos,@,B,G.1,0,0,0,0,0,0,0,0
>5,OQXG,0,OzksbGxsuxb]otmbGRUeMKTeKW[eIGYe]OTMe6?eXOJKe]GRQ4gtos,@,B,D,0,0,0,0,0,0,0,0
>5,OQXG,-16376,OzksbGxsuxb]otmbGRUeMKTeKW[eIGYe]OTMe6?eXOJKeX[T4gtos,@,B,D,0,0,0,0,0,0,0,0
>5,QRGPOCTMGV,0,OzksbGxsuxb]otmbGRUeMKTeKW[eIGYe]OTMe6?eYOZJU]T4gtos,<,B,D.5,0,0,0,0,0,0,0,0
>5,QRGPOCTMGV,-16376,OzksbGxsuxb]otmbGRUeMKTeKW[eIGYe]OTMe6?eYOZJU]T4gtos,<,B,D.5,0,0,0,0,0,0,0,0
>5,ENQUGOCTMGV,0,OzksbGxsuxb]otmbGRUeMKTeKW[eIGYe]OTMe6?eYOZJU]T4gtos,<,B,D.5,0,0,0,0,0,0,0,0
>6,UVCPF,0,OzksbGxsuxb]otmbGRUeMKTeKW[eIGYe]OTMe6?eYVXeYZGTJ4gtos,@,B,E,0,0,0,0,0,0,0,0
>6,UVCPF,-16376,OzksbGxsuxb]otmbGRUeMKTeKW[eIGYe]OTMe6?eYVXeYZGTJ4gtos,@,B,G,0,0,0,0,0,0,0,0
>6,OQXG,0,OzksbGxsuxb]otmbGRUeMKTeKW[eIGYe]OTMe6?eXOJKe]GRQ4gtos,?,B,D,0,0,0,0,0,0,0,0
>6,OQXG,-16376,OzksbGxsuxb]otmbGRUeMKTeKW[eIGYe]OTMe6?eXOJKeX[T4gtos,?,B,C.93,0,0,0,0,0,0,0,0
>6,QRGPOCTMGV,0,OzksbGxsuxb]otmbGRUeMKTeKW[eIGYe]OTMe6?eYOZJU]T4gtos,<,B,D.5,0,0,0,0,0,0,0,0
>6,QRGPOCTMGV,-16376,OzksbGxsuxb]otmbGRUeMKTeKW[eIGYe]OTMe6?eYOZJU]T4gtos,<,B,D.5,0,0,0,0,0,0,0,0
>6,ENQUGOCTMGV,0,OzksbGxsuxb]otmbGRUeMKTeKW[eIGYe]OTMe6?eYOZJU]T4gtos,<,B,D.5,0,0,0,0,0,0,0,0
>7,UVCPF,0,OzksbGxsuxb]otmbGRUeMKTeKW[eIGYe]OTMe6?eYVXeYZGTJ4gtos,@,B,D,0,0,0,0,0,0,0,0
>7,UVCPF,-16376,OzksbGxsuxb]otmbGRUeMKTeKW[eIGYe]OTMe6?eYVXeYZGTJ4gtos,@,B,G.1,0,0,0,0,0,0,0,0
>7,OQXG,0,OzksbGxsuxb]otmbGRUeMKTeKW[eIGYe]OTMe6?eXOJKe]GRQ4gtos,@,B,D,0,0,0,0,0,0,0,0
>7,OQXG,-16376,OzksbGxsuxb]otmbGRUeMKTeKW[eIGYe]OTMe6?eXOJKeX[T4gtos,@,B,D,0,0,0,0,0,0,0,0
>7,QRGPOCTMGV,0,OzksbGxsuxb]otmbGRUeMKTeKW[eIGYe]OTMe6?eYOZJU]T4gtos,<,B,D.5,0,0,0,0,0,0,0,0
>7,QRGPOCTMGV,-16376,OzksbGxsuxb]otmbGRUeMKTeKW[eIGYe]OTMe6?eYOZJU]T4gtos,<,B,D.5,0,0,0,0,0,0,0,0
>7,ENQUGOCTMGV,0,OzksbGxsuxb]otmbGRUeMKTeKW[eIGYe]OTMe6?eYOZJU]T4gtos,<,B,D.5,0,0,0,0,0,0,0,0
>8,UVCPF,0,OzksbGxsuxb]otmbGRUeMKTeKW[eIGYe]OTMe6?eYVXeYZGTJ4gtos,@,B,D,0,0,0,0,0,0,0,0
>8,UVCPF,-16376,OzksbGxsuxb]otmbGRUeMKTeKW[eIGYe]OTMe6?eYVXeYZGTJ4gtos,@,B,G.1,0,0,0,0,0,0,0,0
>8,OQXG,0,OzksbGxsuxb]otmbGRUeMKTeKW[eIGYe]OTMe6?eXOJKe]GRQ4gtos,?,B,D,0,0,0,0,0,0,0,0
>8,OQXG,-16376,OzksbGxsuxb]otmbGRUeMKTeKW[eIGYe]OTMe6?eXOJKeX[T4gtos,?,B,C.93,0,0,0,0,0,0,0,0
>8,QRGPOCTMGV,0,OzksbGxsuxb]otmbGRUeMKTeKW[eIGYe]OTMe6?eYOZJU]T4gtos,<,B,D.5,0,0,0,0,0,0,0,0
>8,QRGPOCTMGV,-16376,OzksbGxsuxb]otmbGRUeMKTeKW[eIGYe]OTMe6?eYOZJU]T4gtos,<,B,D.5,0,0,0,0,0,0,0,0
>8,ENQUGOCTMGV,0,OzksbGxsuxb]otmbGRUeMKTeKW[eIGYe]OTMe6?eYOZJU]T4gtos,<,B,D.5,0,0,0,0,0,0,0,0
>8,ENQUGOCTMGV,0,OzksbGxsuxb]otmbGRUeMKTeKW[eIGYe]OTMe6?eYOZJU]T4gtos,<,B,D.5,0,0,0,0,0,0,0,0
