Creature,WINGRIDER,,,,,,,,,,,,,,
Index,1751569,,,,,,,,,,,,,,
Skeleton,Wing\GEN_EQU_CAS_WING_05_MID.skel,,,,,,,,,,,,,,
,,,,,,,,,,,,,,,
Style,Action,Index,Animation,Start_Inter,End_Inter,TimeLength,Swing,Strike,Timing,Split,Timing2,Freeze,Effect,CancelTime,DefaultAction
0,STAND,0,Item\Armor\Wing\SWD_GEN_EQU_CAS_WING_05_STAND.anim,4,1,2,0,0,0,0,0,0,0,0,1
0,STAND,1,Item\Armor\Wing\SWD_GEN_EQU_CAS_WING_05_STAND.anim,4,1,2,0,0,0,0,0,0,0,0,1
0,STAND,2,Item\Armor\Wing\SWD_GEN_EQU_CAS_WING_05_STAND.anim,4,1,2,0,0,0,0,0,0,0,0,1
0,STAND,3,Item\Armor\Wing\SWD_GEN_EQU_CAS_WING_05_STAND.anim,4,1,2,0,0,0,0,0,0,0,0,1
0,MOVE,0,Item\Armor\Wing\BWZ_GEN_EQU_CAS_WING_05_RIDE_WALK.anim,4,1,2,0,0,0,0,0,0,0,0,0
0,MOVE,1,Item\Armor\Wing\BWZ_GEN_EQU_CAS_WING_05_RIDE_RUN.anim,4,1,1,0,0,0,0,0,0,0,0,0
0,OPENMARKET,0,Item\Armor\Wing\SWD_GEN_EQU_CAS_WING_05_SIT.anim,1,1,4,0,0,0,0,0,0,0,0,
0,OPENMARKET,1,Item\Armor\Wing\SWD_GEN_EQU_CAS_WING_05_SIT.anim,1,1,4,0,0,0,0,0,0,0,0,
0,CLOSEMARKET,0,Item\Armor\Wing\SWD_GEN_EQU_CAS_WING_05_STAND.anim,1,1,2,0,0,0,0,0,0,0,0,
1,STAND,0,Item\Armor\Wing\SWD_GEN_EQU_CAS_WING_05_STAND.anim,4,1,2,0,0,0,0,0,0,0,0,1
1,STAND,1,Item\Armor\Wing\SWD_GEN_EQU_CAS_WING_05_STAND.anim,4,1,2,0,0,0,0,0,0,0,0,1
1,MOVE,0,Item\Armor\Wing\BWZ_GEN_EQU_CAS_WING_05_RIDE_WALK.anim,4,1,2,0,0,0,0,0,0,0,0,0
1,MOVE,1,Item\Armor\Wing\BWZ_GEN_EQU_CAS_WING_05_RIDE_RUN.anim,4,1,1,0,0,0,0,0,0,0,0,0
1,OPENMARKET,0,Item\Armor\Wing\SWD_GEN_EQU_CAS_WING_05_SIT.anim,1,1,4,0,0,0,0,0,0,0,0,
1,OPENMARKET,1,Item\Armor\Wing\SWD_GEN_EQU_CAS_WING_05_SIT.anim,1,1,4,0,0,0,0,0,0,0,0,
1,CLOSEMARKET,0,Item\Armor\Wing\SWD_GEN_EQU_CAS_WING_05_STAND.anim,1,1,2,0,0,0,0,0,0,0,0,
2,STAND,0,Item\Armor\Wing\SWD_GEN_EQU_CAS_WING_05_STAND.anim,4,1,2,0,0,0,0,0,0,0,0,1
2,STAND,1,Item\Armor\Wing\SWD_GEN_EQU_CAS_WING_05_STAND.anim,4,1,2,0,0,0,0,0,0,0,0,1
2,MOVE,0,Item\Armor\Wing\BWZ_GEN_EQU_CAS_WING_05_RIDE_WALK.anim,4,1,2,0,0,0,0,0,0,0,0,0
2,MOVE,1,Item\Armor\Wing\BWZ_GEN_EQU_CAS_WING_05_RIDE_RUN.anim,4,1,1,0,0,0,0,0,0,0,0,0
2,OPENMARKET,0,Item\Armor\Wing\SWD_GEN_EQU_CAS_WING_05_SIT.anim,1,1,4,0,0,0,0,0,0,0,0,
2,OPENMARKET,1,Item\Armor\Wing\SWD_GEN_EQU_CAS_WING_05_SIT.anim,1,1,4,0,0,0,0,0,0,0,0,
2,CLOSEMARKET,0,Item\Armor\Wing\SWD_GEN_EQU_CAS_WING_05_STAND.anim,1,1,2,0,0,0,0,0,0,0,0,
3,STAND,0,Item\Armor\Wing\SWD_GEN_EQU_CAS_WING_05_STAND.anim,4,1,2,0,0,0,0,0,0,0,0,1
3,STAND,1,Item\Armor\Wing\SWD_GEN_EQU_CAS_WING_05_STAND.anim,4,1,2,0,0,0,0,0,0,0,0,1
3,MOVE,0,Item\Armor\Wing\BWZ_GEN_EQU_CAS_WING_05_RIDE_WALK.anim,4,1,2,0,0,0,0,0,0,0,0,0
3,MOVE,1,Item\Armor\Wing\BWZ_GEN_EQU_CAS_WING_05_RIDE_RUN.anim,4,1,1,0,0,0,0,0,0,0,0,0
3,OPENMARKET,0,Item\Armor\Wing\SWD_GEN_EQU_CAS_WING_05_SIT.anim,1,1,4,0,0,0,0,0,0,0,0,
3,OPENMARKET,1,Item\Armor\Wing\SWD_GEN_EQU_CAS_WING_05_SIT.anim,1,1,4,0,0,0,0,0,0,0,0,
3,CLOSEMARKET,0,Item\Armor\Wing\SWD_GEN_EQU_CAS_WING_05_STAND.anim,1,1,2,0,0,0,0,0,0,0,0,
4,STAND,0,Item\Armor\Wing\SWD_GEN_EQU_CAS_WING_05_STAND.anim,4,1,2,0,0,0,0,0,0,0,0,1
4,STAND,1,Item\Armor\Wing\SWD_GEN_EQU_CAS_WING_05_STAND.anim,4,1,2,0,0,0,0,0,0,0,0,1
4,MOVE,0,Item\Armor\Wing\BWZ_GEN_EQU_CAS_WING_05_RIDE_WALK.anim,4,1,2,0,0,0,0,0,0,0,0,0
4,MOVE,1,Item\Armor\Wing\BWZ_GEN_EQU_CAS_WING_05_RIDE_RUN.anim,4,1,1,0,0,0,0,0,0,0,0,0
4,OPENMARKET,0,Item\Armor\Wing\SWD_GEN_EQU_CAS_WING_05_SIT.anim,1,1,4,0,0,0,0,0,0,0,0,
4,OPENMARKET,1,Item\Armor\Wing\SWD_GEN_EQU_CAS_WING_05_SIT.anim,1,1,4,0,0,0,0,0,0,0,0,
4,CLOSEMARKET,0,Item\Armor\Wing\SWD_GEN_EQU_CAS_WING_05_STAND.anim,1,1,2,0,0,0,0,0,0,0,0,
5,STAND,0,Item\Armor\Wing\SWD_GEN_EQU_CAS_WING_05_STAND.anim,4,1,2,0,0,0,0,0,0,0,0,1
5,STAND,1,Item\Armor\Wing\SWD_GEN_EQU_CAS_WING_05_STAND.anim,4,1,2,0,0,0,0,0,0,0,0,1
5,MOVE,0,Item\Armor\Wing\BWZ_GEN_EQU_CAS_WING_05_RIDE_WALK.anim,4,1,2,0,0,0,0,0,0,0,0,0
5,MOVE,1,Item\Armor\Wing\BWZ_GEN_EQU_CAS_WING_05_RIDE_RUN.anim,4,1,1,0,0,0,0,0,0,0,0,0
5,OPENMARKET,0,Item\Armor\Wing\SWD_GEN_EQU_CAS_WING_05_SIT.anim,1,1,4,0,0,0,0,0,0,0,0,
5,OPENMARKET,1,Item\Armor\Wing\SWD_GEN_EQU_CAS_WING_05_SIT.anim,1,1,4,0,0,0,0,0,0,0,0,
5,CLOSEMARKET,0,Item\Armor\Wing\SWD_GEN_EQU_CAS_WING_05_STAND.anim,1,1,2,0,0,0,0,0,0,0,0,
6,STAND,0,Item\Armor\Wing\SWD_GEN_EQU_CAS_WING_05_STAND.anim,4,1,2,0,0,0,0,0,0,0,0,1
6,STAND,1,Item\Armor\Wing\SWD_GEN_EQU_CAS_WING_05_STAND.anim,4,1,2,0,0,0,0,0,0,0,0,1
6,MOVE,0,Item\Armor\Wing\BWZ_GEN_EQU_CAS_WING_05_RIDE_WALK.anim,4,1,2,0,0,0,0,0,0,0,0,0
6,MOVE,1,Item\Armor\Wing\BWZ_GEN_EQU_CAS_WING_05_RIDE_RUN.anim,4,1,1,0,0,0,0,0,0,0,0,0
6,OPENMARKET,0,Item\Armor\Wing\SWD_GEN_EQU_CAS_WING_05_SIT.anim,1,1,4,0,0,0,0,0,0,0,0,
6,OPENMARKET,1,Item\Armor\Wing\SWD_GEN_EQU_CAS_WING_05_SIT.anim,1,1,4,0,0,0,0,0,0,0,0,
6,CLOSEMARKET,0,Item\Armor\Wing\SWD_GEN_EQU_CAS_WING_05_STAND.anim,1,1,2,0,0,0,0,0,0,0,0,
10,STAND,0,Item\Armor\Wing\SWD_GEN_EQU_CAS_WING_05_STAND.anim,4,1,2,0,0,0,0,0,0,0,0,1
10,STAND,1,Item\Armor\Wing\SWD_GEN_EQU_CAS_WING_05_STAND.anim,4,1,2,0,0,0,0,0,0,0,0,1
10,MOVE,0,Item\Armor\Wing\BWZ_GEN_EQU_CAS_WING_05_RIDE_WALK.anim,4,1,2,0,0,0,0,0,0,0,0,0
10,MOVE,1,Item\Armor\Wing\BWZ_GEN_EQU_CAS_WING_05_RIDE_RUN.anim,4,1,1,0,0,0,0,0,0,0,0,0
10,OPENMARKET,0,Item\Armor\Wing\SWD_GEN_EQU_CAS_WING_05_SIT.anim,1,1,4,0,0,0,0,0,0,0,0,
10,OPENMARKET,1,Item\Armor\Wing\SWD_GEN_EQU_CAS_WING_05_SIT.anim,1,1,4,0,0,0,0,0,0,0,0,
10,CLOSEMARKET,0,Item\Armor\Wing\SWD_GEN_EQU_CAS_WING_05_STAND.anim,1,1,2,0,0,0,0,0,0,0,0,
12,STAND,0,Item\Armor\Wing\SWD_GEN_EQU_CAS_WING_05_STAND.anim,4,1,2,0,0,0,0,0,0,0,0,1
12,STAND,1,Item\Armor\Wing\SWD_GEN_EQU_CAS_WING_05_STAND.anim,4,1,2,0,0,0,0,0,0,0,0,1
12,MOVE,0,Item\Armor\Wing\BWZ_GEN_EQU_CAS_WING_05_RIDE_WALK.anim,4,1,2,0,0,0,0,0,0,0,0,0
12,MOVE,1,Item\Armor\Wing\BWZ_GEN_EQU_CAS_WING_05_RIDE_RUN.anim,4,1,1,0,0,0,0,0,0,0,0,0
12,OPENMARKET,0,Item\Armor\Wing\SWD_GEN_EQU_CAS_WING_05_SIT.anim,1,1,4,0,0,0,0,0,0,0,0,
12,OPENMARKET,1,Item\Armor\Wing\SWD_GEN_EQU_CAS_WING_05_SIT.anim,1,1,4,0,0,0,0,0,0,0,0,
12,CLOSEMARKET,0,Item\Armor\Wing\SWD_GEN_EQU_CAS_WING_05_STAND.anim,1,1,2,0,0,0,0,0,0,0,0,
13,STAND,0,Item\Armor\Wing\SWD_GEN_EQU_CAS_WING_05_STAND.anim,4,1,2,0,0,0,0,0,0,0,0,1
13,STAND,1,Item\Armor\Wing\SWD_GEN_EQU_CAS_WING_05_STAND.anim,4,1,2,0,0,0,0,0,0,0,0,1
13,MOVE,0,Item\Armor\Wing\BWZ_GEN_EQU_CAS_WING_05_RIDE_WALK.anim,4,1,2,0,0,0,0,0,0,0,0,0
13,MOVE,1,Item\Armor\Wing\BWZ_GEN_EQU_CAS_WING_05_RIDE_RUN.anim,4,1,1,0,0,0,0,0,0,0,0,0
13,OPENMARKET,0,Item\Armor\Wing\SWD_GEN_EQU_CAS_WING_05_SIT.anim,1,1,4,0,0,0,0,0,0,0,0,
13,OPENMARKET,1,Item\Armor\Wing\SWD_GEN_EQU_CAS_WING_05_SIT.anim,1,1,4,0,0,0,0,0,0,0,0,
13,CLOSEMARKET,0,Item\Armor\Wing\SWD_GEN_EQU_CAS_WING_05_STAND.anim,1,1,2,0,0,0,0,0,0,0,0,
14,STAND,0,Item\Armor\Wing\SWD_GEN_EQU_CAS_WING_05_STAND.anim,4,1,2,0,0,0,0,0,0,0,0,1
14,STAND,1,Item\Armor\Wing\SWD_GEN_EQU_CAS_WING_05_STAND.anim,4,1,2,0,0,0,0,0,0,0,0,1
14,MOVE,0,Item\Armor\Wing\BWZ_GEN_EQU_CAS_WING_05_RIDE_WALK.anim,4,1,2,0,0,0,0,0,0,0,0,0
14,MOVE,1,Item\Armor\Wing\BWZ_GEN_EQU_CAS_WING_05_RIDE_RUN.anim,4,1,1,0,0,0,0,0,0,0,0,0
14,OPENMARKET,0,Item\Armor\Wing\SWD_GEN_EQU_CAS_WING_05_SIT.anim,1,1,4,0,0,0,0,0,0,0,0,
14,OPENMARKET,1,Item\Armor\Wing\SWD_GEN_EQU_CAS_WING_05_SIT.anim,1,1,4,0,0,0,0,0,0,0,0,
14,CLOSEMARKET,0,Item\Armor\Wing\SWD_GEN_EQU_CAS_WING_05_STAND.anim,1,1,2,0,0,0,0,0,0,0,0,
15,STAND,0,Item\Armor\Wing\SWD_GEN_EQU_CAS_WING_05_STAND.anim,4,1,2,0,0,0,0,0,0,0,0,1
15,STAND,1,Item\Armor\Wing\SWD_GEN_EQU_CAS_WING_05_STAND.anim,4,1,2,0,0,0,0,0,0,0,0,1
15,MOVE,0,Item\Armor\Wing\BWZ_GEN_EQU_CAS_WING_05_RIDE_WALK.anim,4,1,2,0,0,0,0,0,0,0,0,0
15,MOVE,1,Item\Armor\Wing\BWZ_GEN_EQU_CAS_WING_05_RIDE_RUN.anim,4,1,1,0,0,0,0,0,0,0,0,0
15,OPENMARKET,0,Item\Armor\Wing\SWD_GEN_EQU_CAS_WING_05_SIT.anim,1,1,4,0,0,0,0,0,0,0,0,
15,OPENMARKET,1,Item\Armor\Wing\SWD_GEN_EQU_CAS_WING_05_SIT.anim,1,1,4,0,0,0,0,0,0,0,0,
15,CLOSEMARKET,0,Item\Armor\Wing\SWD_GEN_EQU_CAS_WING_05_STAND.anim,1,1,2,0,0,0,0,0,0,0,0,
16,STAND,0,Item\Armor\Wing\SWD_GEN_EQU_CAS_WING_05_STAND.anim,4,1,2,0,0,0,0,0,0,0,0,1
16,STAND,1,Item\Armor\Wing\SWD_GEN_EQU_CAS_WING_05_STAND.anim,4,1,2,0,0,0,0,0,0,0,0,1
16,MOVE,0,Item\Armor\Wing\BWZ_GEN_EQU_CAS_WING_05_RIDE_WALK.anim,4,1,2,0,0,0,0,0,0,0,0,0
16,MOVE,1,Item\Armor\Wing\BWZ_GEN_EQU_CAS_WING_05_RIDE_RUN.anim,4,1,1,0,0,0,0,0,0,0,0,0
16,OPENMARKET,0,Item\Armor\Wing\SWD_GEN_EQU_CAS_WING_05_SIT.anim,1,1,4,0,0,0,0,0,0,0,0,
16,OPENMARKET,1,Item\Armor\Wing\SWD_GEN_EQU_CAS_WING_05_SIT.anim,1,1,4,0,0,0,0,0,0,0,0,
16,CLOSEMARKET,0,Item\Armor\Wing\SWD_GEN_EQU_CAS_WING_05_STAND.anim,1,1,2,0,0,0,0,0,0,0,0,
17,STAND,0,Item\Armor\Wing\SWD_GEN_EQU_CAS_WING_05_STAND.anim,4,1,2,0,0,0,0,0,0,0,0,1
17,STAND,1,Item\Armor\Wing\SWD_GEN_EQU_CAS_WING_05_STAND.anim,4,1,2,0,0,0,0,0,0,0,0,1
17,MOVE,0,Item\Armor\Wing\BWZ_GEN_EQU_CAS_WING_05_RIDE_WALK.anim,4,1,2,0,0,0,0,0,0,0,0,0
17,MOVE,1,Item\Armor\Wing\BWZ_GEN_EQU_CAS_WING_05_RIDE_RUN.anim,4,1,1,0,0,0,0,0,0,0,0,0
17,OPENMARKET,0,Item\Armor\Wing\SWD_GEN_EQU_CAS_WING_05_SIT.anim,1,1,4,0,0,0,0,0,0,0,0,
17,OPENMARKET,1,Item\Armor\Wing\SWD_GEN_EQU_CAS_WING_05_SIT.anim,1,1,4,0,0,0,0,0,0,0,0,
17,CLOSEMARKET,0,Item\Armor\Wing\SWD_GEN_EQU_CAS_WING_05_STAND.anim,1,1,2,0,0,0,0,0,0,0,0,
18,STAND,0,Item\Armor\Wing\SWD_GEN_EQU_CAS_WING_05_STAND.anim,4,1,2,0,0,0,0,0,0,0,0,1
18,STAND,1,Item\Armor\Wing\SWD_GEN_EQU_CAS_WING_05_STAND.anim,4,1,2,0,0,0,0,0,0,0,0,1
18,MOVE,0,Item\Armor\Wing\BWZ_GEN_EQU_CAS_WING_05_RIDE_WALK.anim,4,1,2,0,0,0,0,0,0,0,0,0
18,MOVE,1,Item\Armor\Wing\BWZ_GEN_EQU_CAS_WING_05_RIDE_RUN.anim,4,1,1,0,0,0,0,0,0,0,0,0
18,OPENMARKET,0,Item\Armor\Wing\SWD_GEN_EQU_CAS_WING_05_SIT.anim,1,1,4,0,0,0,0,0,0,0,0,
18,OPENMARKET,1,Item\Armor\Wing\SWD_GEN_EQU_CAS_WING_05_SIT.anim,1,1,4,0,0,0,0,0,0,0,0,
18,CLOSEMARKET,0,Item\Armor\Wing\SWD_GEN_EQU_CAS_WING_05_STAND.anim,1,1,2,0,0,0,0,0,0,0,0,
19,STAND,0,Item\Armor\Wing\SWD_GEN_EQU_CAS_WING_05_STAND.anim,4,1,2,0,0,0,0,0,0,0,0,1
19,STAND,1,Item\Armor\Wing\SWD_GEN_EQU_CAS_WING_05_STAND.anim,4,1,2,0,0,0,0,0,0,0,0,1
19,MOVE,0,Item\Armor\Wing\BWZ_GEN_EQU_CAS_WING_05_RIDE_WALK.anim,4,1,2,0,0,0,0,0,0,0,0,0
19,MOVE,1,Item\Armor\Wing\BWZ_GEN_EQU_CAS_WING_05_RIDE_RUN.anim,4,1,1,0,0,0,0,0,0,0,0,0
19,OPENMARKET,0,Item\Armor\Wing\SWD_GEN_EQU_CAS_WING_05_SIT.anim,1,1,4,0,0,0,0,0,0,0,0,
19,OPENMARKET,1,Item\Armor\Wing\SWD_GEN_EQU_CAS_WING_05_SIT.anim,1,1,4,0,0,0,0,0,0,0,0,
19,CLOSEMARKET,0,Item\Armor\Wing\SWD_GEN_EQU_CAS_WING_05_STAND.anim,1,1,2,0,0,0,0,0,0,0,0,
20,STAND,0,Item\Armor\Wing\SWD_GEN_EQU_CAS_WING_05_STAND.anim,4,1,2,0,0,0,0,0,0,0,0,1
20,STAND,1,Item\Armor\Wing\SWD_GEN_EQU_CAS_WING_05_STAND.anim,4,1,2,0,0,0,0,0,0,0,0,1
20,MOVE,0,Item\Armor\Wing\BWZ_GEN_EQU_CAS_WING_05_RIDE_WALK.anim,4,1,2,0,0,0,0,0,0,0,0,0
20,MOVE,1,Item\Armor\Wing\BWZ_GEN_EQU_CAS_WING_05_RIDE_RUN.anim,4,1,1,0,0,0,0,0,0,0,0,0
20,OPENMARKET,0,Item\Armor\Wing\SWD_GEN_EQU_CAS_WING_05_SIT.anim,1,1,4,0,0,0,0,0,0,0,0,
20,OPENMARKET,1,Item\Armor\Wing\SWD_GEN_EQU_CAS_WING_05_SIT.anim,1,1,4,0,0,0,0,0,0,0,0,
20,CLOSEMARKET,0,Item\Armor\Wing\SWD_GEN_EQU_CAS_WING_05_STAND.anim,1,1,2,0,0,0,0,0,0,0,0,
23,STAND,0,Item\Armor\Wing\SWD_GEN_EQU_CAS_WING_05_STAND.anim,4,1,2,0,0,0,0,0,0,0,0,1
23,STAND,1,Item\Armor\Wing\SWD_GEN_EQU_CAS_WING_05_STAND.anim,4,1,2,0,0,0,0,0,0,0,0,1
23,MOVE,0,Item\Armor\Wing\BWZ_GEN_EQU_CAS_WING_05_RIDE_WALK.anim,4,1,2,0,0,0,0,0,0,0,0,0
23,MOVE,1,Item\Armor\Wing\BWZ_GEN_EQU_CAS_WING_05_RIDE_RUN.anim,4,1,1,0,0,0,0,0,0,0,0,0
23,OPENMARKET,0,Item\Armor\Wing\SWD_GEN_EQU_CAS_WING_05_SIT.anim,1,1,4,0,0,0,0,0,0,0,0,
23,OPENMARKET,1,Item\Armor\Wing\SWD_GEN_EQU_CAS_WING_05_SIT.anim,1,1,4,0,0,0,0,0,0,0,0,
23,CLOSEMARKET,0,Item\Armor\Wing\SWD_GEN_EQU_CAS_WING_05_STAND.anim,1,1,2,0,0,0,0,0,0,0,0,
23,OPENFISHING,0,Item\Armor\Wing\SWD_GEN_EQU_CAS_WING_05_STAND.anim,4,1,2,0,0,0,0,0,0,0,0,1
23,OPENFISHING,1,Item\Armor\Wing\SWD_GEN_EQU_CAS_WING_05_STAND.anim,4,1,2,0,0,0,0,0,0,0,0,1
23,CLOSEFISHING,0,Item\Armor\Wing\SWD_GEN_EQU_CAS_WING_05_STAND.anim,4,1,2,0,0,0,0,0,0,0,0,1
23,CLOSEFISHING,1,Item\Armor\Wing\SWD_GEN_EQU_CAS_WING_05_STAND.anim,4,1,2,0,0,0,0,0,0,0,0,1
23,CLOSEFISHING,2,Item\Armor\Wing\SWD_GEN_EQU_CAS_WING_05_STAND.anim,4,1,2,0,0,0,0,0,0,0,0,1
23,FISHFIGHTING,0,Item\Armor\Wing\SWD_GEN_EQU_CAS_WING_05_STAND.anim,4,1,2,0,0,0,0,0,0,0,0,1
23,FISHFIGHTING,1,Item\Armor\Wing\SWD_GEN_EQU_CAS_WING_05_STAND.anim,4,1,2,0,0,0,0,0,0,0,0,1
