Creature,WINGRIDER,,,,,,,,,,,,,,
Index,1751265,,,,,,,,,,,,,,
Skeleton,Wing\EQU_CAS_WING_BAG_FROG_SMA.skel,,,,,,,,,,,,,,
,,,,,,,,,,,,,,,
Style,Action,Index,Animation,Start_Inter,End_Inter,TimeLength,Swing,Strike,Timing,Split,Timing2,Freeze,Effect,CancelTime,DefaultAction
0,STAND,0,Item\Armor\Wing\WSU_EQU_CAS_WING_BAG_FROG.anim,4,1,2,0,0,0,0,0,0,0,0,1
0,STAND,1,Item\Armor\Wing\WSU_EQU_CAS_WING_BAG_FROG.anim,4,1,2,0,0,0,0,0,0,0,0,1
0,STAND,2,Item\Armor\Wing\WSU_EQU_CAS_WING_BAG_FROG.anim,4,1,2,0,0,0,0,0,0,0,0,1
0,STAND,3,Item\Armor\Wing\WSU_EQU_CAS_WING_BAG_FROG.anim,4,1,2,0,0,0,0,0,0,0,0,1
0,MOVE,0,Item\Armor\Wing\WSU_EQU_CAS_WING_BAG_FROG.anim,4,1,2,0,0,0,0,0,0,0,0,1
0,MOVE,1,Item\Armor\Wing\WSU_EQU_CAS_WING_BAG_FROG.anim,4,1,2,0,0,0,0,0,0,0,0,1
0,OPENMARKET,0,Item\Armor\Wing\WSU_EQU_CAS_WING_BAG_FROG.anim,4,1,2,0,0,0,0,0,0,0,0,1
0,OPENMARKET,1,Item\Armor\Wing\WSU_EQU_CAS_WING_BAG_FROG.anim,4,1,2,0,0,0,0,0,0,0,0,1
0,CLOSEMARKET,0,Item\Armor\Wing\WSU_EQU_CAS_WING_BAG_FROG.anim,4,1,2,0,0,0,0,0,0,0,0,1
1,STAND,0,Item\Armor\Wing\WSU_EQU_CAS_WING_BAG_FROG.anim,4,1,2,0,0,0,0,0,0,0,0,1
1,STAND,1,Item\Armor\Wing\WSU_EQU_CAS_WING_BAG_FROG.anim,4,1,2,0,0,0,0,0,0,0,0,1
1,MOVE,0,Item\Armor\Wing\WSU_EQU_CAS_WING_BAG_FROG.anim,4,1,2,0,0,0,0,0,0,0,0,1
1,MOVE,1,Item\Armor\Wing\WSU_EQU_CAS_WING_BAG_FROG.anim,4,1,2,0,0,0,0,0,0,0,0,1
1,OPENMARKET,0,Item\Armor\Wing\WSU_EQU_CAS_WING_BAG_FROG.anim,4,1,2,0,0,0,0,0,0,0,0,1
1,OPENMARKET,1,Item\Armor\Wing\WSU_EQU_CAS_WING_BAG_FROG.anim,4,1,2,0,0,0,0,0,0,0,0,1
1,CLOSEMARKET,0,Item\Armor\Wing\WSU_EQU_CAS_WING_BAG_FROG.anim,4,1,2,0,0,0,0,0,0,0,0,1
2,STAND,0,Item\Armor\Wing\WSU_EQU_CAS_WING_BAG_FROG.anim,4,1,2,0,0,0,0,0,0,0,0,1
2,STAND,1,Item\Armor\Wing\WSU_EQU_CAS_WING_BAG_FROG.anim,4,1,2,0,0,0,0,0,0,0,0,1
2,MOVE,0,Item\Armor\Wing\WSU_EQU_CAS_WING_BAG_FROG.anim,4,1,2,0,0,0,0,0,0,0,0,1
2,MOVE,1,Item\Armor\Wing\WSU_EQU_CAS_WING_BAG_FROG.anim,4,1,2,0,0,0,0,0,0,0,0,1
2,OPENMARKET,0,Item\Armor\Wing\WSU_EQU_CAS_WING_BAG_FROG.anim,4,1,2,0,0,0,0,0,0,0,0,1
2,OPENMARKET,1,Item\Armor\Wing\WSU_EQU_CAS_WING_BAG_FROG.anim,4,1,2,0,0,0,0,0,0,0,0,1
2,CLOSEMARKET,0,Item\Armor\Wing\WSU_EQU_CAS_WING_BAG_FROG.anim,4,1,2,0,0,0,0,0,0,0,0,1
9,STAND,0,Item\Armor\Wing\WSU_EQU_CAS_WING_BAG_FROG.anim,4,1,2,0,0,0,0,0,0,0,0,1
9,STAND,1,Item\Armor\Wing\WSU_EQU_CAS_WING_BAG_FROG.anim,4,1,2,0,0,0,0,0,0,0,0,1
9,MOVE,0,Item\Armor\Wing\WSU_EQU_CAS_WING_BAG_FROG.anim,4,1,2,0,0,0,0,0,0,0,0,1
9,MOVE,1,Item\Armor\Wing\WSU_EQU_CAS_WING_BAG_FROG.anim,4,1,2,0,0,0,0,0,0,0,0,1
9,OPENMARKET,0,Item\Armor\Wing\WSU_EQU_CAS_WING_BAG_FROG.anim,4,1,2,0,0,0,0,0,0,0,0,1
9,OPENMARKET,1,Item\Armor\Wing\WSU_EQU_CAS_WING_BAG_FROG.anim,4,1,2,0,0,0,0,0,0,0,0,1
9,CLOSEMARKET,0,Item\Armor\Wing\WSU_EQU_CAS_WING_BAG_FROG.anim,4,1,2,0,0,0,0,0,0,0,0,1
10,STAND,0,Item\Armor\Wing\WSU_EQU_CAS_WING_BAG_FROG.anim,4,1,2,0,0,0,0,0,0,0,0,1
10,STAND,1,Item\Armor\Wing\WSU_EQU_CAS_WING_BAG_FROG.anim,4,1,2,0,0,0,0,0,0,0,0,1
10,MOVE,0,Item\Armor\Wing\WSU_EQU_CAS_WING_BAG_FROG.anim,4,1,2,0,0,0,0,0,0,0,0,1
10,MOVE,1,Item\Armor\Wing\WSU_EQU_CAS_WING_BAG_FROG.anim,4,1,2,0,0,0,0,0,0,0,0,1
10,OPENMARKET,0,Item\Armor\Wing\WSU_EQU_CAS_WING_BAG_FROG.anim,4,1,2,0,0,0,0,0,0,0,0,1
10,OPENMARKET,1,Item\Armor\Wing\WSU_EQU_CAS_WING_BAG_FROG.anim,4,1,2,0,0,0,0,0,0,0,0,1
10,CLOSEMARKET,0,Item\Armor\Wing\WSU_EQU_CAS_WING_BAG_FROG.anim,4,1,2,0,0,0,0,0,0,0,0,1
29,STAND,0,Item\Armor\Wing\WSU_EQU_CAS_WING_BAG_FROG.anim,4,1,2,0,0,0,0,0,0,0,0,1
29,STAND,1,Item\Armor\Wing\WSU_EQU_CAS_WING_BAG_FROG.anim,4,1,2,0,0,0,0,0,0,0,0,1
29,MOVE,0,Item\Armor\Wing\WSU_EQU_CAS_WING_BAG_FROG.anim,4,1,2,0,0,0,0,0,0,0,0,1
29,MOVE,1,Item\Armor\Wing\WSU_EQU_CAS_WING_BAG_FROG.anim,4,1,2,0,0,0,0,0,0,0,0,1
29,OPENMARKET,0,Item\Armor\Wing\WSU_EQU_CAS_WING_BAG_FROG.anim,4,1,2,0,0,0,0,0,0,0,0,1
29,OPENMARKET,1,Item\Armor\Wing\WSU_EQU_CAS_WING_BAG_FROG.anim,4,1,2,0,0,0,0,0,0,0,0,1
29,CLOSEMARKET,0,Item\Armor\Wing\WSU_EQU_CAS_WING_BAG_FROG.anim,4,1,2,0,0,0,0,0,0,0,0,1
23,STAND,0,Item\Armor\Wing\WSU_EQU_CAS_WING_BAG_FROG.anim,4,1,2,0,0,0,0,0,0,0,0,1
23,STAND,1,Item\Armor\Wing\WSU_EQU_CAS_WING_BAG_FROG.anim,4,1,2,0,0,0,0,0,0,0,0,1
23,MOVE,0,Item\Armor\Wing\WSU_EQU_CAS_WING_BAG_FROG.anim,4,1,2,0,0,0,0,0,0,0,0,1
23,MOVE,1,Item\Armor\Wing\WSU_EQU_CAS_WING_BAG_FROG.anim,4,1,2,0,0,0,0,0,0,0,0,1
23,OPENMARKET,0,Item\Armor\Wing\WSU_EQU_CAS_WING_BAG_FROG.anim,4,1,2,0,0,0,0,0,0,0,0,1
23,OPENMARKET,1,Item\Armor\Wing\WSU_EQU_CAS_WING_BAG_FROG.anim,4,1,2,0,0,0,0,0,0,0,0,1
23,CLOSEMARKET,0,Item\Armor\Wing\WSU_EQU_CAS_WING_BAG_FROG.anim,4,1,2,0,0,0,0,0,0,0,0,1
23,OPENFISHING,0,Item\Armor\Wing\WSU_EQU_CAS_WING_BAG_FROG.anim,4,1,2,0,0,0,0,0,0,0,0,1
23,OPENFISHING,1,Item\Armor\Wing\WSU_EQU_CAS_WING_BAG_FROG.anim,4,1,2,0,0,0,0,0,0,0,0,1
23,CLOSEFISHING,0,Item\Armor\Wing\WSU_EQU_CAS_WING_BAG_FROG.anim,4,1,2,0,0,0,0,0,0,0,0,1
23,CLOSEFISHING,1,Item\Armor\Wing\WSU_EQU_CAS_WING_BAG_FROG.anim,4,1,2,0,0,0,0,0,0,0,0,1
23,CLOSEFISHING,2,Item\Armor\Wing\WSU_EQU_CAS_WING_BAG_FROG.anim,4,1,2,0,0,0,0,0,0,0,0,1
23,FISHFIGHTING,0,Item\Armor\Wing\WSU_EQU_CAS_WING_BAG_FROG.anim,4,1,2,0,0,0,0,0,0,0,0,1
23,FISHFIGHTING,1,Item\Armor\Wing\WSU_EQU_CAS_WING_BAG_FROG.anim,4,1,2,0,0,0,0,0,0,0,0,1
