Creature,-6608,,,,,,,,,,,,,,
Index,1687691,,,,,,,,,,,,,,
Skeleton,\nslaJVZdHFXd\NSLdGFLd>ymdXRF3xpjq,,,,,,,,,,,,,,
,,,,,,,,,,,,,,,
Style,Action,Index,Animation,Start_Inter,End_Inter,TimeLength,Swing,Strike,Timing,Split,Timing2,Freeze,Effect,CancelTime,DefaultAction
<,UVCPF,0,OzksbGxsuxb]otmbKW[eIGYe]OTMeHGMe?zneYSG4gtos,?,B,D,0,0,0,0,0,0,0,0
<,UVCPF,-16376,OzksbGxsuxb]otmbKW[eIGYe]OTMeHGMe?zneYSG4gtos,?,B,D,0,0,0,0,0,0,0,0
<,UVCPF,-20470,OzksbGxsuxb]otmbKW[eIGYe]OTMeHGMe?zneYSG4gtos,?,B,D,0,0,0,0,0,0,0,0
<,UVCPF,-24564,OzksbGxsuxb]otmbKW[eIGYe]OTMeHGMe?zneYSG4gtos,?,B,D,0,0,0,0,0,0,0,0
<,OQXG,0,OzksbGxsuxb]otmbKW[eIGYe]OTMeHGMe?zneYSG4gtos,?,B,D,0,0,0,0,0,0,0,0
<,OQXG,-16376,OzksbGxsuxb]otmbKW[eIGYe]OTMeHGMe?zneYSG4gtos,?,B,D,0,0,0,0,0,0,0,0
<,QRGPOCTMGV,0,OzksbGxsuxb]otmbKW[eIGYe]OTMeHGMe?zneYSG4gtos,?,B,D,0,0,0,0,0,0,0,0
<,QRGPOCTMGV,-16376,OzksbGxsuxb]otmbKW[eIGYe]OTMeHGMe?zneYSG4gtos,?,B,D,0,0,0,0,0,0,0,0
<,ENQUGOCTMGV,0,OzksbGxsuxb]otmbKW[eIGYe]OTMeHGMe?zneYSG4gtos,?,B,D,0,0,0,0,0,0,0,0
=,UVCPF,0,OzksbGxsuxb]otmbKW[eIGYe]OTMeHGMe?zneYSG4gtos,?,B,D,0,0,0,0,0,0,0,0
=,UVCPF,-16376,OzksbGxsuxb]otmbKW[eIGYe]OTMeHGMe?zneYSG4gtos,?,B,D,0,0,0,0,0,0,0,0
=,OQXG,0,OzksbGxsuxb]otmbKW[eIGYe]OTMeHGMe?zneYSG4gtos,?,B,D,0,0,0,0,0,0,0,0
=,OQXG,-16376,OzksbGxsuxb]otmbKW[eIGYe]OTMeHGMe?zneYSG4gtos,?,B,D,0,0,0,0,0,0,0,0
=,QRGPOCTMGV,0,OzksbGxsuxb]otmbKW[eIGYe]OTMeHGMe?zneYSG4gtos,?,B,D,0,0,0,0,0,0,0,0
=,QRGPOCTMGV,-16376,OzksbGxsuxb]otmbKW[eIGYe]OTMeHGMe?zneYSG4gtos,?,B,D,0,0,0,0,0,0,0,0
=,ENQUGOCTMGV,0,OzksbGxsuxb]otmbKW[eIGYe]OTMeHGMe?zneYSG4gtos,?,B,D,0,0,0,0,0,0,0,0
>,UVCPF,0,OzksbGxsuxb]otmbKW[eIGYe]OTMeHGMe?zneYSG4gtos,?,B,D,0,0,0,0,0,0,0,0
>,UVCPF,-16376,OzksbGxsuxb]otmbKW[eIGYe]OTMeHGMe?zneYSG4gtos,?,B,D,0,0,0,0,0,0,0,0
>,OQXG,0,OzksbGxsuxb]otmbKW[eIGYe]OTMeHGMe?zneYSG4gtos,?,B,D,0,0,0,0,0,0,0,0
>,OQXG,-16376,OzksbGxsuxb]otmbKW[eIGYe]OTMeHGMe?zneYSG4gtos,?,B,D,0,0,0,0,0,0,0,0
>,QRGPOCTMGV,0,OzksbGxsuxb]otmbKW[eIGYe]OTMeHGMe?zneYSG4gtos,?,B,D,0,0,0,0,0,0,0,0
>,QRGPOCTMGV,-16376,OzksbGxsuxb]otmbKW[eIGYe]OTMeHGMe?zneYSG4gtos,?,B,D,0,0,0,0,0,0,0,0
>,ENQUGOCTMGV,0,OzksbGxsuxb]otmbKW[eIGYe]OTMeHGMe?zneYSG4gtos,?,B,D,0,0,0,0,0,0,0,0
E,UVCPF,0,OzksbGxsuxb]otmbKW[eIGYe]OTMeHGMe?zneYSG4gtos,?,B,D,0,0,0,0,0,0,0,0
E,UVCPF,-16376,OzksbGxsuxb]otmbKW[eIGYe]OTMeHGMe?zneYSG4gtos,?,B,D,0,0,0,0,0,0,0,0
E,OQXG,0,OzksbGxsuxb]otmbKW[eIGYe]OTMeHGMe?zneYSG4gtos,?,B,D,0,0,0,0,0,0,0,0
E,OQXG,-16376,OzksbGxsuxb]otmbKW[eIGYe]OTMeHGMe?zneYSG4gtos,?,B,D,0,0,0,0,0,0,0,0
E,QRGPOCTMGV,0,OzksbGxsuxb]otmbKW[eIGYe]OTMeHGMe?zneYSG4gtos,?,B,D,0,0,0,0,0,0,0,0
E,QRGPOCTMGV,-16376,OzksbGxsuxb]otmbKW[eIGYe]OTMeHGMe?zneYSG4gtos,?,B,D,0,0,0,0,0,0,0,0
E,ENQUGOCTMGV,0,OzksbGxsuxb]otmbKW[eIGYe]OTMeHGMe?zneYSG4gtos,?,B,D,0,0,0,0,0,0,0,0
=0,UVCPF,0,OzksbGxsuxb]otmbKW[eIGYe]OTMeHGMe?zneYSG4gtos,?,B,D,0,0,0,0,0,0,0,0
=0,UVCPF,-16376,OzksbGxsuxb]otmbKW[eIGYe]OTMeHGMe?zneYSG4gtos,?,B,D,0,0,0,0,0,0,0,0
=0,OQXG,0,OzksbGxsuxb]otmbKW[eIGYe]OTMeHGMe?zneYSG4gtos,?,B,D,0,0,0,0,0,0,0,0
=0,OQXG,-16376,OzksbGxsuxb]otmbKW[eIGYe]OTMeHGMe?zneYSG4gtos,?,B,D,0,0,0,0,0,0,0,0
=0,QRGPOCTMGV,0,OzksbGxsuxb]otmbKW[eIGYe]OTMeHGMe?zneYSG4gtos,?,B,D,0,0,0,0,0,0,0,0
=0,QRGPOCTMGV,-16376,OzksbGxsuxb]otmbKW[eIGYe]OTMeHGMe?zneYSG4gtos,?,B,D,0,0,0,0,0,0,0,0
=0,ENQUGOCTMGV,0,OzksbGxsuxb]otmbKW[eIGYe]OTMeHGMe?zneYSG4gtos,?,B,D,0,0,0,0,0,0,0,0
>9,UVCPF,0,OzksbGxsuxb]otmbKW[eIGYe]OTMeHGMe?zneYSG4gtos,?,B,D,0,0,0,0,0,0,0,0
>9,UVCPF,-16376,OzksbGxsuxb]otmbKW[eIGYe]OTMeHGMe?zneYSG4gtos,?,B,D,0,0,0,0,0,0,0,0
>9,OQXG,0,OzksbGxsuxb]otmbKW[eIGYe]OTMeHGMe?zneYSG4gtos,?,B,D,0,0,0,0,0,0,0,0
>9,OQXG,-16376,OzksbGxsuxb]otmbKW[eIGYe]OTMeHGMe?zneYSG4gtos,?,B,D,0,0,0,0,0,0,0,0
>9,QRGPOCTMGV,0,OzksbGxsuxb]otmbKW[eIGYe]OTMeHGMe?zneYSG4gtos,?,B,D,0,0,0,0,0,0,0,0
>9,QRGPOCTMGV,-16376,OzksbGxsuxb]otmbKW[eIGYe]OTMeHGMe?zneYSG4gtos,?,B,D,0,0,0,0,0,0,0,0
>9,ENQUGOCTMGV,0,OzksbGxsuxb]otmbKW[eIGYe]OTMeHGMe?zneYSG4gtos,?,B,D,0,0,0,0,0,0,0,0
>3,UVCPF,0,OzksbGxsuxb]otmbKW[eIGYe]OTMeHGMe?zneYSG4gtos,?,B,D,0,0,0,0,0,0,0,0
>3,UVCPF,-16376,OzksbGxsuxb]otmbKW[eIGYe]OTMeHGMe?zneYSG4gtos,?,B,D,0,0,0,0,0,0,0,0
>3,OQXG,0,OzksbGxsuxb]otmbKW[eIGYe]OTMeHGMe?zneYSG4gtos,?,B,D,0,0,0,0,0,0,0,0
>3,OQXG,-16376,OzksbGxsuxb]otmbKW[eIGYe]OTMeHGMe?zneYSG4gtos,?,B,D,0,0,0,0,0,0,0,0
>3,QRGPOCTMGV,0,OzksbGxsuxb]otmbKW[eIGYe]OTMeHGMe?zneYSG4gtos,?,B,D,0,0,0,0,0,0,0,0
>3,QRGPOCTMGV,-16376,OzksbGxsuxb]otmbKW[eIGYe]OTMeHGMe?zneYSG4gtos,?,B,D,0,0,0,0,0,0,0,0
>3,ENQUGOCTMGV,0,OzksbGxsuxb]otmbKW[eIGYe]OTMeHGMe?zneYSG4gtos,?,B,D,0,0,0,0,0,0,0,0
>3,QRGPHKUJKPI,0,OzksbGxsuxb]otmbKW[eIGYe]OTMeHGMe?zneYSG4gtos,?,B,D,0,0,0,0,0,0,0,0
>3,QRGPHKUJKPI,-16376,OzksbGxsuxb]otmbKW[eIGYe]OTMeHGMe?zneYSG4gtos,?,B,D,0,0,0,0,0,0,0,0
>3,ENQUGHKUJKPI,0,OzksbGxsuxb]otmbKW[eIGYe]OTMeHGMe?zneYSG4gtos,?,B,D,0,0,0,0,0,0,0,0
>3,ENQUGHKUJKPI,-16376,OzksbGxsuxb]otmbKW[eIGYe]OTMeHGMe?zneYSG4gtos,?,B,D,0,0,0,0,0,0,0,0
>3,ENQUGHKUJKPI,-20470,OzksbGxsuxb]otmbKW[eIGYe]OTMeHGMe?zneYSG4gtos,?,B,D,0,0,0,0,0,0,0,0
>3,HKUJHKIJVKPI,0,OzksbGxsuxb]otmbKW[eIGYe]OTMeHGMe?zneYSG4gtos,?,B,D,0,0,0,0,0,0,0,0
>3,HKUJHKIJVKPI,-16376,OzksbGxsuxb]otmbKW[eIGYe]OTMeHGMe?zneYSG4gtos,?,B,D,0,0,0,0,0,0,0,0
