Creature,WINGRIDER,,,,,,,,,,,,,,
Index,2310426,,,,,,,,,,,,,,
Skeleton,Wing\EQU_CAS_WING_02_SMA.skel,,,,,,,,,,,,,,
,,,,,,,,,,,,,,,
Style,Action,Index,Animation,Start_Inter,End_Inter,TimeLength,Swing,Strike,Timing,Split,Timing2,Freeze,Effect,CancelTime,DefaultAction
0,STAND,0,Item\Armor\Wing\ALO_EQU_CAS_WING_02_NON_STAND.anim,5,1,2,0,0,0,0,0,0,0,0,1
0,STAND,1,Item\Armor\Wing\ALO_EQU_CAS_WING_02_NON_STAND.anim,5,1,2,0,0,0,0,0,0,0,0,1
0,STAND,2,Item\Armor\Wing\ALO_EQU_CAS_WING_02_NON_STAND.anim,5,1,2,0,0,0,0,0,0,0,0,1
0,STAND,3,Item\Armor\Wing\ALO_EQU_CAS_WING_02_NON_STAND.anim,5,1,2,0,0,0,0,0,0,0,0,1
0,MOVE,0,Item\Armor\Wing\ALO_EQU_CAS_WING_02_NON_STAND.anim,5,1,2,0,0,0,0,0,0,0,0,1
0,MOVE,1,Item\Armor\Wing\ALO_EQU_CAS_WING_02_RIDE.anim,5,1,1,0,0,0,0,0,0,0,0,1
0,SM_MOVE,0,Item\Armor\Wing\ALO_EQU_CAS_WING_02_SWIM_RUN.anim,5,1,0.9,0,0,0,0,0,0,0,0,
0,SM_MOVE,1,Item\Armor\Wing\ALO_EQU_CAS_WING_02_SWIM_RUN.anim,5,1,0.9,0,0,0,0,0,0,0,0,
0,OPENMARKET,0,Item\Armor\Wing\ALO_EQU_CAS_WING_02_SIT.anim,1,1,2,0,0,0,0,0,0,0,0,1
0,OPENMARKET,1,Item\Armor\Wing\ALO_EQU_CAS_WING_02_SIT.anim,1,1,2,0,0,0,0,0,0,0,0,1
0,CLOSEMARKET,0,Item\Armor\Wing\ALO_EQU_CAS_WING_02_SIT.anim,1,1,2,0,0,0,0,0,0,0,0,1
1,STAND,0,Item\Armor\Wing\ALO_EQU_CAS_WING_02_NON_STAND.anim,5,1,2,0,0,0,0,0,0,0,0,1
1,STAND,1,Item\Armor\Wing\ALO_EQU_CAS_WING_02_NON_STAND.anim,5,1,2,0,0,0,0,0,0,0,0,1
1,MOVE,0,Item\Armor\Wing\ALO_EQU_CAS_WING_02_NON_STAND.anim,5,1,2,0,0,0,0,0,0,0,0,1
1,MOVE,1,Item\Armor\Wing\ALO_EQU_CAS_WING_02_RIDE.anim,5,1,1,0,0,0,0,0,0,0,0,1
1,SM_MOVE,0,Item\Armor\Wing\ALO_EQU_CAS_WING_02_SWIM_RUN.anim,5,1,0.9,0,0,0,0,0,0,0,0,
1,SM_MOVE,1,Item\Armor\Wing\ALO_EQU_CAS_WING_02_SWIM_RUN.anim,5,1,0.9,0,0,0,0,0,0,0,0,
1,OPENMARKET,0,Item\Armor\Wing\ALO_EQU_CAS_WING_02_SIT.anim,1,1,2,0,0,0,0,0,0,0,0,1
1,OPENMARKET,1,Item\Armor\Wing\ALO_EQU_CAS_WING_02_SIT.anim,1,1,2,0,0,0,0,0,0,0,0,1
1,CLOSEMARKET,0,Item\Armor\Wing\ALO_EQU_CAS_WING_02_SIT.anim,1,1,2,0,0,0,0,0,0,0,0,1
2,STAND,0,Item\Armor\Wing\ALO_EQU_CAS_WING_02_NON_STAND.anim,5,1,2,0,0,0,0,0,0,0,0,1
2,STAND,1,Item\Armor\Wing\ALO_EQU_CAS_WING_02_NON_STAND.anim,5,1,2,0,0,0,0,0,0,0,0,1
2,MOVE,0,Item\Armor\Wing\ALO_EQU_CAS_WING_02_NON_STAND.anim,5,1,2,0,0,0,0,0,0,0,0,1
2,MOVE,1,Item\Armor\Wing\ALO_EQU_CAS_WING_02_RIDE.anim,5,1,1,0,0,0,0,0,0,0,0,1
2,SM_MOVE,0,Item\Armor\Wing\ALO_EQU_CAS_WING_02_SWIM_RUN.anim,5,1,0.9,0,0,0,0,0,0,0,0,
2,SM_MOVE,1,Item\Armor\Wing\ALO_EQU_CAS_WING_02_SWIM_RUN.anim,5,1,0.9,0,0,0,0,0,0,0,0,
2,OPENMARKET,0,Item\Armor\Wing\ALO_EQU_CAS_WING_02_SIT.anim,1,1,2,0,0,0,0,0,0,0,0,1
2,OPENMARKET,1,Item\Armor\Wing\ALO_EQU_CAS_WING_02_SIT.anim,1,1,2,0,0,0,0,0,0,0,0,1
2,CLOSEMARKET,0,Item\Armor\Wing\ALO_EQU_CAS_WING_02_SIT.anim,1,1,2,0,0,0,0,0,0,0,0,1
25,STAND,0,Item\Armor\Wing\ALO_EQU_CAS_WING_02_NON_STAND.anim,5,1,2,0,0,0,0,0,0,0,0,1
25,STAND,1,Item\Armor\Wing\ALO_EQU_CAS_WING_02_NON_STAND.anim,5,1,2,0,0,0,0,0,0,0,0,1
25,MOVE,0,Item\Armor\Wing\ALO_EQU_CAS_WING_02_NON_STAND.anim,5,1,2,0,0,0,0,0,0,0,0,1
25,MOVE,1,Item\Armor\Wing\ALO_EQU_CAS_WING_02_RIDE.anim,5,1,1,0,0,0,0,0,0,0,0,1
25,SM_MOVE,0,Item\Armor\Wing\ALO_EQU_CAS_WING_02_SWIM_RUN.anim,5,1,0.9,0,0,0,0,0,0,0,0,
25,SM_MOVE,1,Item\Armor\Wing\ALO_EQU_CAS_WING_02_SWIM_RUN.anim,5,1,0.9,0,0,0,0,0,0,0,0,
25,OPENMARKET,0,Item\Armor\Wing\ALO_EQU_CAS_WING_02_SIT.anim,1,1,2,0,0,0,0,0,0,0,0,1
25,OPENMARKET,1,Item\Armor\Wing\ALO_EQU_CAS_WING_02_SIT.anim,1,1,2,0,0,0,0,0,0,0,0,1
25,CLOSEMARKET,0,Item\Armor\Wing\ALO_EQU_CAS_WING_02_SIT.anim,1,1,2,0,0,0,0,0,0,0,0,1
26,STAND,0,Item\Armor\Wing\ALO_EQU_CAS_WING_02_NON_STAND.anim,5,1,2,0,0,0,0,0,0,0,0,1
26,STAND,1,Item\Armor\Wing\ALO_EQU_CAS_WING_02_NON_STAND.anim,5,1,2,0,0,0,0,0,0,0,0,1
26,MOVE,0,Item\Armor\Wing\ALO_EQU_CAS_WING_02_NON_STAND.anim,4,1,2,0,0,0,0,0,0,0,0,1
26,MOVE,1,Item\Armor\Wing\ALO_EQU_CAS_WING_02_RIDE.anim,4,1,1,0,0,0,0,0,0,0,0,1
26,SM_MOVE,0,Item\Armor\Wing\ALO_EQU_CAS_WING_02_SWIM_RUN.anim,5,1,0.9,0,0,0,0,0,0,0,0,
26,SM_MOVE,1,Item\Armor\Wing\ALO_EQU_CAS_WING_02_SWIM_RUN.anim,5,1,0.9,0,0,0,0,0,0,0,0,
26,OPENMARKET,0,Item\Armor\Wing\ALO_EQU_CAS_WING_02_SIT.anim,1,1,2,0,0,0,0,0,0,0,0,1
26,OPENMARKET,1,Item\Armor\Wing\ALO_EQU_CAS_WING_02_SIT.anim,1,1,2,0,0,0,0,0,0,0,0,1
26,CLOSEMARKET,0,Item\Armor\Wing\ALO_EQU_CAS_WING_02_SIT.anim,1,1,2,0,0,0,0,0,0,0,0,1
27,STAND,0,Item\Armor\Wing\ALO_EQU_CAS_WING_02_NON_STAND.anim,5,1,2,0,0,0,0,0,0,0,0,1
27,STAND,1,Item\Armor\Wing\ALO_EQU_CAS_WING_02_NON_STAND.anim,5,1,2,0,0,0,0,0,0,0,0,1
27,MOVE,0,Item\Armor\Wing\ALO_EQU_CAS_WING_02_NON_STAND.anim,5,1,2,0,0,0,0,0,0,0,0,1
27,MOVE,1,Item\Armor\Wing\ALO_EQU_CAS_WING_02_RIDE.anim,5,1,1,0,0,0,0,0,0,0,0,1
27,SM_MOVE,0,Item\Armor\Wing\ALO_EQU_CAS_WING_02_SWIM_RUN.anim,5,1,0.9,0,0,0,0,0,0,0,0,
27,SM_MOVE,1,Item\Armor\Wing\ALO_EQU_CAS_WING_02_SWIM_RUN.anim,5,1,0.9,0,0,0,0,0,0,0,0,
27,OPENMARKET,0,Item\Armor\Wing\ALO_EQU_CAS_WING_02_SIT.anim,1,1,2,0,0,0,0,0,0,0,0,1
27,OPENMARKET,1,Item\Armor\Wing\ALO_EQU_CAS_WING_02_SIT.anim,1,1,2,0,0,0,0,0,0,0,0,1
27,CLOSEMARKET,0,Item\Armor\Wing\ALO_EQU_CAS_WING_02_SIT.anim,1,1,2,0,0,0,0,0,0,0,0,1
28,STAND,0,Item\Armor\Wing\ALO_EQU_CAS_WING_02_NON_STAND.anim,5,1,2,0,0,0,0,0,0,0,0,1
28,STAND,1,Item\Armor\Wing\ALO_EQU_CAS_WING_02_NON_STAND.anim,5,1,2,0,0,0,0,0,0,0,0,1
28,MOVE,0,Item\Armor\Wing\ALO_EQU_CAS_WING_02_NON_STAND.anim,4,1,2,0,0,0,0,0,0,0,0,1
28,MOVE,1,Item\Armor\Wing\ALO_EQU_CAS_WING_02_RIDE.anim,4,1,1,0,0,0,0,0,0,0,0,1
28,SM_MOVE,0,Item\Armor\Wing\ALO_EQU_CAS_WING_02_SWIM_RUN.anim,5,1,0.9,0,0,0,0,0,0,0,0,
28,SM_MOVE,1,Item\Armor\Wing\ALO_EQU_CAS_WING_02_SWIM_RUN.anim,5,1,0.9,0,0,0,0,0,0,0,0,
28,OPENMARKET,0,Item\Armor\Wing\ALO_EQU_CAS_WING_02_SIT.anim,1,1,2,0,0,0,0,0,0,0,0,1
28,OPENMARKET,1,Item\Armor\Wing\ALO_EQU_CAS_WING_02_SIT.anim,1,1,2,0,0,0,0,0,0,0,0,1
28,CLOSEMARKET,0,Item\Armor\Wing\ALO_EQU_CAS_WING_02_SIT.anim,1,1,2,0,0,0,0,0,0,0,0,1
23,STAND,0,Item\Armor\Wing\ALO_EQU_CAS_WING_02_NON_STAND.anim,5,1,2,0,0,0,0,0,0,0,0,1
23,STAND,1,Item\Armor\Wing\ALO_EQU_CAS_WING_02_NON_STAND.anim,5,1,2,0,0,0,0,0,0,0,0,1
23,MOVE,0,Item\Armor\Wing\ALO_EQU_CAS_WING_02_NON_STAND.anim,5,1,2,0,0,0,0,0,0,0,0,1
23,MOVE,1,Item\Armor\Wing\ALO_EQU_CAS_WING_02_RIDE.anim,5,1,1,0,0,0,0,0,0,0,0,1
23,SM_MOVE,0,Item\Armor\Wing\ALO_EQU_CAS_WING_02_SWIM_RUN.anim,5,1,0.9,0,0,0,0,0,0,0,0,
23,SM_MOVE,1,Item\Armor\Wing\ALO_EQU_CAS_WING_02_SWIM_RUN.anim,5,1,0.9,0,0,0,0,0,0,0,0,
23,OPENMARKET,0,Item\Armor\Wing\ALO_EQU_CAS_WING_02_SIT.anim,1,1,2,0,0,0,0,0,0,0,0,1
23,OPENMARKET,1,Item\Armor\Wing\ALO_EQU_CAS_WING_02_SIT.anim,1,1,2,0,0,0,0,0,0,0,0,1
23,CLOSEMARKET,0,Item\Armor\Wing\ALO_EQU_CAS_WING_02_SIT.anim,1,1,2,0,0,0,0,0,0,0,0,1
23,OPENFISHING,0,Item\Armor\Wing\ALO_EQU_CAS_WING_02_NON_STAND.anim,4,1,2,0,0,0,0,0,0,0,0,1
23,OPENFISHING,1,Item\Armor\Wing\ALO_EQU_CAS_WING_02_NON_STAND.anim,4,1,2,0,0,0,0,0,0,0,0,1
23,CLOSEFISHING,0,Item\Armor\Wing\ALO_EQU_CAS_WING_02_NON_STAND.anim,4,1,2,0,0,0,0,0,0,0,0,1
23,CLOSEFISHING,1,Item\Armor\Wing\ALO_EQU_CAS_WING_02_NON_STAND.anim,4,1,2,0,0,0,0,0,0,0,0,1
23,CLOSEFISHING,2,Item\Armor\Wing\ALO_EQU_CAS_WING_02_NON_STAND.anim,4,1,2,0,0,0,0,0,0,0,0,1
23,FISHFIGHTING,0,Item\Armor\Wing\ALO_EQU_CAS_WING_02_NON_STAND.anim,1,1,2,0,0,0,0,0,0,0,0,1
23,FISHFIGHTING,1,Item\Armor\Wing\ALO_EQU_CAS_WING_02_NON_STAND.anim,1,1,2,0,0,0,0,0,0,0,0,1
