Creature,WINGRIDER,,,,,,,,,,,,,,
Index,1751548,,,,,,,,,,,,,,
Skeleton,Wing\WSU_GEN_EQU_CAS_WIN_SMA.skel,,,,,,,,,,,,,,
,,,,,,,,,,,,,,,
Style,Action,Index,Animation,Start_Inter,End_Inter,TimeLength,Swing,Strike,Timing,Split,Timing2,Freeze,Effect,CancelTime,DefaultAction
0,STAND,0,Item\Armor\Wing\ARC_GEN_EQU_CAS_WIN_SMA_STAND_NON.anim,4,1,1,0,0,0,0,0,0,0,0,1
0,STAND,1,Item\Armor\Wing\ARC_GEN_EQU_CAS_WIN_SMA_STAND_NON.anim,4,1,1,0,0,0,0,0,0,0,0,1
0,STAND,2,Item\Armor\Wing\ARC_GEN_EQU_CAS_WIN_SMA_STAND_NON.anim,4,1,1,0,0,0,0,0,0,0,0,1
0,STAND,3,Item\Armor\Wing\ARC_GEN_EQU_CAS_WIN_SMA_STAND_NON.anim,4,1,1,0,0,0,0,0,0,0,0,1
0,MOVE,0,Item\Armor\Wing\ARC_GEN_EQU_CAS_WIN_SMA_WALK_NON.anim,4,1,1,0,0,0,0,0,0,0,0,1
0,MOVE,1,Item\Armor\Wing\ARC_GEN_EQU_CAS_WIN_SMA_RUN_RIDE.anim,4,1,0.93,0,0,0,0,0,0,0,0,1
0,OPENMARKET,0,Item\Armor\Wing\ARC_GEN_EQU_CAS_WIN_SMA_SIT.anim,4,1,4,0,0,0,0,0,0,0,0,1
0,OPENMARKET,1,Item\Armor\Wing\ARC_GEN_EQU_CAS_WIN_SMA_SIT.anim,4,1,4,0,0,0,0,0,0,0,0,1
0,CLOSEMARKET,0,Item\Armor\Wing\ARC_GEN_EQU_CAS_WIN_SMA_SIT.anim,4,1,4,0,0,0,0,0,0,0,0,1
1,STAND,0,Item\Armor\Wing\ARC_GEN_EQU_CAS_WIN_SMA_STAND_NON.anim,4,1,1,0,0,0,0,0,0,0,0,1
1,STAND,1,Item\Armor\Wing\ARC_GEN_EQU_CAS_WIN_SMA_STAND_NON.anim,4,1,1,0,0,0,0,0,0,0,0,1
1,MOVE,0,Item\Armor\Wing\ARC_GEN_EQU_CAS_WIN_SMA_WALK_NON.anim,4,1,1,0,0,0,0,0,0,0,0,1
1,MOVE,1,Item\Armor\Wing\ARC_GEN_EQU_CAS_WIN_SMA_RUN_RIDE.anim,4,1,0.93,0,0,0,0,0,0,0,0,1
1,OPENMARKET,0,Item\Armor\Wing\ARC_GEN_EQU_CAS_WIN_SMA_SIT.anim,4,1,4,0,0,0,0,0,0,0,0,1
1,OPENMARKET,1,Item\Armor\Wing\ARC_GEN_EQU_CAS_WIN_SMA_SIT.anim,4,1,4,0,0,0,0,0,0,0,0,1
1,CLOSEMARKET,0,Item\Armor\Wing\ARC_GEN_EQU_CAS_WIN_SMA_SIT.anim,4,1,4,0,0,0,0,0,0,0,0,1
2,STAND,0,Item\Armor\Wing\ARC_GEN_EQU_CAS_WIN_SMA_STAND_NON.anim,4,1,1,0,0,0,0,0,0,0,0,1
2,STAND,1,Item\Armor\Wing\ARC_GEN_EQU_CAS_WIN_SMA_STAND_NON.anim,4,1,1,0,0,0,0,0,0,0,0,1
2,MOVE,0,Item\Armor\Wing\ARC_GEN_EQU_CAS_WIN_SMA_WALK_SSW.anim,4,1,1,0,0,0,0,0,0,0,0,1
2,MOVE,1,Item\Armor\Wing\ARC_GEN_EQU_CAS_WIN_SMA_RUN_RIDE.anim,4,1,0.93,0,0,0,0,0,0,0,0,1
2,OPENMARKET,0,Item\Armor\Wing\ARC_GEN_EQU_CAS_WIN_SMA_SIT.anim,4,1,4,0,0,0,0,0,0,0,0,1
2,OPENMARKET,1,Item\Armor\Wing\ARC_GEN_EQU_CAS_WIN_SMA_SIT.anim,4,1,4,0,0,0,0,0,0,0,0,1
2,CLOSEMARKET,0,Item\Armor\Wing\ARC_GEN_EQU_CAS_WIN_SMA_SIT.anim,4,1,4,0,0,0,0,0,0,0,0,1
7,STAND,0,Item\Armor\Wing\ARC_GEN_EQU_CAS_WIN_SMA_STAND_BOW.anim,4,1,1,0,0,0,0,0,0,0,0,1
7,STAND,1,Item\Armor\Wing\ARC_GEN_EQU_CAS_WIN_SMA_STAND_BOW.anim,4,1,1,0,0,0,0,0,0,0,0,1
7,MOVE,0,Item\Armor\Wing\ARC_GEN_EQU_CAS_WIN_SMA_WALK_BOW.anim,4,1,1,0,0,0,0,0,0,0,0,1
7,MOVE,1,Item\Armor\Wing\ARC_GEN_EQU_CAS_WIN_SMA_RUN_RIDE.anim,4,1,0.93,0,0,0,0,0,0,0,0,1
7,OPENMARKET,0,Item\Armor\Wing\ARC_GEN_EQU_CAS_WIN_SMA_SIT.anim,4,1,4,0,0,0,0,0,0,0,0,1
7,OPENMARKET,1,Item\Armor\Wing\ARC_GEN_EQU_CAS_WIN_SMA_SIT.anim,4,1,4,0,0,0,0,0,0,0,0,1
7,CLOSEMARKET,0,Item\Armor\Wing\ARC_GEN_EQU_CAS_WIN_SMA_SIT.anim,4,1,4,0,0,0,0,0,0,0,0,1
8,STAND,0,Item\Armor\Wing\ARC_GEN_EQU_CAS_WIN_SMA_STAND_CRS.anim,4,1,1,0,0,0,0,0,0,0,0,1
8,STAND,1,Item\Armor\Wing\ARC_GEN_EQU_CAS_WIN_SMA_STAND_CRS.anim,4,1,1,0,0,0,0,0,0,0,0,1
8,MOVE,0,Item\Armor\Wing\ARC_GEN_EQU_CAS_WIN_SMA_WALK_CRS.anim,4,1,1,0,0,0,0,0,0,0,0,1
8,MOVE,1,Item\Armor\Wing\ARC_GEN_EQU_CAS_WIN_SMA_RUN_RIDE.anim,4,1,0.93,0,0,0,0,0,0,0,0,1
8,OPENMARKET,0,Item\Armor\Wing\ARC_GEN_EQU_CAS_WIN_SMA_SIT.anim,4,1,4,0,0,0,0,0,0,0,0,1
8,OPENMARKET,1,Item\Armor\Wing\ARC_GEN_EQU_CAS_WIN_SMA_SIT.anim,4,1,4,0,0,0,0,0,0,0,0,1
8,CLOSEMARKET,0,Item\Armor\Wing\ARC_GEN_EQU_CAS_WIN_SMA_SIT.anim,4,1,4,0,0,0,0,0,0,0,0,1
23,STAND,0,Item\Armor\Wing\ARC_GEN_EQU_CAS_WIN_SMA_STAND_NON.anim,4,1,1,0,0,0,0,0,0,0,0,1
23,STAND,1,Item\Armor\Wing\ARC_GEN_EQU_CAS_WIN_SMA_STAND_NON.anim,4,1,1,0,0,0,0,0,0,0,0,1
23,MOVE,0,Item\Armor\Wing\ARC_GEN_EQU_CAS_WIN_SMA_WALK_NON.anim,4,1,1,0,0,0,0,0,0,0,0,1
23,MOVE,1,Item\Armor\Wing\ARC_GEN_EQU_CAS_WIN_SMA_RUN_RIDE.anim,4,1,0.93,0,0,0,0,0,0,0,0,1
23,OPENMARKET,0,Item\Armor\Wing\ARC_GEN_EQU_CAS_WIN_SMA_SIT.anim,4,1,4,0,0,0,0,0,0,0,0,1
23,OPENMARKET,1,Item\Armor\Wing\ARC_GEN_EQU_CAS_WIN_SMA_SIT.anim,4,1,4,0,0,0,0,0,0,0,0,1
23,CLOSEMARKET,0,Item\Armor\Wing\ARC_GEN_EQU_CAS_WIN_SMA_SIT.anim,4,1,4,0,0,0,0,0,0,0,0,1
23,OPENFISHING,0,Item\Armor\Wing\ARC_GEN_EQU_CAS_WIN_SMA_STAND_NON.anim,4,1,1,0,0,0,0,0,0,0,0,1
23,OPENFISHING,1,Item\Armor\Wing\ARC_GEN_EQU_CAS_WIN_SMA_STAND_NON.anim,4,1,1,0,0,0,0,0,0,0,0,1
23,CLOSEFISHING,0,Item\Armor\Wing\ARC_GEN_EQU_CAS_WIN_SMA_STAND_NON.anim,4,1,1,0,0,0,0,0,0,0,0,1
23,CLOSEFISHING,1,Item\Armor\Wing\ARC_GEN_EQU_CAS_WIN_SMA_STAND_NON.anim,4,1,1,0,0,0,0,0,0,0,0,1
23,CLOSEFISHING,2,Item\Armor\Wing\ARC_GEN_EQU_CAS_WIN_SMA_STAND_NON.anim,4,1,1,0,0,0,0,0,0,0,0,1
23,FISHFIGHTING,0,Item\Armor\Wing\ARC_GEN_EQU_CAS_WIN_SMA_STAND_NON.anim,4,1,1,0,0,0,0,0,0,0,0,1
23,FISHFIGHTING,1,Item\Armor\Wing\ARC_GEN_EQU_CAS_WIN_SMA_STAND_NON.anim,4,1,1,0,0,0,0,0,0,0,0,1
