Creature,-6608,,,,,,,,,,,,,,,,
Index,-56586,,,,,,,,,,,,,,,,
Skeleton,\nslaIWLdJVZd\NS563xpjq,,,,,,,,,,,,,,,,
,,,,,,,,,,,,,,,,,
Style,Action,Index,Animation,Start_Inter,End_Inter,TimeLength,Swing,Strike,Timing,Split,Timing2,Freeze,Effect,CancelTime,DefaultAction,Intersect,Through
<,UVCPF,0,OzksbGxsuxb]otmbJXMeKW[e]OT67eXOJeYZGTJ4gtos,?,B,E,0,0,0,0,0,0,0,0
<,UVCPF,-16376,OzksbGxsuxb]otmbJXMeKW[e]OT67eXOJeYZGTJ4gtos,?,B,E,0,0,0,0,0,0,0,0
<,UVCPF,-20470,OzksbGxsuxb]otmbJXMeKW[e]OT67eXOJeYZGTJ4gtos,?,B,E,0,0,0,0,0,0,0,0
<,UVCPF,-24564,OzksbGxsuxb]otmbJXMeKW[e]OT67eXOJeYZGTJ4gtos,?,B,E,0,0,0,0,0,0,0,0
<,OQXG,0,OzksbGxsuxb]otmbJXMeKW[e]OT67eXOJeYZGTJ4gtos,?,B,D,0,0,0,0,0,0,0,0
<,OQXG,-16376,OzksbGxsuxb]otmbJXMeKW[e]OT67eXOJeX[T4gtos,?,B,D,0,0,0,0,0,0,0,0
<,QRGPOCTMGV,0,OzksbGxsuxb]otmbJXMeKW[e]OT67eKSZeYOZ4gtos,?,B,G,0,0,0,0,0,0,0,0
<,QRGPOCTMGV,-16376,OzksbGxsuxb]otmbJXMeKW[e]OT67eKSZeYOZ4gtos,?,B,G,0,0,0,0,0,0,0,0
<,ENQUGOCTMGV,0,OzksbGxsuxb]otmbJXMeKW[e]OT67eKSZeYOZ4gtos,?,B,G,0,0,0,0,0,0,0,0
=,UVCPF,0,OzksbGxsuxb]otmbJXMeKW[e]OT67eXOJeYZGTJ4gtos,?,B,E,0,0,0,0,0,0,0,0
=,UVCPF,-16376,OzksbGxsuxb]otmbJXMeKW[e]OT67eXOJeYZGTJ4gtos,?,B,E,0,0,0,0,0,0,0,0
=,OQXG,0,OzksbGxsuxb]otmbJXMeKW[e]OT67eXOJeYZGTJ4gtos,?,B,D,0,0,0,0,0,0,0,0
=,OQXG,-16376,OzksbGxsuxb]otmbJXMeKW[e]OT67eXOJeX[T4gtos,?,B,D,0,0,0,0,0,0,0,0
=,QRGPOCTMGV,0,OzksbGxsuxb]otmbJXMeKW[e]OT67eKSZeYOZ4gtos,?,B,G,0,0,0,0,0,0,0,0
=,QRGPOCTMGV,-16376,OzksbGxsuxb]otmbJXMeKW[e]OT67eKSZeYOZ4gtos,?,B,G,0,0,0,0,0,0,0,0
=,ENQUGOCTMGV,0,OzksbGxsuxb]otmbJXMeKW[e]OT67eKSZeYOZ4gtos,?,B,G,0,0,0,0,0,0,0,0
>,UVCPF,0,OzksbGxsuxb]otmbJXMeKW[e]OT67eXOJeYZGTJ4gtos,?,B,E,0,0,0,0,0,0,0,0
>,UVCPF,-16376,OzksbGxsuxb]otmbJXMeKW[e]OT67eXOJeYZGTJ4gtos,?,B,E,0,0,0,0,0,0,0,0
>,OQXG,0,OzksbGxsuxb]otmbJXMeKW[e]OT67eXOJeYZGTJ4gtos,?,B,D,0,0,0,0,0,0,0,0
>,OQXG,-16376,OzksbGxsuxb]otmbJXMeKW[e]OT67eXOJeX[T4gtos,?,B,D,0,0,0,0,0,0,0,0
>,QRGPOCTMGV,0,OzksbGxsuxb]otmbJXMeKW[e]OT67eKSZeYOZ4gtos,?,B,G,0,0,0,0,0,0,0,0
>,QRGPOCTMGV,-16376,OzksbGxsuxb]otmbJXMeKW[e]OT67eKSZeYOZ4gtos,?,B,G,0,0,0,0,0,0,0,0
>,ENQUGOCTMGV,0,OzksbGxsuxb]otmbJXMeKW[e]OT67eKSZeYOZ4gtos,?,B,G,0,0,0,0,0,0,0,0
>3,UVCPF,0,OzksbGxsuxb]otmbJXMeKW[e]OT67eXOJeYZGTJ4gtos,?,B,E,0,0,0,0,0,0,0,0
>3,UVCPF,-16376,OzksbGxsuxb]otmbJXMeKW[e]OT67eXOJeYZGTJ4gtos,?,B,E,0,0,0,0,0,0,0,0
>3,OQXG,0,OzksbGxsuxb]otmbJXMeKW[e]OT67eXOJeYZGTJ4gtos,?,B,E,0,0,0,0,0,0,0,0
>3,OQXG,-16376,OzksbGxsuxb]otmbJXMeKW[e]OT67eXOJeX[T&4gtos,?,B,D,0,0,0,0,0,0,0,0
>3,QRGPOCTMGV,0,OzksbGxsuxb]otmbJXMeKW[e]OT67eXOJeYZGTJ4gtos,?,B,E,0,0,0,0,0,0,0,0
>3,QRGPOCTMGV,-16376,OzksbGxsuxb]otmbJXMeKW[e]OT67eXOJeYZGTJ4gtos,?,B,E,0,0,0,0,0,0,0,0
>3,ENQUGOCTMGV,0,OzksbGxsuxb]otmbJXMeKW[e]OT67eXOJeYZGTJ4gtos,?,B,E,0,0,0,0,0,0,0,0
>3,HKUJHKIJVKPI,0,OzksbGxsuxb]otmbJXMeKW[e]OT67eXOJeYZGTJ4gtos,?,B,E,0,0,0,0,0,0,0,0
>3,HKUJHKIJVKPI,-16376,OzksbGxsuxb]otmbJXMeKW[e]OT67eXOJeYZGTJ4gtos,?,B,E,0,0,0,0,0,0,0,0
>3,QRGPHKUJKPI,0,OzksbGxsuxb]otmbJXMeKW[e]OT67eXOJeYZGTJ4gtos,?,B,E,0,0,0,0,0,0,0,0
>3,QRGPHKUJKPI,-16376,OzksbGxsuxb]otmbJXMeKW[e]OT67eXOJeYZGTJ4gtos,?,B,E,0,0,0,0,0,0,0,0
>3,ENQUGHKUJKPI,0,OzksbGxsuxb]otmbJXMeKW[e]OT67eXOJeYZGTJ4gtos,?,B,E,0,0,0,0,0,0,0,0
>3,ENQUGHKUJKPI,-16376,OzksbGxsuxb]otmbJXMeKW[e]OT67eXOJeYZGTJ4gtos,?,B,E,0,0,0,0,0,0,0,0
>3,ENQUGHKUJKPI,-20470,OzksbGxsuxb]otmbJXMeKW[e]OT67eXOJeYZGTJ4gtos,?,B,E,0,0,0,0,0,0,0,0
?4,UVCPF,0,OzksbGxsuxb]otmbJXMeKW[e]OT67eXOJeYZGTJ4gtos,?,B,D.7,0,0,0,0,0,0,0,0
?4,UVCPF,-16376,OzksbGxsuxb]otmbJXMeKW[e]OT67eXOJeYZGTJ4gtos,?,B,D.7,0,0,0,0,0,0,0,0
?4,OQXG,0,OzksbGxsuxb]otmbJXMeKW[e]OT67eXOJeYZGTJ4gtos,?,B,D,0,0,0,0,0,0,0,0
?4,OQXG,-16376,OzksbGxsuxb]otmbJXMeKW[e]OT67eXOJeX[T4gtos,?,B,D,0,0,0,0,0,0,0,0
?4,QRGPOCTMGV,0,OzksbGxsuxb]otmbJXMeKW[e]OT67eKSZeYOZ4gtos,?,B,G,0,0,0,0,0,0,0,0
?4,QRGPOCTMGV,-16376,OzksbGxsuxb]otmbJXMeKW[e]OT67eKSZeYOZ4gtos,?,B,G,0,0,0,0,0,0,0,0
?4,ENQUGOCTMGV,0,OzksbGxsuxb]otmbJXMeKW[e]OT67eKSZeYOZ4gtos,?,B,G,0,0,0,0,0,0,0,0
?4,ENQUGOCTMGV,0,OzksbGxsuxb]otmbJXMeKW[e]OT67eKSZeYOZ4gtos,?,B,G,0,0,0,0,0,0,0,0
