Creature,-6608,,,,,,,,,,,,,,,,
Index,1689166,,,,,,,,,,,,,,,,
Skeleton,\nslaLJSdJVZdHFXd\NSLd5>dRNI3xpjq,,,,,,,,,,,,,,,,
,,,,,,,,,,,,,,,,,
Style,Action,Index,Animation,Start_Inter,End_Inter,TimeLength,Swing,Strike,Timing,Split,Timing2,Freeze,Effect,CancelTime,DefaultAction,Intersect,Through
<,UVCPF,0,OzksbGxsuxb]otmbH]`eMKTeKW[eIGYe]OTMe6?eTUTYZGTJ4gtos,?,B,E,0,0,0,0,0,0,0,0
<,UVCPF,-16376,OzksbGxsuxb]otmbH]`eMKTeKW[eIGYe]OTMe6?eTUTYZGTJ4gtos,?,B,E,0,0,0,0,0,0,0,0
<,UVCPF,-20470,OzksbGxsuxb]otmbH]`eMKTeKW[eIGYe]OTMe6?eTUTYZGTJ4gtos,?,B,E,0,0,0,0,0,0,0,0
<,UVCPF,-24564,OzksbGxsuxb]otmbH]`eMKTeKW[eIGYe]OTMe6?eTUTYZGTJ4gtos,?,B,E,0,0,0,0,0,0,0,0
<,OQXG,0,OzksbGxsuxb]otmbH]`eMKTeKW[eIGYe]OTMe6?eXOJKe]GRQ4gtos,?,B,E,0,0,0,0,0,0,0,0
<,OQXG,-16376,OzksbGxsuxb]otmbH]`eMKTeKW[eIGYe]OTMe6?eXOJKeX[T4gtos,?,B,D,0,0,0,0,0,0,0,0
<,QRGPOCTMGV,0,OzksbGxsuxb]otmbH]`eMKTeKW[eIGYe]OTMe6?eYOZ4gtos,<,B,G,0,0,0,0,0,0,0,0
<,QRGPOCTMGV,-16376,OzksbGxsuxb]otmbH]`eMKTeKW[eIGYe]OTMe6?eYOZ4gtos,<,B,G,0,0,0,0,0,0,0,0
<,ENQUGOCTMGV,0,OzksbGxsuxb]otmbH]`eMKTeKW[eIGYe]OTMe6?eYOZ4gtos,<,B,E,0,0,0,0,0,0,0,0
=,UVCPF,0,OzksbGxsuxb]otmbH]`eMKTeKW[eIGYe]OTMe6?eTUTYZGTJ4gtos,?,B,E,0,0,0,0,0,0,0,0
=,UVCPF,-16376,OzksbGxsuxb]otmbH]`eMKTeKW[eIGYe]OTMe6?eTUTYZGTJ4gtos,?,B,E,0,0,0,0,0,0,0,0
=,OQXG,0,OzksbGxsuxb]otmbH]`eMKTeKW[eIGYe]OTMe6?eXOJKe]GRQ4gtos,?,B,E,0,0,0,0,0,0,0,0
=,OQXG,-16376,OzksbGxsuxb]otmbH]`eMKTeKW[eIGYe]OTMe6?eXOJKeX[T4gtos,?,B,D,0,0,0,0,0,0,0,0
=,QRGPOCTMGV,0,OzksbGxsuxb]otmbH]`eMKTeKW[eIGYe]OTMe6?eYOZ4gtos,<,B,G,0,0,0,0,0,0,0,0
=,QRGPOCTMGV,-16376,OzksbGxsuxb]otmbH]`eMKTeKW[eIGYe]OTMe6?eYOZ4gtos,<,B,G,0,0,0,0,0,0,0,0
=,ENQUGOCTMGV,0,OzksbGxsuxb]otmbH]`eMKTeKW[eIGYe]OTMe6?eYOZ4gtos,<,B,E,0,0,0,0,0,0,0,0
>,UVCPF,0,OzksbGxsuxb]otmbH]`eMKTeKW[eIGYe]OTMe6?eYZGTJ4gtos,?,B,E,0,0,0,0,0,0,0,0
>,UVCPF,-16376,OzksbGxsuxb]otmbH]`eMKTeKW[eIGYe]OTMe6?eYZGTJ4gtos,?,B,E,0,0,0,0,0,0,0,0
>,OQXG,0,OzksbGxsuxb]otmbH]`eMKTeKW[eIGYe]OTMe6?eXOJKe]GRQ4gtos,?,B,E,0,0,0,0,0,0,0,0
>,OQXG,-16376,OzksbGxsuxb]otmbH]`eMKTeKW[eIGYe]OTMe6?eXOJKeX[T4gtos,?,B,D,0,0,0,0,0,0,0,0
>,QRGPOCTMGV,0,OzksbGxsuxb]otmbH]`eMKTeKW[eIGYe]OTMe6?eYOZ4gtos,<,B,G,0,0,0,0,0,0,0,0
>,QRGPOCTMGV,-16376,OzksbGxsuxb]otmbH]`eMKTeKW[eIGYe]OTMe6?eYOZ4gtos,<,B,G,0,0,0,0,0,0,0,0
>,ENQUGOCTMGV,0,OzksbGxsuxb]otmbH]`eMKTeKW[eIGYe]OTMe6?eYOZ4gtos,<,B,E,0,0,0,0,0,0,0,0
>3,UVCPF,0,OzksbGxsuxb]otmbH]`eMKTeKW[eIGYe]OTMe6?eYZGTJ4gtos,?,B,E,0,0,0,0,0,0,0,0
>3,UVCPF,-16376,OzksbGxsuxb]otmbH]`eMKTeKW[eIGYe]OTMe6?eYZGTJ4gtos,?,B,E,0,0,0,0,0,0,0,0
>3,OQXG,0,OzksbGxsuxb]otmbH]`eMKTeKW[eIGYe]OTMe6?eXOJKe]GRQ4gtos,?,B,E,0,0,0,0,0,0,0,0
>3,OQXG,-16376,OzksbGxsuxb]otmbH]`eMKTeKW[eIGYe]OTMe6?eXOJKeX[T4gtos,?,B,D,0,0,0,0,0,0,0,0
>3,QRGPOCTMGV,0,OzksbGxsuxb]otmbH]`eMKTeKW[eIGYe]OTMe6?eYOZ4gtos,<,B,G,0,0,0,0,0,0,0,0
>3,QRGPOCTMGV,-16376,OzksbGxsuxb]otmbH]`eMKTeKW[eIGYe]OTMe6?eYOZ4gtos,<,B,G,0,0,0,0,0,0,0,0
>3,ENQUGOCTMGV,0,OzksbGxsuxb]otmbH]`eMKTeKW[eIGYe]OTMe6?eYOZ4gtos,<,B,E,0,0,0,0,0,0,0,0
>3,HKUJHKIJVKPI,0,OzksbGxsuxb]otmbH]`eMKTeKW[eIGYe]OTMe6?eTUTYZGTJ4gtos,?,B,E,0,0,0,0,0,0,0,0
>3,HKUJHKIJVKPI,-16376,OzksbGxsuxb]otmbH]`eMKTeKW[eIGYe]OTMe6?eTUTYZGTJ4gtos,?,B,E,0,0,0,0,0,0,0,0
>3,QRGPHKUJKPI,0,OzksbGxsuxb]otmbH]`eMKTeKW[eIGYe]OTMe6?eTUTYZGTJ4gtos,?,B,E,0,0,0,0,0,0,0,0
>3,QRGPHKUJKPI,-16376,OzksbGxsuxb]otmbH]`eMKTeKW[eIGYe]OTMe6?eTUTYZGTJ4gtos,?,B,E,0,0,0,0,0,0,0,0
>3,ENQUGHKUJKPI,0,OzksbGxsuxb]otmbH]`eMKTeKW[eIGYe]OTMe6?eTUTYZGTJ4gtos,?,B,E,0,0,0,0,0,0,0,0
>3,ENQUGHKUJKPI,-16376,OzksbGxsuxb]otmbH]`eMKTeKW[eIGYe]OTMe6?eTUTYZGTJ4gtos,?,B,E,0,0,0,0,0,0,0,0
>3,ENQUGHKUJKPI,-20470,OzksbGxsuxb]otmbH]`eMKTeKW[eIGYe]OTMe6?eTUTYZGTJ4gtos,?,B,E,0,0,0,0,0,0,0,0
?1,UVCPF,0,OzksbGxsuxb]otmbH]`eMKTeKW[eIGYe]OTMe6?eYZGTJ4gtos,?,B,E,0,0,0,0,0,0,0,0
?1,UVCPF,-16376,OzksbGxsuxb]otmbH]`eMKTeKW[eIGYe]OTMe6?eYZGTJ4gtos,?,B,E,0,0,0,0,0,0,0,0
?1,OQXG,0,OzksbGxsuxb]otmbH]`eMKTeKW[eIGYe]OTMe6?eXOJKe]GRQ4gtos,?,B,E,0,0,0,0,0,0,0,0
?1,OQXG,-16376,OzksbGxsuxb]otmbH]`eMKTeKW[eIGYe]OTMe6?eXOJKeX[T4gtos,?,B,D,0,0,0,0,0,0,0,0
?1,QRGPOCTMGV,0,OzksbGxsuxb]otmbH]`eMKTeKW[eIGYe]OTMe6?eYOZ4gtos,<,B,G,0,0,0,0,0,0,0,0
?1,QRGPOCTMGV,-16376,OzksbGxsuxb]otmbH]`eMKTeKW[eIGYe]OTMe6?eYOZ4gtos,<,B,G,0,0,0,0,0,0,0,0
?1,ENQUGOCTMGV,0,OzksbGxsuxb]otmbH]`eMKTeKW[eIGYe]OTMe6?eYOZ4gtos,<,B,E,0,0,0,0,0,0,0,0
?1,ENQUGOCTMGV,0,OzksbGxsuxb]otmbH]`eMKTeKW[eIGYe]OTMe6?eYOZ4gtos,<,B,E,0,0,0,0,0,0,0,0
