Creature,WINGRIDER,,,,,,,,,,,,,,
Index,54327,,,,,,,,,,,,,,
Skeleton,Wing\GEN_EQU_CAS_101_SMA.skel,,,,,,,,,,,,,,
,,,,,,,,,,,,,,,
Style,Action,Index,Animation,Start_Inter,End_Inter,TimeLength,Swing,Strike,Timing,Split,Timing2,Freeze,Effect,CancelTime,DefaultAction
0,STAND,0,Item\Armor\Wing\GEN_EQU_CAS_101_SMA_ANI_01.anim,5,1,3,0,0,0,0,0,0,0,0,1
0,STAND,1,Item\Armor\Wing\GEN_EQU_CAS_101_SMA_ANI_01.anim,5,1,3,0,0,0,0,0,0,0,0,1
0,STAND,2,Item\Armor\Wing\GEN_EQU_CAS_101_SMA_ANI_01.anim,5,1,3,0,0,0,0,0,0,0,0,1
0,STAND,3,Item\Armor\Wing\GEN_EQU_CAS_101_SMA_ANI_01.anim,5,1,3,0,0,0,0,0,0,0,0,1
0,MOVE,0,Item\Armor\Wing\GEN_EQU_CAS_101_SMA_ANI_01.anim,5,1,1,0,0,0,0,0,0,0,0,1
0,MOVE,1,Item\Armor\Wing\GEN_EQU_CAS_101_SMA_ANI_01.anim,5,1,1,0,0,0,0,0,0,0,0,1
0,OPENMARKET,0,Item\Armor\Wing\GEN_EQU_CAS_101_SMA_ANI_01.anim,1,1,1.5,0,0,0,0,0,0,0,0,1
0,OPENMARKET,1,Item\Armor\Wing\GEN_EQU_CAS_101_SMA_ANI_01.anim,1,1,1.5,0,0,0,0,0,0,0,0,1
0,CLOSEMARKET,0,Item\Armor\Wing\GEN_EQU_CAS_101_SMA_ANI_01.anim,1,1,1.5,0,0,0,0,0,0,0,0,1
1,STAND,0,Item\Armor\Wing\GEN_EQU_CAS_101_SMA_ANI_01.anim,5,1,2,0,0,0,0,0,0,0,0,1
1,STAND,1,Item\Armor\Wing\GEN_EQU_CAS_101_SMA_ANI_01.anim,5,1,4,0,0,0,0,0,0,0,0,1
1,MOVE,0,Item\Armor\Wing\GEN_EQU_CAS_101_SMA_ANI_01.anim,5,1,1,0,0,0,0,0,0,0,0,1
1,MOVE,1,Item\Armor\Wing\GEN_EQU_CAS_101_SMA_ANI_01.anim,5,1,1,0,0,0,0,0,0,0,0,1
1,OPENMARKET,0,Item\Armor\Wing\GEN_EQU_CAS_101_SMA_ANI_01.anim,1,1,1.5,0,0,0,0,0,0,0,0,1
1,OPENMARKET,1,Item\Armor\Wing\GEN_EQU_CAS_101_SMA_ANI_01.anim,1,1,1.5,0,0,0,0,0,0,0,0,1
1,CLOSEMARKET,0,Item\Armor\Wing\GEN_EQU_CAS_101_SMA_ANI_01.anim,1,1,1.5,0,0,0,0,0,0,0,0,1
2,STAND,0,Item\Armor\Wing\GEN_EQU_CAS_101_SMA_ANI_01.anim,5,1,1,0,0,0,0,0,0,0,0,1
2,STAND,1,Item\Armor\Wing\GEN_EQU_CAS_101_SMA_ANI_01.anim,5,1,4.1,0,0,0,0,0,0,0,0,1
2,MOVE,0,Item\Armor\Wing\GEN_EQU_CAS_101_SMA_ANI_01.anim,5,1,1,0,0,0,0,0,0,0,0,1
2,MOVE,1,Item\Armor\Wing\GEN_EQU_CAS_101_SMA_ANI_01.anim,5,1,1,0,0,0,0,0,0,0,0,1
2,OPENMARKET,0,Item\Armor\Wing\GEN_EQU_CAS_101_SMA_ANI_01.anim,1,1,1.5,0,0,0,0,0,0,0,0,1
2,OPENMARKET,1,Item\Armor\Wing\GEN_EQU_CAS_101_SMA_ANI_01.anim,1,1,1.5,0,0,0,0,0,0,0,0,1
2,CLOSEMARKET,0,Item\Armor\Wing\GEN_EQU_CAS_101_SMA_ANI_01.anim,1,1,1.5,0,0,0,0,0,0,0,0,1
29,STAND,0,Item\Armor\Wing\GEN_EQU_CAS_101_SMA_ANI_01.anim,5,1,1,0,0,0,0,0,0,0,0,1
29,STAND,1,Item\Armor\Wing\GEN_EQU_CAS_101_SMA_ANI_01.anim,5,1,4.1,0,0,0,0,0,0,0,0,1
29,MOVE,0,Item\Armor\Wing\GEN_EQU_CAS_101_SMA_ANI_01.anim,5,1,1,0,0,0,0,0,0,0,0,1
29,MOVE,1,Item\Armor\Wing\GEN_EQU_CAS_101_SMA_ANI_01.anim,5,1,1,0,0,0,0,0,0,0,0,1
29,OPENMARKET,0,Item\Armor\Wing\GEN_EQU_CAS_101_SMA_ANI_01.anim,1,1,1.5,0,0,0,0,0,0,0,0,1
29,OPENMARKET,1,Item\Armor\Wing\GEN_EQU_CAS_101_SMA_ANI_01.anim,1,1,1.5,0,0,0,0,0,0,0,0,1
29,CLOSEMARKET,0,Item\Armor\Wing\GEN_EQU_CAS_101_SMA_ANI_01.anim,1,1,1.5,0,0,0,0,0,0,0,0,1
23,STAND,0,Item\Armor\Wing\GEN_EQU_CAS_101_SMA_ANI_01.anim,5,1,2,0,0,0,0,0,0,0,0,1
23,STAND,1,Item\Armor\Wing\GEN_EQU_CAS_101_SMA_ANI_01.anim,5,1,2,0,0,0,0,0,0,0,0,1
23,MOVE,0,Item\Armor\Wing\GEN_EQU_CAS_101_SMA_ANI_01.anim,5,1,1,0,0,0,0,0,0,0,0,1
23,MOVE,1,Item\Armor\Wing\GEN_EQU_CAS_101_SMA_ANI_01.anim,5,1,1,0,0,0,0,0,0,0,0,1
23,OPENMARKET,0,Item\Armor\Wing\GEN_EQU_CAS_101_SMA_ANI_01.anim,1,1,1.5,0,0,0,0,0,0,0,0,1
23,OPENMARKET,1,Item\Armor\Wing\GEN_EQU_CAS_101_SMA_ANI_01.anim,1,1,1.5,0,0,0,0,0,0,0,0,1
23,CLOSEMARKET,0,Item\Armor\Wing\GEN_EQU_CAS_101_SMA_ANI_01.anim,1,1,1.5,0,0,0,0,0,0,0,0,1
23,OPENFISHING,0,Item\Armor\Wing\GEN_EQU_CAS_101_SMA_ANI_01.anim,4,1,2,0,0,0,0,0,0,0,0,1
23,OPENFISHING,1,Item\Armor\Wing\GEN_EQU_CAS_101_SMA_ANI_01.anim,4,1,2,0,0,0,0,0,0,0,0,1
23,CLOSEFISHING,0,Item\Armor\Wing\GEN_EQU_CAS_101_SMA_ANI_01.anim,4,1,4,0,0,0,0,0,0,0,0,1
23,CLOSEFISHING,1,Item\Armor\Wing\GEN_EQU_CAS_101_SMA_ANI_01.anim,4,1,3,0,0,0,0,0,0,0,0,1
23,CLOSEFISHING,2,Item\Armor\Wing\GEN_EQU_CAS_101_SMA_ANI_01.anim,4,1,3,0,0,0,0,0,0,0,0,1
23,FISHFIGHTING,0,Item\Armor\Wing\GEN_EQU_CAS_101_SMA_ANI_01.anim,1,1,1,0,0,0,0,0,0,0,0,1
23,FISHFIGHTING,1,Item\Armor\Wing\GEN_EQU_CAS_101_SMA_ANI_01.anim,1,1,1,0,0,0,0,0,0,0,0,1
