Creature,WINGRIDER,,,,,,,,,,,,,,
Index,54341,,,,,,,,,,,,,,
Skeleton,Wing\FAFNIR_WING_mid.skel,,,,,,,,,,,,,,
,,,,,,,,,,,,,,,
Style,Action,Index,Animation,Start_Inter,End_Inter,TimeLength,Swing,Strike,Timing,Split,Timing2,Freeze,Effect,CancelTime,DefaultAction
0,STAND,0,Item\Armor\Wing\SUM_EQU_FAFNIR_WING_NONSTAND.anim,4,1,2,0,0,0,0,0,0,0,0,1
0,STAND,1,Item\Armor\Wing\SUM_EQU_FAFNIR_WING_NONSTAND.anim,4,1,2,0,0,0,0,0,0,0,0,1
0,STAND,2,Item\Armor\Wing\SUM_EQU_FAFNIR_WING_NONSTAND.anim,4,1,2,0,0,0,0,0,0,0,0,1
0,STAND,3,Item\Armor\Wing\SUM_EQU_FAFNIR_WING_NONSTAND.anim,4,1,2,0,0,0,0,0,0,0,0,1
0,MOVE,0,Item\Armor\Wing\SUM_EQU_FAFNIR_WING_NONWALK.anim,4,1,1,0,0,0,0,0,0,0,0,1
0,MOVE,1,Item\Armor\Wing\SUM_EQU_FAFNIR_WING_RIDRUN.anim,4,1,1,0,0,0,0,0,0,0,0,1
0,OPENMARKET,0,Item\Armor\Wing\SUM_EQU_FAFNIR_WING_SIT.anim,4,1,4,0,0,0,0,0,0,0,0,1
0,OPENMARKET,1,Item\Armor\Wing\SUM_EQU_FAFNIR_WING_SIT.anim,4,1,4,0,0,0,0,0,0,0,0,1
0,CLOSEMARKET,0,Item\Armor\Wing\SUM_EQU_FAFNIR_WING_SIT.anim,4,1,4,0,0,0,0,0,0,0,0,1
1,STAND,0,Item\Armor\Wing\SUM_EQU_FAFNIR_WING_NONSTAND.anim,4,1,2,0,0,0,0,0,0,0,0,1
1,STAND,1,Item\Armor\Wing\SUM_EQU_FAFNIR_WING_NONSTAND.anim,4,1,2,0,0,0,0,0,0,0,0,1
1,MOVE,0,Item\Armor\Wing\SUM_EQU_FAFNIR_WING_NONWALK.anim,4,1,1,0,0,0,0,0,0,0,0,1
1,MOVE,1,Item\Armor\Wing\SUM_EQU_FAFNIR_WING_RIDRUN.anim,4,1,1,0,0,0,0,0,0,0,0,1
1,OPENMARKET,0,Item\Armor\Wing\SUM_EQU_FAFNIR_WING_SIT.anim,4,1,4,0,0,0,0,0,0,0,0,1
1,OPENMARKET,1,Item\Armor\Wing\SUM_EQU_FAFNIR_WING_SIT.anim,4,1,4,0,0,0,0,0,0,0,0,1
1,CLOSEMARKET,0,Item\Armor\Wing\SUM_EQU_FAFNIR_WING_SIT.anim,4,1,4,0,0,0,0,0,0,0,0,1
2,STAND,0,Item\Armor\Wing\SUM_EQU_FAFNIR_WING_NONSTAND.anim,4,1,2,0,0,0,0,0,0,0,0,1
2,STAND,1,Item\Armor\Wing\SUM_EQU_FAFNIR_WING_NONSTAND.anim,4,1,2,0,0,0,0,0,0,0,0,1
2,MOVE,0,Item\Armor\Wing\SUM_EQU_FAFNIR_WING_NONWALK.anim,4,1,1,0,0,0,0,0,0,0,0,1
2,MOVE,1,Item\Armor\Wing\SUM_EQU_FAFNIR_WING_RIDRUN.anim,4,1,1,0,0,0,0,0,0,0,0,1
2,OPENMARKET,0,Item\Armor\Wing\SUM_EQU_FAFNIR_WING_SIT.anim,4,1,4,0,0,0,0,0,0,0,0,1
2,OPENMARKET,1,Item\Armor\Wing\SUM_EQU_FAFNIR_WING_SIT.anim,4,1,4,0,0,0,0,0,0,0,0,1
2,CLOSEMARKET,0,Item\Armor\Wing\SUM_EQU_FAFNIR_WING_SIT.anim,4,1,4,0,0,0,0,0,0,0,0,1
9,STAND,0,Item\Armor\Wing\SUM_EQU_FAFNIR_WING_STFSTAND.anim,4,1,2,0,0,0,0,0,0,0,0,1
9,STAND,1,Item\Armor\Wing\SUM_EQU_FAFNIR_WING_STFSTAND.anim,4,1,2,0,0,0,0,0,0,0,0,1
9,MOVE,0,Item\Armor\Wing\SUM_EQU_FAFNIR_WING_STFWALK.anim,4,1,1,0,0,0,0,0,0,0,0,1
9,MOVE,1,Item\Armor\Wing\SUM_EQU_FAFNIR_WING_RIDRUN.anim,4,1,1,0,0,0,0,0,0,0,0,1
9,OPENMARKET,0,Item\Armor\Wing\SUM_EQU_FAFNIR_WING_SIT.anim,4,1,4,0,0,0,0,0,0,0,0,1
9,OPENMARKET,1,Item\Armor\Wing\SUM_EQU_FAFNIR_WING_SIT.anim,4,1,4,0,0,0,0,0,0,0,0,1
9,CLOSEMARKET,0,Item\Armor\Wing\SUM_EQU_FAFNIR_WING_SIT.anim,4,1,4,0,0,0,0,0,0,0,0,1
21,STAND,0,Item\Armor\Wing\SUM_EQU_FAFNIR_WING_DULSTAND.anim,4,1,2,0,0,0,0,0,0,0,0,1
21,STAND,1,Item\Armor\Wing\SUM_EQU_FAFNIR_WING_DULSTAND.anim,4,1,2,0,0,0,0,0,0,0,0,1
21,MOVE,0,Item\Armor\Wing\SUM_EQU_FAFNIR_WING_DULWALK.anim,4,1,1,0,0,0,0,0,0,0,0,1
21,MOVE,1,Item\Armor\Wing\SUM_EQU_FAFNIR_WING_RIDRUN.anim,4,1,1,0,0,0,0,0,0,0,0,1
21,OPENMARKET,0,Item\Armor\Wing\SUM_EQU_FAFNIR_WING_SIT.anim,4,1,4,0,0,0,0,0,0,0,0,1
21,OPENMARKET,1,Item\Armor\Wing\SUM_EQU_FAFNIR_WING_SIT.anim,4,1,4,0,0,0,0,0,0,0,0,1
21,CLOSEMARKET,0,Item\Armor\Wing\SUM_EQU_FAFNIR_WING_SIT.anim,4,1,4,0,0,0,0,0,0,0,0,1
23,STAND,0,Item\Armor\Wing\SUM_EQU_FAFNIR_WING_NONSTAND.anim,4,1,2,0,0,0,0,0,0,0,0,1
23,STAND,1,Item\Armor\Wing\SUM_EQU_FAFNIR_WING_NONSTAND.anim,4,1,2,0,0,0,0,0,0,0,0,1
23,MOVE,0,Item\Armor\Wing\SUM_EQU_FAFNIR_WING_NONWALK.anim,4,1,1,0,0,0,0,0,0,0,0,1
23,MOVE,1,Item\Armor\Wing\SUM_EQU_FAFNIR_WING_RIDRUN.anim,4,1,1,0,0,0,0,0,0,0,0,1
23,OPENMARKET,0,Item\Armor\Wing\SUM_EQU_FAFNIR_WING_SIT.anim,4,1,4,0,0,0,0,0,0,0,0,1
23,OPENMARKET,1,Item\Armor\Wing\SUM_EQU_FAFNIR_WING_SIT.anim,4,1,4,0,0,0,0,0,0,0,0,1
23,CLOSEMARKET,0,Item\Armor\Wing\SUM_EQU_FAFNIR_WING_SIT.anim,4,1,4,0,0,0,0,0,0,0,0,1
23,OPENFISHING,0,Item\Armor\Wing\SUM_EQU_FAFNIR_WING_NONSTAND.anim,4,1,2,0,0,0,0,0,0,0,0,1
23,OPENFISHING,1,Item\Armor\Wing\SUM_EQU_FAFNIR_WING_NONSTAND.anim,4,1,2,0,0,0,0,0,0,0,0,1
23,CLOSEFISHING,0,Item\Armor\Wing\SUM_EQU_FAFNIR_WING_NONSTAND.anim,4,1,2,0,0,0,0,0,0,0,0,1
23,CLOSEFISHING,1,Item\Armor\Wing\SUM_EQU_FAFNIR_WING_NONSTAND.anim,4,1,2,0,0,0,0,0,0,0,0,1
23,CLOSEFISHING,2,Item\Armor\Wing\SUM_EQU_FAFNIR_WING_NONSTAND.anim,4,1,2,0,0,0,0,0,0,0,0,1
23,FISHFIGHTING,0,Item\Armor\Wing\SUM_EQU_FAFNIR_WING_NONSTAND.anim,4,1,2,0,0,0,0,0,0,0,0,1
23,FISHFIGHTING,1,Item\Armor\Wing\SUM_EQU_FAFNIR_WING_NONSTAND.anim,4,1,2,0,0,0,0,0,0,0,0,1
