Creature,WINGRIDER,,,,,,,,,,,,,,
Index,54020,,,,,,,,,,,,,,
Skeleton,Wing\DRG_EQU_WIN.skel,,,,,,,,,,,,,,
,,,,,,,,,,,,,,,
Style,Action,Index,Animation,Start_Inter,End_Inter,TimeLength,Swing,Strike,Timing,Split,Timing2,Freeze,Effect,CancelTime,DefaultAction
0,STAND,0,Item\Armor\Wing\drg_equ_win_non_stand.anim,4,1,2,0,0,0,0,0,0,0,0,1
0,STAND,1,Item\Armor\Wing\drg_equ_win_non_stand.anim,4,1,2,0,0,0,0,0,0,0,0,1
0,STAND,2,Item\Armor\Wing\drg_equ_win_non_stand.anim,4,1,2,0,0,0,0,0,0,0,0,1
0,STAND,3,Item\Armor\Wing\drg_equ_win_non_stand.anim,4,1,2,0,0,0,0,0,0,0,0,1
0,MOVE,0,Item\Armor\Wing\drg_equ_win_non_walk.anim,4,1,1,0,0,0,0,0,0,0,0,1
0,MOVE,1,Item\Armor\Wing\drg_equ_win_non_run.anim,4,1,0.9,0,0,0,0,0,0,0,0,1
0,OPENMARKET,0,Item\Armor\Wing\drg_equ_win_emt_sitdown.anim,4,1,3,0,0,0,0,0,0,0,0,1
0,OPENMARKET,1,Item\Armor\Wing\drg_equ_win_emt_sitdown.anim,4,1,3,0,0,0,0,0,0,0,0,1
0,CLOSEMARKET,0,Item\Armor\Wing\drg_equ_win_emt_sitdown.anim,4,1,3,0,0,0,0,0,0,0,0,1
1,STAND,0,Item\Armor\Wing\drg_equ_win_non_stand.anim,4,1,2,0,0,0,0,0,0,0,0,1
1,STAND,1,Item\Armor\Wing\drg_equ_win_non_stand.anim,4,1,2,0,0,0,0,0,0,0,0,1
1,MOVE,0,Item\Armor\Wing\drg_equ_win_non_walk.anim,4,1,1,0,0,0,0,0,0,0,0,1
1,MOVE,1,Item\Armor\Wing\drg_equ_win_non_run.anim,4,1,0.9,0,0,0,0,0,0,0,0,1
1,OPENMARKET,0,Item\Armor\Wing\drg_equ_win_emt_sitdown.anim,4,1,3,0,0,0,0,0,0,0,0,1
1,OPENMARKET,1,Item\Armor\Wing\drg_equ_win_emt_sitdown.anim,4,1,3,0,0,0,0,0,0,0,0,1
1,CLOSEMARKET,0,Item\Armor\Wing\drg_equ_win_emt_sitdown.anim,4,1,3,0,0,0,0,0,0,0,0,1
2,STAND,0,Item\Armor\Wing\drg_equ_win_ssw_stand.anim,4,1,2,0,0,0,0,0,0,0,0,1
2,STAND,1,Item\Armor\Wing\drg_equ_win_ssw_stand.anim,4,1,2,0,0,0,0,0,0,0,0,1
2,MOVE,0,Item\Armor\Wing\drg_equ_win_non_walk.anim,4,1,1,0,0,0,0,0,0,0,0,1
2,MOVE,1,Item\Armor\Wing\drg_equ_win_non_run.anim,4,1,0.9,0,0,0,0,0,0,0,0,1
2,OPENMARKET,0,Item\Armor\Wing\drg_equ_win_emt_sitdown.anim,4,1,3,0,0,0,0,0,0,0,0,1
2,OPENMARKET,1,Item\Armor\Wing\drg_equ_win_emt_sitdown.anim,4,1,3,0,0,0,0,0,0,0,0,1
2,CLOSEMARKET,0,Item\Armor\Wing\drg_equ_win_emt_sitdown.anim,4,1,3,0,0,0,0,0,0,0,0,1
34,STAND,0,Item\Armor\Wing\drg_equ_win_sfc_stand.anim,4,1,2,0,0,0,0,0,0,0,0,1
34,STAND,1,Item\Armor\Wing\drg_equ_win_sfc_stand.anim,4,1,2,0,0,0,0,0,0,0,0,1
34,MOVE,0,Item\Armor\Wing\drg_equ_win_sfc_walk.anim,4,1,1,0,0,0,0,0,0,0,0,1
34,MOVE,1,Item\Armor\Wing\drg_equ_win_sfc_run.anim,4,1,0.9,0,0,0,0,0,0,0,0,1
34,OPENMARKET,0,Item\Armor\Wing\drg_equ_win_emt_sitdown.anim,4,1,3,0,0,0,0,0,0,0,0,1
34,OPENMARKET,1,Item\Armor\Wing\drg_equ_win_emt_sitdown.anim,4,1,3,0,0,0,0,0,0,0,0,1
34,CLOSEMARKET,0,Item\Armor\Wing\drg_equ_win_emt_sitdown.anim,4,1,3,0,0,0,0,0,0,0,0,1
23,STAND,0,Item\Armor\Wing\drg_equ_win_non_stand.anim,4,1,2,0,0,0,0,0,0,0,0,1
23,STAND,1,Item\Armor\Wing\drg_equ_win_non_stand.anim,4,1,2,0,0,0,0,0,0,0,0,1
23,MOVE,0,Item\Armor\Wing\drg_equ_win_non_walk.anim,4,1,1,0,0,0,0,0,0,0,0,1
23,MOVE,1,Item\Armor\Wing\drg_equ_win_non_run.anim,4,1,0.9,0,0,0,0,0,0,0,0,1
23,OPENMARKET,0,Item\Armor\Wing\drg_equ_win_emt_sitdown.anim,4,1,3,0,0,0,0,0,0,0,0,1
23,OPENMARKET,1,Item\Armor\Wing\drg_equ_win_emt_sitdown.anim,4,1,3,0,0,0,0,0,0,0,0,1
23,CLOSEMARKET,0,Item\Armor\Wing\drg_equ_win_emt_sitdown.anim,4,1,3,0,0,0,0,0,0,0,0,1
23,OPENFISHING,0,Item\Armor\Wing\drg_equ_win_non_stand.anim,4,1,2,0,0,0,0,0,0,0,0,1
23,OPENFISHING,1,Item\Armor\Wing\drg_equ_win_non_stand.anim,4,1,2,0,0,0,0,0,0,0,0,1
23,CLOSEFISHING,0,Item\Armor\Wing\drg_equ_win_non_stand.anim,4,1,2,0,0,0,0,0,0,0,0,1
23,CLOSEFISHING,1,Item\Armor\Wing\drg_equ_win_non_stand.anim,4,1,2,0,0,0,0,0,0,0,0,1
23,CLOSEFISHING,2,Item\Armor\Wing\drg_equ_win_non_stand.anim,4,1,2,0,0,0,0,0,0,0,0,1
23,FISHFIGHTING,0,Item\Armor\Wing\drg_equ_win_non_stand.anim,4,1,2,0,0,0,0,0,0,0,0,1
23,FISHFIGHTING,1,Item\Armor\Wing\drg_equ_win_non_stand.anim,4,1,2,0,0,0,0,0,0,0,0,1
