Index,Level Cap Start,Level Cap End,Exp Rate,Chaotic Rate,BLOCKING,BLOCKED,Color_R,Color_G,Color_B
1,24,230,40,0,0,1,255,51,0
2,23,24,44,0,0,1,255,51,0
3,22,23,48,0,0,1,255,51,0
4,21,22,52,0,0,1,255,51,0
5,20,21,56,0,0,1,255,51,0
6,19,20,60,0,0,1,255,51,0
7,18,19,64,0,0,1,255,51,0
8,17,18,68,0,0,1,255,51,0
9,16,17,72,0,0,1,255,51,0
10,15,16,76,0,0,1,255,51,0
11,14,15,80,0,0,1,255,51,0
12,13,14,84,0,0,1,255,51,0
13,12,13,88,0,0,1,255,51,0
14,11,12,92,0,0,1,255,51,0
15,10,11,96,0,0,1,255,51,0
16,9,10,100,0,0,1,255,51,0
17,8,9,100,0,0,1,255,51,0
18,7,8,100,0,1,1,255,51,0
19,6,7,100,0,1,1,255,51,0
20,5,6,100,0,1,1,255,51,0
21,4,5,100,100,1,1,255,51,0
22,3,4,100,100,1,1,255,255,255
23,2,3,100,100,1,1,255,255,255
24,1,2,100,100,1,1,255,255,255
25,0,1,100,100,1,1,255,255,255
26,-1,0,100,100,1,1,255,255,255
27,-2,-1,100,100,1,1,255,255,255
28,-3,-2,100,100,1,1,255,255,255
29,-4,-3,100,100,1,1,255,255,255
30,-5,-4,100,100,1,1,255,255,255
31,-6,-5,96,0,1,1,255,255,255
32,-7,-6,92,0,1,1,0,255,0
33,-8,-7,88,0,1,0,0,255,0
34,-9,-8,84,0,1,0,0,255,0
35,-10,-9,80,0,1,0,0,255,0
36,-11,-10,76,0,1,0,0,255,0
37,-12,-11,72,0,1,0,0,255,0
38,-13,-12,68,0,1,0,0,255,0
39,-14,-13,64,0,1,0,0,255,0
40,-15,-14,60,0,1,0,0,255,0
41,-16,-15,56,0,1,0,0,255,0
42,-17,-16,52,0,1,0,0,255,0
43,-18,-17,48,0,1,0,0,255,0
44,-19,-18,44,0,1,0,0,255,0
45,-20,-19,40,0,1,0,0,255,0
46,-21,-20,36,0,1,0,0,255,0
47,-22,-21,32,0,1,0,0,255,0
48,-23,-22,28,0,1,0,0,255,0
49,-24,-23,24,0,1,0,0,255,0
50,-230,-24,20,0,1,0,0,255,0
