Index,Level Cap Start,Level Cap End,Exp Rate,Chaotic Rate,BLOCKING,BLOCKED,Color_R,Color_G,Color_B
1,25,230,50,0,0,1,255,51,0
2,24,25,52,0,0,1,255,51,0
3,23,24,54,0,0,1,255,51,0
4,22,23,56,0,0,1,255,51,0
5,21,22,58,0,0,1,255,51,0
6,20,21,60,0,0,1,255,51,0
7,19,20,62,0,0,1,255,51,0
8,18,19,64,0,0,1,255,51,0
9,17,18,66,0,0,1,255,51,0
10,16,17,68,0,0,1,255,51,0
11,15,16,70,0,0,1,255,51,0
12,14,15,72,0,0,1,255,51,0
13,13,14,74,0,0,1,255,51,0
14,12,13,76,0,0,1,255,51,0
15,11,12,78,0,0,1,255,51,0
16,10,11,80,0,0,1,255,51,0
17,9,10,82,0,0,1,255,51,0
18,8,9,84,0,0,1,255,51,0
19,7,8,86,0,1,1,255,51,0
20,6,7,88,0,1,1,255,51,0
21,5,6,90,0,1,1,255,51,0
22,4,5,92,100,1,1,255,51,0
23,3,4,94,100,1,1,255,255,255
24,2,3,96,100,1,1,255,255,255
25,1,2,98,100,1,1,255,255,255
26,0,1,100,100,1,1,255,255,255
27,-1,0,102,100,1,1,255,255,255
28,-2,-1,104,100,1,1,255,255,255
29,-3,-2,106,100,1,1,255,255,255
30,-4,-3,108,100,1,1,255,255,255
31,-5,-4,110,100,1,1,255,255,255
32,-6,-5,112,0,1,1,255,255,255
33,-7,-6,114,0,1,1,0,255,0
34,-8,-7,116,0,1,0,0,255,0
35,-9,-8,118,0,1,0,0,255,0
36,-10,-9,120,0,1,0,0,255,0
37,-11,-10,122,0,1,0,0,255,0
38,-12,-11,124,0,1,0,0,255,0
39,-13,-12,126,0,1,0,0,255,0
40,-14,-13,128,0,1,0,0,255,0
41,-15,-14,130,0,1,0,0,255,0
42,-16,-15,132,0,1,0,0,255,0
43,-17,-16,134,0,1,0,0,255,0
44,-18,-17,136,0,1,0,0,255,0
45,-19,-18,138,0,1,0,0,255,0
46,-20,-19,140,0,1,0,0,255,0
47,-230,-20,142,0,1,0,0,255,0
