Index,Level Cap Start,Level Cap End,Exp Rate,Chaotic Rate,BLOCKING,BLOCKED,Color_R,Color_G,Color_B
1,24,230,58,0,1,0,255,51,0
2,23,24,60,0,1,0,255,51,0
3,22,23,62,0,1,0,255,51,0
4,21,22,64,0,1,0,255,51,0
5,20,21,66,0,1,0,255,51,0
6,19,20,68,0,1,0,255,51,0
7,18,19,70,0,1,0,255,51,0
8,17,18,72,0,1,0,255,51,0
9,16,17,74,0,1,0,255,51,0
10,15,16,76,0,1,0,255,51,0
11,14,15,78,0,1,0,255,51,0
12,13,14,80,0,1,0,255,51,0
13,12,13,82,0,1,0,255,51,0
14,11,12,84,0,1,0,255,51,0
15,10,11,86,0,1,0,255,51,0
16,9,10,88,0,1,0,255,51,0
17,8,9,90,0,1,0,255,51,0
18,7,8,92,0,1,0,255,51,0
19,6,7,94,0,1,1,255,51,0
20,5,6,96,100,1,1,255,51,0
21,4,5,98,100,1,1,255,51,0
22,0,4,100,100,1,1,255,51,0
23,-4,0,100,100,1,1,255,51,0
24,-5,-4,97,100,0,1,255,51,0
25,-6,-5,94,100,0,1,255,255,255
26,-7,-6,91,100,0,1,255,255,255
27,-8,-7,88,100,0,1,255,255,255
28,-9,-8,85,0,0,1,255,255,255
29,-10,-9,82,0,0,1,255,255,255
30,-11,-10,79,0,0,1,255,255,255
31,-12,-11,76,0,0,1,0,255,0
32,-13,-12,73,0,0,1,0,255,0
33,-14,-13,70,0,0,1,0,255,0
34,-15,-14,67,0,0,1,0,255,0
35,-16,-15,64,0,0,1,0,255,0
36,-17,-16,61,0,0,1,0,255,0
37,-18,-17,58,0,0,1,0,255,0
38,-19,-18,55,0,0,1,0,255,0
39,-20,-19,52,0,0,1,0,255,0
40,-21,-20,49,0,0,1,0,255,0
41,-22,-21,46,0,0,1,0,255,0
42,-23,-22,43,0,0,1,0,255,0
43,-230,-23,40,0,0,1,0,255,0
