Code,Grade,InvalidIndex,ValidIndex
 PANTS,1,819,31006
 PANTS,1,820,31006
 PANTS,1,821,31006
 PANTS,1,822,31006
 PANTS,1,823,31006
 PANTS,1,824,31006
 PANTS,1,825,31007
 PANTS,1,826,31007
 PANTS,1,827,31007
 PANTS,1,828,31007
 PANTS,1,1019,31206
 PANTS,1,1020,31206
 PANTS,1,1021,31206
 PANTS,1,1022,31206
 PANTS,1,1023,31206
 PANTS,1,1024,31206
 PANTS,1,1025,31206
 PANTS,1,1026,31207
 PANTS,1,1027,31207
 PANTS,1,1028,31207
 PANTS,1,1219,31406
 PANTS,1,1220,31406
 PANTS,1,1221,31408
 PANTS,1,1222,31406
 PANTS,1,1223,31408
 PANTS,1,1224,31406
 PANTS,1,1225,31407
 PANTS,1,1226,31406
 PANTS,1,1227,31406
 PANTS,1,1228,31406
 PANTS,1,1647,31408
 PANTS,1,1648,31408
 BOOTS,1,1419,31601
 BOOTS,1,1420,31603
 BOOTS,1,1421,31601
 BOOTS,1,1422,31603
 BOOTS,1,1423,31601
 BOOTS,1,1424,31603
 BOOTS,1,1425,31601
 BOOTS,1,1426,31604
 BOOTS,1,1427,31602
 BOOTS,1,1428,31605
 BOOTS,1,1563,31801
 BOOTS,1,1564,31802
 BOOTS,1,1565,31803
 BOOTS,1,1566,31804
 BOOTS,1,1567,31805
 BOOTS,1,1568,31801
 BOOTS,1,1678,31603
 BOOTS,1,1724,32001
 BOOTS,1,1725,32001
 BOOTS,1,1726,32001
 BOOTS,1,1727,32003
 BOOTS,1,1728,32002
 BOOTS,1,1895,32001
 BOOTS,1,1896,32004
 BOOTS,1,1897,32004
 BOOTS,1,1898,32004
 BOOTS,1,1899,32004
 BOOTS,1,1900,32004
 GLOVES,1,1895,32201
 GLOVES,1,1896,32202
 GLOVES,1,1897,32203
 GLOVES,1,1898,32204
 GLOVES,1,1899,32205
 GLOVES,1,1900,32206
