DK Defence,,,,,,,,,,,,,,,,,,,,,,,,,,,,,,,,,,,,,,,,,,,,,,,,,,,,,,,,,,,,,,,,,,,,,,,,,,,,,,,,,,,,,,,,,,,,,,,,,,,,,,,
셀을 추가하거나 삭제하지 말것!,,,,,DK 가중치,,,,,,,DK 가중치,,,,,,,DK 가중치,,,,,,,DK 가중치,,,,,,,DK 가중치,,,,,,,DK 가중치,,,,,,,,,,,,,,,,,,,,,,,,,,,,DK 가중치,,,,,,,DK 가중치,,,,,,,DK 가중치,,,,,,,,,,,,,,,,,,,,,
,,,,,2,,,,,,,2,,,,,,,2,,,,,,,2,,,,,,,2,,,,,,,2,,,,,,,,,,,,,,,,,,,,,,,,,,,,2,,,,,,,2,,,,,,,2,,,,,,,,,,,,,,,,,,,,,
,,Magic Pants,Level,Magic Pants MIN,Magic Pants Max,,,,Noble Pants,Level,Noble Pants MIN,Noble Pants Max,,,,Divine Noble Pants,Level,Divine Noble Pants MIN,Divine Noble Pants Max,,,,Magic Boots,,Magic BootsMIN,Magic BootsMax,,,,Noble Boots,Level,Noble BootsMIN,Noble BootsMax,,,,Divine Noble Boots,Level,Divine Noble BootsMIN,Divine Noble BootsMax,,,,Magic Gloves,,Magic Gloves MIN,Magic Gloves Max,,,,Noble Gloves,Level,Noble Gloves MIN,Noble Gloves Max,,,,Divine Noble Gloves,Level,Divine Noble Gloves MIN,Divine Noble Gloves Max,,,,Magic Armor,,Magic Armor MIN,Magic Armor Max,,,,Noble Armor,Level,Noble Armor MIN,Noble Armor Max,,,,Divine Noble Armor,Level,Divine Noble Armor MIN,Divine Noble Armor Max,,,,Magic Helmet,,Magic Helmet MIN,Magic Helmet Max,,,,Noble Helmet,Level,Noble Helmet MIN,Noble Helmet Max,,,,Divine Noble Helmet,Level,Divine Noble Helmet MIN,Divine Noble Helmet Max
2101,,1,140,Min,Max,,2121,,1,140,Min,Max,,2141,,1,140,Min,Max,,2161,,1,140,Min,Max,,2181,,1,140,Min,Max,,2201,,1,140,Min,Max,,2221,,1,140,Min,Max,,2241,,1,140,Min,Max,,2261,,1,140,Min,Max,,2281,,1,140,Min,Max,,2301,,1,140,Min,Max,,2321,,1,140,Min,Max,,2341,,1,140,Min,Max,,2361,,1,140,Min,Max,,2381,,1,140,Min,Max
31001,197,PC_DAMAGE_FIRERESIST_ADD,DK Fire Resistance Bonus,130,174,,31201,197,PC_DAMAGE_FIRERESIST_ADD,DK Fire Resistance Bonus,174,216,,31401,197,PC_DAMAGE_FIRERESIST_ADD,DK Fire Resistance Bonus,216,260,,31601,195,PC_DAMAGE_ARMOR_ADD,DK Defense Bonus,116,142,,31801,195,PC_DAMAGE_ARMOR_ADD,DK Defense Bonus,142,168,,32001,195,PC_DAMAGE_ARMOR_ADD,DK Defense Bonus,168,194,,32201,194,PC_DAMAGE_DAMAGE_MUL,DK ATK (%),1,1,,32401,194,PC_DAMAGE_DAMAGE_MUL,DK ATK (%),1,1,,32601,194,PC_DAMAGE_DAMAGE_MUL,DK ATK (%),1,2,,32801,197,PC_DAMAGE_FIRERESIST_ADD,DK Fire Resistance Bonus,152,196,,33001,197,PC_DAMAGE_FIRERESIST_ADD,DK Fire Resistance Bonus,196,238,,33201,195,PC_DAMAGE_ARMOR_ADD,DK Defense Bonus,258,284,,33401,8,HP_MAX_ADD,Max HP Bonus,222,257,,33601,8,HP_MAX_ADD,Max HP Bonus,239,274,,33801,8,HP_MAX_ADD,Max HP Bonus,257,291
31002,199,PC_DAMAGE_ICERESIST_ADD,DK Ice Resistance Bonus,130,174,,31202,199,PC_DAMAGE_ICERESIST_ADD,DK Ice Resistance Bonus,174,216,,31402,199,PC_DAMAGE_ICERESIST_ADD,DK Ice Resistance Bonus,216,260,,31602,54,RATING_CRITICAL_SUB,Critical ATK Resistance (%),1,1,,31802,54,RATING_CRITICAL_SUB,Critical ATK Resistance (%),1,1,,32002,43,SPEED_MOVE_MUL,Movement Speed Bonus,1,2,,32202,193,PC_DAMAGE_DAMAGE_ADD,DK ATK Bonus,24,34,,32402,193,PC_DAMAGE_DAMAGE_ADD,DK ATK Bonus,30,41,,32602,236,BALANCE_VITALITY_ADD,Vitality Bonus,36,43,,32802,199,PC_DAMAGE_ICERESIST_ADD,DK Ice Resistance Bonus,152,196,,33002,199,PC_DAMAGE_ICERESIST_ADD,DK Ice Resistance Bonus,196,238,,33202,195,PC_DAMAGE_ARMOR_ADD,DK Defense Bonus,258,284,,33402,10,HP_RECOVERY_ADD,HP Recovery Bonus,340,408,,33602,10,HP_RECOVERY_ADD,HP Recovery Bonus,510,612,,33802,16,MP_MAX_ADD,Max MP Bonus,126,142
31003,201,PC_DAMAGE_CURSERESIST_ADD,DK Curse Resistance Bonus,130,174,,31203,201,PC_DAMAGE_CURSERESIST_ADD,DK Curse Resistance Bonus,174,216,,31403,201,PC_DAMAGE_CURSERESIST_ADD,DK Curse Resistance Bonus,216,260,,31603,96,SHIELD_MAX_ADD,Max PK Shield Bonus,298,384,,31803,96,SHIELD_MAX_ADD,Max PK Shield Bonus,384,469,,32003,54,RATING_CRITICAL_SUB,Critical ATK Resistance (%),2,3,,32203,54,RATING_CRITICAL_SUB,Critical ATK Resistance (%),1,1,,32403,54,RATING_CRITICAL_SUB,Critical ATK Resistance (%),1,1,,32603,54,RATING_CRITICAL_SUB,Critical ATK Resistance (%),2,3,,32803,201,PC_DAMAGE_CURSERESIST_ADD,DK Curse Resistance Bonus,152,196,,33003,201,PC_DAMAGE_CURSERESIST_ADD,DK Curse Resistance Bonus,196,238,,33203,207,PC_DAMAGE_ALLMAGICRESIST_ADD,DK All Magic Resistance Bonus,174,216,,33403,16,MP_MAX_ADD,Max MP Bonus,95,110,,33603,16,MP_MAX_ADD,Max MP Bonus,110,126,,33803,96,SHIELD_MAX_ADD,Max PK Shield Bonus,469,555
31004,203,PC_DAMAGE_POSIONRESIST_ADD,DK Poison Resistance Bonus,130,174,,31204,203,PC_DAMAGE_POSIONRESIST_ADD,DK Poison Resistance Bonus,174,216,,31404,203,PC_DAMAGE_POSIONRESIST_ADD,DK Poison Resistance Bonus,216,260,,31604,75,DEFENSE_DEFEATRATE_MUL,Defeat Success Chance Bonus (%),1,1,,31804,75,DEFENSE_DEFEATRATE_MUL,Defeat Success Chance Bonus (%),1,1,,32004,96,SHIELD_MAX_ADD,Max PK Shield Bonus,469,555,,32204,236,BALANCE_VITALITY_ADD,Vitality Bonus,21,28,,32404,236,BALANCE_VITALITY_ADD,Vitality Bonus,28,36,,32604,96,SHIELD_MAX_ADD,Max PK Shield Bonus,469,555,,32804,203,PC_DAMAGE_POSIONRESIST_ADD,DK Poison Resistance Bonus,152,196,,33004,203,PC_DAMAGE_POSIONRESIST_ADD,DK Poison Resistance Bonus,196,238,,33204,207,PC_DAMAGE_ALLMAGICRESIST_ADD,DK All Magic Resistance Bonus,174,216,,33404,18,MP_RECOVERY_ADD,MP Recovery Bonus,90,108,,33604,18,MP_RECOVERY_ADD,MP Recovery Bonus,140,168,,33804,96,SHIELD_MAX_ADD,Max PK Shield Bonus,469,555
31005,205,PC_DAMAGE_LIGHTINGRESIST_ADD,DK Lightning Resistance Bonus,130,174,,31205,205,PC_DAMAGE_LIGHTINGRESIST_ADD,DK Lightning Resistance Bonus,174,216,,31405,205,PC_DAMAGE_LIGHTINGRESIST_ADD,DK Lightning Resistance Bonus,216,260,,31605,43,SPEED_MOVE_MUL,Movement Speed Bonus,1,2,,31805,43,SPEED_MOVE_MUL,Movement Speed Bonus,1,2,,32005,75,DEFENSE_DEFEATRATE_MUL,Defeat Success Chance Bonus (%),2,3,,32205,96,SHIELD_MAX_ADD,Max PK Shield Bonus,298,384,,32405,96,SHIELD_MAX_ADD,Max PK Shield Bonus,384,469,,32605,96,SHIELD_MAX_ADD,Max PK Shield Bonus,469,555,,32805,205,PC_DAMAGE_LIGHTINGRESIST_ADD,DK Lightning Resistance Bonus,152,196,,33005,205,PC_DAMAGE_LIGHTINGRESIST_ADD,DK Lightning Resistance Bonus,196,238,,33205,96,SHIELD_MAX_ADD,Max PK Shield Bonus,469,555,,33405,96,SHIELD_MAX_ADD,Max PK Shield Bonus,298,384,,33605,96,SHIELD_MAX_ADD,Max PK Shield Bonus,384,469,,33805,,,,,
31006,195,PC_DAMAGE_ARMOR_ADD,DK Defense Bonus,128,154,,31206,195,PC_DAMAGE_ARMOR_ADD,DK Defense Bonus,154,180,,31406,195,PC_DAMAGE_ARMOR_ADD,DK Defense Bonus,180,206,,31606,,,,,,,31806,,,,,,,32006,75,DEFENSE_DEFEATRATE_MUL,Defeat Success Chance Bonus (%),2,3,,32206,96,SHIELD_MAX_ADD,Max PK Shield Bonus,298,384,,32406,96,SHIELD_MAX_ADD,Max PK Shield Bonus,384,469,,32606,,,,,,,32806,195,PC_DAMAGE_ARMOR_ADD,DK Defense Bonus,206,232,,33006,195,PC_DAMAGE_ARMOR_ADD,DK Defense Bonus,232,258,,33206,96,SHIELD_MAX_ADD,Max PK Shield Bonus,469,555,,33406,98,SHIELD_RECOVERY_ADD,PK Shield Recovery Bonus,500,600,,33606,98,SHIELD_RECOVERY_ADD,PK Shield Recovery Bonus,760,912,,33806,,,,,
31007,96,SHIELD_MAX_ADD,Max PK Shield Bonus,298,384,,31207,96,SHIELD_MAX_ADD,Max PK Shield Bonus,384,469,,31407,96,SHIELD_MAX_ADD,Max PK Shield Bonus,469,555,,31607,,,,,,,31807,,,,,,,32007,,,,,,,32207,,,,,,,32407,,,,,,,32607,,,,,,,32807,96,SHIELD_MAX_ADD,Max PK Shield Bonus,298,384,,33007,96,SHIELD_MAX_ADD,Max PK Shield Bonus,384,469,,33207,,,,,,,33407,98,SHIELD_RECOVERY_ADD,PK Shield Recovery Bonus,500,600,,33607,98,SHIELD_RECOVERY_ADD,PK Shield Recovery Bonus,760,912,,33807,,,,,
31008,96,SHIELD_MAX_ADD,Max PK Shield Bonus,298,384,,31208,96,SHIELD_MAX_ADD,Max PK Shield Bonus,384,469,,31408,96,SHIELD_MAX_ADD,Max PK Shield Bonus,469,555,,31608,,,,,,,31808,,,,,,,32008,,,,,,,32208,,,,,,,32408,,,,,,,32608,,,,,,,32808,96,SHIELD_MAX_ADD,Max PK Shield Bonus,298,384,,33008,96,SHIELD_MAX_ADD,Max PK Shield Bonus,384,469,,33208,,,,,,,33408,,,,,,,33608,,,,,,,33808,,,,,
31009,,,,,,,31209,,,,,,,31409,207,PC_DAMAGE_ALLMAGICRESIST_ADD,DK All Magic Resistance Bonus,174,216,,31609,,,,,,,31809,,,,,,,32009,,,,,,,32209,,,,,,,32409,,,,,,,32609,,,,,,,32809,,,,,,,33009,,,,,,,33209,,,,,,,33409,,,,,,,33609,,,,,,,33809,,,,,
31010,,,,,,,31210,,,,,,,31410,207,PC_DAMAGE_ALLMAGICRESIST_ADD,DK All Magic Resistance Bonus,174,216,,31610,,,,,,,31810,,,,,,,32010,,,,,,,32210,,,,,,,32410,,,,,,,32610,,,,,,,32810,,,,,,,33010,,,,,,,33210,,,,,,,33410,,,,,,,33610,,,,,,,33810,,,,,
2102,,2,,Min,Max,,2122,,2,,Min,Max,,2142,,2,,Min,Max,,2162,,2,15,Min,Max,,2182,,2,15,Min,Max,,2202,,2,15,Min,Max,,2222,,2,16,Min,Max,,2242,,2,16,Min,Max,,2262,,2,16,Min,Max,,2282,,2,17,Min,Max,,2302,,2,17,Min,Max,,2322,,2,17,Min,Max,,2342,,2,18,Min,Max,,2362,,2,18,Min,Max,,2382,,2,18,Min,Max
31011,,,,,,,31211,,,,,,,31411,,,,,,,31611,,,,,,,31811,,,,,,,32011,,,,,,,32211,,,,,,,32411,,,,,,,32611,,,,,,,32811,,,,,,,33011,,,,,,,33211,,,,,,,33411,,,,,,,33611,,,,,,,33811,,,,,
31012,,,,,,,31212,,,,,,,31412,,,,,,,31612,,,,,,,31812,,,,,,,32012,,,,,,,32212,,,,,,,32412,,,,,,,32612,,,,,,,32812,,,,,,,33012,,,,,,,33212,,,,,,,33412,,,,,,,33612,,,,,,,33812,,,,,
31013,,,,,,,31213,,,,,,,31413,,,,,,,31613,,,,,,,31813,,,,,,,32013,,,,,,,32213,,,,,,,32413,,,,,,,32613,,,,,,,32813,,,,,,,33013,,,,,,,33213,,,,,,,33413,,,,,,,33613,,,,,,,33813,,,,,
31014,,,,,,,31214,,,,,,,31414,,,,,,,31614,,,,,,,31814,,,,,,,32014,,,,,,,32214,,,,,,,32414,,,,,,,32614,,,,,,,32814,,,,,,,33014,,,,,,,33214,,,,,,,33414,,,,,,,33614,,,,,,,33814,,,,,
31015,,,,,,,31215,,,,,,,31415,,,,,,,31615,,,,,,,31815,,,,,,,32015,,,,,,,32215,,,,,,,32415,,,,,,,32615,,,,,,,32815,,,,,,,33015,,,,,,,33215,,,,,,,33415,,,,,,,33615,,,,,,,33815,,,,,
31016,,,,,,,31216,,,,,,,31416,,,,,,,31616,,,,,,,31816,,,,,,,32016,,,,,,,32216,,,,,,,32416,,,,,,,32616,,,,,,,32816,,,,,,,33016,,,,,,,33216,,,,,,,33416,,,,,,,33616,,,,,,,33816,,,,,
31017,,,,,,,31217,,,,,,,31417,,,,,,,31617,,,,,,,31817,,,,,,,32017,,,,,,,32217,,,,,,,32417,,,,,,,32617,,,,,,,32817,,,,,,,33017,,,,,,,33217,,,,,,,33417,,,,,,,33617,,,,,,,33817,,,,,
31018,,,,,,,31218,,,,,,,31418,,,,,,,31618,,,,,,,31818,,,,,,,32018,,,,,,,32218,,,,,,,32418,,,,,,,32618,,,,,,,32818,,,,,,,33018,,,,,,,33218,,,,,,,33418,,,,,,,33618,,,,,,,33818,,,,,
31019,,,,,,,31219,,,,,,,31419,,,,,,,31619,,,,,,,31819,,,,,,,32019,,,,,,,32219,,,,,,,32419,,,,,,,32619,,,,,,,32819,,,,,,,33019,,,,,,,33219,,,,,,,33419,,,,,,,33619,,,,,,,33819,,,,,
31020,,,,,,,31220,,,,,,,31420,,,,,,,31620,,,,,,,31820,,,,,,,32020,,,,,,,32220,,,,,,,32420,,,,,,,32620,,,,,,,32820,,,,,,,33020,,,,,,,33220,,,,,,,33420,,,,,,,33620,,,,,,,33820,,,,,
2103,,3,27,Min,Max,,2123,,3,27,Min,Max,,2143,,3,27,Min,Max,,2163,,3,28,Min,Max,,2183,,3,28,Min,Max,,2203,,3,28,Min,Max,,2223,,3,29,Min,Max,,2243,,3,29,Min,Max,,2263,,3,29,Min,Max,,2283,,3,30,Min,Max,,2303,,3,30,Min,Max,,2323,,3,30,Min,Max,,2343,,3,31,Min,Max,,2363,,3,31,Min,Max,,2383,,3,31,Min,Max
31021,,,,,,,31221,,,,,,,31421,,,,,,,31621,,,,,,,31821,,,,,,,32021,,,,,,,32221,,,,,,,32421,,,,,,,32621,,,,,,,32821,,,,,,,33021,,,,,,,33221,,,,,,,33421,,,,,,,33621,,,,,,,33821,,,,,
31022,,,,,,,31222,,,,,,,31422,,,,,,,31622,,,,,,,31822,,,,,,,32022,,,,,,,32222,,,,,,,32422,,,,,,,32622,,,,,,,32822,,,,,,,33022,,,,,,,33222,,,,,,,33422,,,,,,,33622,,,,,,,33822,,,,,
31023,,,,,,,31223,,,,,,,31423,,,,,,,31623,,,,,,,31823,,,,,,,32023,,,,,,,32223,,,,,,,32423,,,,,,,32623,,,,,,,32823,,,,,,,33023,,,,,,,33223,,,,,,,33423,,,,,,,33623,,,,,,,33823,,,,,
31024,,,,,,,31224,,,,,,,31424,,,,,,,31624,,,,,,,31824,,,,,,,32024,,,,,,,32224,,,,,,,32424,,,,,,,32624,,,,,,,32824,,,,,,,33024,,,,,,,33224,,,,,,,33424,,,,,,,33624,,,,,,,33824,,,,,
31025,,,,,,,31225,,,,,,,31425,,,,,,,31625,,,,,,,31825,,,,,,,32025,,,,,,,32225,,,,,,,32425,,,,,,,32625,,,,,,,32825,,,,,,,33025,,,,,,,33225,,,,,,,33425,,,,,,,33625,,,,,,,33825,,,,,
31026,,,,,,,31226,,,,,,,31426,,,,,,,31626,,,,,,,31826,,,,,,,32026,,,,,,,32226,,,,,,,32426,,,,,,,32626,,,,,,,32826,,,,,,,33026,,,,,,,33226,,,,,,,33426,,,,,,,33626,,,,,,,33826,,,,,
31027,,,,,,,31227,,,,,,,31427,,,,,,,31627,,,,,,,31827,,,,,,,32027,,,,,,,32227,,,,,,,32427,,,,,,,32627,,,,,,,32827,,,,,,,33027,,,,,,,33227,,,,,,,33427,,,,,,,33627,,,,,,,33827,,,,,
31028,,,,,,,31228,,,,,,,31428,,,,,,,31628,,,,,,,31828,,,,,,,32028,,,,,,,32228,,,,,,,32428,,,,,,,32628,,,,,,,32828,,,,,,,33028,,,,,,,33228,,,,,,,33428,,,,,,,33628,,,,,,,33828,,,,,
31029,,,,,,,31229,,,,,,,31429,,,,,,,31629,,,,,,,31829,,,,,,,32029,,,,,,,32229,,,,,,,32429,,,,,,,32629,,,,,,,32829,,,,,,,33029,,,,,,,33229,,,,,,,33429,,,,,,,33629,,,,,,,33829,,,,,
31030,,,,,,,31230,,,,,,,31430,,,,,,,31630,,,,,,,31830,,,,,,,32030,,,,,,,32230,,,,,,,32430,,,,,,,32630,,,,,,,32830,,,,,,,33030,,,,,,,33230,,,,,,,33430,,,,,,,33630,,,,,,,33830,,,,,
2104,,4,40,Min,Max,,2124,,4,40,Min,Max,,2144,,4,40,Min,Max,,2164,,4,41,Min,Max,,2184,,4,41,Min,Max,,2204,,4,41,Min,Max,,2224,,4,42,Min,Max,,2244,,4,42,Min,Max,,2264,,4,42,Min,Max,,2284,,4,43,Min,Max,,2304,,4,43,Min,Max,,2324,,4,43,Min,Max,,2344,,4,44,Min,Max,,2364,,4,44,Min,Max,,2384,,4,44,Min,Max
31031,,,,,,,31231,,,,,,,31431,,,,,,,31631,,,,,,,31831,,,,,,,32031,,,,,,,32231,,,,,,,32431,,,,,,,32631,,,,,,,32831,,,,,,,33031,,,,,,,33231,,,,,,,33431,,,,,,,33631,,,,,,,33831,,,,,
31032,,,,,,,31232,,,,,,,31432,,,,,,,31632,,,,,,,31832,,,,,,,32032,,,,,,,32232,,,,,,,32432,,,,,,,32632,,,,,,,32832,,,,,,,33032,,,,,,,33232,,,,,,,33432,,,,,,,33632,,,,,,,33832,,,,,
31033,,,,,,,31233,,,,,,,31433,,,,,,,31633,,,,,,,31833,,,,,,,32033,,,,,,,32233,,,,,,,32433,,,,,,,32633,,,,,,,32833,,,,,,,33033,,,,,,,33233,,,,,,,33433,,,,,,,33633,,,,,,,33833,,,,,
31034,,,,,,,31234,,,,,,,31434,,,,,,,31634,,,,,,,31834,,,,,,,32034,,,,,,,32234,,,,,,,32434,,,,,,,32634,,,,,,,32834,,,,,,,33034,,,,,,,33234,,,,,,,33434,,,,,,,33634,,,,,,,33834,,,,,
31035,,,,,,,31235,,,,,,,31435,,,,,,,31635,,,,,,,31835,,,,,,,32035,,,,,,,32235,,,,,,,32435,,,,,,,32635,,,,,,,32835,,,,,,,33035,,,,,,,33235,,,,,,,33435,,,,,,,33635,,,,,,,33835,,,,,
31036,,,,,,,31236,,,,,,,31436,,,,,,,31636,,,,,,,31836,,,,,,,32036,,,,,,,32236,,,,,,,32436,,,,,,,32636,,,,,,,32836,,,,,,,33036,,,,,,,33236,,,,,,,33436,,,,,,,33636,,,,,,,33836,,,,,
31037,,,,,,,31237,,,,,,,31437,,,,,,,31637,,,,,,,31837,,,,,,,32037,,,,,,,32237,,,,,,,32437,,,,,,,32637,,,,,,,32837,,,,,,,33037,,,,,,,33237,,,,,,,33437,,,,,,,33637,,,,,,,33837,,,,,
31038,,,,,,,31238,,,,,,,31438,,,,,,,31638,,,,,,,31838,,,,,,,32038,,,,,,,32238,,,,,,,32438,,,,,,,32638,,,,,,,32838,,,,,,,33038,,,,,,,33238,,,,,,,33438,,,,,,,33638,,,,,,,33838,,,,,
31039,,,,,,,31239,,,,,,,31439,,,,,,,31639,,,,,,,31839,,,,,,,32039,,,,,,,32239,,,,,,,32439,,,,,,,32639,,,,,,,32839,,,,,,,33039,,,,,,,33239,,,,,,,33439,,,,,,,33639,,,,,,,33839,,,,,
31040,,,,,,,31240,,,,,,,31440,,,,,,,31640,,,,,,,31840,,,,,,,32040,,,,,,,32240,,,,,,,32440,,,,,,,32640,,,,,,,32840,,,,,,,33040,,,,,,,33240,,,,,,,33440,,,,,,,33640,,,,,,,33840,,,,,
2105,,5,52,Min,Max,,2125,,5,52,Min,Max,,2145,,5,52,Min,Max,,2165,,5,59,Min,Max,,2185,,5,59,Min,Max,,2205,,5,59,Min,Max,,2225,,5,54,Min,Max,,2245,,5,54,Min,Max,,2265,,5,54,Min,Max,,2285,,5,55,Min,Max,,2305,,5,55,Min,Max,,2325,,5,55,Min,Max,,2345,,5,56,Min,Max,,2365,,5,56,Min,Max,,2385,,5,56,Min,Max
31041,,,,,,,31241,,,,,,,31441,,,,,,,31641,,,,,,,31841,,,,,,,32041,,,,,,,32241,,,,,,,32441,,,,,,,32641,,,,,,,32841,,,,,,,33041,,,,,,,33241,,,,,,,33441,,,,,,,33641,,,,,,,33841,,,,,
31042,,,,,,,31242,,,,,,,31442,,,,,,,31642,,,,,,,31842,,,,,,,32042,,,,,,,32242,,,,,,,32442,,,,,,,32642,,,,,,,32842,,,,,,,33042,,,,,,,33242,,,,,,,33442,,,,,,,33642,,,,,,,33842,,,,,
31043,,,,,,,31243,,,,,,,31443,,,,,,,31643,,,,,,,31843,,,,,,,32043,,,,,,,32243,,,,,,,32443,,,,,,,32643,,,,,,,32843,,,,,,,33043,,,,,,,33243,,,,,,,33443,,,,,,,33643,,,,,,,33843,,,,,
31044,,,,,,,31244,,,,,,,31444,,,,,,,31644,,,,,,,31844,,,,,,,32044,,,,,,,32244,,,,,,,32444,,,,,,,32644,,,,,,,32844,,,,,,,33044,,,,,,,33244,,,,,,,33444,,,,,,,33644,,,,,,,33844,,,,,
31045,,,,,,,31245,,,,,,,31445,,,,,,,31645,,,,,,,31845,,,,,,,32045,,,,,,,32245,,,,,,,32445,,,,,,,32645,,,,,,,32845,,,,,,,33045,,,,,,,33245,,,,,,,33445,,,,,,,33645,,,,,,,33845,,,,,
31046,,,,,,,31246,,,,,,,31446,,,,,,,31646,,,,,,,31846,,,,,,,32046,,,,,,,32246,,,,,,,32446,,,,,,,32646,,,,,,,32846,,,,,,,33046,,,,,,,33246,,,,,,,33446,,,,,,,33646,,,,,,,33846,,,,,
31047,,,,,,,31247,,,,,,,31447,,,,,,,31647,,,,,,,31847,,,,,,,32047,,,,,,,32247,,,,,,,32447,,,,,,,32647,,,,,,,32847,,,,,,,33047,,,,,,,33247,,,,,,,33447,,,,,,,33647,,,,,,,33847,,,,,
31048,,,,,,,31248,,,,,,,31448,,,,,,,31648,,,,,,,31848,,,,,,,32048,,,,,,,32248,,,,,,,32448,,,,,,,32648,,,,,,,32848,,,,,,,33048,,,,,,,33248,,,,,,,33448,,,,,,,33648,,,,,,,33848,,,,,
31049,,,,,,,31249,,,,,,,31449,,,,,,,31649,,,,,,,31849,,,,,,,32049,,,,,,,32249,,,,,,,32449,,,,,,,32649,,,,,,,32849,,,,,,,33049,,,,,,,33249,,,,,,,33449,,,,,,,33649,,,,,,,33849,,,,,
31050,,,,,,,31250,,,,,,,31450,,,,,,,31650,,,,,,,31850,,,,,,,32050,,,,,,,32250,,,,,,,32450,,,,,,,32650,,,,,,,32850,,,,,,,33050,,,,,,,33250,,,,,,,33450,,,,,,,33650,,,,,,,33850,,,,,
2106,,6,64,Min,Max,,2126,,6,64,Min,Max,,2146,,6,64,Min,Max,,2166,,6,65,Min,Max,,2186,,6,65,Min,Max,,2206,,6,65,Min,Max,,2226,,6,66,Min,Max,,2246,,6,66,Min,Max,,2266,,6,66,Min,Max,,2286,,6,67,Min,Max,,2306,,6,67,Min,Max,,2326,,6,67,Min,Max,,2346,,6,68,Min,Max,,2366,,6,68,Min,Max,,2386,,6,68,Min,Max
31051,,,,,,,31251,,,,,,,31451,,,,,,,31651,,,,,,,31851,,,,,,,32051,,,,,,,32251,,,,,,,32451,,,,,,,32651,,,,,,,32851,,,,,,,33051,,,,,,,33251,,,,,,,33451,,,,,,,33651,,,,,,,33851,,,,,
31052,,,,,,,31252,,,,,,,31452,,,,,,,31652,,,,,,,31852,,,,,,,32052,,,,,,,32252,,,,,,,32452,,,,,,,32652,,,,,,,32852,,,,,,,33052,,,,,,,33252,,,,,,,33452,,,,,,,33652,,,,,,,33852,,,,,
31053,,,,,,,31253,,,,,,,31453,,,,,,,31653,,,,,,,31853,,,,,,,32053,,,,,,,32253,,,,,,,32453,,,,,,,32653,,,,,,,32853,,,,,,,33053,,,,,,,33253,,,,,,,33453,,,,,,,33653,,,,,,,33853,,,,,
31054,,,,,,,31254,,,,,,,31454,,,,,,,31654,,,,,,,31854,,,,,,,32054,,,,,,,32254,,,,,,,32454,,,,,,,32654,,,,,,,32854,,,,,,,33054,,,,,,,33254,,,,,,,33454,,,,,,,33654,,,,,,,33854,,,,,
31055,,,,,,,31255,,,,,,,31455,,,,,,,31655,,,,,,,31855,,,,,,,32055,,,,,,,32255,,,,,,,32455,,,,,,,32655,,,,,,,32855,,,,,,,33055,,,,,,,33255,,,,,,,33455,,,,,,,33655,,,,,,,33855,,,,,
31056,,,,,,,31256,,,,,,,31456,,,,,,,31656,,,,,,,31856,,,,,,,32056,,,,,,,32256,,,,,,,32456,,,,,,,32656,,,,,,,32856,,,,,,,33056,,,,,,,33256,,,,,,,33456,,,,,,,33656,,,,,,,33856,,,,,
31057,,,,,,,31257,,,,,,,31457,,,,,,,31657,,,,,,,31857,,,,,,,32057,,,,,,,32257,,,,,,,32457,,,,,,,32657,,,,,,,32857,,,,,,,33057,,,,,,,33257,,,,,,,33457,,,,,,,33657,,,,,,,33857,,,,,
31058,,,,,,,31258,,,,,,,31458,,,,,,,31658,,,,,,,31858,,,,,,,32058,,,,,,,32258,,,,,,,32458,,,,,,,32658,,,,,,,32858,,,,,,,33058,,,,,,,33258,,,,,,,33458,,,,,,,33658,,,,,,,33858,,,,,
31059,,,,,,,31259,,,,,,,31459,,,,,,,31659,,,,,,,31859,,,,,,,32059,,,,,,,32259,,,,,,,32459,,,,,,,32659,,,,,,,32859,,,,,,,33059,,,,,,,33259,,,,,,,33459,,,,,,,33659,,,,,,,33859,,,,,
31060,,,,,,,31260,,,,,,,31460,,,,,,,31660,,,,,,,31860,,,,,,,32060,,,,,,,32260,,,,,,,32460,,,,,,,32660,,,,,,,32860,,,,,,,33060,,,,,,,33260,,,,,,,33460,,,,,,,33660,,,,,,,33860,,,,,
2107,,7,76,Min,Max,,2127,,7,76,Min,Max,,2147,,7,76,Min,Max,,2167,,7,77,Min,Max,,2187,,7,77,Min,Max,,2207,,7,77,Min,Max,,2227,,7,78,Min,Max,,2247,,7,78,Min,Max,,2267,,7,78,Min,Max,,2287,,7,79,Min,Max,,2307,,7,79,Min,Max,,2327,,7,79,Min,Max,,2347,,7,80,Min,Max,,2367,,7,80,Min,Max,,2387,,7,80,Min,Max
31061,,,,,,,31261,,,,,,,31461,,,,,,,31661,,,,,,,31861,,,,,,,32061,,,,,,,32261,,,,,,,32461,,,,,,,32661,,,,,,,32861,,,,,,,33061,,,,,,,33261,,,,,,,33461,,,,,,,33661,,,,,,,33861,,,,,
31062,,,,,,,31262,,,,,,,31462,,,,,,,31662,,,,,,,31862,,,,,,,32062,,,,,,,32262,,,,,,,32462,,,,,,,32662,,,,,,,32862,,,,,,,33062,,,,,,,33262,,,,,,,33462,,,,,,,33662,,,,,,,33862,,,,,
31063,,,,,,,31263,,,,,,,31463,,,,,,,31663,,,,,,,31863,,,,,,,32063,,,,,,,32263,,,,,,,32463,,,,,,,32663,,,,,,,32863,,,,,,,33063,,,,,,,33263,,,,,,,33463,,,,,,,33663,,,,,,,33863,,,,,
31064,,,,,,,31264,,,,,,,31464,,,,,,,31664,,,,,,,31864,,,,,,,32064,,,,,,,32264,,,,,,,32464,,,,,,,32664,,,,,,,32864,,,,,,,33064,,,,,,,33264,,,,,,,33464,,,,,,,33664,,,,,,,33864,,,,,
31065,,,,,,,31265,,,,,,,31465,,,,,,,31665,,,,,,,31865,,,,,,,32065,,,,,,,32265,,,,,,,32465,,,,,,,32665,,,,,,,32865,,,,,,,33065,,,,,,,33265,,,,,,,33465,,,,,,,33665,,,,,,,33865,,,,,
31066,,,,,,,31266,,,,,,,31466,,,,,,,31666,,,,,,,31866,,,,,,,32066,,,,,,,32266,,,,,,,32466,,,,,,,32666,,,,,,,32866,,,,,,,33066,,,,,,,33266,,,,,,,33466,,,,,,,33666,,,,,,,33866,,,,,
31067,,,,,,,31267,,,,,,,31467,,,,,,,31667,,,,,,,31867,,,,,,,32067,,,,,,,32267,,,,,,,32467,,,,,,,32667,,,,,,,32867,,,,,,,33067,,,,,,,33267,,,,,,,33467,,,,,,,33667,,,,,,,33867,,,,,
31068,,,,,,,31268,,,,,,,31468,,,,,,,31668,,,,,,,31868,,,,,,,32068,,,,,,,32268,,,,,,,32468,,,,,,,32668,,,,,,,32868,,,,,,,33068,,,,,,,33268,,,,,,,33468,,,,,,,33668,,,,,,,33868,,,,,
31069,,,,,,,31269,,,,,,,31469,,,,,,,31669,,,,,,,31869,,,,,,,32069,,,,,,,32269,,,,,,,32469,,,,,,,32669,,,,,,,32869,,,,,,,33069,,,,,,,33269,,,,,,,33469,,,,,,,33669,,,,,,,33869,,,,,
31070,,,,,,,31270,,,,,,,31470,,,,,,,31670,,,,,,,31870,,,,,,,32070,,,,,,,32270,,,,,,,32470,,,,,,,32670,,,,,,,32870,,,,,,,33070,,,,,,,33270,,,,,,,33470,,,,,,,33670,,,,,,,33870,,,,,
2108,,8,88,Min,Max,,2128,,8,88,Min,Max,,2148,,8,88,Min,Max,,2168,,8,89,Min,Max,,2188,,8,89,Min,Max,,2208,,8,89,Min,Max,,2228,,8,90,Min,Max,,2248,,8,90,Min,Max,,2268,,8,90,Min,Max,,2288,,8,91,Min,Max,,2308,,8,91,Min,Max,,2328,,8,91,Min,Max,,2348,,8,92,Min,Max,,2368,,8,92,Min,Max,,2388,,8,92,Min,Max
31071,,,,,,,31271,,,,,,,31471,,,,,,,31671,,,,,,,31871,,,,,,,32071,,,,,,,32271,,,,,,,32471,,,,,,,32671,,,,,,,32871,,,,,,,33071,,,,,,,33271,,,,,,,33471,,,,,,,33671,,,,,,,33871,,,,,
31072,,,,,,,31272,,,,,,,31472,,,,,,,31672,,,,,,,31872,,,,,,,32072,,,,,,,32272,,,,,,,32472,,,,,,,32672,,,,,,,32872,,,,,,,33072,,,,,,,33272,,,,,,,33472,,,,,,,33672,,,,,,,33872,,,,,
31073,,,,,,,31273,,,,,,,31473,,,,,,,31673,,,,,,,31873,,,,,,,32073,,,,,,,32273,,,,,,,32473,,,,,,,32673,,,,,,,32873,,,,,,,33073,,,,,,,33273,,,,,,,33473,,,,,,,33673,,,,,,,33873,,,,,
31074,,,,,,,31274,,,,,,,31474,,,,,,,31674,,,,,,,31874,,,,,,,32074,,,,,,,32274,,,,,,,32474,,,,,,,32674,,,,,,,32874,,,,,,,33074,,,,,,,33274,,,,,,,33474,,,,,,,33674,,,,,,,33874,,,,,
31075,,,,,,,31275,,,,,,,31475,,,,,,,31675,,,,,,,31875,,,,,,,32075,,,,,,,32275,,,,,,,32475,,,,,,,32675,,,,,,,32875,,,,,,,33075,,,,,,,33275,,,,,,,33475,,,,,,,33675,,,,,,,33875,,,,,
31076,,,,,,,31276,,,,,,,31476,,,,,,,31676,,,,,,,31876,,,,,,,32076,,,,,,,32276,,,,,,,32476,,,,,,,32676,,,,,,,32876,,,,,,,33076,,,,,,,33276,,,,,,,33476,,,,,,,33676,,,,,,,33876,,,,,
31077,,,,,,,31277,,,,,,,31477,,,,,,,31677,,,,,,,31877,,,,,,,32077,,,,,,,32277,,,,,,,32477,,,,,,,32677,,,,,,,32877,,,,,,,33077,,,,,,,33277,,,,,,,33477,,,,,,,33677,,,,,,,33877,,,,,
31078,,,,,,,31278,,,,,,,31478,,,,,,,31678,,,,,,,31878,,,,,,,32078,,,,,,,32278,,,,,,,32478,,,,,,,32678,,,,,,,32878,,,,,,,33078,,,,,,,33278,,,,,,,33478,,,,,,,33678,,,,,,,33878,,,,,
31079,,,,,,,31279,,,,,,,31479,,,,,,,31679,,,,,,,31879,,,,,,,32079,,,,,,,32279,,,,,,,32479,,,,,,,32679,,,,,,,32879,,,,,,,33079,,,,,,,33279,,,,,,,33479,,,,,,,33679,,,,,,,33879,,,,,
31080,,,,,,,31280,,,,,,,31480,,,,,,,31680,,,,,,,31880,,,,,,,32080,,,,,,,32280,,,,,,,32480,,,,,,,32680,,,,,,,32880,,,,,,,33080,,,,,,,33280,,,,,,,33480,,,,,,,33680,,,,,,,33880,,,,,
2109,,9,100,Min,Max,,2129,,9,100,Min,Max,,2149,,9,100,Min,Max,,2169,,9,102,Min,Max,,2189,,9,102,Min,Max,,2209,,9,102,Min,Max,,2229,,9,104,Min,Max,,2249,,9,104,Min,Max,,2269,,9,104,Min,Max,,2289,,9,106,Min,Max,,2309,,9,106,Min,Max,,2329,,9,106,Min,Max,,2349,,9,108,Min,Max,,2369,,9,108,Min,Max,,2389,,9,108,Min,Max
31081,,,,,,,31281,,,,,,,31481,,,,,,,31681,,,,,,,31881,,,,,,,32081,,,,,,,32281,,,,,,,32481,,,,,,,32681,,,,,,,32881,,,,,,,33081,,,,,,,33281,,,,,,,33481,,,,,,,33681,,,,,,,33881,,,,,
31082,,,,,,,31282,,,,,,,31482,,,,,,,31682,,,,,,,31882,,,,,,,32082,,,,,,,32282,,,,,,,32482,,,,,,,32682,,,,,,,32882,,,,,,,33082,,,,,,,33282,,,,,,,33482,,,,,,,33682,,,,,,,33882,,,,,
31083,,,,,,,31283,,,,,,,31483,,,,,,,31683,,,,,,,31883,,,,,,,32083,,,,,,,32283,,,,,,,32483,,,,,,,32683,,,,,,,32883,,,,,,,33083,,,,,,,33283,,,,,,,33483,,,,,,,33683,,,,,,,33883,,,,,
31084,,,,,,,31284,,,,,,,31484,,,,,,,31684,,,,,,,31884,,,,,,,32084,,,,,,,32284,,,,,,,32484,,,,,,,32684,,,,,,,32884,,,,,,,33084,,,,,,,33284,,,,,,,33484,,,,,,,33684,,,,,,,33884,,,,,
31085,,,,,,,31285,,,,,,,31485,,,,,,,31685,,,,,,,31885,,,,,,,32085,,,,,,,32285,,,,,,,32485,,,,,,,32685,,,,,,,32885,,,,,,,33085,,,,,,,33285,,,,,,,33485,,,,,,,33685,,,,,,,33885,,,,,
31086,,,,,,,31286,,,,,,,31486,,,,,,,31686,,,,,,,31886,,,,,,,32086,,,,,,,32286,,,,,,,32486,,,,,,,32686,,,,,,,32886,,,,,,,33086,,,,,,,33286,,,,,,,33486,,,,,,,33686,,,,,,,33886,,,,,
31087,,,,,,,31287,,,,,,,31487,,,,,,,31687,,,,,,,31887,,,,,,,32087,,,,,,,32287,,,,,,,32487,,,,,,,32687,,,,,,,32887,,,,,,,33087,,,,,,,33287,,,,,,,33487,,,,,,,33687,,,,,,,33887,,,,,
31088,,,,,,,31288,,,,,,,31488,,,,,,,31688,,,,,,,31888,,,,,,,32088,,,,,,,32288,,,,,,,32488,,,,,,,32688,,,,,,,32888,,,,,,,33088,,,,,,,33288,,,,,,,33488,,,,,,,33688,,,,,,,33888,,,,,
31089,,,,,,,31289,,,,,,,31489,,,,,,,31689,,,,,,,31889,,,,,,,32089,,,,,,,32289,,,,,,,32489,,,,,,,32689,,,,,,,32889,,,,,,,33089,,,,,,,33289,,,,,,,33489,,,,,,,33689,,,,,,,33889,,,,,
31090,,,,,,,31290,,,,,,,31490,,,,,,,31690,,,,,,,31890,,,,,,,32090,,,,,,,32290,,,,,,,32490,,,,,,,32690,,,,,,,32890,,,,,,,33090,,,,,,,33290,,,,,,,33490,,,,,,,33690,,,,,,,33890,,,,,
2110,,10,130,Min,Max,,2130,,10,130,Min,Max,,2150,,10,130,Min,Max,,2170,,10,132,Min,Max,,2190,,10,132,Min,Max,,2210,,10,132,Min,Max,,2230,,10,134,Min,Max,,2250,,10,134,Min,Max,,2270,,10,134,Min,Max,,2290,,10,136,Min,Max,,2310,,10,136,Min,Max,,2330,,10,136,Min,Max,,2350,,10,138,Min,Max,,2370,,10,138,Min,Max,,2390,,10,138,Min,Max
31091,,,,,,,31291,,,,,,,31491,,,,,,,31691,,,,,,,31891,,,,,,,32091,,,,,,,32291,,,,,,,32491,,,,,,,32691,,,,,,,32891,,,,,,,33091,,,,,,,33291,,,,,,,33491,,,,,,,33691,,,,,,,33891,,,,,
31092,,,,,,,31292,,,,,,,31492,,,,,,,31692,,,,,,,31892,,,,,,,32092,,,,,,,32292,,,,,,,32492,,,,,,,32692,,,,,,,32892,,,,,,,33092,,,,,,,33292,,,,,,,33492,,,,,,,33692,,,,,,,33892,,,,,
31093,,,,,,,31293,,,,,,,31493,,,,,,,31693,,,,,,,31893,,,,,,,32093,,,,,,,32293,,,,,,,32493,,,,,,,32693,,,,,,,32893,,,,,,,33093,,,,,,,33293,,,,,,,33493,,,,,,,33693,,,,,,,33893,,,,,
31094,,,,,,,31294,,,,,,,31494,,,,,,,31694,,,,,,,31894,,,,,,,32094,,,,,,,32294,,,,,,,32494,,,,,,,32694,,,,,,,32894,,,,,,,33094,,,,,,,33294,,,,,,,33494,,,,,,,33694,,,,,,,33894,,,,,
31095,,,,,,,31295,,,,,,,31495,,,,,,,31695,,,,,,,31895,,,,,,,32095,,,,,,,32295,,,,,,,32495,,,,,,,32695,,,,,,,32895,,,,,,,33095,,,,,,,33295,,,,,,,33495,,,,,,,33695,,,,,,,33895,,,,,
31096,,,,,,,31296,,,,,,,31496,,,,,,,31696,,,,,,,31896,,,,,,,32096,,,,,,,32296,,,,,,,32496,,,,,,,32696,,,,,,,32896,,,,,,,33096,,,,,,,33296,,,,,,,33496,,,,,,,33696,,,,,,,33896,,,,,
31097,,,,,,,31297,,,,,,,31497,,,,,,,31697,,,,,,,31897,,,,,,,32097,,,,,,,32297,,,,,,,32497,,,,,,,32697,,,,,,,32897,,,,,,,33097,,,,,,,33297,,,,,,,33497,,,,,,,33697,,,,,,,33897,,,,,
31098,,,,,,,31298,,,,,,,31498,,,,,,,31698,,,,,,,31898,,,,,,,32098,,,,,,,32298,,,,,,,32498,,,,,,,32698,,,,,,,32898,,,,,,,33098,,,,,,,33298,,,,,,,33498,,,,,,,33698,,,,,,,33898,,,,,
31099,,,,,,,31299,,,,,,,31499,,,,,,,31699,,,,,,,31899,,,,,,,32099,,,,,,,32299,,,,,,,32499,,,,,,,32699,,,,,,,32899,,,,,,,33099,,,,,,,33299,,,,,,,33499,,,,,,,33699,,,,,,,33899,,,,,
31100,,,,,,,31300,,,,,,,31500,,,,,,,31700,,,,,,,31900,,,,,,,32100,,,,,,,32300,,,,,,,32500,,,,,,,32700,,,,,,,32900,,,,,,,33100,,,,,,,33300,,,,,,,33500,,,,,,,33700,,,,,,,33900,,,,,
2111,,11,148,Min,Max,,2131,,11,148,Min,Max,,2151,,11,148,Min,Max,,2171,,11,150,Min,Max,,2191,,11,,Min,Max,,2211,,11,,Min,Max,,2231,,11,,Min,Max,,2251,,11,,Min,Max,,2271,,11,,Min,Max,,2291,,11,,Min,Max,,2311,,11,,Min,Max,,2331,,11,,Min,Max,,2351,,11,,Min,Max,,2371,,11,,Min,Max,,2391,,11,,Min,Max
31101,,,,,,,31301,,,,,,,31501,,,,,,,31701,,,,,,,31901,,,,,,,32101,,,,,,,32301,,,,,,,32501,,,,,,,32701,,,,,,,32901,,,,,,,33101,,,,,,,33301,,,,,,,33501,,,,,,,33701,,,,,,,33901,,,,,
31102,,,,,,,31302,,,,,,,31502,,,,,,,31702,,,,,,,31902,,,,,,,32102,,,,,,,32302,,,,,,,32502,,,,,,,32702,,,,,,,32902,,,,,,,33102,,,,,,,33302,,,,,,,33502,,,,,,,33702,,,,,,,33902,,,,,
31103,,,,,,,31303,,,,,,,31503,,,,,,,31703,,,,,,,31903,,,,,,,32103,,,,,,,32303,,,,,,,32503,,,,,,,32703,,,,,,,32903,,,,,,,33103,,,,,,,33303,,,,,,,33503,,,,,,,33703,,,,,,,33903,,,,,
31104,,,,,,,31304,,,,,,,31504,,,,,,,31704,,,,,,,31904,,,,,,,32104,,,,,,,32304,,,,,,,32504,,,,,,,32704,,,,,,,32904,,,,,,,33104,,,,,,,33304,,,,,,,33504,,,,,,,33704,,,,,,,33904,,,,,
31105,,,,,,,31305,,,,,,,31505,,,,,,,31705,,,,,,,31905,,,,,,,32105,,,,,,,32305,,,,,,,32505,,,,,,,32705,,,,,,,32905,,,,,,,33105,,,,,,,33305,,,,,,,33505,,,,,,,33705,,,,,,,33905,,,,,
31106,,,,,,,31306,,,,,,,31506,,,,,,,31706,,,,,,,31906,,,,,,,32106,,,,,,,32306,,,,,,,32506,,,,,,,32706,,,,,,,32906,,,,,,,33106,,,,,,,33306,,,,,,,33506,,,,,,,33706,,,,,,,33906,,,,,
31107,,,,,,,31307,,,,,,,31507,,,,,,,31707,,,,,,,31907,,,,,,,32107,,,,,,,32307,,,,,,,32507,,,,,,,32707,,,,,,,32907,,,,,,,33107,,,,,,,33307,,,,,,,33507,,,,,,,33707,,,,,,,33907,,,,,
31108,,,,,,,31308,,,,,,,31508,,,,,,,31708,,,,,,,31908,,,,,,,32108,,,,,,,32308,,,,,,,32508,,,,,,,32708,,,,,,,32908,,,,,,,33108,,,,,,,33308,,,,,,,33508,,,,,,,33708,,,,,,,33908,,,,,
31109,,,,,,,31309,,,,,,,31509,,,,,,,31709,,,,,,,31909,,,,,,,32109,,,,,,,32309,,,,,,,32509,,,,,,,32709,,,,,,,32909,,,,,,,33109,,,,,,,33309,,,,,,,33509,,,,,,,33709,,,,,,,33909,,,,,
31110,,,,,,,31310,,,,,,,31510,,,,,,,31710,,,,,,,31910,,,,,,,32110,,,,,,,32310,,,,,,,32510,,,,,,,32710,,,,,,,32910,,,,,,,33110,,,,,,,33310,,,,,,,33510,,,,,,,33710,,,,,,,33910,,,,,
2112,,12,,Min,Max,,2132,,12,,Min,Max,,2152,,12,,Min,Max,,2172,,12,,Min,Max,,2192,,12,,Min,Max,,2212,,12,,Min,Max,,2232,,12,,Min,Max,,2252,,12,,Min,Max,,2272,,12,,Min,Max,,2292,,12,,Min,Max,,2312,,12,,Min,Max,,2332,,12,,Min,Max,,2352,,12,,Min,Max,,2372,,12,,Min,Max,,2392,,12,,Min,Max
31111,,,,,,,31311,,,,,,,31511,,,,,,,31711,,,,,,,31911,,,,,,,32111,,,,,,,32311,,,,,,,32511,,,,,,,32711,,,,,,,32911,,,,,,,33111,,,,,,,33311,,,,,,,33511,,,,,,,33711,,,,,,,33911,,,,,
31112,,,,,,,31312,,,,,,,31512,,,,,,,31712,,,,,,,31912,,,,,,,32112,,,,,,,32312,,,,,,,32512,,,,,,,32712,,,,,,,32912,,,,,,,33112,,,,,,,33312,,,,,,,33512,,,,,,,33712,,,,,,,33912,,,,,
31113,,,,,,,31313,,,,,,,31513,,,,,,,31713,,,,,,,31913,,,,,,,32113,,,,,,,32313,,,,,,,32513,,,,,,,32713,,,,,,,32913,,,,,,,33113,,,,,,,33313,,,,,,,33513,,,,,,,33713,,,,,,,33913,,,,,
31114,,,,,,,31314,,,,,,,31514,,,,,,,31714,,,,,,,31914,,,,,,,32114,,,,,,,32314,,,,,,,32514,,,,,,,32714,,,,,,,32914,,,,,,,33114,,,,,,,33314,,,,,,,33514,,,,,,,33714,,,,,,,33914,,,,,
31115,,,,,,,31315,,,,,,,31515,,,,,,,31715,,,,,,,31915,,,,,,,32115,,,,,,,32315,,,,,,,32515,,,,,,,32715,,,,,,,32915,,,,,,,33115,,,,,,,33315,,,,,,,33515,,,,,,,33715,,,,,,,33915,,,,,
31116,,,,,,,31316,,,,,,,31516,,,,,,,31716,,,,,,,31916,,,,,,,32116,,,,,,,32316,,,,,,,32516,,,,,,,32716,,,,,,,32916,,,,,,,33116,,,,,,,33316,,,,,,,33516,,,,,,,33716,,,,,,,33916,,,,,
31117,,,,,,,31317,,,,,,,31517,,,,,,,31717,,,,,,,31917,,,,,,,32117,,,,,,,32317,,,,,,,32517,,,,,,,32717,,,,,,,32917,,,,,,,33117,,,,,,,33317,,,,,,,33517,,,,,,,33717,,,,,,,33917,,,,,
31118,,,,,,,31318,,,,,,,31518,,,,,,,31718,,,,,,,31918,,,,,,,32118,,,,,,,32318,,,,,,,32518,,,,,,,32718,,,,,,,32918,,,,,,,33118,,,,,,,33318,,,,,,,33518,,,,,,,33718,,,,,,,33918,,,,,
31119,,,,,,,31319,,,,,,,31519,,,,,,,31719,,,,,,,31919,,,,,,,32119,,,,,,,32319,,,,,,,32519,,,,,,,32719,,,,,,,32919,,,,,,,33119,,,,,,,33319,,,,,,,33519,,,,,,,33719,,,,,,,33919,,,,,
31120,,,,,,,31320,,,,,,,31520,,,,,,,31720,,,,,,,31920,,,,,,,32120,,,,,,,32320,,,,,,,32520,,,,,,,32720,,,,,,,32920,,,,,,,33120,,,,,,,33320,,,,,,,33520,,,,,,,33720,,,,,,,33920,,,,,
2113,,13,,Min,Max,,2133,,13,,Min,Max,,2153,,13,,Min,Max,,2173,,13,,Min,Max,,2193,,13,,Min,Max,,2213,,13,,Min,Max,,2233,,13,,Min,Max,,2253,,13,,Min,Max,,2273,,13,,Min,Max,,2293,,13,,Min,Max,,2313,,13,,Min,Max,,2333,,13,,Min,Max,,2353,,13,,Min,Max,,2373,,13,,Min,Max,,2393,,13,,Min,Max
31121,,,,,,,31321,,,,,,,31521,,,,,,,31721,,,,,,,31921,,,,,,,32121,,,,,,,32321,,,,,,,32521,,,,,,,32721,,,,,,,32921,,,,,,,33121,,,,,,,33321,,,,,,,33521,,,,,,,33721,,,,,,,33921,,,,,
31122,,,,,,,31322,,,,,,,31522,,,,,,,31722,,,,,,,31922,,,,,,,32122,,,,,,,32322,,,,,,,32522,,,,,,,32722,,,,,,,32922,,,,,,,33122,,,,,,,33322,,,,,,,33522,,,,,,,33722,,,,,,,33922,,,,,
31123,,,,,,,31323,,,,,,,31523,,,,,,,31723,,,,,,,31923,,,,,,,32123,,,,,,,32323,,,,,,,32523,,,,,,,32723,,,,,,,32923,,,,,,,33123,,,,,,,33323,,,,,,,33523,,,,,,,33723,,,,,,,33923,,,,,
31124,,,,,,,31324,,,,,,,31524,,,,,,,31724,,,,,,,31924,,,,,,,32124,,,,,,,32324,,,,,,,32524,,,,,,,32724,,,,,,,32924,,,,,,,33124,,,,,,,33324,,,,,,,33524,,,,,,,33724,,,,,,,33924,,,,,
31125,,,,,,,31325,,,,,,,31525,,,,,,,31725,,,,,,,31925,,,,,,,32125,,,,,,,32325,,,,,,,32525,,,,,,,32725,,,,,,,32925,,,,,,,33125,,,,,,,33325,,,,,,,33525,,,,,,,33725,,,,,,,33925,,,,,
31126,,,,,,,31326,,,,,,,31526,,,,,,,31726,,,,,,,31926,,,,,,,32126,,,,,,,32326,,,,,,,32526,,,,,,,32726,,,,,,,32926,,,,,,,33126,,,,,,,33326,,,,,,,33526,,,,,,,33726,,,,,,,33926,,,,,
31127,,,,,,,31327,,,,,,,31527,,,,,,,31727,,,,,,,31927,,,,,,,32127,,,,,,,32327,,,,,,,32527,,,,,,,32727,,,,,,,32927,,,,,,,33127,,,,,,,33327,,,,,,,33527,,,,,,,33727,,,,,,,33927,,,,,
31128,,,,,,,31328,,,,,,,31528,,,,,,,31728,,,,,,,31928,,,,,,,32128,,,,,,,32328,,,,,,,32528,,,,,,,32728,,,,,,,32928,,,,,,,33128,,,,,,,33328,,,,,,,33528,,,,,,,33728,,,,,,,33928,,,,,
31129,,,,,,,31329,,,,,,,31529,,,,,,,31729,,,,,,,31929,,,,,,,32129,,,,,,,32329,,,,,,,32529,,,,,,,32729,,,,,,,32929,,,,,,,33129,,,,,,,33329,,,,,,,33529,,,,,,,33729,,,,,,,33929,,,,,
31130,,,,,,,31330,,,,,,,31530,,,,,,,31730,,,,,,,31930,,,,,,,32130,,,,,,,32330,,,,,,,32530,,,,,,,32730,,,,,,,32930,,,,,,,33130,,,,,,,33330,,,,,,,33530,,,,,,,33730,,,,,,,33930,,,,,
2114,,14,,Min,Max,,2134,,14,,Min,Max,,2154,,14,,Min,Max,,2174,,14,,Min,Max,,2194,,14,,Min,Max,,2214,,14,,Min,Max,,2234,,14,,Min,Max,,2254,,14,,Min,Max,,2274,,14,,Min,Max,,2294,,14,,Min,Max,,2314,,14,,Min,Max,,2334,,14,,Min,Max,,2354,,14,,Min,Max,,2374,,14,,Min,Max,,2394,,14,,Min,Max
31131,,,,,,,31331,,,,,,,31531,,,,,,,31731,,,,,,,31931,,,,,,,32131,,,,,,,32331,,,,,,,32531,,,,,,,32731,,,,,,,32931,,,,,,,33131,,,,,,,33331,,,,,,,33531,,,,,,,33731,,,,,,,33931,,,,,
31132,,,,,,,31332,,,,,,,31532,,,,,,,31732,,,,,,,31932,,,,,,,32132,,,,,,,32332,,,,,,,32532,,,,,,,32732,,,,,,,32932,,,,,,,33132,,,,,,,33332,,,,,,,33532,,,,,,,33732,,,,,,,33932,,,,,
31133,,,,,,,31333,,,,,,,31533,,,,,,,31733,,,,,,,31933,,,,,,,32133,,,,,,,32333,,,,,,,32533,,,,,,,32733,,,,,,,32933,,,,,,,33133,,,,,,,33333,,,,,,,33533,,,,,,,33733,,,,,,,33933,,,,,
31134,,,,,,,31334,,,,,,,31534,,,,,,,31734,,,,,,,31934,,,,,,,32134,,,,,,,32334,,,,,,,32534,,,,,,,32734,,,,,,,32934,,,,,,,33134,,,,,,,33334,,,,,,,33534,,,,,,,33734,,,,,,,33934,,,,,
31135,,,,,,,31335,,,,,,,31535,,,,,,,31735,,,,,,,31935,,,,,,,32135,,,,,,,32335,,,,,,,32535,,,,,,,32735,,,,,,,32935,,,,,,,33135,,,,,,,33335,,,,,,,33535,,,,,,,33735,,,,,,,33935,,,,,
31136,,,,,,,31336,,,,,,,31536,,,,,,,31736,,,,,,,31936,,,,,,,32136,,,,,,,32336,,,,,,,32536,,,,,,,32736,,,,,,,32936,,,,,,,33136,,,,,,,33336,,,,,,,33536,,,,,,,33736,,,,,,,33936,,,,,
31137,,,,,,,31337,,,,,,,31537,,,,,,,31737,,,,,,,31937,,,,,,,32137,,,,,,,32337,,,,,,,32537,,,,,,,32737,,,,,,,32937,,,,,,,33137,,,,,,,33337,,,,,,,33537,,,,,,,33737,,,,,,,33937,,,,,
31138,,,,,,,31338,,,,,,,31538,,,,,,,31738,,,,,,,31938,,,,,,,32138,,,,,,,32338,,,,,,,32538,,,,,,,32738,,,,,,,32938,,,,,,,33138,,,,,,,33338,,,,,,,33538,,,,,,,33738,,,,,,,33938,,,,,
31139,,,,,,,31339,,,,,,,31539,,,,,,,31739,,,,,,,31939,,,,,,,32139,,,,,,,32339,,,,,,,32539,,,,,,,32739,,,,,,,32939,,,,,,,33139,,,,,,,33339,,,,,,,33539,,,,,,,33739,,,,,,,33939,,,,,
31140,,,,,,,31340,,,,,,,31540,,,,,,,31740,,,,,,,31940,,,,,,,32140,,,,,,,32340,,,,,,,32540,,,,,,,32740,,,,,,,32940,,,,,,,33140,,,,,,,33340,,,,,,,33540,,,,,,,33740,,,,,,,33940,,,,,
2115,,15,,Min,Max,,2135,,15,,Min,Max,,2155,,15,,Min,Max,,2175,,15,,Min,Max,,2195,,15,,Min,Max,,2215,,15,,Min,Max,,2235,,15,,Min,Max,,2255,,15,,Min,Max,,2275,,15,,Min,Max,,2295,,15,,Min,Max,,2315,,15,,Min,Max,,2335,,15,,Min,Max,,2355,,15,,Min,Max,,2375,,15,,Min,Max,,2395,,15,,Min,Max
31141,,,,,,,31341,,,,,,,31541,,,,,,,31741,,,,,,,31941,,,,,,,32141,,,,,,,32341,,,,,,,32541,,,,,,,32741,,,,,,,32941,,,,,,,33141,,,,,,,33341,,,,,,,33541,,,,,,,33741,,,,,,,33941,,,,,
31142,,,,,,,31342,,,,,,,31542,,,,,,,31742,,,,,,,31942,,,,,,,32142,,,,,,,32342,,,,,,,32542,,,,,,,32742,,,,,,,32942,,,,,,,33142,,,,,,,33342,,,,,,,33542,,,,,,,33742,,,,,,,33942,,,,,
31143,,,,,,,31343,,,,,,,31543,,,,,,,31743,,,,,,,31943,,,,,,,32143,,,,,,,32343,,,,,,,32543,,,,,,,32743,,,,,,,32943,,,,,,,33143,,,,,,,33343,,,,,,,33543,,,,,,,33743,,,,,,,33943,,,,,
31144,,,,,,,31344,,,,,,,31544,,,,,,,31744,,,,,,,31944,,,,,,,32144,,,,,,,32344,,,,,,,32544,,,,,,,32744,,,,,,,32944,,,,,,,33144,,,,,,,33344,,,,,,,33544,,,,,,,33744,,,,,,,33944,,,,,
31145,,,,,,,31345,,,,,,,31545,,,,,,,31745,,,,,,,31945,,,,,,,32145,,,,,,,32345,,,,,,,32545,,,,,,,32745,,,,,,,32945,,,,,,,33145,,,,,,,33345,,,,,,,33545,,,,,,,33745,,,,,,,33945,,,,,
31146,,,,,,,31346,,,,,,,31546,,,,,,,31746,,,,,,,31946,,,,,,,32146,,,,,,,32346,,,,,,,32546,,,,,,,32746,,,,,,,32946,,,,,,,33146,,,,,,,33346,,,,,,,33546,,,,,,,33746,,,,,,,33946,,,,,
31147,,,,,,,31347,,,,,,,31547,,,,,,,31747,,,,,,,31947,,,,,,,32147,,,,,,,32347,,,,,,,32547,,,,,,,32747,,,,,,,32947,,,,,,,33147,,,,,,,33347,,,,,,,33547,,,,,,,33747,,,,,,,33947,,,,,
31148,,,,,,,31348,,,,,,,31548,,,,,,,31748,,,,,,,31948,,,,,,,32148,,,,,,,32348,,,,,,,32548,,,,,,,32748,,,,,,,32948,,,,,,,33148,,,,,,,33348,,,,,,,33548,,,,,,,33748,,,,,,,33948,,,,,
31149,,,,,,,31349,,,,,,,31549,,,,,,,31749,,,,,,,31949,,,,,,,32149,,,,,,,32349,,,,,,,32549,,,,,,,32749,,,,,,,32949,,,,,,,33149,,,,,,,33349,,,,,,,33549,,,,,,,33749,,,,,,,33949,,,,,
31150,,,,,,,31350,,,,,,,31550,,,,,,,31750,,,,,,,31950,,,,,,,32150,,,,,,,32350,,,,,,,32550,,,,,,,32750,,,,,,,32950,,,,,,,33150,,,,,,,33350,,,,,,,33550,,,,,,,33750,,,,,,,33950,,,,,
2116,,16,,Min,Max,,2136,,16,,Min,Max,,2156,,16,,Min,Max,,2176,,16,,Min,Max,,2196,,16,,Min,Max,,2216,,16,,Min,Max,,2236,,16,,Min,Max,,2256,,16,,Min,Max,,2276,,16,,Min,Max,,2296,,16,,Min,Max,,2316,,16,,Min,Max,,2336,,16,,Min,Max,,2356,,16,,Min,Max,,2376,,16,,Min,Max,,2396,,16,,Min,Max
31151,,,,,,,31351,,,,,,,31551,,,,,,,31751,,,,,,,31951,,,,,,,32151,,,,,,,32351,,,,,,,32551,,,,,,,32751,,,,,,,32951,,,,,,,33151,,,,,,,33351,,,,,,,33551,,,,,,,33751,,,,,,,33951,,,,,
31152,,,,,,,31352,,,,,,,31552,,,,,,,31752,,,,,,,31952,,,,,,,32152,,,,,,,32352,,,,,,,32552,,,,,,,32752,,,,,,,32952,,,,,,,33152,,,,,,,33352,,,,,,,33552,,,,,,,33752,,,,,,,33952,,,,,
31153,,,,,,,31353,,,,,,,31553,,,,,,,31753,,,,,,,31953,,,,,,,32153,,,,,,,32353,,,,,,,32553,,,,,,,32753,,,,,,,32953,,,,,,,33153,,,,,,,33353,,,,,,,33553,,,,,,,33753,,,,,,,33953,,,,,
31154,,,,,,,31354,,,,,,,31554,,,,,,,31754,,,,,,,31954,,,,,,,32154,,,,,,,32354,,,,,,,32554,,,,,,,32754,,,,,,,32954,,,,,,,33154,,,,,,,33354,,,,,,,33554,,,,,,,33754,,,,,,,33954,,,,,
31155,,,,,,,31355,,,,,,,31555,,,,,,,31755,,,,,,,31955,,,,,,,32155,,,,,,,32355,,,,,,,32555,,,,,,,32755,,,,,,,32955,,,,,,,33155,,,,,,,33355,,,,,,,33555,,,,,,,33755,,,,,,,33955,,,,,
31156,,,,,,,31356,,,,,,,31556,,,,,,,31756,,,,,,,31956,,,,,,,32156,,,,,,,32356,,,,,,,32556,,,,,,,32756,,,,,,,32956,,,,,,,33156,,,,,,,33356,,,,,,,33556,,,,,,,33756,,,,,,,33956,,,,,
31157,,,,,,,31357,,,,,,,31557,,,,,,,31757,,,,,,,31957,,,,,,,32157,,,,,,,32357,,,,,,,32557,,,,,,,32757,,,,,,,32957,,,,,,,33157,,,,,,,33357,,,,,,,33557,,,,,,,33757,,,,,,,33957,,,,,
31158,,,,,,,31358,,,,,,,31558,,,,,,,31758,,,,,,,31958,,,,,,,32158,,,,,,,32358,,,,,,,32558,,,,,,,32758,,,,,,,32958,,,,,,,33158,,,,,,,33358,,,,,,,33558,,,,,,,33758,,,,,,,33958,,,,,
31159,,,,,,,31359,,,,,,,31559,,,,,,,31759,,,,,,,31959,,,,,,,32159,,,,,,,32359,,,,,,,32559,,,,,,,32759,,,,,,,32959,,,,,,,33159,,,,,,,33359,,,,,,,33559,,,,,,,33759,,,,,,,33959,,,,,
31160,,,,,,,31360,,,,,,,31560,,,,,,,31760,,,,,,,31960,,,,,,,32160,,,,,,,32360,,,,,,,32560,,,,,,,32760,,,,,,,32960,,,,,,,33160,,,,,,,33360,,,,,,,33560,,,,,,,33760,,,,,,,33960,,,,,
2117,,17,,Min,Max,,2137,,17,,Min,Max,,2157,,17,,Min,Max,,2177,,17,,Min,Max,,2197,,17,,Min,Max,,2217,,17,,Min,Max,,2237,,17,,Min,Max,,2257,,17,,Min,Max,,2277,,17,,Min,Max,,2297,,17,,Min,Max,,2317,,17,,Min,Max,,2337,,17,,Min,Max,,2357,,17,,Min,Max,,2377,,17,,Min,Max,,2397,,17,,Min,Max
31161,,,,,,,31361,,,,,,,31561,,,,,,,31761,,,,,,,31961,,,,,,,32161,,,,,,,32361,,,,,,,32561,,,,,,,32761,,,,,,,32961,,,,,,,33161,,,,,,,33361,,,,,,,33561,,,,,,,33761,,,,,,,33961,,,,,
31162,,,,,,,31362,,,,,,,31562,,,,,,,31762,,,,,,,31962,,,,,,,32162,,,,,,,32362,,,,,,,32562,,,,,,,32762,,,,,,,32962,,,,,,,33162,,,,,,,33362,,,,,,,33562,,,,,,,33762,,,,,,,33962,,,,,
31163,,,,,,,31363,,,,,,,31563,,,,,,,31763,,,,,,,31963,,,,,,,32163,,,,,,,32363,,,,,,,32563,,,,,,,32763,,,,,,,32963,,,,,,,33163,,,,,,,33363,,,,,,,33563,,,,,,,33763,,,,,,,33963,,,,,
31164,,,,,,,31364,,,,,,,31564,,,,,,,31764,,,,,,,31964,,,,,,,32164,,,,,,,32364,,,,,,,32564,,,,,,,32764,,,,,,,32964,,,,,,,33164,,,,,,,33364,,,,,,,33564,,,,,,,33764,,,,,,,33964,,,,,
31165,,,,,,,31365,,,,,,,31565,,,,,,,31765,,,,,,,31965,,,,,,,32165,,,,,,,32365,,,,,,,32565,,,,,,,32765,,,,,,,32965,,,,,,,33165,,,,,,,33365,,,,,,,33565,,,,,,,33765,,,,,,,33965,,,,,
31166,,,,,,,31366,,,,,,,31566,,,,,,,31766,,,,,,,31966,,,,,,,32166,,,,,,,32366,,,,,,,32566,,,,,,,32766,,,,,,,32966,,,,,,,33166,,,,,,,33366,,,,,,,33566,,,,,,,33766,,,,,,,33966,,,,,
31167,,,,,,,31367,,,,,,,31567,,,,,,,31767,,,,,,,31967,,,,,,,32167,,,,,,,32367,,,,,,,32567,,,,,,,32767,,,,,,,32967,,,,,,,33167,,,,,,,33367,,,,,,,33567,,,,,,,33767,,,,,,,33967,,,,,
31168,,,,,,,31368,,,,,,,31568,,,,,,,31768,,,,,,,31968,,,,,,,32168,,,,,,,32368,,,,,,,32568,,,,,,,32768,,,,,,,32968,,,,,,,33168,,,,,,,33368,,,,,,,33568,,,,,,,33768,,,,,,,33968,,,,,
31169,,,,,,,31369,,,,,,,31569,,,,,,,31769,,,,,,,31969,,,,,,,32169,,,,,,,32369,,,,,,,32569,,,,,,,32769,,,,,,,32969,,,,,,,33169,,,,,,,33369,,,,,,,33569,,,,,,,33769,,,,,,,33969,,,,,
31170,,,,,,,31370,,,,,,,31570,,,,,,,31770,,,,,,,31970,,,,,,,32170,,,,,,,32370,,,,,,,32570,,,,,,,32770,,,,,,,32970,,,,,,,33170,,,,,,,33370,,,,,,,33570,,,,,,,33770,,,,,,,33970,,,,,
2118,,18,,Min,Max,,2138,,18,,Min,Max,,2158,,18,,Min,Max,,2178,,18,,Min,Max,,2198,,18,,Min,Max,,2218,,18,,Min,Max,,2238,,18,,Min,Max,,2258,,18,,Min,Max,,2278,,18,,Min,Max,,2298,,18,,Min,Max,,2318,,18,,Min,Max,,2338,,18,,Min,Max,,2358,,18,,Min,Max,,2378,,18,,Min,Max,,2398,,18,,Min,Max
31171,,,,,,,31371,,,,,,,31571,,,,,,,31771,,,,,,,31971,,,,,,,32171,,,,,,,32371,,,,,,,32571,,,,,,,32771,,,,,,,32971,,,,,,,33171,,,,,,,33371,,,,,,,33571,,,,,,,33771,,,,,,,33971,,,,,
31172,,,,,,,31372,,,,,,,31572,,,,,,,31772,,,,,,,31972,,,,,,,32172,,,,,,,32372,,,,,,,32572,,,,,,,32772,,,,,,,32972,,,,,,,33172,,,,,,,33372,,,,,,,33572,,,,,,,33772,,,,,,,33972,,,,,
31173,,,,,,,31373,,,,,,,31573,,,,,,,31773,,,,,,,31973,,,,,,,32173,,,,,,,32373,,,,,,,32573,,,,,,,32773,,,,,,,32973,,,,,,,33173,,,,,,,33373,,,,,,,33573,,,,,,,33773,,,,,,,33973,,,,,
31174,,,,,,,31374,,,,,,,31574,,,,,,,31774,,,,,,,31974,,,,,,,32174,,,,,,,32374,,,,,,,32574,,,,,,,32774,,,,,,,32974,,,,,,,33174,,,,,,,33374,,,,,,,33574,,,,,,,33774,,,,,,,33974,,,,,
31175,,,,,,,31375,,,,,,,31575,,,,,,,31775,,,,,,,31975,,,,,,,32175,,,,,,,32375,,,,,,,32575,,,,,,,32775,,,,,,,32975,,,,,,,33175,,,,,,,33375,,,,,,,33575,,,,,,,33775,,,,,,,33975,,,,,
31176,,,,,,,31376,,,,,,,31576,,,,,,,31776,,,,,,,31976,,,,,,,32176,,,,,,,32376,,,,,,,32576,,,,,,,32776,,,,,,,32976,,,,,,,33176,,,,,,,33376,,,,,,,33576,,,,,,,33776,,,,,,,33976,,,,,
31177,,,,,,,31377,,,,,,,31577,,,,,,,31777,,,,,,,31977,,,,,,,32177,,,,,,,32377,,,,,,,32577,,,,,,,32777,,,,,,,32977,,,,,,,33177,,,,,,,33377,,,,,,,33577,,,,,,,33777,,,,,,,33977,,,,,
31178,,,,,,,31378,,,,,,,31578,,,,,,,31778,,,,,,,31978,,,,,,,32178,,,,,,,32378,,,,,,,32578,,,,,,,32778,,,,,,,32978,,,,,,,33178,,,,,,,33378,,,,,,,33578,,,,,,,33778,,,,,,,33978,,,,,
31179,,,,,,,31379,,,,,,,31579,,,,,,,31779,,,,,,,31979,,,,,,,32179,,,,,,,32379,,,,,,,32579,,,,,,,32779,,,,,,,32979,,,,,,,33179,,,,,,,33379,,,,,,,33579,,,,,,,33779,,,,,,,33979,,,,,
31180,,,,,,,31380,,,,,,,31580,,,,,,,31780,,,,,,,31980,,,,,,,32180,,,,,,,32380,,,,,,,32580,,,,,,,32780,,,,,,,32980,,,,,,,33180,,,,,,,33380,,,,,,,33580,,,,,,,33780,,,,,,,33980,,,,,
2119,,19,,Min,Max,,2139,,19,,Min,Max,,2159,,19,,Min,Max,,2179,,19,,Min,Max,,2199,,19,,Min,Max,,2219,,19,,Min,Max,,2239,,19,,Min,Max,,2259,,19,,Min,Max,,2279,,19,,Min,Max,,2299,,19,,Min,Max,,2319,,19,,Min,Max,,2339,,19,,Min,Max,,2359,,19,,Min,Max,,2379,,19,,Min,Max,,2399,,19,,Min,Max
31181,,,,,,,31381,,,,,,,31581,,,,,,,31781,,,,,,,31981,,,,,,,32181,,,,,,,32381,,,,,,,32581,,,,,,,32781,,,,,,,32981,,,,,,,33181,,,,,,,33381,,,,,,,33581,,,,,,,33781,,,,,,,33981,,,,,
31182,,,,,,,31382,,,,,,,31582,,,,,,,31782,,,,,,,31982,,,,,,,32182,,,,,,,32382,,,,,,,32582,,,,,,,32782,,,,,,,32982,,,,,,,33182,,,,,,,33382,,,,,,,33582,,,,,,,33782,,,,,,,33982,,,,,
31183,,,,,,,31383,,,,,,,31583,,,,,,,31783,,,,,,,31983,,,,,,,32183,,,,,,,32383,,,,,,,32583,,,,,,,32783,,,,,,,32983,,,,,,,33183,,,,,,,33383,,,,,,,33583,,,,,,,33783,,,,,,,33983,,,,,
31184,,,,,,,31384,,,,,,,31584,,,,,,,31784,,,,,,,31984,,,,,,,32184,,,,,,,32384,,,,,,,32584,,,,,,,32784,,,,,,,32984,,,,,,,33184,,,,,,,33384,,,,,,,33584,,,,,,,33784,,,,,,,33984,,,,,
31185,,,,,,,31385,,,,,,,31585,,,,,,,31785,,,,,,,31985,,,,,,,32185,,,,,,,32385,,,,,,,32585,,,,,,,32785,,,,,,,32985,,,,,,,33185,,,,,,,33385,,,,,,,33585,,,,,,,33785,,,,,,,33985,,,,,
31186,,,,,,,31386,,,,,,,31586,,,,,,,31786,,,,,,,31986,,,,,,,32186,,,,,,,32386,,,,,,,32586,,,,,,,32786,,,,,,,32986,,,,,,,33186,,,,,,,33386,,,,,,,33586,,,,,,,33786,,,,,,,33986,,,,,
31187,,,,,,,31387,,,,,,,31587,,,,,,,31787,,,,,,,31987,,,,,,,32187,,,,,,,32387,,,,,,,32587,,,,,,,32787,,,,,,,32987,,,,,,,33187,,,,,,,33387,,,,,,,33587,,,,,,,33787,,,,,,,33987,,,,,
31188,,,,,,,31388,,,,,,,31588,,,,,,,31788,,,,,,,31988,,,,,,,32188,,,,,,,32388,,,,,,,32588,,,,,,,32788,,,,,,,32988,,,,,,,33188,,,,,,,33388,,,,,,,33588,,,,,,,33788,,,,,,,33988,,,,,
31189,,,,,,,31389,,,,,,,31589,,,,,,,31789,,,,,,,31989,,,,,,,32189,,,,,,,32389,,,,,,,32589,,,,,,,32789,,,,,,,32989,,,,,,,33189,,,,,,,33389,,,,,,,33589,,,,,,,33789,,,,,,,33989,,,,,
31190,,,,,,,31390,,,,,,,31590,,,,,,,31790,,,,,,,31990,,,,,,,32190,,,,,,,32390,,,,,,,32590,,,,,,,32790,,,,,,,32990,,,,,,,33190,,,,,,,33390,,,,,,,33590,,,,,,,33790,,,,,,,33990,,,,,
2120,,20,,Min,Max,,2140,,20,,Min,Max,,2160,,20,,Min,Max,,2180,,20,,Min,Max,,2200,,20,,Min,Max,,2220,,20,,Min,Max,,2240,,20,,Min,Max,,2260,,20,,Min,Max,,2280,,20,,Min,Max,,2300,,20,,Min,Max,,2320,,20,,Min,Max,,2340,,20,,Min,Max,,2360,,20,,Min,Max,,2380,,20,,Min,Max,,2400,,20,,Min,Max
31191,,,,,,,31391,,,,,,,31591,,,,,,,31791,,,,,,,31991,,,,,,,32191,,,,,,,32391,,,,,,,32591,,,,,,,32791,,,,,,,32991,,,,,,,33191,,,,,,,33391,,,,,,,33591,,,,,,,33791,,,,,,,33991,,,,,
31192,,,,,,,31392,,,,,,,31592,,,,,,,31792,,,,,,,31992,,,,,,,32192,,,,,,,32392,,,,,,,32592,,,,,,,32792,,,,,,,32992,,,,,,,33192,,,,,,,33392,,,,,,,33592,,,,,,,33792,,,,,,,33992,,,,,
31193,,,,,,,31393,,,,,,,31593,,,,,,,31793,,,,,,,31993,,,,,,,32193,,,,,,,32393,,,,,,,32593,,,,,,,32793,,,,,,,32993,,,,,,,33193,,,,,,,33393,,,,,,,33593,,,,,,,33793,,,,,,,33993,,,,,
31194,,,,,,,31394,,,,,,,31594,,,,,,,31794,,,,,,,31994,,,,,,,32194,,,,,,,32394,,,,,,,32594,,,,,,,32794,,,,,,,32994,,,,,,,33194,,,,,,,33394,,,,,,,33594,,,,,,,33794,,,,,,,33994,,,,,
31195,,,,,,,31395,,,,,,,31595,,,,,,,31795,,,,,,,31995,,,,,,,32195,,,,,,,32395,,,,,,,32595,,,,,,,32795,,,,,,,32995,,,,,,,33195,,,,,,,33395,,,,,,,33595,,,,,,,33795,,,,,,,33995,,,,,
31196,,,,,,,31396,,,,,,,31596,,,,,,,31796,,,,,,,31996,,,,,,,32196,,,,,,,32396,,,,,,,32596,,,,,,,32796,,,,,,,32996,,,,,,,33196,,,,,,,33396,,,,,,,33596,,,,,,,33796,,,,,,,33996,,,,,
31197,,,,,,,31397,,,,,,,31597,,,,,,,31797,,,,,,,31997,,,,,,,32197,,,,,,,32397,,,,,,,32597,,,,,,,32797,,,,,,,32997,,,,,,,33197,,,,,,,33397,,,,,,,33597,,,,,,,33797,,,,,,,33997,,,,,
31198,,,,,,,31398,,,,,,,31598,,,,,,,31798,,,,,,,31998,,,,,,,32198,,,,,,,32398,,,,,,,32598,,,,,,,32798,,,,,,,32998,,,,,,,33198,,,,,,,33398,,,,,,,33598,,,,,,,33798,,,,,,,33998,,,,,
31199,,,,,,,31399,,,,,,,31599,,,,,,,31799,,,,,,,31999,,,,,,,32199,,,,,,,32399,,,,,,,32599,,,,,,,32799,,,,,,,32999,,,,,,,33199,,,,,,,33399,,,,,,,33599,,,,,,,33799,,,,,,,33999,,,,,
31200,,,,,,,31400,,,,,,,31600,,,,,,,31800,,,,,,,32000,,,,,,,32200,,,,,,,32400,,,,,,,32600,,,,,,,32800,,,,,,,33000,,,,,,,33200,,,,,,,33400,,,,,,,33600,,,,,,,33800,,,,,,,34000,,,,,
